1, 1, 1, -1, 264.00, 224.00, 13.00, 21, ABaraapp
2, 2, 2, -1, 293.00, 207.00, 11.00, 21, ABaraapa
3, 3, 3, -1, 293.00, 185.00, 18.00, 19, ABaraaap
4, 4, 4, -1, 311.00, 189.00, 13.00, 17, ABaraaaa
5, 5, 5, -1, 238.00, 186.00, 13.00, 21, ABarapap
6, 6, 6, -1, 265.00, 171.00, 14.00, 19, ABarapaa
7, 7, 7, -1, 205.00, 226.00, 13.00, 19, ABarappp
8, 8, 8, -1, 219.00, 200.00, 11.00, 21, ABarappa
9, 9, 9, -1, 230.00, 224.00, 21.00, 21, ABarpapp
10, 10, 10, -1, 254.00, 199.00, 20.00, 21, ABarpapa
11, 11, 11, -1, 260.00, 172.00, 30.00, 25, ABarpaap
12, 12, 12, -1, 265.00, 157.00, 22.00, 21, ABarpaaa
13, 13, 13, -1, 224.00, 178.00, 28.00, 21, ABarppaa
14, 14, 14, -1, 204.00, 210.00, 29.00, 21, ABarppap
15, 15, 15, -1, 168.00, 238.00, 26.00, 19, ABarpppp
16, 16, 16, -1, 194.00, 207.00, 23.00, 19, ABarpppa
17, 17, 17, -1, 267.00, 231.00, 25.00, 19, ABalappp
18, 18, 18, -1, 291.00, 213.00, 23.00, 15, ABalappa
19, 19, 19, -1, 291.00, 184.00, 27.00, 19, ABalapap
20, 20, 20, -1, 315.00, 164.00, 24.00, 21, ABalapaa
21, 21, 21, 22, 314.00, 222.00, 21.00, 21, ABalaap
22, 22, 23, -1, 341.00, 194.00, 17.00, 17, ABalaaaa
23, 22, 24, -1, 327.00, 187.00, 21.00, 19, ABalaaap
24, 23, 25, -1, 172.00, 351.00, 21.00, 21, ABplpppp
25, 24, 26, -1, 205.00, 349.00, 25.00, 21, ABplpppa
26, 25, 27, -1, 221.00, 331.00, 29.00, 19, ABplppap
27, 26, 28, -1, 251.00, 325.00, 30.00, 19, ABplppaa
28, 27, 29, -1, 216.00, 340.00, 18.00, 21, ABplpapp
29, 28, 30, -1, 251.00, 338.00, 20.00, 19, ABplpapa
30, 29, 31, -1, 302.00, 309.00, 24.00, 19, ABplpaaa
31, 30, 32, -1, 270.00, 320.00, 25.00, 19, ABplpaap
32, 31, 33, -1, 286.00, 267.00, 31.00, 25, ABplaapp
33, 32, 34, -1, 332.00, 231.00, 30.00, 25, ABplaapa
34, 33, 35, -1, 353.00, 200.00, 28.00, 19, ABplaaaa
35, 34, 36, -1, 315.00, 202.00, 31.00, 21, ABplaaap
36, 35, 37, -1, 214.00, 301.00, 30.00, 21, ABplappp
37, 36, 38, -1, 251.00, 283.00, 31.00, 21, ABplappa
38, 37, 39, -1, 290.00, 215.00, 33.00, 19, ABplapaa
39, 38, 40, -1, 243.00, 231.00, 32.00, 23, ABplapap
40, 39, 41, -1, 124.00, 245.00, 11.00, 23, ABprpapa
41, 40, 42, -1, 114.00, 280.00, 12.00, 19, ABprpapp
42, 41, 43, -1, 146.00, 203.00, 13.00, 19, ABprpaaa
43, 42, 44, -1, 122.00, 222.00, 16.00, 19, ABprpaap
44, 43, 45, -1, 78.00, 284.00, 15.00, 19, ABprpppa
45, 44, 46, -1, 92.00, 313.00, 16.00, 19, ABprpppp
46, 45, 47, -1, 95.00, 246.00, 15.00, 17, ABprppaa
47, 45, 48, -1, 90.00, 257.00, 16.00, 19, ABprppap
48, 46, 49, -1, 182.00, 191.00, 14.00, 23, ABpraapa
49, 47, 50, -1, 165.00, 224.00, 19.00, 23, ABpraapp
50, 48, 51, -1, 194.00, 183.00, 21.00, 17, ABpraaap
51, 48, 52, -1, 218.00, 171.00, 19.00, 17, ABpraaaa
52, 49, 53, -1, 99.00, 238.00, 24.00, 21, ABprappa
53, 50, 54, -1, 99.00, 276.00, 24.00, 23, ABprappp
54, 51, 55, -1, 151.00, 190.00, 23.00, 21, ABprapaa
55, 52, 56, -1, 134.00, 217.00, 27.00, 23, ABprapap
56, 53, 57, -1, 153.00, 276.00, 10.00, 25, MSppp
57, 54, 58, -1, 179.00, 237.00, 11.00, 27, MSppa
58, 55, 59, -1, 211.00, 289.00, 11.00, 27, MSpap
59, 56, 60, -1, 248.00, 252.00, 13.00, 25, MSpaa
60, 57, 61, -1, 236.00, 317.00, 12.00, 25, MSapp
61, 58, 62, -1, 275.00, 303.00, 14.00, 25, MSapa
62, 59, 63, -1, 317.00, 243.00, 12.00, 29, MSaaa
63, 60, 64, -1, 279.00, 269.00, 11.00, 27, MSaap
64, 61, 65, -1, 228.00, 293.00, 21.00, 29, Eal
65, 62, 66, -1, 165.00, 306.00, 23.00, 31, Epl
66, 63, 67, -1, 150.00, 335.00, 29.00, 19, Capp
67, 64, 68, -1, 186.00, 335.00, 31.00, 19, Capa
68, 65, 69, -1, 207.00, 251.00, 30.00, 25, Caaa
69, 66, 70, -1, 166.00, 301.00, 31.00, 23, Caap
70, 67, 71, -1, 117.00, 310.00, 32.00, 27, Cpap
71, 68, 72, -1, 135.00, 254.00, 32.00, 25, Cpaa
72, 69, 73, -1, 75.00, 303.00, 23.00, 23, Cppa
73, 70, 74, -1, 106.00, 343.00, 25.00, 25, Cppp
74, 71, 75, -1, 140.00, 355.00, 20.00, 27, Da
75, 72, 76, -1, 118.00, 335.00, 15.00, 25, Dp
76, 73, 77, -1, 156.00, 321.00, 13.00, 29, P4
78, 75, 79, -1, 276.00, 282.00, 22.00, 21, ABalpppp
79, 76, 80, -1, 313.00, 275.00, 25.00, 19, ABalpppa
80, 77, 81, -1, 365.00, 253.00, 25.00, 17, ABalppaa
81, 78, 82, -1, 342.00, 269.00, 27.00, 19, ABalppap
82, 79, 83, -1, 356.00, 258.00, 15.00, 21, ABalpapa
83, 80, 84, -1, 315.00, 278.00, 16.00, 21, ABalpapp
84, 81, 85, -1, 354.00, 217.00, 15.00, 21, ABalpaaa
85, 82, 86, -1, 355.00, 235.00, 21.00, 21, ABalpaap
86, 83, 87, -1, 130.00, 280.00, 20.00, 31, Epr
87, 84, 88, -1, 186.00, 262.00, 17.00, 31, Ear
