1, 1, 1, -1, 273.00, 205.00, 10.00, 21, ABaraapp
2, 2, 2, -1, 309.00, 196.00, 11.00, 23, ABaraapa
3, 3, 3, -1, 289.00, 187.00, 18.00, 23, ABaraaap
4, 4, 4, -1, 335.00, 189.00, 15.00, 21, ABaraaaa
5, 5, 5, -1, 236.00, 177.00, 13.00, 21, ABarapap
6, 6, 6, -1, 273.00, 173.00, 13.00, 21, ABarapaa
7, 7, 7, -1, 192.00, 213.00, 15.00, 21, ABarappp
8, 8, 8, -1, 210.00, 191.00, 12.00, 21, ABarappa
9, 9, 9, -1, 221.00, 209.00, 20.00, 23, ABarpapp
10, 10, 10, -1, 255.00, 185.00, 21.00, 23, ABarpapa
11, 11, 11, -1, 248.00, 180.00, 29.00, 23, ABarpaap
12, 12, 12, -1, 273.00, 160.00, 23.00, 21, ABarpaaa
13, 13, 13, -1, 218.00, 186.00, 31.00, 23, ABarppaa
14, 14, 14, -1, 212.00, 226.00, 28.00, 23, ABarppap
15, 15, 15, -1, 154.00, 244.00, 26.00, 21, ABarpppp
16, 16, 16, -1, 184.00, 205.00, 25.00, 23, ABarpppa
17, 17, 17, -1, 259.00, 219.00, 26.00, 23, ABalappp
18, 18, 18, -1, 302.00, 207.00, 26.00, 21, ABalappa
19, 19, 19, -1, 287.00, 177.00, 29.00, 21, ABalapap
20, 20, 20, -1, 321.00, 170.00, 26.00, 21, ABalapaa
21, 21, 21, -1, 326.00, 214.00, 18.00, 21, ABalaapa
22, 22, 22, -1, 284.00, 227.00, 21.00, 23, ABalaapp
23, 23, 23, -1, 359.00, 203.00, 18.00, 23, ABalaaaa
24, 24, 24, -1, 328.00, 193.00, 22.00, 21, ABalaaap
25, 25, 25, -1, 188.00, 355.00, 22.00, 23, ABplpppp
26, 26, 26, -1, 213.00, 348.00, 27.00, 21, ABplpppa
27, 27, 27, -1, 226.00, 329.00, 31.00, 21, ABplppap
28, 28, 28, -1, 260.00, 312.00, 31.00, 23, ABplppaa
29, 29, 29, -1, 225.00, 339.00, 22.00, 25, ABplpapp
30, 30, 30, -1, 265.00, 331.00, 25.00, 21, ABplpapa
31, 31, 31, -1, 312.00, 301.00, 25.00, 23, ABplpaaa
32, 32, 32, -1, 283.00, 313.00, 29.00, 23, ABplpaap
33, 33, 33, -1, 283.00, 261.00, 32.00, 25, ABplaapp
34, 34, 34, -1, 330.00, 239.00, 32.00, 23, ABplaapa
35, 35, 35, -1, 346.00, 212.00, 29.00, 23, ABplaaaa
36, 36, 36, -1, 311.00, 206.00, 33.00, 23, ABplaaap
37, 37, 37, -1, 211.00, 306.00, 30.00, 21, ABplappp
38, 38, 38, -1, 246.00, 279.00, 30.00, 23, ABplappa
39, 39, 39, -1, 286.00, 223.00, 33.00, 23, ABplapaa
40, 40, 40, -1, 241.00, 239.00, 31.00, 21, ABplapap
41, 41, 41, -1, 133.00, 232.00, 11.00, 23, ABprpapa
42, 42, 42, -1, 108.00, 269.00, 12.00, 21, ABprpapp
43, 43, 43, -1, 152.00, 202.00, 11.00, 21, ABprpaaa
44, 44, 44, -1, 114.00, 223.00, 16.00, 21, ABprpaap
45, 45, 45, -1, 67.00, 295.00, 15.00, 21, ABprpppa
46, 46, 46, -1, 103.00, 310.00, 12.00, 21, ABprpppp
47, 47, 47, -1, 92.00, 238.00, 14.00, 21, ABprppaa
48, 48, 48, -1, 80.00, 271.00, 18.00, 21, ABprppap
49, 49, 49, -1, 177.00, 185.00, 14.00, 21, ABpraapa
50, 50, 50, -1, 146.00, 211.00, 21.00, 25, ABpraapp
51, 51, 51, -1, 182.00, 179.00, 23.00, 23, ABpraaap
52, 52, 52, -1, 223.00, 165.00, 20.00, 21, ABpraaaa
53, 53, 53, -1, 98.00, 240.00, 21.00, 23, ABprappa
54, 54, 54, -1, 89.00, 287.00, 22.00, 25, ABprappp
55, 55, 55, -1, 153.00, 196.00, 27.00, 21, ABprapaa
56, 56, 56, -1, 117.00, 229.00, 27.00, 23, ABprapap
57, 57, 57, -1, 154.00, 272.00, 12.00, 25, MSppp
58, 58, 58, -1, 178.00, 242.00, 11.00, 25, MSppa
59, 59, 59, -1, 224.00, 264.00, 12.00, 17, MSpapa
60, 60, 60, -1, 195.00, 292.00, 12.00, 19, MSpapp
61, 61, 61, -1, 259.00, 222.00, 14.00, 17, MSpaaa
62, 61, 62, -1, 239.00, 240.00, 14.00, 17, MSpaap
63, 62, 63, -1, 223.00, 326.00, 14.00, 27, MSapp
64, 63, 64, -1, 274.00, 312.00, 17.00, 29, MSapa
65, 64, 65, -1, 319.00, 244.00, 14.00, 17, MSaaaa
66, 64, 66, -1, 290.00, 253.00, 12.00, 19, MSaaap
67, 65, 67, -1, 249.00, 284.00, 13.00, 17, MSaapp
68, 65, 68, -1, 272.00, 275.00, 13.00, 17, MSaapa
69, 66, 69, -1, 235.00, 280.00, 22.00, 31, Eal
70, 67, 70, -1, 170.00, 303.00, 22.00, 27, Epl
71, 68, 71, -1, 144.00, 348.00, 28.00, 23, Capp
72, 69, 72, -1, 187.00, 331.00, 30.00, 23, Capa
73, 70, 73, -1, 189.00, 254.00, 30.00, 25, Caaa
74, 71, 74, -1, 153.00, 308.00, 33.00, 23, Caap
75, 72, 75, -1, 106.00, 316.00, 30.00, 27, Cpap
76, 73, 76, -1, 128.00, 265.00, 30.00, 25, Cpaa
77, 74, 77, -1, 83.00, 323.00, 21.00, 25, Cppa
78, 75, 78, -1, 110.00, 350.00, 24.00, 27, Cppp
79, 76, 79, -1, 158.00, 352.00, 19.00, 25, Da
80, 77, 80, -1, 126.00, 334.00, 15.00, 25, Dp
81, 78, 81, -1, 165.00, 311.00, 14.00, 23, P4
83, 80, 83, -1, 276.00, 278.00, 24.00, 25, ABalpppp
84, 81, 84, -1, 311.00, 252.00, 25.00, 23, ABalpppa
85, 82, 85, -1, 364.00, 251.00, 27.00, 21, ABalppaa
86, 83, 86, -1, 338.00, 276.00, 25.00, 23, ABalppap
87, 84, 87, -1, 354.00, 263.00, 17.00, 21, ABalpapa
88, 85, 88, -1, 315.00, 284.00, 16.00, 25, ABalpapp
89, 86, 89, -1, 354.00, 230.00, 14.00, 21, ABalpaaa
90, 87, 90, -1, 349.00, 236.00, 22.00, 23, ABalpaap
91, 88, 91, -1, 131.00, 285.00, 22.00, 29, Epr
92, 89, 92, -1, 191.00, 248.00, 19.00, 29, Ear
