1, 1, 1, -1, 277.00, 225.00, 12.00, 23, ABaraapp
2, 2, 2, -1, 319.00, 202.00, 12.00, 23, ABaraapa
3, 3, 3, -1, 292.00, 175.00, 14.00, 23, ABaraaap
4, 4, 4, -1, 324.00, 179.00, 18.00, 21, ABaraaaa
5, 5, 5, -1, 243.00, 193.00, 12.00, 23, ABarapap
6, 6, 6, -1, 278.00, 192.00, 11.00, 23, ABarapaa
7, 7, 7, -1, 193.00, 199.00, 18.00, 23, ABarappp
8, 8, 8, -1, 216.00, 182.00, 14.00, 22, ABarappa
9, 9, 9, -1, 210.00, 196.00, 32.00, 25, ABarpapp
10, 10, 10, -1, 243.00, 176.00, 29.00, 21, ABarpapa
11, 11, 11, -1, 247.00, 233.00, 31.00, 23, ABarpaap
12, 12, 12, -1, 273.00, 191.00, 35.00, 25, ABarpaaa
13, 13, 13, -1, 234.00, 263.00, 32.00, 23, ABarppaa
14, 14, 14, -1, 205.00, 303.00, 26.00, 23, ABarppap
15, 15, 15, -1, 159.00, 252.00, 25.00, 23, ABarpppp
16, 16, 16, -1, 195.00, 232.00, 31.00, 25, ABarpppa
17, 17, 17, -1, 257.00, 207.00, 29.00, 21, ABalappp
18, 18, 18, -1, 286.00, 182.00, 30.00, 23, ABalappa
19, 19, 19, -1, 298.00, 216.00, 31.00, 21, ABalapap
20, 20, 20, -1, 328.00, 215.00, 30.00, 21, ABalapaa
21, 21, 21, -1, 293.00, 169.00, 23.00, 23, ABalaapa
22, 22, 22, -1, 255.00, 184.00, 22.00, 23, ABalaapp
23, 23, 23, -1, 343.00, 183.00, 25.00, 23, ABalaaaa
24, 24, 24, -1, 317.00, 178.00, 26.00, 21, ABalaaap
25, 25, 25, 26, 187.00, 335.00, 16.00, 19, ABplpppp
26, 26, 27, -1, 219.00, 342.00, 19.00, 21, ABplpppa
27, 27, 28, -1, 248.00, 320.00, 18.00, 23, ABplppap
28, 28, 29, -1, 281.00, 318.00, 19.00, 23, ABplppaa
29, 29, 30, -1, 248.00, 314.00, 12.00, 21, ABplpapp
30, 30, 31, -1, 286.00, 299.00, 13.00, 23, ABplpapa
31, 31, 32, -1, 321.00, 290.00, 20.00, 21, ABplpaaa
32, 32, 33, -1, 305.00, 306.00, 24.00, 23, ABplpaap
33, 33, 34, -1, 292.00, 286.00, 30.00, 19, ABplaappa
34, 34, 35, -1, 265.00, 312.00, 29.00, 17, ABplaappp
35, 35, 36, 37, 315.00, 278.00, 30.00, 21, ABplaapa
36, 36, 38, -1, 324.00, 246.00, 32.00, 21, ABplaaaa
37, 37, 39, -1, 283.00, 251.00, 31.00, 21, ABplaaap
38, 38, 40, -1, 195.00, 342.00, 25.00, 23, ABplappp
39, 39, 41, -1, 239.00, 335.00, 26.00, 25, ABplappa
40, 40, 42, -1, 261.00, 283.00, 32.00, 21, ABplapaa
41, 41, 43, -1, 223.00, 324.00, 32.00, 17, ABplapapp
42, 41, 44, -1, 239.00, 307.00, 32.00, 17, ABplapapa
43, 42, 45, -1, 167.00, 203.00, 12.00, 21, ABprpapa
44, 43, 46, -1, 138.00, 221.00, 12.00, 22, ABprpapp
45, 44, 47, -1, 183.00, 179.00, 15.00, 21, ABprpaaa
46, 45, 48, -1, 157.00, 196.00, 19.00, 25, ABprpaap
47, 46, 49, -1, 100.00, 241.00, 14.00, 21, ABprpppa
48, 47, 50, -1, 89.00, 265.00, 12.00, 23, ABprpppp
49, 48, 51, -1, 130.00, 206.00, 19.00, 21, ABprppaa
50, 49, 52, -1, 125.00, 235.00, 17.00, 21, ABprppap
51, 50, 53, -1, 188.00, 180.00, 25.00, 23, ABpraapa
52, 51, 54, -1, 154.00, 211.00, 28.00, 19, ABpraappp
53, 51, 55, -1, 171.00, 201.00, 28.00, 15, ABpraappa
54, 52, 56, -1, 219.00, 177.00, 23.00, 21, ABpraaap
55, 53, 57, -1, 240.00, 163.00, 20.00, 21, ABpraaaa
56, 54, 58, -1, 115.00, 232.00, 23.00, 25, ABprappa
57, 55, 59, -1, 81.00, 268.00, 22.00, 23, ABprappp
58, 56, 60, -1, 160.00, 228.00, 34.00, 23, ABprapaa
59, 57, 61, -1, 119.00, 240.00, 29.00, 19, ABprapap
60, 58, 62, -1, 157.00, 258.00, 14.00, 21, MSpppp
61, 59, 63, -1, 169.00, 234.00, 15.00, 19, MSpppa
62, 60, 64, -1, 224.00, 216.00, 15.00, 19, MSppaa
63, 61, 65, -1, 195.00, 230.00, 16.00, 21, MSppap
64, 62, 66, -1, 228.00, 242.00, 11.00, 23, MSpapa
65, 63, 67, -1, 171.00, 270.00, 10.00, 23, MSpapp
66, 64, 68, -1, 278.00, 202.00, 18.00, 23, MSpaaa
67, 65, 69, -1, 247.00, 225.00, 16.00, 21, MSpaap
68, 66, 70, -1, 206.00, 308.00, 17.00, 19, MSappp
69, 67, 71, -1, 225.00, 283.00, 14.00, 21, MSappa
70, 68, 72, -1, 253.00, 275.00, 16.00, 23, MSapap
71, 69, 73, -1, 280.00, 254.00, 18.00, 21, MSapaa
72, 70, 74, -1, 323.00, 210.00, 19.00, 21, MSaaaa
73, 71, 75, -1, 295.00, 228.00, 18.00, 23, MSaaap
74, 72, 76, -1, 226.00, 279.00, 10.00, 23, MSaapp
75, 73, 77, -1, 270.00, 265.00, 11.00, 23, MSaapa
76, 74, 78, -1, 211.00, 283.00, 20.00, 23, Ealp
77, 75, 79, -1, 136.00, 325.00, 21.00, 23, Eplp
78, 76, 80, -1, 136.00, 361.00, 23.00, 23, Capp
79, 77, 81, -1, 163.00, 358.00, 20.00, 25, Capa
80, 78, 82, -1, 159.00, 316.00, 30.00, 19, Caaap
81, 79, 83, -1, 189.00, 288.00, 32.00, 19, Caaaa
82, 80, 84, -1, 126.00, 345.00, 29.00, 23, Caap
83, 81, 85, -1, 95.00, 339.00, 24.00, 19, Cpapp
84, 82, 86, -1, 95.00, 308.00, 29.00, 21, Cpapa
85, 83, 87, -1, 152.00, 265.00, 30.00, 17, Cpaaa
86, 84, 88, -1, 114.00, 291.00, 31.00, 21, Cpaap
87, 85, 89, -1, 67.00, 303.00, 18.00, 25, Cppa
88, 86, 90, -1, 93.00, 332.00, 18.00, 27, Cppp
89, 87, 91, -1, 171.00, 318.00, 11.00, 21, Daa
90, 88, 92, -1, 131.00, 340.00, 14.00, 23, Dap
91, 89, 93, -1, 127.00, 277.00, 10.00, 21, Dpa
92, 90, 94, -1, 102.00, 322.00, 12.00, 21, Dpp
93, 91, 95, -1, 186.00, 286.00, 13.00, 21, Z3
94, 92, 96, -1, 144.00, 299.00, 14.00, 21, Z2
96, 94, 98, -1, 278.00, 278.00, 23.00, 17, ABalppppp
97, 94, 99, -1, 298.00, 261.00, 23.00, 17, ABalppppa
98, 95, 100, -1, 324.00, 250.00, 25.00, 23, ABalpppa
99, 96, 101, -1, 362.00, 262.00, 19.00, 21, ABalppaa
100, 97, 102, -1, 330.00, 264.00, 16.00, 25, ABalppap
101, 98, 103, -1, 357.00, 228.00, 15.00, 23, ABalpapa
102, 99, 104, -1, 333.00, 237.00, 13.00, 17, ABalpappa
103, 100, 105, -1, 299.00, 254.00, 12.00, 17, ABalpappp
104, 101, 106, -1, 355.00, 195.00, 19.00, 21, ABalpaaa
105, 102, 107, -1, 354.00, 231.00, 22.00, 21, ABalpaap
106, 103, 108, -1, 139.00, 261.00, 19.00, 23, Epra
107, 104, 109, -1, 223.00, 223.00, 22.00, 23, Eara
108, 105, 110, -1, 182.00, 259.00, 21.00, 23, Earp
109, 106, 111, -1, 248.00, 260.00, 22.00, 25, Eala
110, 107, 112, -1, 176.00, 290.00, 21.00, 23, Epla
111, 108, 113, -1, 105.00, 300.00, 20.00, 25, Eprp
