1, 1, 1, -1, 280.00, 216.00, 12.00, 19, ABaraappa
2, 2, 2, -1, 253.00, 238.00, 11.00, 21, ABaraappp
3, 3, 3, -1, 302.00, 233.00, 13.00, 19, ABaraapap
4, 4, 4, -1, 331.00, 219.00, 12.00, 19, ABaraapaa
5, 5, 5, -1, 267.00, 179.00, 14.00, 17, ABaraaapp
6, 6, 6, -1, 303.00, 178.00, 14.00, 21, ABaraaapa
7, 7, 7, -1, 330.00, 185.00, 16.00, 17, ABaraaaaa
8, 8, 8, -1, 306.00, 202.00, 12.00, 17, ABaraaaap
9, 9, 9, -1, 241.00, 183.00, 11.00, 19, ABarapapa
10, 10, 10, -1, 227.00, 215.00, 10.00, 21, ABarapapp
11, 11, 11, -1, 288.00, 195.00, 10.00, 19, ABarapaaa
12, 12, 12, -1, 256.00, 203.00, 11.00, 17, ABarapaap
13, 13, 13, -1, 218.00, 185.00, 18.00, 19, ABarapppa
14, 14, 14, -1, 188.00, 203.00, 17.00, 17, ABarapppp
15, 15, 15, -1, 246.00, 188.00, 15.00, 19, ABarappaa
16, 16, 16, -1, 209.00, 205.00, 13.00, 19, ABarappap
17, 17, 17, -1, 215.00, 204.00, 31.00, 19, ABarpappp
18, 18, 18, -1, 247.00, 192.00, 34.00, 19, ABarpappa
19, 19, 19, -1, 293.00, 175.00, 32.00, 17, ABarpapaa
20, 20, 20, -1, 265.00, 177.00, 33.00, 19, ABarpapap
21, 21, 21, -1, 223.00, 251.00, 32.00, 21, ABarpaapp
22, 22, 22, -1, 265.00, 239.00, 31.00, 17, ABarpaapa
23, 23, 23, -1, 301.00, 208.00, 34.00, 15, ABarpaaaa
24, 23, 24, -1, 277.00, 219.00, 33.00, 15, ABarpaaap
25, 24, 25, -1, 245.00, 273.00, 32.00, 17, ABarppaaa
26, 25, 26, -1, 214.00, 288.00, 31.00, 17, ABarppaap
27, 26, 27, -1, 170.00, 331.00, 29.00, 19, ABarppapp
28, 27, 28, -1, 204.00, 307.00, 30.00, 21, ABarppapa
29, 28, 29, -1, 128.00, 274.00, 28.00, 19, ABarppppp
30, 29, 30, -1, 163.00, 249.00, 30.00, 17, ABarppppa
31, 30, 31, -1, 210.00, 221.00, 34.00, 17, ABarpppaa
32, 31, 32, -1, 180.00, 241.00, 32.00, 19, ABarpppap
33, 32, 33, -1, 242.00, 216.00, 31.00, 21, ABalapppp
34, 33, 34, -1, 280.00, 200.00, 28.00, 17, ABalapppa
35, 34, 35, -1, 332.00, 201.00, 29.00, 17, ABalappaa
36, 35, 36, -1, 303.00, 196.00, 29.00, 17, ABalappap
37, 36, 37, -1, 292.00, 254.00, 29.00, 19, ABalapapp
38, 37, 38, -1, 317.00, 233.00, 32.00, 19, ABalapapa
39, 38, 39, -1, 338.00, 218.00, 27.00, 19, ABalapaaa
40, 39, 40, -1, 334.00, 240.00, 30.00, 19, ABalapaap
41, 40, 41, -1, 321.00, 177.00, 21.00, 15, ABalaapaa
42, 41, 42, -1, 294.00, 168.00, 22.00, 15, ABalaapap
43, 42, 43, -1, 283.00, 178.00, 25.00, 19, ABalaappa
44, 43, 44, -1, 254.00, 188.00, 28.00, 19, ABalaappp
45, 44, 45, -1, 355.00, 206.00, 25.00, 19, ABalaaaal
46, 45, 46, -1, 343.00, 184.00, 20.00, 19, ABalaaaar
47, 46, 47, -1, 308.00, 196.00, 25.00, 19, ABalaaapp
48, 47, 48, -1, 340.00, 186.00, 26.00, 17, ABalaaapa
49, 48, 49, -1, 189.00, 322.00, 12.00, 21, ABplppppa
50, 49, 50, -1, 159.00, 332.00, 11.00, 21, ABplppppp
51, 50, 51, -1, 173.00, 352.00, 15.00, 19, ABplpppap
52, 51, 52, -1, 200.00, 345.00, 15.00, 19, ABplpppaa
53, 52, 53, -1, 205.00, 333.00, 20.00, 17, ABplppapp
54, 53, 54, -1, 234.00, 335.00, 16.00, 19, ABplppapa
55, 54, 55, -1, 253.00, 330.00, 15.00, 19, ABplppaap
56, 55, 56, -1, 280.00, 321.00, 16.00, 19, ABplppaaa
57, 56, 57, -1, 240.00, 310.00, 11.00, 21, ABplpappa
58, 57, 58, -1, 213.00, 319.00, 11.00, 19, ABplpappp
59, 58, 59, -1, 267.00, 299.00, 12.00, 19, ABplpapap
60, 59, 60, -1, 292.00, 294.00, 11.00, 17, ABplpapaa
61, 60, 61, -1, 326.00, 291.00, 19.00, 19, ABplpaaaa
62, 61, 62, -1, 302.00, 308.00, 18.00, 19, ABplpaaap
63, 62, 63, -1, 281.00, 322.00, 22.00, 19, ABplpaapp
64, 63, 64, -1, 311.00, 304.00, 24.00, 19, ABplpaapa
65, 64, 65, -1, 280.00, 317.00, 29.00, 21, ABplaappa
66, 65, 66, -1, 244.00, 324.00, 26.00, 23, ABplaappp
67, 66, 67, -1, 328.00, 287.00, 29.00, 21, ABplaapaa
68, 67, 68, -1, 292.00, 293.00, 34.00, 19, ABplaapap
69, 68, 69, -1, 351.00, 264.00, 29.00, 19, ABplaaaaa
70, 69, 70, -1, 314.00, 265.00, 34.00, 19, ABplaaaap
71, 70, 71, -1, 266.00, 265.00, 34.00, 17, ABplaaapp
72, 71, 72, -1, 290.00, 248.00, 34.00, 17, ABplaaapa
73, 72, 73, -1, 147.00, 355.00, 19.00, 19, ABplapppp
74, 73, 74, -1, 183.00, 340.00, 21.00, 17, ABplapppa
75, 74, 75, -1, 233.00, 344.00, 23.00, 21, ABplappaa
76, 75, 76, -1, 199.00, 350.00, 24.00, 21, ABplappap
77, 76, 77, -1, 232.00, 327.00, 32.00, 19, ABplapaap
78, 77, 78, -1, 253.00, 300.00, 33.00, 19, ABplapaaa
79, 78, 79, -1, 169.00, 352.00, 26.00, 19, ABplapapp
80, 79, 80, -1, 207.00, 343.00, 31.00, 21, ABplapapa
81, 80, 81, -1, 189.00, 202.00, 10.00, 19, ABprpapaa
82, 81, 82, -1, 164.00, 199.00, 11.00, 19, ABprpapap
83, 82, 83, -1, 140.00, 228.00, 11.00, 19, ABprpappp
84, 83, 84, -1, 164.00, 222.00, 11.00, 19, ABprpappa
85, 84, 85, -1, 205.00, 171.00, 14.00, 19, ABprpaaaa
86, 85, 86, -1, 173.00, 183.00, 15.00, 17, ABprpaaap
87, 86, 87, -1, 192.00, 180.00, 22.00, 21, ABprpaapa
88, 87, 88, -1, 163.00, 195.00, 21.00, 19, ABprpaapp
89, 88, 89, -1, 110.00, 219.00, 17.00, 19, ABprpppaa
90, 89, 90, -1, 79.00, 250.00, 16.00, 19, ABprpppap
91, 90, 91, -1, 115.00, 234.00, 12.00, 19, ABprppppa
92, 91, 92, -1, 90.00, 260.00, 11.00, 21, ABprppppp
93, 92, 93, -1, 123.00, 207.00, 14.00, 17, ABprppaap
94, 93, 94, -1, 147.00, 197.00, 17.00, 19, ABprppaaa
95, 94, 95, -1, 144.00, 227.00, 16.00, 17, ABprppapa
96, 95, 96, -1, 116.00, 244.00, 17.00, 17, ABprppapp
97, 96, 97, -1, 218.00, 164.00, 23.00, 17, ABpraapaa
98, 97, 98, -1, 200.00, 182.00, 28.00, 19, ABpraapap
99, 98, 99, -1, 158.00, 207.00, 26.00, 21, ABpraappp
100, 99, 100, -1, 182.00, 195.00, 28.00, 19, ABpraappa
101, 100, 101, -1, 259.00, 160.00, 25.00, 17, ABpraaapa
102, 101, 102, -1, 230.00, 175.00, 28.00, 19, ABpraaapp
103, 102, 103, -1, 272.00, 172.00, 19.00, 17, ABpraaaaa
104, 103, 104, -1, 240.00, 171.00, 21.00, 19, ABpraaaap
105, 104, 105, -1, 103.00, 232.00, 24.00, 19, ABprappap
106, 105, 106, -1, 131.00, 207.00, 22.00, 21, ABprappaa
107, 106, 107, -1, 88.00, 246.00, 21.00, 19, ABprapppa
108, 107, 108, -1, 78.00, 278.00, 20.00, 21, ABprapppp
109, 108, 109, -1, 173.00, 207.00, 34.00, 19, ABprapaaa
110, 109, 110, -1, 146.00, 223.00, 34.00, 19, ABprapaap
111, 110, 111, -1, 97.00, 259.00, 28.00, 19, ABprapapp
112, 111, 112, -1, 122.00, 229.00, 31.00, 19, ABprapapa
113, 112, 113, -1, 167.00, 231.00, 19.00, 21, MSpppp
114, 113, 114, -1, 192.00, 228.00, 18.00, 21, MSpppa
115, 114, 115, -1, 239.00, 199.00, 21.00, 21, MSppaa
116, 115, 116, -1, 210.00, 210.00, 21.00, 19, MSppap
117, 116, 117, -1, 198.00, 258.00, 13.00, 17, MSpapap
118, 117, 118, -1, 229.00, 242.00, 13.00, 17, MSpapaa
119, 118, 119, -1, 173.00, 258.00, 12.00, 21, MSpapp
120, 119, 120, -1, 265.00, 212.00, 22.00, 19, MSpaaap
121, 120, 121, -1, 295.00, 196.00, 17.00, 17, MSpaaaa
122, 121, 122, -1, 249.00, 227.00, 18.00, 21, MSpaap
123, 122, 123, -1, 216.00, 307.00, 18.00, 21, MSappp
124, 123, 124, -1, 220.00, 279.00, 17.00, 21, MSappa
125, 124, 125, -1, 261.00, 295.00, 19.00, 25, MSapap
126, 125, 126, -1, 294.00, 263.00, 21.00, 23, MSapaa
127, 126, 127, -1, 324.00, 206.00, 20.00, 17, MSaaaaa
128, 127, 128, -1, 307.00, 230.00, 26.00, 17, MSaaaap
129, 128, 129, -1, 297.00, 228.00, 19.00, 15, MSaaapa
130, 128, 130, -1, 273.00, 244.00, 19.00, 15, MSaaapp
131, 129, 131, -1, 207.00, 283.00, 11.00, 21, MSaapp
132, 130, 132, -1, 266.00, 260.00, 15.00, 17, MSaapaa
133, 131, 133, -1, 234.00, 278.00, 13.00, 17, MSaapap
134, 132, 134, -1, 222.00, 289.00, 23.00, 25, Ealp
135, 133, 135, -1, 149.00, 314.00, 22.00, 21, Eplp
136, 134, 136, 137, 115.00, 341.00, 20.00, 17, Capp
137, 135, 138, -1, 126.00, 334.00, 11.00, 27, Capa
138, 136, 139, -1, 131.00, 331.00, 29.00, 19, Caaap
139, 137, 140, -1, 173.00, 305.00, 33.00, 21, Caaaa
140, 138, 141, -1, 103.00, 362.00, 24.00, 19, Caapp
141, 139, 142, -1, 124.00, 355.00, 29.00, 19, Caapa
142, 140, 143, -1, 81.00, 347.00, 21.00, 21, Cpapp
143, 141, 144, -1, 98.00, 323.00, 29.00, 25, Cpapa
144, 142, 145, -1, 154.00, 274.00, 33.00, 23, Cpaaa
145, 143, 146, -1, 109.00, 296.00, 32.00, 25, Cpaap
146, 144, 147, -1, 83.00, 284.00, 13.00, 17, Cppaa
147, 144, 148, -1, 80.00, 302.00, 14.00, 19, Cppap
148, 145, 149, -1, 82.00, 322.00, 17.00, 21, Cpppp
149, 146, 150, -1, 85.00, 304.00, 23.00, 21, Cpppa
150, 147, 151, -1, 172.00, 302.00, 13.00, 21, Daa
151, 148, 152, -1, 143.00, 315.00, 15.00, 21, Dap
152, 149, 153, -1, 130.00, 262.00, 13.00, 21, Dpa
153, 150, 154, -1, 114.00, 292.00, 16.00, 23, Dpp
154, 151, 155, -1, 186.00, 275.00, 16.00, 19, Z3
155, 152, 156, -1, 153.00, 278.00, 18.00, 21, Z2
157, 154, 158, -1, 262.00, 294.00, 26.00, 19, ABalppppp
158, 155, 159, -1, 300.00, 278.00, 27.00, 21, ABalppppa
159, 156, 160, -1, 338.00, 249.00, 24.00, 19, ABalpppaa
160, 157, 161, -1, 322.00, 272.00, 25.00, 19, ABalpppap
161, 158, 162, -1, 360.00, 251.00, 23.00, 17, ABalppaaa
162, 159, 163, -1, 344.00, 276.00, 19.00, 17, ABalppaap
163, 160, 164, -1, 290.00, 282.00, 16.00, 21, ABalppapp
164, 161, 165, -1, 324.00, 270.00, 16.00, 19, ABalppapa
165, 162, 166, -1, 327.00, 251.00, 12.00, 19, ABalpapap
166, 163, 167, -1, 355.00, 251.00, 15.00, 17, ABalpapaa
167, 164, 168, -1, 308.00, 258.00, 11.00, 19, ABalpappa
168, 165, 169, -1, 279.00, 249.00, 10.00, 21, ABalpappp
169, 166, 170, -1, 359.00, 230.00, 14.00, 19, ABalpaaap
170, 167, 171, -1, 350.00, 197.00, 16.00, 19, ABalpaaaa
171, 168, 172, -1, 323.00, 247.00, 18.00, 19, ABalpaapp
172, 169, 173, -1, 357.00, 220.00, 20.00, 21, ABalpaapa
173, 170, 174, -1, 146.00, 247.00, 23.00, 27, Epra
174, 171, 175, -1, 228.00, 236.00, 25.00, 25, Eara
175, 172, 176, -1, 191.00, 252.00, 23.00, 25, Earp
176, 173, 177, -1, 254.00, 261.00, 23.00, 25, Eala
177, 174, 178, -1, 183.00, 290.00, 23.00, 25, Epla
178, 175, 179, -1, 118.00, 279.00, 22.00, 25, Eprp
