1, 1, 1, -1, 280.00, 218.00, 11.00, 19, ABaraappa
2, 2, 2, -1, 254.00, 227.00, 13.00, 17, ABaraappp
3, 3, 3, -1, 300.00, 228.00, 13.00, 19, ABaraapap
4, 4, 4, -1, 325.00, 214.00, 13.00, 19, ABaraapaa
5, 5, 5, -1, 268.00, 178.00, 14.00, 19, ABaraaapp
6, 6, 6, -1, 302.00, 178.00, 15.00, 21, ABaraaapa
7, 7, 7, -1, 332.00, 185.00, 16.00, 17, ABaraaaaa
8, 8, 8, -1, 303.00, 198.00, 11.00, 17, ABaraaaap
9, 9, 9, -1, 240.00, 185.00, 11.00, 21, ABarapapa
10, 10, 10, -1, 230.00, 216.00, 11.00, 19, ABarapapp
11, 11, 11, -1, 284.00, 188.00, 10.00, 19, ABarapaaa
12, 12, 12, -1, 258.00, 198.00, 11.00, 19, ABarapaap
13, 13, 13, -1, 218.00, 185.00, 17.00, 19, ABarapppa
14, 14, 14, -1, 191.00, 194.00, 16.00, 19, ABarapppp
15, 15, 15, -1, 246.00, 182.00, 15.00, 19, ABarappaa
16, 16, 16, -1, 213.00, 199.00, 13.00, 19, ABarappap
17, 17, 17, -1, 217.00, 207.00, 31.00, 21, ABarpappp
18, 18, 18, -1, 239.00, 196.00, 33.00, 17, ABarpappa
19, 19, 19, -1, 290.00, 183.00, 34.00, 19, ABarpapaa
20, 20, 20, -1, 260.00, 182.00, 34.00, 19, ABarpapap
21, 21, 21, -1, 218.00, 256.00, 32.00, 21, ABarpaapp
22, 22, 22, -1, 252.00, 240.00, 31.00, 19, ABarpaapa
23, 23, 23, -1, 305.00, 218.00, 34.00, 19, ABarpaaaa
24, 24, 24, -1, 271.00, 227.00, 32.00, 19, ABarpaaap
25, 25, 25, -1, 240.00, 281.00, 33.00, 19, ABarppaaa
26, 26, 26, -1, 209.00, 294.00, 32.00, 21, ABarppaap
27, 27, 27, -1, 163.00, 339.00, 28.00, 21, ABarppapp
28, 28, 28, -1, 200.00, 314.00, 29.00, 19, ABarppapa
29, 29, 29, -1, 128.00, 275.00, 30.00, 19, ABarppppp
30, 30, 30, -1, 162.00, 250.00, 30.00, 19, ABarppppa
31, 31, 31, -1, 206.00, 225.00, 33.00, 17, ABarpppaa
32, 32, 32, -1, 179.00, 240.00, 34.00, 19, ABarpppap
33, 33, 33, -1, 248.00, 207.00, 28.00, 19, ABalapppp
34, 34, 34, -1, 287.00, 201.00, 31.00, 21, ABalapppa
35, 35, 35, -1, 331.00, 209.00, 29.00, 19, ABalappaa
36, 36, 36, -1, 308.00, 198.00, 28.00, 19, ABalappap
37, 37, 37, -1, 294.00, 260.00, 29.00, 19, ABalapapp
38, 38, 38, -1, 320.00, 242.00, 31.00, 21, ABalapapa
39, 39, 39, -1, 343.00, 227.00, 26.00, 17, ABalapaaa
40, 40, 40, -1, 336.00, 240.00, 28.00, 21, ABalapaap
41, 41, 41, -1, 328.00, 175.00, 20.00, 19, ABalaapaa
42, 42, 42, -1, 292.00, 164.00, 22.00, 17, ABalaapap
43, 43, 43, -1, 288.00, 178.00, 26.00, 19, ABalaappa
44, 44, 44, -1, 265.00, 178.00, 29.00, 21, ABalaappp
45, 45, 45, -1, 360.00, 213.00, 25.00, 21, ABalaaaal
46, 46, 46, -1, 351.00, 188.00, 19.00, 19, ABalaaaar
47, 47, 47, -1, 322.00, 182.00, 25.00, 19, ABalaaapp
48, 48, 48, -1, 346.00, 195.00, 25.00, 19, ABalaaapa
49, 49, 49, -1, 188.00, 314.00, 12.00, 19, ABplppppa
50, 50, 50, -1, 161.00, 331.00, 12.00, 19, ABplppppp
51, 51, 51, -1, 178.00, 343.00, 14.00, 19, ABplpppap
52, 52, 52, -1, 205.00, 335.00, 13.00, 19, ABplpppaa
53, 53, 53, -1, 205.00, 331.00, 18.00, 19, ABplppapp
54, 54, 54, -1, 234.00, 334.00, 17.00, 19, ABplppapa
55, 55, 55, -1, 243.00, 328.00, 14.00, 19, ABplppaap
56, 56, 56, -1, 272.00, 324.00, 16.00, 19, ABplppaaa
57, 57, 57, -1, 242.00, 301.00, 11.00, 19, ABplpappa
58, 58, 58, -1, 215.00, 309.00, 10.00, 19, ABplpappp
59, 59, 59, -1, 267.00, 302.00, 12.00, 19, ABplpapap
60, 60, 60, -1, 292.00, 293.00, 11.00, 19, ABplpapaa
61, 61, 61, -1, 321.00, 289.00, 18.00, 19, ABplpaaaa
62, 62, 62, -1, 298.00, 309.00, 17.00, 19, ABplpaaap
63, 63, 63, -1, 277.00, 322.00, 22.00, 19, ABplpaapp
64, 64, 64, -1, 309.00, 306.00, 23.00, 19, ABplpaapa
65, 65, 65, -1, 271.00, 321.00, 29.00, 19, ABplaappa
66, 66, 66, -1, 242.00, 324.00, 26.00, 23, ABplaappp
67, 67, 67, -1, 322.00, 288.00, 30.00, 21, ABplaapaa
68, 68, 68, -1, 284.00, 298.00, 33.00, 21, ABplaapap
69, 69, 69, -1, 333.00, 262.00, 33.00, 19, ABplaaaaa
70, 70, 70, -1, 302.00, 263.00, 34.00, 19, ABplaaaap
71, 71, 71, -1, 256.00, 267.00, 32.00, 19, ABplaaapp
72, 72, 72, -1, 281.00, 250.00, 34.00, 17, ABplaaapa
73, 73, 73, -1, 156.00, 355.00, 18.00, 19, ABplapppp
74, 74, 74, -1, 183.00, 348.00, 19.00, 17, ABplapppa
75, 75, 75, -1, 228.00, 343.00, 24.00, 21, ABplappaa
76, 76, 76, -1, 196.00, 344.00, 22.00, 21, ABplappap
77, 77, 77, -1, 226.00, 328.00, 32.00, 19, ABplapaap
78, 78, 78, -1, 247.00, 306.00, 33.00, 19, ABplapaaa
79, 79, 79, -1, 173.00, 358.00, 24.00, 21, ABplapapp
80, 80, 80, -1, 201.00, 346.00, 29.00, 21, ABplapapa
81, 81, 81, -1, 191.00, 199.00, 10.00, 19, ABprpapaa
82, 82, 82, -1, 169.00, 196.00, 12.00, 19, ABprpapap
83, 83, 83, -1, 152.00, 225.00, 11.00, 19, ABprpappp
84, 84, 84, -1, 176.00, 220.00, 11.00, 17, ABprpappa
85, 85, 85, -1, 207.00, 166.00, 18.00, 19, ABprpaaaa
86, 86, 86, -1, 176.00, 179.00, 17.00, 17, ABprpaaap
87, 87, 87, -1, 193.00, 180.00, 23.00, 21, ABprpaapa
88, 88, 88, -1, 169.00, 195.00, 21.00, 19, ABprpaapp
89, 89, 89, -1, 112.00, 214.00, 17.00, 19, ABprpppaa
90, 90, 90, -1, 87.00, 243.00, 16.00, 19, ABprpppap
91, 91, 91, -1, 127.00, 231.00, 12.00, 19, ABprppppa
92, 92, 92, -1, 103.00, 246.00, 11.00, 19, ABprppppp
93, 93, 93, -1, 129.00, 205.00, 14.00, 17, ABprppaap
94, 94, 94, -1, 152.00, 199.00, 17.00, 17, ABprppaaa
95, 95, 95, -1, 141.00, 222.00, 17.00, 17, ABprppapa
96, 96, 96, -1, 120.00, 241.00, 19.00, 21, ABprppapp
97, 97, 97, -1, 213.00, 165.00, 26.00, 19, ABpraapaa
98, 98, 98, -1, 203.00, 185.00, 31.00, 21, ABpraapap
99, 99, 99, -1, 153.00, 206.00, 26.00, 21, ABpraappp
100, 100, 100, -1, 182.00, 192.00, 28.00, 19, ABpraappa
101, 101, 101, -1, 256.00, 159.00, 25.00, 17, ABpraaapa
102, 102, 102, -1, 235.00, 176.00, 27.00, 21, ABpraaapp
103, 103, 103, -1, 270.00, 168.00, 20.00, 19, ABpraaaaa
104, 104, 104, -1, 238.00, 169.00, 21.00, 19, ABpraaaap
105, 105, 105, -1, 100.00, 232.00, 23.00, 21, ABprappap
106, 106, 106, -1, 123.00, 211.00, 24.00, 21, ABprappaa
107, 107, 107, -1, 84.00, 246.00, 20.00, 19, ABprapppa
108, 108, 108, -1, 75.00, 275.00, 18.00, 17, ABprapppp
109, 109, 109, -1, 174.00, 205.00, 33.00, 17, ABprapaaa
110, 110, 110, -1, 143.00, 223.00, 33.00, 17, ABprapaap
111, 111, 111, -1, 89.00, 262.00, 27.00, 19, ABprapapp
112, 112, 112, -1, 118.00, 235.00, 32.00, 21, ABprapapa
113, 113, 113, -1, 167.00, 227.00, 20.00, 21, MSpppp
114, 114, 114, -1, 196.00, 224.00, 18.00, 21, MSpppa
115, 115, 115, -1, 244.00, 199.00, 21.00, 19, MSppaa
116, 116, 116, -1, 200.00, 213.00, 25.00, 15, MSppapp
117, 116, 117, -1, 219.00, 195.00, 23.00, 15, MSppapa
118, 117, 118, -1, 199.00, 248.00, 15.00, 17, MSpapap
119, 118, 119, -1, 234.00, 240.00, 14.00, 19, MSpapaa
120, 119, 120, -1, 189.00, 245.00, 10.00, 15, MSpappa
121, 120, 121, -1, 163.00, 266.00, 11.00, 17, MSpappp
122, 121, 122, -1, 271.00, 204.00, 24.00, 21, MSpaaap
123, 122, 123, -1, 303.00, 194.00, 18.00, 21, MSpaaaa
124, 123, 124, -1, 268.00, 216.00, 18.00, 17, MSpaapa
125, 124, 125, -1, 244.00, 235.00, 18.00, 15, MSpaapp
126, 125, 126, -1, 222.00, 305.00, 19.00, 21, MSappp
127, 126, 127, -1, 223.00, 276.00, 17.00, 21, MSappa
128, 127, 128, -1, 264.00, 293.00, 20.00, 19, MSapap
129, 128, 129, -1, 295.00, 259.00, 21.00, 21, MSapaa
130, 129, 130, -1, 328.00, 207.00, 21.00, 19, MSaaaaa
131, 130, 131, -1, 308.00, 230.00, 26.00, 19, MSaaaap
132, 131, 132, -1, 302.00, 229.00, 20.00, 19, MSaaapa
133, 132, 133, -1, 265.00, 245.00, 20.00, 17, MSaaapp
134, 133, 134, 135, 213.00, 272.00, 11.00, 20, MSaapp
135, 134, 136, -1, 268.00, 256.00, 16.00, 19, MSaapaa
136, 135, 137, -1, 238.00, 274.00, 12.00, 17, MSaapap
137, 136, 138, -1, 219.00, 283.00, 22.00, 23, Ealp
138, 137, 139, -1, 147.00, 310.00, 23.00, 23, Eplp
139, 138, 140, -1, 130.00, 360.00, 21.00, 19, Cappa
140, 139, 141, -1, 103.00, 341.00, 17.00, 21, Cappp
141, 140, 142, -1, 126.00, 329.00, 13.00, 23, Capa
142, 141, 143, -1, 128.00, 335.00, 29.00, 21, Caaap
143, 142, 144, -1, 167.00, 315.00, 33.00, 23, Caaaa
144, 143, 145, -1, 101.00, 353.00, 23.00, 19, Caapp
145, 144, 146, -1, 119.00, 360.00, 28.00, 19, Caapa
146, 145, 147, -1, 80.00, 342.00, 22.00, 21, Cpapp
147, 146, 148, -1, 92.00, 322.00, 28.00, 23, Cpapa
148, 147, 149, -1, 160.00, 274.00, 33.00, 23, Cpaaa
149, 148, 150, -1, 112.00, 296.00, 33.00, 21, Cpaap
150, 149, 151, -1, 96.00, 274.00, 12.00, 21, Cppaa
151, 150, 152, -1, 78.00, 305.00, 13.00, 23, Cppap
152, 151, 153, -1, 82.00, 319.00, 18.00, 21, Cpppp
153, 152, 154, -1, 79.00, 301.00, 23.00, 21, Cpppa
154, 153, 155, -1, 170.00, 299.00, 14.00, 21, Daa
155, 154, 156, -1, 140.00, 315.00, 17.00, 23, Dap
156, 155, 157, -1, 137.00, 260.00, 13.00, 21, Dpa
157, 156, 158, -1, 118.00, 289.00, 16.00, 21, Dpp
158, 157, 159, -1, 184.00, 269.00, 17.00, 21, Z3
159, 158, 160, -1, 152.00, 275.00, 18.00, 21, Z2
161, 160, 162, -1, 269.00, 288.00, 26.00, 21, ABalppppp
162, 161, 163, -1, 302.00, 284.00, 27.00, 19, ABalppppa
163, 162, 164, -1, 336.00, 258.00, 24.00, 19, ABalpppaa
164, 163, 165, -1, 324.00, 281.00, 24.00, 21, ABalpppap
165, 164, 166, -1, 360.00, 257.00, 22.00, 17, ABalppaaa
166, 165, 167, -1, 341.00, 277.00, 19.00, 19, ABalppaap
167, 166, 168, -1, 286.00, 279.00, 14.00, 21, ABalppapp
168, 167, 169, -1, 317.00, 268.00, 16.00, 19, ABalppapa
169, 168, 170, -1, 323.00, 250.00, 12.00, 19, ABalpapap
170, 169, 171, -1, 351.00, 252.00, 14.00, 19, ABalpapaa
171, 170, 172, -1, 302.00, 255.00, 10.00, 21, ABalpappa
172, 171, 173, -1, 271.00, 251.00, 11.00, 21, ABalpappp
173, 172, 174, -1, 350.00, 230.00, 12.00, 19, ABalpaaap
174, 173, 175, -1, 348.00, 202.00, 15.00, 17, ABalpaaaa
175, 174, 176, -1, 325.00, 246.00, 17.00, 19, ABalpaapp
176, 175, 177, -1, 355.00, 227.00, 18.00, 21, ABalpaapa
177, 176, 178, -1, 148.00, 248.00, 24.00, 29, Epra
178, 177, 179, -1, 235.00, 229.00, 24.00, 27, Eara
179, 178, 180, -1, 194.00, 250.00, 22.00, 21, Earp
180, 179, 181, -1, 258.00, 256.00, 24.00, 25, Eala
181, 180, 182, -1, 184.00, 289.00, 23.00, 23, Epla
182, 181, 183, -1, 113.00, 279.00, 23.00, 27, Eprp
