1, 1, 1, -1, 278.00, 211.00, 14.00, 17, ABaraappa
2, 2, 2, -1, 252.00, 222.00, 13.00, 19, ABaraappp
3, 3, 3, -1, 297.00, 227.00, 14.00, 19, ABaraapap
4, 4, 4, -1, 319.00, 212.00, 15.00, 17, ABaraapaa
5, 5, 5, -1, 266.00, 178.00, 14.00, 19, ABaraaapp
6, 6, 6, -1, 293.00, 176.00, 14.00, 21, ABaraaapa
7, 7, 7, -1, 325.00, 184.00, 16.00, 17, ABaraaaaa
8, 8, 8, -1, 303.00, 197.00, 15.00, 17, ABaraaaap
9, 9, 9, -1, 237.00, 200.00, 10.00, 19, ABarapapa
10, 10, 10, -1, 225.00, 228.00, 11.00, 21, ABarapapp
11, 11, 11, -1, 294.00, 199.00, 10.00, 19, ABarapaaa
12, 12, 12, -1, 264.00, 194.00, 10.00, 19, ABarapaap
13, 13, 13, -1, 217.00, 185.00, 15.00, 19, ABarapppa
14, 14, 14, -1, 193.00, 196.00, 15.00, 17, ABarapppp
15, 15, 15, -1, 242.00, 182.00, 13.00, 19, ABarappaa
16, 16, 16, -1, 212.00, 205.00, 11.00, 19, ABarappap
17, 17, 17, -1, 216.00, 216.00, 31.00, 23, ABarpappp
18, 18, 18, -1, 234.00, 198.00, 34.00, 19, ABarpappa
19, 19, 19, -1, 286.00, 199.00, 35.00, 21, ABarpapaa
20, 20, 20, -1, 259.00, 187.00, 34.00, 21, ABarpapap
21, 21, 21, -1, 217.00, 258.00, 32.00, 21, ABarpaapp
22, 22, 22, -1, 255.00, 237.00, 32.00, 19, ABarpaapa
23, 23, 23, -1, 309.00, 225.00, 34.00, 19, ABarpaaaa
24, 24, 24, -1, 278.00, 230.00, 33.00, 17, ABarpaaap
25, 25, 25, -1, 234.00, 284.00, 32.00, 17, ABarppaaa
26, 26, 26, -1, 208.00, 295.00, 32.00, 19, ABarppaap
27, 27, 27, -1, 158.00, 337.00, 27.00, 21, ABarppapp
28, 28, 28, -1, 194.00, 320.00, 31.00, 19, ABarppapa
29, 29, 29, -1, 123.00, 274.00, 31.00, 21, ABarppppp
30, 30, 30, -1, 153.00, 243.00, 30.00, 19, ABarppppa
31, 31, 31, -1, 196.00, 221.00, 34.00, 19, ABarpppaa
32, 32, 32, -1, 177.00, 237.00, 33.00, 21, ABarpppap
33, 33, 33, -1, 252.00, 204.00, 29.00, 21, ABalapppp
34, 34, 34, -1, 292.00, 196.00, 31.00, 21, ABalapppa
35, 35, 35, -1, 331.00, 206.00, 29.00, 19, ABalappaa
36, 36, 36, -1, 310.00, 198.00, 28.00, 19, ABalappap
37, 37, 37, -1, 294.00, 265.00, 27.00, 21, ABalapapp
38, 38, 38, -1, 321.00, 248.00, 31.00, 19, ABalapapa
39, 39, 39, -1, 350.00, 228.00, 26.00, 17, ABalapaaa
40, 40, 40, -1, 336.00, 247.00, 28.00, 17, ABalapaap
41, 41, 41, -1, 326.00, 172.00, 21.00, 17, ABalaapaa
42, 42, 42, -1, 299.00, 163.00, 22.00, 19, ABalaapap
43, 43, 43, -1, 299.00, 175.00, 26.00, 19, ABalaappa
44, 44, 44, -1, 274.00, 175.00, 29.00, 21, ABalaappp
45, 45, 45, -1, 355.00, 214.00, 23.00, 19, ABalaaaal
46, 46, 46, -1, 347.00, 188.00, 19.00, 19, ABalaaaar
47, 47, 47, -1, 331.00, 179.00, 26.00, 19, ABalaaapp
48, 48, 48, -1, 345.00, 194.00, 24.00, 19, ABalaaapa
49, 49, 49, -1, 209.00, 322.00, 13.00, 19, ABplppppa
50, 50, 50, -1, 180.00, 322.00, 11.00, 19, ABplppppp
51, 51, 51, -1, 186.00, 341.00, 14.00, 19, ABplpppap
52, 52, 52, -1, 213.00, 343.00, 16.00, 19, ABplpppaa
53, 53, 53, -1, 207.00, 330.00, 20.00, 19, ABplppapp
54, 54, 54, -1, 238.00, 331.00, 19.00, 19, ABplppapa
55, 55, 55, -1, 240.00, 325.00, 14.00, 19, ABplppaap
56, 56, 56, -1, 263.00, 325.00, 16.00, 19, ABplppaaa
57, 57, 57, -1, 241.00, 295.00, 10.00, 21, ABplpappa
58, 58, 58, -1, 216.00, 304.00, 10.00, 19, ABplpappp
59, 59, 59, -1, 264.00, 304.00, 12.00, 19, ABplpapap
60, 60, 60, -1, 284.00, 295.00, 10.00, 17, ABplpapaa
61, 61, 61, -1, 317.00, 292.00, 18.00, 19, ABplpaaaa
62, 62, 62, -1, 291.00, 310.00, 17.00, 19, ABplpaaap
63, 63, 63, -1, 269.00, 323.00, 21.00, 19, ABplpaapp
64, 64, 64, -1, 304.00, 310.00, 21.00, 19, ABplpaapa
65, 65, 65, -1, 265.00, 320.00, 29.00, 19, ABplaappa
66, 66, 66, -1, 244.00, 334.00, 26.00, 23, ABplaappp
67, 67, 67, -1, 310.00, 288.00, 32.00, 19, ABplaapaa
68, 68, 68, -1, 275.00, 300.00, 33.00, 21, ABplaapap
69, 69, 69, -1, 325.00, 265.00, 34.00, 19, ABplaaaaa
70, 70, 70, -1, 295.00, 261.00, 33.00, 19, ABplaaaap
71, 71, 71, -1, 254.00, 269.00, 33.00, 21, ABplaaapp
72, 72, 72, -1, 278.00, 255.00, 34.00, 17, ABplaaapa
73, 73, 73, -1, 159.00, 350.00, 17.00, 19, ABplapppp
74, 74, 74, -1, 182.00, 346.00, 19.00, 19, ABplapppa
75, 75, 75, -1, 218.00, 349.00, 25.00, 21, ABplappaa
76, 76, 76, -1, 188.00, 352.00, 23.00, 21, ABplappap
77, 77, 77, -1, 218.00, 327.00, 31.00, 19, ABplapaap
78, 78, 78, -1, 237.00, 311.00, 33.00, 19, ABplapaaa
79, 79, 79, -1, 155.00, 358.00, 24.00, 21, ABplapapp
80, 80, 80, -1, 190.00, 351.00, 29.00, 21, ABplapapa
81, 81, 81, -1, 186.00, 194.00, 10.00, 19, ABprpapaa
82, 82, 82, -1, 168.00, 194.00, 13.00, 19, ABprpapap
83, 83, 83, -1, 156.00, 225.00, 11.00, 19, ABprpappp
84, 84, 84, -1, 181.00, 218.00, 10.00, 19, ABprpappa
85, 85, 85, -1, 214.00, 167.00, 18.00, 19, ABprpaaaa
86, 86, 86, -1, 185.00, 176.00, 18.00, 19, ABprpaaap
87, 87, 87, -1, 205.00, 178.00, 23.00, 19, ABprpaapa
88, 88, 88, -1, 170.00, 192.00, 22.00, 19, ABprpaapp
89, 89, 89, -1, 110.00, 218.00, 14.00, 19, ABprpppaa
90, 90, 90, -1, 89.00, 244.00, 14.00, 19, ABprpppap
91, 91, 91, -1, 132.00, 235.00, 12.00, 19, ABprppppa
92, 92, 92, -1, 103.00, 259.00, 11.00, 19, ABprppppp
93, 93, 93, -1, 131.00, 210.00, 13.00, 17, ABprppaap
94, 94, 94, -1, 152.00, 198.00, 17.00, 17, ABprppaaa
95, 95, 95, -1, 134.00, 218.00, 18.00, 21, ABprppapa
96, 96, 96, -1, 114.00, 240.00, 19.00, 19, ABprppapp
97, 97, 97, -1, 224.00, 172.00, 30.00, 21, ABpraapaa
98, 98, 98, -1, 198.00, 191.00, 31.00, 21, ABpraapap
99, 99, 99, -1, 148.00, 204.00, 25.00, 21, ABpraappp
100, 100, 100, -1, 181.00, 186.00, 28.00, 21, ABpraappa
101, 101, 101, -1, 260.00, 163.00, 26.00, 17, ABpraaapa
102, 102, 102, -1, 233.00, 177.00, 26.00, 21, ABpraaapp
103, 103, 103, -1, 266.00, 160.00, 21.00, 19, ABpraaaaa
104, 104, 104, -1, 238.00, 162.00, 22.00, 19, ABpraaaap
105, 105, 105, -1, 93.00, 239.00, 22.00, 19, ABprappap
106, 106, 106, -1, 116.00, 217.00, 22.00, 19, ABprappaa
107, 107, 107, -1, 77.00, 252.00, 20.00, 19, ABprapppa
108, 108, 108, -1, 76.00, 271.00, 16.00, 19, ABprapppp
109, 109, 109, -1, 169.00, 207.00, 33.00, 19, ABprapaaa
110, 110, 110, -1, 147.00, 217.00, 31.00, 19, ABprapaap
111, 111, 111, -1, 85.00, 264.00, 27.00, 19, ABprapapp
112, 112, 112, -1, 112.00, 235.00, 30.00, 21, ABprapapa
113, 113, 113, -1, 167.00, 219.00, 21.00, 20, MSpppp
114, 114, 114, -1, 210.00, 216.00, 19.00, 17, MSpppaa
115, 115, 115, -1, 184.00, 230.00, 15.00, 15, MSpppap
116, 116, 116, -1, 236.00, 208.00, 19.00, 15, MSppaap
117, 117, 117, -1, 256.00, 183.00, 20.00, 19, MSppaaa
118, 118, 118, -1, 191.00, 209.00, 25.00, 19, MSppapp
119, 119, 119, -1, 223.00, 198.00, 23.00, 19, MSppapa
120, 120, 120, -1, 205.00, 254.00, 14.00, 19, MSpapap
121, 121, 121, -1, 233.00, 238.00, 16.00, 21, MSpapaa
122, 122, 122, -1, 193.00, 251.00, 10.00, 19, MSpappa
123, 123, 123, -1, 167.00, 268.00, 11.00, 21, MSpappp
124, 124, 124, -1, 272.00, 197.00, 25.00, 21, MSpaaap
125, 125, 125, -1, 302.00, 185.00, 20.00, 19, MSpaaaa
126, 126, 126, -1, 268.00, 212.00, 21.00, 21, MSpaapa
127, 127, 127, -1, 242.00, 229.00, 20.00, 17, MSpaapp
128, 128, 128, -1, 229.00, 305.00, 21.00, 21, MSappp
129, 129, 129, -1, 238.00, 281.00, 17.00, 21, MSappa
130, 130, 130, -1, 246.00, 296.00, 24.00, 19, MSapapp
131, 131, 131, -1, 278.00, 288.00, 19.00, 19, MSapapa
132, 132, 132, -1, 282.00, 264.00, 21.00, 17, MSapaap
133, 133, 133, -1, 319.00, 255.00, 21.00, 17, MSapaaa
134, 134, 134, -1, 325.00, 208.00, 21.00, 19, MSaaaaa
135, 135, 135, -1, 306.00, 235.00, 26.00, 21, MSaaaap
136, 136, 136, -1, 302.00, 227.00, 21.00, 21, MSaaapa
137, 137, 137, -1, 263.00, 241.00, 21.00, 17, MSaaapp
138, 138, 138, -1, 193.00, 283.00, 11.00, 19, MSaappp
139, 139, 139, -1, 226.00, 266.00, 10.00, 17, MSaappa
140, 140, 140, -1, 276.00, 252.00, 17.00, 21, MSaapaa
141, 141, 141, -1, 239.00, 263.00, 13.00, 17, MSaapap
142, 142, 142, -1, 218.00, 278.00, 23.00, 23, Ealp
143, 143, 143, -1, 137.00, 307.00, 24.00, 27, Eplp
144, 144, 144, -1, 135.00, 346.00, 19.00, 19, Cappa
145, 145, 145, -1, 106.00, 339.00, 17.00, 19, Cappp
146, 146, 146, -1, 155.00, 314.00, 12.00, 17, Capaa
147, 147, 147, -1, 122.00, 328.00, 14.00, 17, Capap
148, 148, 148, -1, 122.00, 339.00, 29.00, 23, Caaap
149, 149, 149, -1, 160.00, 317.00, 32.00, 25, Caaaa
150, 150, 150, -1, 97.00, 359.00, 21.00, 19, Caapp
151, 151, 151, -1, 119.00, 361.00, 25.00, 21, Caapa
152, 152, 152, -1, 77.00, 341.00, 20.00, 21, Cpapp
153, 153, 153, -1, 85.00, 325.00, 27.00, 23, Cpapa
154, 154, 154, -1, 161.00, 273.00, 33.00, 23, Cpaaa
155, 155, 155, -1, 108.00, 299.00, 33.00, 23, Cpaap
156, 156, 156, -1, 113.00, 287.00, 11.00, 23, Cppaa
157, 157, 157, -1, 93.00, 311.00, 12.00, 21, Cppap
158, 158, 158, -1, 96.00, 315.00, 17.00, 21, Cpppp
159, 159, 159, -1, 82.00, 299.00, 21.00, 23, Cpppa
160, 160, 160, -1, 187.00, 299.00, 15.00, 21, Daa
161, 161, 161, -1, 176.00, 304.00, 20.00, 21, Dap
162, 162, 162, -1, 142.00, 258.00, 13.00, 21, Dpa
163, 163, 163, -1, 121.00, 277.00, 17.00, 23, Dpp
164, 164, 164, -1, 188.00, 267.00, 17.00, 21, Z3
165, 165, 165, -1, 153.00, 273.00, 20.00, 21, Z2
167, 167, 167, -1, 281.00, 305.00, 26.00, 21, ABalppppp
168, 168, 168, -1, 306.00, 291.00, 27.00, 19, ABalppppa
169, 169, 169, -1, 342.00, 266.00, 25.00, 19, ABalpppaa
170, 170, 170, -1, 322.00, 284.00, 24.00, 19, ABalpppap
171, 171, 171, -1, 354.00, 262.00, 19.00, 19, ABalppaaa
172, 172, 172, -1, 339.00, 278.00, 19.00, 17, ABalppaap
173, 173, 173, -1, 292.00, 280.00, 13.00, 21, ABalppapp
174, 174, 174, -1, 318.00, 273.00, 14.00, 19, ABalppapa
175, 175, 175, -1, 315.00, 247.00, 11.00, 17, ABalpapap
176, 176, 176, -1, 340.00, 247.00, 13.00, 19, ABalpapaa
177, 177, 177, -1, 293.00, 248.00, 11.00, 19, ABalpappa
178, 178, 178, -1, 268.00, 247.00, 11.00, 21, ABalpappp
179, 179, 179, -1, 337.00, 221.00, 12.00, 19, ABalpaaap
180, 180, 180, -1, 343.00, 200.00, 14.00, 19, ABalpaaaa
181, 181, 181, -1, 320.00, 245.00, 16.00, 19, ABalpaapp
182, 182, 182, -1, 353.00, 230.00, 17.00, 21, ABalpaapa
183, 183, 183, -1, 146.00, 247.00, 24.00, 27, Epra
184, 184, 184, -1, 229.00, 228.00, 25.00, 27, Eara
185, 185, 185, -1, 192.00, 245.00, 23.00, 27, Earp
186, 186, 186, -1, 259.00, 256.00, 26.00, 25, Eala
187, 187, 187, -1, 185.00, 283.00, 26.00, 29, Epla
188, 188, 188, -1, 107.00, 285.00, 24.00, 27, Eprp
