1, 1, 1, -1, 278.00, 211.00, 15.00, 19, ABaraappa
2, 2, 2, -1, 254.00, 223.00, 14.00, 19, ABaraappp
3, 3, 3, -1, 296.00, 231.00, 15.00, 19, ABaraapap
4, 4, 4, -1, 317.00, 213.00, 15.00, 17, ABaraapaa
5, 5, 5, -1, 266.00, 176.00, 13.00, 17, ABaraaapp
6, 6, 6, -1, 294.00, 179.00, 13.00, 21, ABaraaapa
7, 7, 7, -1, 323.00, 185.00, 17.00, 17, ABaraaaaa
8, 8, 8, -1, 300.00, 199.00, 15.00, 17, ABaraaaap
9, 9, 9, -1, 238.00, 207.00, 11.00, 19, ABarapapa
10, 10, 10, -1, 224.00, 231.00, 11.00, 23, ABarapapp
11, 11, 11, -1, 292.00, 202.00, 10.00, 19, ABarapaaa
12, 12, 12, -1, 265.00, 201.00, 11.00, 19, ABarapaap
13, 13, 13, -1, 219.00, 188.00, 14.00, 19, ABarapppa
14, 14, 14, -1, 196.00, 195.00, 14.00, 17, ABarapppp
15, 15, 15, -1, 241.00, 180.00, 12.00, 17, ABarappaa
16, 16, 16, -1, 212.00, 208.00, 11.00, 19, ABarappap
17, 17, 17, -1, 215.00, 213.00, 31.00, 21, ABarpappp
18, 18, 18, -1, 233.00, 196.00, 33.00, 17, ABarpappa
19, 19, 19, -1, 282.00, 196.00, 35.00, 21, ABarpapaa
20, 20, 20, -1, 257.00, 184.00, 34.00, 21, ABarpapap
21, 21, 21, -1, 214.00, 260.00, 33.00, 19, ABarpaapp
22, 22, 22, -1, 254.00, 237.00, 32.00, 21, ABarpaapa
23, 23, 23, -1, 309.00, 225.00, 34.00, 19, ABarpaaaa
24, 24, 24, -1, 281.00, 231.00, 32.00, 17, ABarpaaap
25, 25, 25, -1, 231.00, 284.00, 33.00, 19, ABarppaaa
26, 26, 26, -1, 208.00, 297.00, 32.00, 19, ABarppaap
27, 27, 27, -1, 156.00, 340.00, 27.00, 19, ABarppapp
28, 28, 28, -1, 191.00, 321.00, 31.00, 19, ABarppapa
29, 29, 29, -1, 125.00, 271.00, 31.00, 19, ABarppppp
30, 30, 30, -1, 153.00, 243.00, 30.00, 17, ABarppppa
31, 31, 31, -1, 197.00, 221.00, 34.00, 17, ABarpppaa
32, 32, 32, -1, 176.00, 234.00, 33.00, 19, ABarpppap
33, 33, 33, -1, 255.00, 205.00, 30.00, 21, ABalapppp
34, 34, 34, -1, 296.00, 201.00, 31.00, 21, ABalapppa
35, 35, 35, -1, 331.00, 199.00, 29.00, 19, ABalappaa
36, 36, 36, -1, 309.00, 199.00, 28.00, 19, ABalappap
37, 37, 37, -1, 304.00, 264.00, 27.00, 19, ABalapapp
38, 38, 38, -1, 324.00, 244.00, 31.00, 21, ABalapapa
39, 39, 39, -1, 351.00, 225.00, 26.00, 19, ABalapaaa
40, 40, 40, -1, 340.00, 247.00, 27.00, 19, ABalapaap
41, 41, 41, -1, 322.00, 169.00, 21.00, 19, ABalaapaa
42, 42, 42, -1, 294.00, 164.00, 20.00, 19, ABalaapap
43, 43, 43, -1, 297.00, 174.00, 25.00, 19, ABalaappa
44, 44, 44, -1, 277.00, 179.00, 29.00, 21, ABalaappp
45, 45, 45, -1, 355.00, 215.00, 22.00, 19, ABalaaaal
46, 46, 46, -1, 346.00, 189.00, 18.00, 19, ABalaaaar
47, 47, 47, -1, 328.00, 176.00, 26.00, 19, ABalaaapp
48, 48, 48, -1, 345.00, 193.00, 24.00, 19, ABalaaapa
49, 49, 49, -1, 208.00, 320.00, 14.00, 21, ABplppppa
50, 50, 50, -1, 181.00, 321.00, 10.00, 19, ABplppppp
51, 51, 51, -1, 183.00, 340.00, 14.00, 19, ABplpppap
52, 52, 52, -1, 212.00, 345.00, 16.00, 21, ABplpppaa
53, 53, 53, -1, 204.00, 330.00, 20.00, 21, ABplppapp
54, 54, 54, -1, 236.00, 330.00, 19.00, 17, ABplppapa
55, 55, 55, -1, 239.00, 327.00, 14.00, 19, ABplppaap
56, 56, 56, -1, 261.00, 325.00, 16.00, 19, ABplppaaa
57, 57, 57, -1, 242.00, 296.00, 10.00, 21, ABplpappa
58, 58, 58, -1, 216.00, 306.00, 10.00, 19, ABplpappp
59, 59, 59, -1, 263.00, 304.00, 13.00, 19, ABplpapap
60, 60, 60, -1, 279.00, 294.00, 10.00, 17, ABplpapaa
61, 61, 61, -1, 314.00, 291.00, 17.00, 19, ABplpaaaa
62, 62, 62, -1, 288.00, 314.00, 16.00, 19, ABplpaaap
63, 63, 63, -1, 265.00, 326.00, 21.00, 19, ABplpaapp
64, 64, 64, -1, 302.00, 308.00, 21.00, 19, ABplpaapa
65, 65, 65, -1, 264.00, 323.00, 28.00, 19, ABplaappa
66, 66, 66, -1, 240.00, 335.00, 28.00, 21, ABplaappp
67, 67, 67, -1, 314.00, 284.00, 32.00, 21, ABplaapaa
68, 68, 68, -1, 279.00, 299.00, 33.00, 21, ABplaapap
69, 69, 69, -1, 324.00, 258.00, 34.00, 19, ABplaaaaa
70, 70, 70, -1, 297.00, 260.00, 33.00, 19, ABplaaaap
71, 71, 71, -1, 252.00, 271.00, 33.00, 19, ABplaaapp
72, 72, 72, -1, 277.00, 253.00, 34.00, 17, ABplaaapa
73, 73, 73, -1, 157.00, 350.00, 16.00, 19, ABplapppp
74, 74, 74, -1, 180.00, 346.00, 18.00, 17, ABplapppa
75, 75, 75, -1, 213.00, 346.00, 25.00, 21, ABplappaa
76, 76, 76, -1, 186.00, 356.00, 23.00, 21, ABplappap
77, 77, 77, -1, 216.00, 328.00, 31.00, 21, ABplapaap
78, 78, 78, -1, 245.00, 310.00, 33.00, 21, ABplapaaa
79, 79, 79, -1, 155.00, 357.00, 23.00, 21, ABplapapp
80, 80, 80, -1, 186.00, 349.00, 30.00, 21, ABplapapa
81, 81, 81, -1, 181.00, 196.00, 10.00, 17, ABprpapaa
82, 82, 82, -1, 167.00, 194.00, 14.00, 19, ABprpapap
83, 83, 83, -1, 153.00, 224.00, 10.00, 21, ABprpappp
84, 84, 84, -1, 180.00, 221.00, 10.00, 19, ABprpappa
85, 85, 85, -1, 216.00, 168.00, 17.00, 19, ABprpaaaa
86, 86, 86, -1, 186.00, 175.00, 17.00, 19, ABprpaaap
87, 87, 87, -1, 204.00, 173.00, 21.00, 21, ABprpaapa
88, 88, 88, -1, 170.00, 190.00, 21.00, 19, ABprpaapp
89, 89, 89, -1, 110.00, 218.00, 15.00, 19, ABprpppaa
90, 90, 90, -1, 88.00, 243.00, 14.00, 19, ABprpppap
91, 91, 91, -1, 132.00, 234.00, 13.00, 19, ABprppppa
92, 92, 92, -1, 106.00, 257.00, 12.00, 19, ABprppppp
93, 93, 93, -1, 132.00, 207.00, 14.00, 19, ABprppaap
94, 94, 94, -1, 152.00, 199.00, 17.00, 19, ABprppaaa
95, 95, 95, -1, 135.00, 218.00, 18.00, 19, ABprppapa
96, 96, 96, -1, 112.00, 239.00, 19.00, 19, ABprppapp
97, 97, 97, -1, 226.00, 172.00, 30.00, 19, ABpraapaa
98, 98, 98, -1, 200.00, 188.00, 31.00, 21, ABpraapap
99, 99, 99, -1, 150.00, 202.00, 26.00, 21, ABpraappp
100, 100, 100, -1, 181.00, 187.00, 28.00, 21, ABpraappa
101, 101, 101, -1, 262.00, 162.00, 26.00, 17, ABpraaapa
102, 102, 102, -1, 232.00, 176.00, 26.00, 21, ABpraaapp
103, 103, 103, -1, 265.00, 159.00, 21.00, 17, ABpraaaaa
104, 104, 104, -1, 236.00, 163.00, 21.00, 19, ABpraaaap
105, 105, 105, -1, 92.00, 240.00, 22.00, 21, ABprappap
106, 106, 106, -1, 115.00, 218.00, 23.00, 21, ABprappaa
107, 107, 107, -1, 77.00, 252.00, 19.00, 19, ABprapppa
108, 108, 108, -1, 79.00, 272.00, 16.00, 19, ABprapppp
109, 109, 109, -1, 169.00, 206.00, 33.00, 19, ABprapaaa
110, 110, 110, -1, 143.00, 218.00, 30.00, 19, ABprapaap
111, 111, 111, -1, 84.00, 266.00, 26.00, 19, ABprapapp
112, 112, 112, -1, 109.00, 237.00, 30.00, 21, ABprapapa
113, 113, 113, 114, 169.00, 220.00, 20.00, 19, MSpppp
114, 114, 115, -1, 210.00, 212.00, 19.00, 17, MSpppaa
115, 115, 116, -1, 183.00, 235.00, 15.00, 17, MSpppap
116, 116, 117, -1, 235.00, 202.00, 19.00, 17, MSppaap
117, 117, 118, -1, 258.00, 181.00, 19.00, 19, MSppaaa
118, 118, 119, -1, 195.00, 206.00, 25.00, 19, MSppapp
119, 119, 120, -1, 225.00, 196.00, 23.00, 19, MSppapa
120, 120, 121, -1, 206.00, 256.00, 14.00, 19, MSpapap
121, 121, 122, -1, 234.00, 235.00, 17.00, 19, MSpapaa
122, 122, 123, -1, 195.00, 249.00, 10.00, 19, MSpappa
123, 123, 124, -1, 170.00, 269.00, 11.00, 21, MSpappp
124, 124, 125, -1, 273.00, 198.00, 25.00, 21, MSpaaap
125, 125, 126, -1, 304.00, 188.00, 20.00, 19, MSpaaaa
126, 126, 127, -1, 266.00, 210.00, 21.00, 21, MSpaapa
127, 127, 128, -1, 243.00, 227.00, 21.00, 15, MSpaapp
128, 128, 129, -1, 229.00, 305.00, 22.00, 19, MSappp
129, 129, 130, -1, 240.00, 277.00, 18.00, 21, MSappa
130, 130, 131, -1, 247.00, 294.00, 26.00, 19, MSapapp
131, 131, 132, -1, 275.00, 288.00, 20.00, 19, MSapapa
132, 132, 133, -1, 282.00, 265.00, 21.00, 17, MSapaap
133, 133, 134, -1, 321.00, 254.00, 21.00, 19, MSapaaa
134, 134, 135, -1, 327.00, 208.00, 21.00, 19, MSaaaaa
135, 135, 136, -1, 304.00, 233.00, 26.00, 21, MSaaaap
136, 136, 137, -1, 302.00, 226.00, 21.00, 21, MSaaapa
137, 137, 138, -1, 266.00, 242.00, 21.00, 17, MSaaapp
138, 138, 139, -1, 196.00, 283.00, 11.00, 19, MSaappp
139, 139, 140, -1, 229.00, 271.00, 10.00, 17, MSaappa
140, 140, 141, -1, 272.00, 253.00, 17.00, 21, MSaapaa
141, 141, 142, -1, 237.00, 261.00, 13.00, 19, MSaapap
142, 142, 143, -1, 220.00, 277.00, 23.00, 25, Ealp
143, 143, 144, -1, 139.00, 313.00, 23.00, 25, Eplp
144, 144, 145, -1, 135.00, 344.00, 18.00, 19, Cappa
145, 145, 146, -1, 108.00, 338.00, 17.00, 19, Cappp
146, 146, 147, -1, 157.00, 309.00, 12.00, 21, Capaa
147, 147, 148, -1, 124.00, 326.00, 14.00, 21, Capap
148, 148, 149, -1, 120.00, 339.00, 28.00, 23, Caaap
149, 149, 150, -1, 162.00, 313.00, 33.00, 23, Caaaa
150, 150, 151, -1, 95.00, 354.00, 21.00, 19, Caapp
151, 151, 152, -1, 117.00, 365.00, 24.00, 19, Caapa
152, 152, 153, -1, 75.00, 337.00, 19.00, 19, Cpapp
153, 153, 154, -1, 85.00, 328.00, 26.00, 23, Cpapa
154, 154, 155, -1, 164.00, 268.00, 31.00, 21, Cpaaa
155, 155, 156, -1, 110.00, 302.00, 32.00, 25, Cpaap
156, 156, 157, -1, 117.00, 285.00, 12.00, 21, Cppaa
157, 157, 158, -1, 96.00, 307.00, 12.00, 21, Cppap
158, 158, 159, -1, 98.00, 311.00, 16.00, 19, Cpppp
159, 159, 160, -1, 84.00, 299.00, 21.00, 23, Cpppa
160, 160, 161, -1, 193.00, 296.00, 16.00, 21, Daa
161, 161, 162, -1, 179.00, 303.00, 20.00, 21, Dap
162, 162, 163, -1, 148.00, 254.00, 14.00, 21, Dpa
163, 163, 164, -1, 121.00, 269.00, 18.00, 25, Dpp
164, 164, 165, -1, 189.00, 265.00, 17.00, 21, Z3
165, 165, 166, -1, 154.00, 275.00, 20.00, 21, Z2
167, 167, 168, -1, 286.00, 311.00, 26.00, 23, ABalppppp
168, 168, 169, -1, 305.00, 289.00, 27.00, 21, ABalppppa
169, 169, 170, -1, 342.00, 268.00, 25.00, 19, ABalpppaa
170, 170, 171, -1, 325.00, 290.00, 24.00, 21, ABalpppap
171, 171, 172, -1, 353.00, 263.00, 19.00, 17, ABalppaaa
172, 172, 173, -1, 336.00, 278.00, 19.00, 17, ABalppaap
173, 173, 174, -1, 293.00, 286.00, 14.00, 21, ABalppapp
174, 174, 175, -1, 316.00, 274.00, 14.00, 19, ABalppapa
175, 175, 176, -1, 311.00, 253.00, 11.00, 19, ABalpapap
176, 176, 177, -1, 337.00, 246.00, 12.00, 21, ABalpapaa
177, 177, 178, -1, 290.00, 243.00, 11.00, 19, ABalpappa
178, 178, 179, -1, 268.00, 248.00, 11.00, 21, ABalpappp
179, 179, 180, -1, 336.00, 222.00, 12.00, 19, ABalpaaap
180, 180, 181, -1, 336.00, 199.00, 13.00, 19, ABalpaaaa
181, 181, 182, -1, 324.00, 246.00, 17.00, 19, ABalpaapp
182, 182, 183, -1, 350.00, 228.00, 16.00, 21, ABalpaapa
183, 183, 184, -1, 150.00, 247.00, 23.00, 23, Epra
184, 184, 185, -1, 234.00, 226.00, 25.00, 25, Eara
185, 185, 186, -1, 196.00, 244.00, 22.00, 25, Earp
186, 186, 187, -1, 262.00, 257.00, 26.00, 27, Eala
187, 187, 188, -1, 184.00, 280.00, 27.00, 27, Epla
188, 188, 189, -1, 110.00, 287.00, 24.00, 23, Eprp
