1, 1, 1, -1, 279.00, 208.00, 15.00, 21, ABaraappa
2, 2, 2, -1, 254.00, 223.00, 14.00, 19, ABaraappp
3, 3, 3, -1, 296.00, 234.00, 16.00, 21, ABaraapap
4, 4, 4, -1, 317.00, 215.00, 16.00, 19, ABaraapaa
5, 5, 5, -1, 269.00, 176.00, 13.00, 17, ABaraaapp
6, 6, 6, -1, 296.00, 179.00, 13.00, 19, ABaraaapa
7, 7, 7, -1, 322.00, 185.00, 16.00, 17, ABaraaaaa
8, 8, 8, -1, 303.00, 202.00, 15.00, 17, ABaraaaap
9, 9, 9, -1, 241.00, 205.00, 11.00, 19, ABarapapa
10, 10, 10, -1, 225.00, 232.00, 10.00, 21, ABarapapp
11, 11, 11, -1, 295.00, 204.00, 11.00, 19, ABarapaaa
12, 12, 12, -1, 269.00, 203.00, 11.00, 19, ABarapaap
13, 13, 13, -1, 220.00, 187.00, 14.00, 19, ABarapppa
14, 14, 14, -1, 196.00, 194.00, 14.00, 19, ABarapppp
15, 15, 15, -1, 246.00, 180.00, 12.00, 19, ABarappaa
16, 16, 16, -1, 214.00, 207.00, 11.00, 17, ABarappap
17, 17, 17, -1, 212.00, 212.00, 30.00, 19, ABarpappp
18, 18, 18, -1, 231.00, 195.00, 33.00, 19, ABarpappa
19, 19, 19, -1, 279.00, 195.00, 35.00, 21, ABarpapaa
20, 20, 20, -1, 255.00, 187.00, 34.00, 19, ABarpapap
21, 21, 21, -1, 211.00, 259.00, 33.00, 21, ABarpaapp
22, 22, 22, -1, 253.00, 238.00, 33.00, 21, ABarpaapa
23, 23, 23, -1, 311.00, 223.00, 34.00, 21, ABarpaaaa
24, 24, 24, -1, 282.00, 229.00, 33.00, 17, ABarpaaap
25, 25, 25, -1, 230.00, 284.00, 33.00, 19, ABarppaaa
26, 26, 26, -1, 208.00, 299.00, 32.00, 19, ABarppaap
27, 27, 27, -1, 154.00, 341.00, 27.00, 19, ABarppapp
28, 28, 28, -1, 190.00, 323.00, 31.00, 21, ABarppapa
29, 29, 29, -1, 122.00, 268.00, 31.00, 21, ABarppppp
30, 30, 30, -1, 152.00, 242.00, 30.00, 17, ABarppppa
31, 31, 31, -1, 197.00, 223.00, 34.00, 19, ABarpppaa
32, 32, 32, -1, 174.00, 232.00, 33.00, 19, ABarpppap
33, 33, 33, -1, 255.00, 206.00, 30.00, 21, ABalapppp
34, 34, 34, -1, 298.00, 196.00, 33.00, 21, ABalapppa
35, 35, 35, -1, 331.00, 198.00, 29.00, 19, ABalappaa
36, 36, 36, -1, 309.00, 199.00, 28.00, 19, ABalappap
37, 37, 37, -1, 300.00, 265.00, 27.00, 19, ABalapapp
38, 38, 38, -1, 323.00, 242.00, 30.00, 19, ABalapapa
39, 39, 39, -1, 351.00, 229.00, 26.00, 19, ABalapaaa
40, 40, 40, -1, 341.00, 248.00, 27.00, 19, ABalapaap
41, 41, 41, -1, 323.00, 170.00, 20.00, 19, ABalaapaa
42, 42, 42, -1, 297.00, 164.00, 21.00, 19, ABalaapap
43, 43, 43, -1, 296.00, 174.00, 26.00, 19, ABalaappa
44, 44, 44, -1, 275.00, 178.00, 29.00, 21, ABalaappp
45, 45, 45, -1, 355.00, 216.00, 22.00, 19, ABalaaaal
46, 46, 46, -1, 347.00, 191.00, 18.00, 19, ABalaaaar
47, 47, 47, -1, 330.00, 175.00, 25.00, 19, ABalaaapp
48, 48, 48, -1, 346.00, 196.00, 24.00, 17, ABalaaapa
49, 49, 49, -1, 207.00, 323.00, 13.00, 21, ABplppppa
50, 50, 50, -1, 179.00, 323.00, 10.00, 19, ABplppppp
51, 51, 51, -1, 180.00, 340.00, 14.00, 19, ABplpppap
52, 52, 52, -1, 210.00, 344.00, 16.00, 19, ABplpppaa
53, 53, 53, -1, 206.00, 331.00, 21.00, 21, ABplppapp
54, 54, 54, -1, 234.00, 331.00, 19.00, 19, ABplppapa
55, 55, 55, -1, 239.00, 327.00, 14.00, 19, ABplppaap
56, 56, 56, -1, 260.00, 326.00, 16.00, 19, ABplppaaa
57, 57, 57, -1, 240.00, 293.00, 11.00, 21, ABplpappa
58, 58, 58, -1, 216.00, 307.00, 10.00, 19, ABplpappp
59, 59, 59, -1, 261.00, 304.00, 13.00, 19, ABplpapap
60, 60, 60, -1, 279.00, 296.00, 11.00, 19, ABplpapaa
61, 61, 61, -1, 314.00, 293.00, 17.00, 19, ABplpaaaa
62, 62, 62, -1, 287.00, 316.00, 16.00, 19, ABplpaaap
63, 63, 63, -1, 263.00, 326.00, 21.00, 19, ABplpaapp
64, 64, 64, -1, 300.00, 307.00, 21.00, 19, ABplpaapa
65, 65, 65, -1, 264.00, 324.00, 28.00, 17, ABplaappa
66, 66, 66, -1, 241.00, 334.00, 27.00, 25, ABplaappp
67, 67, 67, -1, 316.00, 284.00, 31.00, 19, ABplaapaa
68, 68, 68, -1, 283.00, 299.00, 33.00, 19, ABplaapap
69, 69, 69, -1, 323.00, 258.00, 34.00, 19, ABplaaaaa
70, 70, 70, -1, 295.00, 259.00, 33.00, 19, ABplaaaap
71, 71, 71, -1, 251.00, 271.00, 33.00, 21, ABplaaapp
72, 72, 72, -1, 277.00, 250.00, 34.00, 19, ABplaaapa
73, 73, 73, -1, 156.00, 352.00, 17.00, 19, ABplapppp
74, 74, 74, -1, 180.00, 349.00, 18.00, 19, ABplapppa
75, 75, 75, -1, 212.00, 347.00, 26.00, 21, ABplappaa
76, 76, 76, -1, 184.00, 355.00, 23.00, 21, ABplappap
77, 77, 77, -1, 217.00, 329.00, 31.00, 19, ABplapaap
78, 78, 78, -1, 243.00, 311.00, 33.00, 21, ABplapaaa
79, 79, 79, -1, 154.00, 358.00, 23.00, 21, ABplapapp
80, 80, 80, -1, 183.00, 350.00, 30.00, 19, ABplapapa
81, 81, 81, -1, 184.00, 198.00, 10.00, 19, ABprpapaa
82, 82, 82, -1, 166.00, 195.00, 13.00, 19, ABprpapap
83, 83, 83, -1, 155.00, 224.00, 10.00, 19, ABprpappp
84, 84, 84, -1, 180.00, 223.00, 11.00, 19, ABprpappa
85, 85, 85, -1, 219.00, 168.00, 16.00, 19, ABprpaaaa
86, 86, 86, -1, 188.00, 174.00, 17.00, 19, ABprpaaap
87, 87, 87, -1, 208.00, 174.00, 21.00, 21, ABprpaapa
88, 88, 88, -1, 172.00, 187.00, 21.00, 19, ABprpaapp
89, 89, 89, -1, 111.00, 217.00, 14.00, 19, ABprpppaa
90, 90, 90, -1, 88.00, 244.00, 14.00, 19, ABprpppap
91, 91, 91, -1, 132.00, 234.00, 13.00, 19, ABprppppa
92, 92, 92, -1, 107.00, 256.00, 11.00, 19, ABprppppp
93, 93, 93, -1, 135.00, 208.00, 14.00, 17, ABprppaap
94, 94, 94, -1, 156.00, 199.00, 17.00, 19, ABprppaaa
95, 95, 95, -1, 134.00, 218.00, 18.00, 19, ABprppapa
96, 96, 96, -1, 112.00, 238.00, 18.00, 19, ABprppapp
97, 97, 97, -1, 227.00, 172.00, 30.00, 19, ABpraapaa
98, 98, 98, -1, 198.00, 188.00, 31.00, 21, ABpraapap
99, 99, 99, -1, 151.00, 203.00, 25.00, 23, ABpraappp
100, 100, 100, -1, 182.00, 185.00, 27.00, 21, ABpraappa
101, 101, 101, -1, 260.00, 164.00, 26.00, 19, ABpraaapa
102, 102, 102, -1, 233.00, 175.00, 25.00, 21, ABpraaapp
103, 103, 103, -1, 267.00, 159.00, 21.00, 17, ABpraaaaa
104, 104, 104, -1, 239.00, 161.00, 21.00, 19, ABpraaaap
105, 105, 105, -1, 92.00, 239.00, 21.00, 19, ABprappap
106, 106, 106, -1, 116.00, 216.00, 23.00, 21, ABprappaa
107, 107, 107, -1, 77.00, 254.00, 19.00, 19, ABprapppa
108, 108, 108, -1, 80.00, 272.00, 15.00, 19, ABprapppp
109, 109, 109, -1, 168.00, 203.00, 32.00, 19, ABprapaaa
110, 110, 110, -1, 143.00, 217.00, 30.00, 19, ABprapaap
111, 111, 111, -1, 83.00, 264.00, 26.00, 19, ABprapapp
112, 112, 112, -1, 109.00, 235.00, 29.00, 21, ABprapapa
113, 113, 113, -1, 181.00, 212.00, 20.00, 17, MSppppa
114, 113, 114, -1, 160.00, 230.00, 20.00, 15, MSppppp
115, 114, 115, -1, 215.00, 212.00, 18.00, 17, MSpppaa
116, 115, 116, -1, 183.00, 234.00, 15.00, 17, MSpppap
117, 116, 117, -1, 238.00, 199.00, 19.00, 17, MSppaap
118, 117, 118, -1, 260.00, 181.00, 19.00, 17, MSppaaa
119, 118, 119, -1, 198.00, 205.00, 24.00, 19, MSppapp
120, 119, 120, -1, 227.00, 197.00, 23.00, 19, MSppapa
121, 120, 121, -1, 205.00, 255.00, 13.00, 19, MSpapap
122, 121, 122, -1, 234.00, 236.00, 16.00, 19, MSpapaa
123, 122, 123, -1, 196.00, 249.00, 10.00, 19, MSpappa
124, 123, 124, -1, 173.00, 270.00, 11.00, 21, MSpappp
125, 124, 125, -1, 274.00, 201.00, 25.00, 21, MSpaaap
126, 125, 126, -1, 305.00, 189.00, 21.00, 17, MSpaaaa
127, 126, 127, -1, 267.00, 212.00, 21.00, 21, MSpaapa
128, 127, 128, -1, 242.00, 229.00, 21.00, 15, MSpaapp
129, 128, 129, 130, 226.00, 306.00, 22.00, 19, MSappp
130, 129, 131, -1, 239.00, 279.00, 17.00, 19, MSappa
131, 130, 132, -1, 247.00, 294.00, 26.00, 19, MSapapp
132, 131, 133, -1, 272.00, 288.00, 20.00, 19, MSapapa
133, 132, 134, -1, 282.00, 266.00, 21.00, 17, MSapaap
134, 133, 135, -1, 320.00, 256.00, 21.00, 19, MSapaaa
135, 134, 136, -1, 328.00, 210.00, 21.00, 17, MSaaaaa
136, 135, 137, -1, 306.00, 234.00, 26.00, 19, MSaaaap
137, 136, 138, -1, 301.00, 230.00, 21.00, 21, MSaaapa
138, 137, 139, -1, 266.00, 243.00, 21.00, 17, MSaaapp
139, 138, 140, -1, 199.00, 283.00, 12.00, 19, MSaappp
140, 139, 141, -1, 227.00, 270.00, 10.00, 17, MSaappa
141, 140, 142, -1, 271.00, 253.00, 17.00, 19, MSaapaa
142, 141, 143, -1, 236.00, 259.00, 13.00, 17, MSaapap
143, 142, 144, -1, 220.00, 276.00, 24.00, 23, Ealp
144, 143, 145, -1, 140.00, 311.00, 24.00, 29, Eplp
145, 144, 146, -1, 135.00, 343.00, 18.00, 19, Cappa
146, 145, 147, -1, 109.00, 337.00, 17.00, 19, Cappp
147, 146, 148, -1, 157.00, 307.00, 12.00, 21, Capaa
148, 147, 149, -1, 125.00, 325.00, 14.00, 21, Capap
149, 148, 150, -1, 119.00, 337.00, 28.00, 21, Caaap
150, 149, 151, -1, 158.00, 316.00, 33.00, 25, Caaaa
151, 150, 152, -1, 93.00, 353.00, 21.00, 19, Caapp
152, 151, 153, -1, 113.00, 363.00, 25.00, 19, Caapa
153, 152, 154, -1, 74.00, 337.00, 19.00, 21, Cpapp
154, 153, 155, -1, 84.00, 326.00, 26.00, 21, Cpapa
155, 154, 156, -1, 162.00, 269.00, 32.00, 25, Cpaaa
156, 155, 157, -1, 105.00, 300.00, 32.00, 25, Cpaap
157, 156, 158, -1, 118.00, 285.00, 12.00, 23, Cppaa
158, 157, 159, -1, 97.00, 308.00, 11.00, 21, Cppap
159, 158, 160, -1, 99.00, 309.00, 16.00, 21, Cpppp
160, 159, 161, -1, 84.00, 296.00, 20.00, 21, Cpppa
161, 160, 162, -1, 194.00, 298.00, 16.00, 21, Daa
162, 161, 163, -1, 179.00, 306.00, 21.00, 23, Dap
163, 162, 164, -1, 152.00, 252.00, 14.00, 21, Dpa
164, 163, 165, -1, 124.00, 268.00, 18.00, 23, Dpp
165, 164, 166, -1, 190.00, 266.00, 17.00, 21, Z3
166, 165, 167, -1, 155.00, 275.00, 20.00, 21, Z2
168, 167, 169, -1, 283.00, 310.00, 26.00, 21, ABalppppp
169, 168, 170, -1, 305.00, 288.00, 27.00, 21, ABalppppa
170, 169, 171, -1, 342.00, 269.00, 24.00, 19, ABalpppaa
171, 170, 172, -1, 322.00, 290.00, 24.00, 21, ABalpppap
172, 171, 173, -1, 350.00, 266.00, 18.00, 17, ABalppaaa
173, 172, 174, -1, 334.00, 282.00, 19.00, 17, ABalppaap
174, 173, 175, -1, 293.00, 284.00, 13.00, 20, ABalppapp
175, 174, 176, -1, 315.00, 274.00, 14.00, 19, ABalppapa
176, 175, 177, -1, 309.00, 256.00, 11.00, 19, ABalpapap
177, 176, 178, -1, 335.00, 245.00, 12.00, 19, ABalpapaa
178, 177, 179, -1, 289.00, 241.00, 11.00, 19, ABalpappa
179, 178, 180, -1, 268.00, 248.00, 12.00, 23, ABalpappp
180, 179, 181, -1, 332.00, 219.00, 11.00, 19, ABalpaaap
181, 180, 182, -1, 334.00, 197.00, 13.00, 17, ABalpaaaa
182, 181, 183, -1, 326.00, 251.00, 16.00, 19, ABalpaapp
183, 182, 184, -1, 349.00, 225.00, 15.00, 21, ABalpaapa
184, 183, 185, -1, 150.00, 247.00, 25.00, 27, Epra
185, 184, 186, -1, 233.00, 226.00, 24.00, 23, Eara
186, 185, 187, -1, 195.00, 242.00, 22.00, 25, Earp
187, 186, 188, -1, 262.00, 256.00, 26.00, 25, Eala
188, 187, 189, -1, 184.00, 280.00, 27.00, 27, Epla
189, 188, 190, -1, 110.00, 286.00, 25.00, 27, Eprp
