1, 1, 1, -1, 273.00, 186.00, 14.00, 39, ABar
2, 2, 2, -1, 332.00, 226.00, 22.00, 37, ABal
3, 3, 3, -1, 197.00, 216.00, 27.00, 37, ABpl
5, 5, 5, -1, 158.00, 231.00, 13.00, 35, ABpr
6, 6, 6, -1, 252.00, 305.00, 17.00, 25, MS
7, 6, 7, -1, 219.00, 321.00, 20.00, 27, E
8, 7, 8, -1, 137.00, 322.00, 23.00, 43, P2
