1, 1, 1, -1, 314.00, 191.00, 14.00, 15, ABaraappaa
2, 2, 2, -1, 289.00, 204.00, 17.00, 17, ABaraappap
3, 3, 3, -1, 277.00, 216.00, 15.00, 17, ABaraapppa
4, 4, 4, -1, 252.00, 220.00, 18.00, 15, ABaraapppp
5, 5, 5, -1, 275.00, 238.00, 18.00, 15, ABaraapapp
6, 6, 6, -1, 307.00, 233.00, 15.00, 17, ABaraapapa
7, 7, 7, -1, 342.00, 221.00, 17.00, 15, ABaraapaaa
8, 7, 8, -1, 321.00, 229.00, 19.00, 15, ABaraapaap
9, 8, 9, -1, 279.00, 189.00, 12.00, 21, ABaraaapp
10, 9, 10, -1, 331.00, 206.00, 12.00, 15, ABaraaapaa
11, 10, 11, -1, 298.00, 206.00, 11.00, 15, ABaraaapap
12, 11, 12, -1, 340.00, 194.00, 15.00, 19, ABaraaaaa
13, 12, 13, -1, 319.00, 210.00, 16.00, 17, ABaraaaap
14, 13, 14, -1, 227.00, 246.00, 10.00, 17, ABarapapap
15, 14, 15, -1, 262.00, 246.00, 11.00, 17, ABarapapaa
16, 15, 16, -1, 216.00, 263.00, 11.00, 15, ABarapappp
17, 16, 17, -1, 238.00, 237.00, 14.00, 17, ABarapappa
18, 17, 18, -1, 291.00, 229.00, 10.00, 19, ABarapaaa
19, 18, 19, -1, 277.00, 215.00, 10.00, 15, ABarapaapa
20, 19, 20, -1, 258.00, 230.00, 13.00, 15, ABarapaapp
21, 20, 21, -1, 234.00, 202.00, 11.00, 15, ABarapppap
22, 21, 22, -1, 259.00, 194.00, 11.00, 17, ABarapppaa
23, 22, 23, -1, 227.00, 183.00, 10.00, 17, ABarappppa
24, 23, 24, -1, 200.00, 192.00, 13.00, 15, ABarappppp
25, 24, 25, -1, 243.00, 224.00, 10.00, 19, ABarappaa
26, 25, 26, 27, 214.00, 220.00, 11.00, 15, ABarappap
27, 26, 28, -1, 222.00, 200.00, 33.00, 17, ABarpapppa
28, 27, 29, -1, 190.00, 202.00, 31.00, 17, ABarpapppp
29, 28, 30, -1, 241.00, 189.00, 34.00, 19, ABarpappa
30, 29, 31, -1, 277.00, 181.00, 33.00, 17, ABarpapaa
31, 30, 32, 33, 263.00, 210.00, 32.00, 19, ABarpapap
32, 31, 34, -1, 191.00, 254.00, 32.00, 15, ABarpaappp
33, 32, 35, -1, 218.00, 234.00, 33.00, 17, ABarpaappa
34, 33, 36, -1, 267.00, 233.00, 30.00, 15, ABarpaapaa
35, 34, 37, -1, 239.00, 238.00, 32.00, 15, ABarpaapap
36, 35, 38, -1, 309.00, 221.00, 34.00, 19, ABarpaaaa
37, 36, 39, -1, 288.00, 224.00, 33.00, 17, ABarpaaap
38, 37, 40, -1, 215.00, 272.00, 33.00, 19, ABarppaaa
39, 38, 41, -1, 190.00, 290.00, 33.00, 19, ABarppaap
40, 39, 42, -1, 130.00, 334.00, 29.00, 19, ABarppapp
41, 40, 43, -1, 181.00, 328.00, 32.00, 21, ABarppapa
42, 41, 44, -1, 107.00, 252.00, 30.00, 21, ABarppppp
43, 42, 45, -1, 132.00, 221.00, 30.00, 21, ABarppppa
44, 43, 46, -1, 190.00, 215.00, 34.00, 21, ABarpppaa
45, 44, 47, -1, 164.00, 227.00, 33.00, 19, ABarpppap
46, 45, 48, -1, 267.00, 188.00, 29.00, 17, ABalappppa
47, 46, 49, -1, 243.00, 212.00, 29.00, 15, ABalappppp
48, 47, 50, -1, 318.00, 204.00, 30.00, 15, ABalapppaa
49, 48, 51, -1, 290.00, 199.00, 31.00, 17, ABalapppap
50, 49, 52, -1, 336.00, 193.00, 27.00, 17, ABalappaa
51, 50, 53, -1, 324.00, 183.00, 31.00, 19, ABalappap
52, 51, 54, -1, 281.00, 260.00, 28.00, 15, ABalapappp
53, 52, 55, -1, 310.00, 255.00, 28.00, 15, ABalapappa
54, 53, 56, -1, 332.00, 237.00, 30.00, 19, ABalapapa
55, 54, 57, -1, 351.00, 231.00, 26.00, 17, ABalapaaa
56, 55, 58, -1, 355.00, 254.00, 25.00, 15, ABalapaapa
57, 55, 59, -1, 340.00, 260.00, 27.00, 15, ABalapaapp
58, 56, 60, -1, 322.00, 171.00, 17.00, 19, ABalaapaa
59, 57, 61, -1, 297.00, 166.00, 17.00, 19, ABalaapap
60, 58, 62, -1, 303.00, 168.00, 22.00, 19, ABalaappa
61, 59, 63, -1, 314.00, 177.00, 27.00, 17, ABalaappp
62, 60, 64, -1, 353.00, 247.00, 20.00, 21, ABalaaaal
63, 61, 65, -1, 354.00, 195.00, 19.00, 21, ABalaaaar
64, 62, 66, -1, 340.00, 179.00, 23.00, 19, ABalaaapp
65, 63, 67, -1, 354.00, 208.00, 24.00, 19, ABalaaapa
66, 64, 68, -1, 180.00, 335.00, 13.00, 17, ABplppppap
67, 65, 69, -1, 205.00, 327.00, 12.00, 17, ABplppppaa
68, 66, 70, -1, 142.00, 325.00, 12.00, 15, ABplpppppp
69, 66, 71, -1, 162.00, 325.00, 12.00, 15, ABplpppppa
70, 67, 72, -1, 146.00, 345.00, 14.00, 15, ABplpppapp
71, 68, 73, -1, 168.00, 348.00, 16.00, 15, ABplpppapa
72, 69, 74, -1, 186.00, 351.00, 17.00, 15, ABplpppaap
73, 70, 75, -1, 212.00, 341.00, 15.00, 15, ABplpppaaa
74, 71, 76, -1, 211.00, 342.00, 19.00, 19, ABplppapp
75, 72, 77, 78, 236.00, 333.00, 19.00, 19, ABplppapa
76, 73, 79, -1, 230.00, 330.00, 14.00, 19, ABplppaap
77, 74, 80, -1, 263.00, 322.00, 19.00, 19, ABplppaaa
78, 75, 81, -1, 239.00, 280.00, 11.00, 21, ABplpappaa
79, 76, 82, -1, 210.00, 288.00, 9.00, 15, ABplpappap
80, 77, 83, -1, 172.00, 311.00, 10.00, 15, ABplpapppp
81, 78, 84, -1, 200.00, 304.00, 10.00, 13, ABplpapppa
82, 79, 85, -1, 219.00, 311.00, 10.00, 15, ABplpapapp
83, 79, 86, -1, 248.00, 306.00, 10.00, 15, ABplpapapa
84, 80, 87, -1, 263.00, 306.00, 12.00, 19, ABplpapaa
85, 81, 88, -1, 289.00, 297.00, 18.00, 15, ABplpaaaap
86, 82, 89, -1, 311.00, 281.00, 20.00, 15, ABplpaaaaa
87, 83, 90, -1, 299.00, 311.00, 17.00, 15, ABplpaaapa
88, 84, 91, -1, 284.00, 323.00, 20.00, 15, ABplpaaapp
89, 85, 92, -1, 276.00, 322.00, 24.00, 15, ABplpaappa
90, 85, 93, -1, 256.00, 335.00, 23.00, 15, ABplpaappp
91, 86, 94, -1, 303.00, 307.00, 23.00, 17, ABplpaapa
92, 87, 95, -1, 249.00, 324.00, 31.00, 17, ABplaappap
93, 88, 96, -1, 274.00, 311.00, 33.00, 15, ABplaappaa
94, 89, 97, -1, 251.00, 335.00, 27.00, 17, ABplaapppa
95, 90, 98, -1, 221.00, 334.00, 28.00, 19, ABplaapppp
96, 91, 99, -1, 319.00, 277.00, 32.00, 15, ABplaapaaa
97, 92, 100, -1, 289.00, 275.00, 33.00, 15, ABplaapaap
98, 93, 101, -1, 257.00, 296.00, 34.00, 15, ABplaapapp
99, 94, 102, -1, 285.00, 294.00, 33.00, 15, ABplaapapa
100, 95, 103, -1, 319.00, 252.00, 34.00, 21, ABplaaaaa
101, 96, 104, -1, 287.00, 246.00, 33.00, 19, ABplaaaap
102, 97, 105, 106, 244.00, 270.00, 32.00, 15, ABplaaapp
103, 98, 107, -1, 267.00, 257.00, 34.00, 19, ABplaaapa
104, 99, 108, -1, 144.00, 363.00, 19.00, 19, ABplapppp
105, 100, 109, -1, 168.00, 353.00, 21.00, 21, ABplapppa
106, 101, 110, 111, 201.00, 351.00, 25.00, 21, ABplappaa
107, 102, 112, -1, 161.00, 353.00, 27.00, 15, ABplappapp
108, 102, 113, -1, 181.00, 350.00, 27.00, 15, ABplappapa
109, 103, 114, -1, 207.00, 320.00, 32.00, 19, ABplapaap
110, 104, 115, 116, 228.00, 304.00, 31.00, 17, ABplapaaa
111, 105, 117, -1, 114.00, 361.00, 21.00, 15, ABplapappp
112, 106, 118, -1, 138.00, 358.00, 29.00, 15, ABplapapap
113, 107, 119, -1, 135.00, 362.00, 24.00, 19, ABplapappa
114, 108, 120, -1, 161.00, 340.00, 33.00, 15, ABplapapaa
115, 109, 121, -1, 184.00, 203.00, 12.00, 18, ABprpapaa
116, 110, 122, -1, 170.00, 239.00, 11.00, 15, ABprpapapp
117, 110, 123, -1, 189.00, 224.00, 11.00, 15, ABprpapapa
118, 111, 124, -1, 144.00, 278.00, 10.00, 15, ABprpapppp
119, 112, 125, -1, 167.00, 259.00, 10.00, 15, ABprpapppa
120, 113, 126, -1, 185.00, 263.00, 11.00, 15, ABprpappap
121, 114, 127, -1, 203.00, 241.00, 11.00, 15, ABprpappaa
122, 115, 128, -1, 257.00, 178.00, 15.00, 15, ABprpaaaaa
123, 116, 129, -1, 231.00, 182.00, 15.00, 15, ABprpaaaap
124, 117, 130, -1, 203.00, 177.00, 16.00, 15, ABprpaaapp
125, 117, 131, -1, 217.00, 173.00, 15.00, 15, ABprpaaapa
126, 118, 132, -1, 242.00, 172.00, 18.00, 15, ABprpaapaa
127, 119, 133, -1, 215.00, 165.00, 20.00, 15, ABprpaapap
128, 120, 134, -1, 176.00, 181.00, 17.00, 15, ABprpaappp
129, 121, 135, -1, 200.00, 172.00, 20.00, 15, ABprpaappa
130, 122, 136, -1, 126.00, 235.00, 14.00, 17, ABprpppaa
131, 123, 137, -1, 108.00, 248.00, 12.00, 13, ABprpppapa
132, 123, 138, -1, 99.00, 262.00, 11.00, 15, ABprpppapp
133, 124, 139, -1, 136.00, 252.00, 10.00, 15, ABprppppap
134, 125, 140, -1, 153.00, 230.00, 11.00, 15, ABprppppaa
135, 126, 141, -1, 113.00, 293.00, 10.00, 19, ABprpppppp
136, 127, 142, -1, 126.00, 269.00, 10.00, 15, ABprpppppa
137, 128, 143, -1, 154.00, 208.00, 10.00, 21, ABprppaap
138, 129, 144, -1, 176.00, 185.00, 12.00, 21, ABprppaaa
139, 130, 145, -1, 161.00, 203.00, 14.00, 17, ABprppapa
140, 131, 146, -1, 128.00, 212.00, 13.00, 19, ABprppapp
141, 132, 147, -1, 284.00, 169.00, 30.00, 15, ABpraapaaa
142, 133, 148, -1, 253.00, 169.00, 30.00, 15, ABpraapaap
143, 134, 149, -1, 236.00, 175.00, 31.00, 15, ABpraapapa
144, 135, 150, -1, 205.00, 184.00, 31.00, 17, ABpraapapp
145, 136, 151, -1, 150.00, 194.00, 21.00, 17, ABpraapppp
146, 137, 152, -1, 180.00, 182.00, 22.00, 17, ABpraapppa
147, 138, 153, -1, 205.00, 172.00, 25.00, 19, ABpraappa
148, 139, 154, -1, 277.00, 172.00, 25.00, 19, ABpraaapa
149, 140, 155, -1, 258.00, 178.00, 24.00, 15, ABpraaappa
150, 141, 156, -1, 231.00, 172.00, 24.00, 17, ABpraaappp
151, 142, 157, -1, 273.00, 160.00, 20.00, 17, ABpraaaaa
152, 143, 158, -1, 250.00, 161.00, 21.00, 19, ABpraaaap
153, 144, 159, -1, 107.00, 222.00, 19.00, 19, ABprappap
154, 145, 160, -1, 128.00, 205.00, 18.00, 23, ABprappaa
155, 146, 161, -1, 98.00, 238.00, 15.00, 19, ABprapppa
156, 147, 162, -1, 78.00, 262.00, 13.00, 21, ABprapppp
157, 148, 163, -1, 174.00, 204.00, 27.00, 19, ABprapaaa
158, 149, 164, -1, 146.00, 212.00, 25.00, 21, ABprapaap
159, 150, 165, -1, 75.00, 251.00, 21.00, 17, ABprapappa
160, 151, 166, -1, 75.00, 266.00, 17.00, 17, ABprapappp
161, 152, 167, -1, 92.00, 244.00, 23.00, 15, ABprapapap
162, 153, 168, -1, 113.00, 229.00, 27.00, 15, ABprapapaa
163, 154, 169, -1, 207.00, 199.00, 19.00, 19, MSppppa
164, 155, 170, -1, 180.00, 211.00, 21.00, 19, MSppppp
165, 156, 171, -1, 227.00, 214.00, 17.00, 17, MSpppaa
166, 157, 172, -1, 197.00, 223.00, 16.00, 17, MSpppap
167, 158, 173, -1, 251.00, 199.00, 16.00, 15, MSppaap
168, 159, 174, -1, 281.00, 181.00, 19.00, 17, MSppaaa
169, 160, 175, -1, 219.00, 194.00, 24.00, 19, MSppapp
170, 161, 176, -1, 245.00, 192.00, 20.00, 17, MSppapa
171, 162, 177, -1, 208.00, 261.00, 17.00, 17, MSpapap
172, 163, 178, -1, 248.00, 244.00, 17.00, 15, MSpapaaa
173, 164, 179, -1, 218.00, 242.00, 20.00, 15, MSpapaap
174, 165, 180, -1, 197.00, 278.00, 13.00, 17, MSpappa
175, 166, 181, -1, 170.00, 283.00, 13.00, 21, MSpappp
176, 167, 182, -1, 280.00, 207.00, 25.00, 15, MSpaaapp
177, 167, 183, -1, 297.00, 198.00, 24.00, 15, MSpaaapa
178, 168, 184, 185, 317.00, 194.00, 21.00, 15, MSpaaaa
179, 169, 186, -1, 267.00, 208.00, 21.00, 21, MSpaapa
180, 170, 187, -1, 236.00, 218.00, 21.00, 17, MSpaapp
181, 171, 188, -1, 247.00, 306.00, 21.00, 17, MSapppa
182, 172, 189, -1, 222.00, 313.00, 24.00, 19, MSapppp
183, 173, 190, -1, 262.00, 292.00, 19.00, 19, MSappaa
184, 174, 191, -1, 230.00, 300.00, 16.00, 17, MSappap
185, 175, 192, -1, 250.00, 298.00, 27.00, 19, MSapapp
186, 176, 193, -1, 285.00, 282.00, 23.00, 19, MSapapa
187, 177, 194, -1, 297.00, 263.00, 21.00, 19, MSapaap
188, 178, 195, -1, 326.00, 253.00, 21.00, 17, MSapaaa
189, 179, 196, -1, 319.00, 220.00, 25.00, 15, MSaaaaap
190, 179, 197, -1, 335.00, 214.00, 24.00, 15, MSaaaaaa
191, 180, 198, -1, 298.00, 229.00, 28.00, 19, MSaaaap
192, 181, 199, 200, 300.00, 237.00, 22.00, 19, MSaaapa
193, 182, 201, -1, 268.00, 237.00, 23.00, 15, MSaaapp
194, 183, 202, -1, 199.00, 303.00, 14.00, 19, MSaappp
195, 184, 203, -1, 218.00, 286.00, 13.00, 15, MSaappa
196, 185, 204, 272, 265.00, 263.00, 19.00, 19, MSaapaa
197, 186, 205, -1, 236.00, 273.00, 17.00, 17, MSaapap
198, 187, 206, -1, 220.00, 285.00, 23.00, 25, Ealp
199, 188, 207, -1, 134.00, 311.00, 25.00, 19, Eplp
200, 189, 208, -1, 139.00, 340.00, 21.00, 21, Cappa
201, 190, 209, -1, 117.00, 334.00, 16.00, 18, Cappp
202, 191, 210, -1, 157.00, 308.00, 16.00, 19, Capaa
203, 192, 211, -1, 135.00, 319.00, 18.00, 19, Capap
204, 193, 212, -1, 104.00, 319.00, 32.00, 21, Caaapa
205, 194, 213, -1, 96.00, 342.00, 23.00, 19, Caaapp
207, 196, 215, -1, 127.00, 312.00, 32.00, 17, Caaaap
208, 197, 216, -1, 85.00, 326.00, 13.00, 21, Caapp
209, 198, 217, -1, 93.00, 339.00, 18.00, 17, Caapa
210, 199, 218, -1, 68.00, 297.00, 16.00, 15, Cpappd
211, 200, 219, -1, 88.00, 307.00, 11.00, 15, Cpappv
212, 201, 220, -1, 71.00, 317.00, 20.00, 23, Cpapa
213, 202, 221, -1, 157.00, 254.00, 32.00, 17, Cpaaaa
214, 203, 222, -1, 124.00, 263.00, 33.00, 18, Cpaaap
215, 204, 274, -1, 100.00, 281.00, 31.00, 19, Cpaapa
216, 205, 223, -1, 77.00, 311.00, 27.00, 19, Cpaapp
217, 206, 224, -1, 141.00, 276.00, 15.00, 21, Cppaa
218, 207, 225, -1, 122.00, 293.00, 16.00, 19, Cppap
219, 208, 226, -1, 98.00, 304.00, 16.00, 21, Cpppp
220, 209, 227, -1, 101.00, 272.00, 18.00, 25, Cpppa
221, 210, 228, -1, 180.00, 314.00, 18.00, 17, Daap
222, 211, 229, -1, 206.00, 313.00, 20.00, 17, Daaa
223, 212, 230, -1, 180.00, 321.00, 23.00, 21, Dapp
224, 213, 231, -1, 158.00, 253.00, 16.00, 17, Dpap
225, 214, 232, -1, 174.00, 221.00, 17.00, 17, Dpaa
226, 215, 233, -1, 130.00, 254.00, 21.00, 21, Dppp
227, 216, 234, -1, 159.00, 232.00, 19.00, 17, Dppa
228, 217, 235, -1, 189.00, 279.00, 19.00, 21, Z3
229, 218, 236, -1, 151.00, 282.00, 20.00, 21, Z2
231, 220, 238, -1, 310.00, 298.00, 29.00, 15, ABalpppapp
232, 221, 239, -1, 296.00, 307.00, 29.00, 17, ABalpppppa
233, 222, 240, -1, 270.00, 307.00, 28.00, 19, ABalpppppp
234, 223, 241, -1, 295.00, 279.00, 28.00, 17, ABalppppap
235, 224, 242, -1, 322.00, 270.00, 28.00, 15, ABalppppaa
236, 225, 243, -1, 336.00, 286.00, 27.00, 17, ABalpppaa
237, 226, 244, -1, 327.00, 297.00, 23.00, 17, ABalpppapa
238, 227, 245, -1, 348.00, 275.00, 21.00, 17, ABalppaaa
239, 228, 246, -1, 325.00, 296.00, 19.00, 19, ABalppaap
240, 229, 247, -1, 277.00, 314.00, 15.00, 19, ABalppappp
241, 230, 248, -1, 293.00, 299.00, 12.00, 17, ABalppappa
242, 231, 249, -1, 307.00, 285.00, 15.00, 15, ABalppapap
243, 232, 250, -1, 327.00, 278.00, 16.00, 15, ABalppapaa
244, 233, 251, -1, 296.00, 282.00, 10.00, 17, ABalpapapa
245, 234, 252, -1, 267.00, 284.00, 11.00, 15, ABalpapapp
246, 235, 253, -1, 305.00, 263.00, 11.00, 15, ABalpapaap
247, 236, 254, -1, 326.00, 253.00, 11.00, 17, ABalpapaaa
248, 237, 255, -1, 281.00, 256.00, 13.00, 17, ABalpappap
249, 238, 256, -1, 291.00, 251.00, 9.00, 17, ABalpappaa
250, 239, 257, -1, 256.00, 268.00, 14.00, 19, ABalpapppp
251, 240, 258, -1, 285.00, 272.00, 16.00, 15, ABalpapppa
252, 241, 259, -1, 307.00, 240.00, 11.00, 19, ABalpaaap
253, 242, 260, -1, 335.00, 223.00, 11.00, 21, ABalpaaaa
254, 243, 261, -1, 305.00, 265.00, 16.00, 15, ABalpaappp
255, 244, 262, -1, 334.00, 258.00, 16.00, 15, ABalpaappa
256, 245, 263, -1, 332.00, 242.00, 15.00, 19, ABalpaapap
257, 246, 264, -1, 356.00, 214.00, 15.00, 15, ABalpaapaa
258, 247, 265, -1, 157.00, 248.00, 25.00, 27, Epra
259, 248, 266, -1, 241.00, 225.00, 25.00, 27, Eara
260, 249, 267, -1, 191.00, 244.00, 21.00, 25, Earp
261, 250, 268, -1, 253.00, 256.00, 27.00, 25, Eala
262, 251, 269, -1, 168.00, 281.00, 28.00, 27, Epla
263, 252, 270, -1, 112.00, 278.00, 23.00, 25, Eprp
264, 253, 271, -1, 184.00, 309.00, 26.00, 19, Dapa
265, 254, 275, -1, 161.00, 290.00, 32.00, 17, Caaaaa
