1, 1, 1, -1, 252.00, 175.00, 16.00, 41, ABar
2, 2, 2, -1, 347.00, 212.00, 23.00, 45, ABal
3, 3, 3, -1, 241.00, 260.00, 29.00, 45, ABpl
5, 5, 5, -1, 164.00, 227.00, 11.00, 43, ABpr
6, 6, 6, -1, 270.00, 302.00, 12.00, 37, MS
7, 7, 7, -1, 186.00, 324.00, 18.00, 35, E
8, 8, 8, -1, 121.00, 289.00, 22.00, 29, C
9, 9, 9, -1, 131.00, 338.00, 21.00, 27, P3
