1, 1, 1, -1, 251.00, 176.00, 20.00, 43, ABar
2, 2, 2, -1, 347.00, 222.00, 23.00, 43, ABal
3, 3, 3, -1, 251.00, 279.00, 28.00, 41, ABpl
5, 5, 5, -1, 161.00, 223.00, 11.00, 43, ABpr
6, 6, 6, -1, 266.00, 291.00, 11.00, 37, MS
7, 7, 7, -1, 170.00, 324.00, 16.00, 35, E
8, 8, 8, -1, 128.00, 286.00, 24.00, 29, C
9, 9, 9, -1, 122.00, 337.00, 19.00, 29, P3
