1, 1, 1, -1, 306.00, 201.00, 22.00, 17, ABaraappaa
2, 2, 2, -1, 289.00, 206.00, 20.00, 17, ABaraappap
3, 3, 3, -1, 255.00, 232.00, 20.00, 13, ABaraapppap
4, 4, 4, -1, 270.00, 220.00, 20.00, 15, ABaraapppaa
5, 5, 5, -1, 239.00, 222.00, 18.00, 17, ABaraapppp
6, 6, 6, -1, 268.00, 269.00, 21.00, 17, ABaraapapp
7, 7, 7, -1, 266.00, 252.00, 21.00, 13, ABaraapapap
8, 8, 8, -1, 288.00, 241.00, 20.00, 15, ABaraapapaa
9, 9, 9, -1, 316.00, 215.00, 22.00, 19, ABaraapaaa
10, 10, 10, -1, 307.00, 233.00, 22.00, 19, ABaraapaap
11, 11, 11, -1, 300.00, 203.00, 11.00, 15, ABaraaappa
12, 12, 12, -1, 283.00, 202.00, 10.00, 15, ABaraaappp
13, 13, 13, -1, 320.00, 204.00, 18.00, 15, ABaraaapaa
14, 14, 14, -1, 306.00, 215.00, 16.00, 13, ABaraaapapa
15, 15, 15, -1, 282.00, 222.00, 18.00, 13, ABaraaapapp
16, 16, 16, -1, 331.00, 225.00, 14.00, 17, ABaraaaaaa
17, 17, 17, -1, 315.00, 202.00, 13.00, 17, ABaraaaaap
18, 18, 18, -1, 319.00, 225.00, 25.00, 11, ABaraaaapp
19, 19, 19, -1, 333.00, 203.00, 20.00, 15, ABaraaaapa
20, 20, 20, -1, 246.00, 240.00, 10.00, 19, ABarapapap
21, 21, 21, -1, 266.00, 229.00, 10.00, 17, ABarapapaa
22, 22, 22, -1, 211.00, 248.00, 13.00, 15, ABarapapppp
23, 23, 23, -1, 231.00, 242.00, 13.00, 13, ABarapapppa
24, 24, 24, -1, 246.00, 233.00, 14.00, 17, ABarapappa
25, 25, 25, -1, 284.00, 234.00, 9.00, 17, ABarapaaap
26, 26, 26, -1, 299.00, 223.00, 10.00, 15, ABarapaaaa
27, 27, 27, -1, 289.00, 220.00, 14.00, 17, ABarapaapa
28, 28, 28, -1, 257.00, 234.00, 17.00, 13, ABarapaappp
29, 29, 29, -1, 271.00, 229.00, 14.00, 13, ABarapaappa
30, 30, 30, -1, 239.00, 201.00, 10.00, 17, ABarapppap
31, 31, 31, -1, 270.00, 186.00, 10.00, 15, ABarapppaa
32, 32, 32, -1, 252.00, 192.00, 12.00, 15, ABarappppa
33, 33, 33, -1, 219.00, 198.00, 12.00, 15, ABarappppp
34, 34, 34, -1, 260.00, 209.00, 10.00, 15, ABarappaaa
35, 35, 35, -1, 236.00, 221.00, 10.00, 15, ABarappaap
36, 36, 36, -1, 216.00, 219.00, 10.00, 17, ABarappapa
37, 37, 37, -1, 194.00, 213.00, 10.00, 17, ABarappapp
38, 38, 38, -1, 218.00, 179.00, 31.00, 17, ABarpapppa
39, 39, 39, -1, 210.00, 195.00, 33.00, 19, ABarpapppp
40, 40, 40, -1, 238.00, 177.00, 33.00, 17, ABarpappap
41, 41, 41, -1, 292.00, 189.00, 35.00, 17, ABarpapaaa
42, 42, 42, -1, 274.00, 196.00, 32.00, 17, ABarpapaap
43, 43, 43, -1, 233.00, 214.00, 34.00, 17, ABarpapapp
44, 44, 44, -1, 266.00, 210.00, 33.00, 13, ABarpapapa
45, 45, 45, -1, 203.00, 272.00, 33.00, 17, ABarpaappp
46, 46, 46, -1, 253.00, 219.00, 34.00, 15, ABarpaapaa
47, 47, 47, -1, 241.00, 249.00, 34.00, 19, ABarpaapap
48, 48, 48, -1, 328.00, 205.00, 32.00, 17, ABarpaaaaa
49, 49, 49, -1, 305.00, 227.00, 35.00, 15, ABarpaaaap
50, 50, 50, -1, 278.00, 222.00, 35.00, 13, ABarpaaapp
51, 51, 51, -1, 295.00, 210.00, 35.00, 15, ABarpaaapa
52, 52, 52, -1, 221.00, 309.00, 35.00, 15, ABarppaaap
53, 53, 53, -1, 229.00, 286.00, 35.00, 13, ABarppaaaa
54, 54, 54, -1, 164.00, 331.00, 34.00, 17, ABarppaapp
55, 55, 55, -1, 141.00, 349.00, 30.00, 17, ABarppappa
56, 56, 56, -1, 111.00, 351.00, 23.00, 17, ABarppappp
57, 57, 57, -1, 186.00, 345.00, 32.00, 19, ABarppapap
58, 58, 58, -1, 210.00, 333.00, 33.00, 15, ABarppapaa
59, 59, 59, -1, 71.00, 272.00, 23.00, 17, ABarpppppp
60, 60, 60, -1, 102.00, 244.00, 30.00, 15, ABarpppppa
61, 61, 61, -1, 154.00, 199.00, 30.00, 15, ABarppppaa
62, 62, 62, -1, 125.00, 213.00, 29.00, 17, ABarppppap
63, 63, 63, -1, 181.00, 199.00, 34.00, 19, ABarpppaap
64, 64, 64, -1, 203.00, 215.00, 34.00, 15, ABarpppaaa
65, 65, 65, -1, 312.00, 181.00, 28.00, 13, ABalappppaa
66, 66, 66, -1, 287.00, 176.00, 30.00, 13, ABalappppap
67, 67, 67, -1, 270.00, 178.00, 33.00, 16, ABalappppp
68, 68, 68, -1, 327.00, 190.00, 28.00, 15, ABalapppaa
69, 69, 69, -1, 307.00, 193.00, 32.00, 13, ABalapppap
70, 70, 70, -1, 316.00, 171.00, 24.00, 15, ABalappapa
71, 71, 71, -1, 349.00, 212.00, 26.00, 15, ABalappaap
72, 72, 72, -1, 297.00, 172.00, 26.00, 17, ABalappapp
73, 73, 73, -1, 315.00, 263.00, 34.00, 13, ABalapappp
74, 74, 74, -1, 338.00, 242.00, 28.00, 13, ABalapappaa
75, 75, 75, -1, 318.00, 256.00, 30.00, 13, ABalapappap
76, 76, 76, -1, 327.00, 224.00, 32.00, 13, ABalapapaa
77, 77, 77, -1, 322.00, 239.00, 32.00, 15, ABalapapap
78, 78, 78, -1, 351.00, 237.00, 25.00, 15, ABalapaaaa
79, 79, 79, -1, 343.00, 262.00, 28.00, 17, ABalapaaap
80, 80, 80, -1, 342.00, 253.00, 22.00, 17, ABalapaapa
81, 81, 81, -1, 329.00, 261.00, 24.00, 21, ABalapaapp
82, 82, 82, -1, 306.00, 183.00, 14.00, 15, ABalaapaaa
83, 83, 83, -1, 262.00, 176.00, 13.00, 13, ABalaapapa
84, 84, 84, -1, 287.00, 180.00, 12.00, 15, ABalaapaap
85, 85, 85, -1, 287.00, 183.00, 17.00, 17, ABalaappap
86, 86, 86, -1, 294.00, 170.00, 16.00, 17, ABalaappaa
87, 87, 87, -1, 295.00, 164.00, 22.00, 17, ABalaapppp
88, 88, 88, -1, 298.00, 181.00, 21.00, 17, ABalaapppa
89, 89, 89, -1, 335.00, 265.00, 15.00, 17, ABalaaaalp
90, 90, 90, -1, 331.00, 188.00, 17.00, 15, ABalaaaarr
91, 91, 91, -1, 349.00, 215.00, 18.00, 16, ABalaaaarl
92, 92, 92, -1, 329.00, 183.00, 22.00, 15, ABalaaappl
93, 93, 93, -1, 315.00, 177.00, 18.00, 17, ABalaaappr
94, 94, 94, -1, 350.00, 203.00, 22.00, 17, ABalaaapar
95, 95, 95, -1, 350.00, 239.00, 20.00, 15, ABalaaapal
96, 96, 96, -1, 161.00, 317.00, 11.00, 17, ABplppppap
97, 97, 97, -1, 182.00, 311.00, 10.00, 15, ABplppppaa
98, 98, 98, -1, 115.00, 316.00, 12.00, 13, ABplpppppp
99, 99, 99, -1, 155.00, 300.00, 14.00, 17, ABplpppppa
100, 100, 100, -1, 134.00, 311.00, 13.00, 15, ABplpppapp
101, 101, 101, -1, 153.00, 334.00, 11.00, 13, ABplpppapaa
102, 102, 102, -1, 160.00, 343.00, 13.00, 17, ABplpppaap
103, 103, 103, -1, 181.00, 333.00, 12.00, 17, ABplpppaaa
104, 104, 104, -1, 185.00, 344.00, 15.00, 15, ABplppappp
105, 105, 105, -1, 211.00, 339.00, 14.00, 17, ABplppappa
106, 106, 106, -1, 242.00, 337.00, 18.00, 17, ABplppapaa
107, 107, 107, -1, 217.00, 343.00, 18.00, 19, ABplppapap
108, 108, 108, -1, 203.00, 326.00, 11.00, 17, ABplppaapp
109, 109, 109, -1, 262.00, 322.00, 19.00, 19, ABplppaaaa
110, 110, 110, -1, 260.00, 327.00, 22.00, 15, ABplppaaap
111, 111, 111, -1, 247.00, 280.00, 9.00, 15, ABplpappaaa
112, 112, 112, -1, 224.00, 289.00, 10.00, 19, ABplpappaap
113, 113, 113, -1, 220.00, 269.00, 10.00, 13, ABplpappap
114, 114, 114, -1, 166.00, 296.00, 10.00, 17, ABplpapppp
115, 115, 115, -1, 184.00, 282.00, 10.00, 17, ABplpapppa
116, 116, 116, -1, 204.00, 303.00, 10.00, 17, ABplpapapp
117, 117, 117, -1, 229.00, 309.00, 13.00, 17, ABplpapapa
118, 118, 118, -1, 248.00, 315.00, 15.00, 15, ABplpapaap
119, 119, 119, -1, 258.00, 298.00, 14.00, 15, ABplpapaaa
120, 120, 120, -1, 269.00, 323.00, 15.00, 17, ABplpaaaap
121, 121, 121, -1, 292.00, 290.00, 16.00, 17, ABplpaaaaa
122, 122, 122, -1, 286.00, 306.00, 19.00, 15, ABplpaaapa
123, 123, 123, -1, 283.00, 319.00, 18.00, 17, ABplpaaapp
124, 124, 124, -1, 282.00, 302.00, 25.00, 17, ABplpaappa
125, 125, 125, -1, 279.00, 325.00, 24.00, 17, ABplpaappp
126, 126, 126, -1, 297.00, 292.00, 20.00, 15, ABplpaapaa
127, 127, 127, -1, 297.00, 318.00, 22.00, 15, ABplpaapap
128, 128, 128, -1, 269.00, 324.00, 29.00, 17, ABplaappap
129, 129, 129, -1, 288.00, 319.00, 28.00, 15, ABplaappaa
130, 130, 130, -1, 252.00, 328.00, 29.00, 15, ABplaapppa
131, 131, 131, -1, 232.00, 344.00, 26.00, 17, ABplaapppp
132, 132, 132, -1, 336.00, 264.00, 33.00, 15, ABplaapaaa
133, 133, 133, -1, 322.00, 278.00, 32.00, 17, ABplaapaap
134, 134, 134, -1, 302.00, 283.00, 30.00, 19, ABplaapapp
135, 135, 135, -1, 307.00, 289.00, 28.00, 21, ABplaapapa
136, 136, 136, -1, 297.00, 251.00, 34.00, 17, ABplaaaaap
137, 137, 137, -1, 317.00, 244.00, 35.00, 15, ABplaaaaaa
138, 138, 138, -1, 265.00, 255.00, 34.00, 15, ABplaaaapp
139, 139, 139, -1, 281.00, 240.00, 35.00, 13, ABplaaaapa
140, 140, 140, -1, 252.00, 286.00, 33.00, 17, ABplaaappp
141, 141, 141, -1, 269.00, 293.00, 34.00, 17, ABplaaappa
142, 142, 142, -1, 287.00, 291.00, 34.00, 17, ABplaaapap
143, 143, 143, -1, 296.00, 278.00, 35.00, 13, ABplaaapaa
144, 144, 144, -1, 123.00, 352.00, 15.00, 15, ABplappppa
145, 145, 145, -1, 109.00, 334.00, 11.00, 15, ABplappppp
146, 146, 146, -1, 148.00, 348.00, 16.00, 15, ABplapppaa
147, 147, 147, -1, 130.00, 336.00, 13.00, 15, ABplapppap
148, 148, 148, -1, 201.00, 356.00, 24.00, 15, ABplappaaa
149, 149, 149, -1, 183.00, 360.00, 24.00, 15, ABplappaap
150, 150, 150, -1, 165.00, 359.00, 22.00, 15, ABplappapp
151, 151, 151, -1, 168.00, 351.00, 28.00, 15, ABplappapa
152, 152, 152, -1, 208.00, 352.00, 28.00, 17, ABplapaapp
153, 153, 153, -1, 233.00, 336.00, 32.00, 15, ABplapaapa
154, 154, 154, -1, 243.00, 300.00, 31.00, 15, ABplapaaaa
155, 155, 155, -1, 236.00, 317.00, 31.00, 17, ABplapaaap
156, 156, 156, -1, 106.00, 345.00, 17.00, 17, ABplapappp
157, 157, 157, -1, 142.00, 366.00, 22.00, 15, ABplapapap
158, 158, 158, -1, 124.00, 362.00, 19.00, 17, ABplapappa
159, 159, 159, -1, 135.00, 356.00, 26.00, 19, ABplapapaa
160, 160, 160, -1, 211.00, 220.00, 13.00, 17, ABprpapaaa
161, 161, 161, -1, 192.00, 208.00, 13.00, 17, ABprpapaap
162, 162, 162, -1, 174.00, 249.00, 10.00, 17, ABprpapapp
163, 163, 163, -1, 190.00, 235.00, 12.00, 15, ABprpapapa
164, 164, 164, -1, 156.00, 278.00, 12.00, 15, ABprpapppp
165, 165, 165, -1, 188.00, 266.00, 12.00, 19, ABprpapppa
166, 166, 166, -1, 200.00, 259.00, 9.00, 19, ABprpappap
167, 167, 167, -1, 219.00, 242.00, 9.00, 19, ABprpappaa
168, 168, 168, -1, 243.00, 194.00, 15.00, 17, ABprpaaaaa
169, 169, 169, -1, 211.00, 180.00, 11.00, 19, ABprpaaaap
170, 170, 170, -1, 215.00, 175.00, 14.00, 17, ABprpaaapp
171, 171, 171, -1, 229.00, 182.00, 15.00, 15, ABprpaaapa
172, 172, 172, -1, 245.00, 177.00, 17.00, 17, ABprpaapaa
173, 173, 173, -1, 223.00, 161.00, 19.00, 17, ABprpaapap
174, 174, 174, -1, 207.00, 173.00, 18.00, 17, ABprpaappp
175, 175, 175, -1, 218.00, 182.00, 23.00, 17, ABprpaappa
176, 176, 176, -1, 104.00, 246.00, 11.00, 15, ABprpppaap
177, 177, 177, -1, 129.00, 236.00, 11.00, 17, ABprpppaaa
178, 178, 178, -1, 116.00, 255.00, 10.00, 13, ABprpppapaa
179, 179, 179, -1, 111.00, 283.00, 11.00, 13, ABprpppapap
180, 180, 180, -1, 125.00, 281.00, 9.00, 15, ABprpppapp
181, 181, 181, -1, 133.00, 260.00, 11.00, 19, ABprppppap
182, 182, 182, -1, 156.00, 259.00, 11.00, 15, ABprppppaa
183, 183, 183, -1, 114.00, 299.00, 11.00, 15, ABprpppppp
184, 184, 184, -1, 135.00, 279.00, 13.00, 17, ABprpppppa
185, 185, 185, -1, 172.00, 220.00, 12.00, 15, ABprppaapa
186, 186, 186, -1, 155.00, 237.00, 11.00, 15, ABprppaapp
187, 187, 187, -1, 189.00, 187.00, 14.00, 19, ABprppaaaa
188, 188, 188, -1, 181.00, 178.00, 20.00, 13, ABprppaaap
189, 189, 189, -1, 167.00, 199.00, 13.00, 17, ABprppapaa
190, 190, 190, -1, 143.00, 204.00, 14.00, 17, ABprppapap
191, 191, 191, -1, 118.00, 229.00, 14.00, 17, ABprppappp
192, 192, 192, -1, 141.00, 219.00, 12.00, 15, ABprppappa
193, 193, 193, -1, 302.00, 172.00, 32.00, 17, ABpraapaaa
194, 194, 194, -1, 272.00, 164.00, 29.00, 19, ABpraapaap
195, 195, 195, -1, 257.00, 178.00, 25.00, 17, ABpraapapa
196, 196, 196, -1, 251.00, 177.00, 29.00, 17, ABpraapapp
197, 197, 197, -1, 155.00, 189.00, 21.00, 17, ABpraapppp
198, 198, 198, -1, 180.00, 178.00, 23.00, 15, ABpraapppa
199, 199, 199, -1, 196.00, 171.00, 23.00, 17, ABpraappap
200, 200, 200, -1, 214.00, 162.00, 23.00, 15, ABpraappaa
201, 201, 201, -1, 267.00, 163.00, 25.00, 15, ABpraaapap
202, 202, 202, -1, 279.00, 171.00, 21.00, 15, ABpraaapaa
203, 203, 203, -1, 249.00, 175.00, 21.00, 17, ABpraaappa
204, 204, 204, -1, 237.00, 190.00, 23.00, 15, ABpraaapppa
205, 205, 205, -1, 222.00, 173.00, 27.00, 19, ABpraaapppp
206, 206, 206, -1, 266.00, 158.00, 20.00, 15, ABpraaaaap
207, 207, 207, -1, 278.00, 164.00, 17.00, 15, ABpraaaaaa
208, 208, 208, -1, 257.00, 166.00, 18.00, 15, ABpraaaapa
209, 209, 209, -1, 242.00, 158.00, 22.00, 15, ABpraaaapp
210, 210, 210, -1, 98.00, 230.00, 20.00, 15, ABprappapp
211, 211, 211, -1, 107.00, 222.00, 25.00, 15, ABprappapa
212, 212, 212, -1, 115.00, 215.00, 19.00, 15, ABprappaap
213, 213, 213, -1, 134.00, 205.00, 18.00, 17, ABprappaaa
214, 214, 214, -1, 93.00, 250.00, 15.00, 15, ABprapppaa
215, 215, 215, -1, 99.00, 269.00, 13.00, 15, ABprapppap
216, 216, 216, -1, 83.00, 282.00, 11.00, 17, ABprappppp
217, 217, 217, -1, 78.00, 267.00, 14.00, 15, ABprappppa
218, 218, 218, -1, 173.00, 197.00, 29.00, 15, ABprapaaap
219, 219, 219, -1, 194.00, 195.00, 29.00, 17, ABprapaaaa
220, 220, 220, -1, 135.00, 200.00, 24.00, 17, ABprapaapp
221, 221, 221, -1, 164.00, 185.00, 26.00, 15, ABprapaapa
222, 222, 222, -1, 78.00, 251.00, 18.00, 17, ABprapappa
223, 223, 223, -1, 73.00, 277.00, 17.00, 17, ABprapappp
224, 224, 224, -1, 83.00, 248.00, 22.00, 15, ABprapapap
225, 225, 225, -1, 88.00, 254.00, 26.00, 17, ABprapapaa
226, 226, 226, -1, 218.00, 198.00, 25.00, 13, MSppppap
227, 227, 227, -1, 225.00, 202.00, 20.00, 15, MSppppaa
228, 228, 228, -1, 222.00, 205.00, 29.00, 15, MSpppppa
229, 229, 229, -1, 189.00, 219.00, 29.00, 15, MSpppppp
230, 230, 230, -1, 218.00, 223.00, 16.00, 15, MSpppaaa
231, 231, 231, -1, 206.00, 224.00, 20.00, 15, MSpppaap
232, 232, 232, -1, 191.00, 220.00, 20.00, 15, MSpppapp
233, 233, 233, -1, 199.00, 202.00, 16.00, 13, MSpppapa
234, 234, 234, -1, 230.00, 211.00, 16.00, 15, MSppaapp
235, 235, 235, -1, 253.00, 217.00, 15.00, 13, MSppaapa
236, 236, 236, -1, 284.00, 199.00, 15.00, 13, MSppaaaa
237, 237, 237, -1, 267.00, 202.00, 17.00, 15, MSppaaap
238, 238, 238, -1, 273.00, 189.00, 27.00, 13, MSppappa
239, 239, 239, -1, 266.00, 189.00, 20.00, 13, MSppapaa
240, 240, 240, -1, 247.00, 199.00, 19.00, 15, MSppapap
241, 241, 241, -1, 202.00, 262.00, 16.00, 17, MSpapapp
242, 242, 242, -1, 212.00, 247.00, 18.00, 15, MSpapapa
243, 243, 243, -1, 250.00, 248.00, 16.00, 11, MSpapaaaa
244, 244, 244, -1, 231.00, 248.00, 20.00, 13, MSpapaaap
245, 245, 245, -1, 226.00, 229.00, 20.00, 13, MSpapaapa
246, 246, 246, -1, 213.00, 251.00, 22.00, 15, MSpapaapp
247, 247, 247, -1, 184.00, 300.00, 14.00, 15, MSpappaa
248, 248, 248, -1, 172.00, 275.00, 14.00, 15, MSpappap
249, 249, 249, -1, 168.00, 255.00, 14.00, 17, MSpapppp
250, 250, 250, -1, 166.00, 231.00, 16.00, 17, MSpapppa
251, 251, 251, -1, 269.00, 216.00, 28.00, 15, MSpaaappa
252, 252, 252, -1, 244.00, 235.00, 29.00, 13, MSpaaappp
253, 253, 253, -1, 266.00, 232.00, 31.00, 15, MSpaaapa
254, 254, 254, -1, 290.00, 212.00, 27.00, 19, MSpaaaap
255, 255, 255, -1, 310.00, 198.00, 26.00, 15, MSpaaaaa
256, 256, 256, -1, 249.00, 218.00, 24.00, 21, MSpaapap
257, 257, 257, -1, 270.00, 203.00, 24.00, 15, MSpaapaa
258, 258, 258, -1, 195.00, 243.00, 26.00, 23, Earap
259, 259, 259, -1, 265.00, 289.00, 23.00, 13, MSapppaa
260, 260, 260, -1, 255.00, 292.00, 26.00, 15, MSapppap
261, 261, 261, -1, 241.00, 286.00, 29.00, 15, MSappppa
262, 262, 262, -1, 210.00, 307.00, 28.00, 13, MSappppp
263, 263, 263, -1, 222.00, 305.00, 21.00, 15, MSappaap
264, 264, 264, -1, 246.00, 288.00, 20.00, 15, MSappaaa
265, 265, 265, -1, 228.00, 313.00, 18.00, 15, MSappapp
266, 266, 266, -1, 250.00, 304.00, 20.00, 13, MSappapa
267, 267, 267, -1, 300.00, 261.00, 27.00, 17, MSapappa
268, 268, 268, -1, 268.00, 273.00, 29.00, 15, MSapappp
269, 269, 269, -1, 282.00, 278.00, 20.00, 13, MSapapap
270, 270, 270, -1, 295.00, 265.00, 23.00, 17, MSapapaa
271, 271, 271, -1, 263.00, 294.00, 18.00, 15, MSapaapp
272, 272, 272, -1, 285.00, 271.00, 16.00, 13, MSapaapa
273, 273, 273, -1, 333.00, 244.00, 20.00, 15, MSapaaaa
274, 274, 274, -1, 307.00, 262.00, 18.00, 15, MSapaaap
275, 275, 275, -1, 329.00, 214.00, 27.00, 17, MSaaaaapa
276, 276, 276, -1, 304.00, 227.00, 31.00, 13, MSaaaaapp
277, 277, 277, -1, 337.00, 215.00, 24.00, 19, MSaaaaaa
278, 278, 278, -1, 287.00, 232.00, 30.00, 15, MSaaaapa
279, 279, 279, -1, 271.00, 251.00, 28.00, 15, MSaaaapp
280, 280, 280, -1, 276.00, 242.00, 24.00, 17, MSaaapap
281, 281, 281, -1, 301.00, 237.00, 26.00, 15, MSaaapaa
282, 282, 282, -1, 263.00, 259.00, 26.00, 15, MSaaappa
283, 283, 283, -1, 248.00, 252.00, 27.00, 15, MSaaappp
284, 284, 284, -1, 192.00, 321.00, 16.00, 15, MSaapppp
285, 285, 285, -1, 211.00, 314.00, 16.00, 17, MSaapppa
286, 286, 286, -1, 257.00, 270.00, 17.00, 17, MSaapaaa
287, 287, 287, -1, 224.00, 287.00, 17.00, 17, MSaapapp
288, 288, 288, -1, 231.00, 268.00, 19.00, 15, MSaapapa
289, 289, 289, -1, 213.00, 279.00, 23.00, 21, Ealpa
290, 290, 290, -1, 185.00, 287.00, 23.00, 19, Ealpp
291, 291, 291, -1, 137.00, 304.00, 24.00, 23, Eplpa
292, 292, 292, -1, 147.00, 339.00, 20.00, 17, Cappap
293, 293, 293, -1, 162.00, 333.00, 23.00, 21, Cappaa
294, 294, 294, -1, 127.00, 336.00, 21.00, 17, Capppa
295, 295, 295, -1, 114.00, 318.00, 16.00, 19, Capppp
296, 296, 296, -1, 169.00, 331.00, 19.00, 19, Capapa
297, 297, 297, -1, 148.00, 322.00, 16.00, 17, Capapp
298, 298, 298, -1, 172.00, 312.00, 17.00, 19, Capaap
299, 299, 299, -1, 193.00, 325.00, 21.00, 17, Capaaa
300, 300, 300, -1, 86.00, 332.00, 27.00, 19, Caaapp
301, 301, 301, -1, 83.00, 329.00, 16.00, 21, Caappd
302, 302, 302, -1, 85.00, 319.00, 12.00, 15, Caappv
303, 303, 303, -1, 99.00, 303.00, 13.00, 15, Caapa
304, 304, 304, -1, 64.00, 303.00, 18.00, 19, Cpappd
305, 305, 305, -1, 75.00, 302.00, 13.00, 17, Cpappv
306, 306, 306, -1, 75.00, 332.00, 21.00, 19, Cpapaa
307, 307, 307, -1, 81.00, 301.00, 29.00, 21, Cpaapp
308, 308, 308, -1, 144.00, 254.00, 16.00, 19, Cppaap
309, 309, 309, -1, 147.00, 227.00, 18.00, 19, Cppaaa
310, 310, 310, -1, 125.00, 238.00, 20.00, 19, Cppapa
311, 311, 311, -1, 118.00, 256.00, 15.00, 19, Cppapp
312, 312, 312, -1, 129.00, 231.00, 24.00, 17, Cpppaa
313, 313, 313, -1, 112.00, 257.00, 19.00, 17, Cpppap
314, 314, 314, -1, 241.00, 312.00, 23.00, 15, Daapa
315, 315, 315, -1, 211.00, 323.00, 22.00, 17, Daapp
316, 316, 316, -1, 252.00, 300.00, 24.00, 15, Daaaa
317, 317, 317, -1, 231.00, 305.00, 26.00, 15, Daaap
318, 318, 318, -1, 193.00, 318.00, 28.00, 15, Dappa
319, 319, 319, -1, 158.00, 329.00, 27.00, 17, Dappp
320, 320, 320, 321, 179.00, 208.00, 18.00, 19, Dpap
321, 321, 322, -1, 197.00, 209.00, 25.00, 17, Dpaap
322, 322, 323, -1, 207.00, 196.00, 19.00, 15, Dpaaa
323, 323, 324, -1, 132.00, 241.00, 28.00, 17, Dpppp
324, 324, 325, -1, 161.00, 222.00, 25.00, 19, Dpppa
325, 325, 326, -1, 184.00, 203.00, 23.00, 17, Dppaa
326, 326, 327, -1, 153.00, 210.00, 22.00, 15, Dppap
327, 327, 328, -1, 188.00, 291.00, 17.00, 21, Z3
328, 328, 329, -1, 154.00, 276.00, 17.00, 21, Z2
330, 330, 331, -1, 328.00, 293.00, 24.00, 19, ABalpppapp
331, 331, 332, -1, 310.00, 281.00, 22.00, 13, ABalpppppaa
332, 332, 333, -1, 298.00, 292.00, 25.00, 13, ABalpppppap
333, 333, 334, -1, 283.00, 280.00, 25.00, 13, ABalppppppa
334, 334, 335, -1, 282.00, 301.00, 30.00, 17, ABalppppppp
335, 335, 336, -1, 324.00, 278.00, 27.00, 17, ABalppppap
336, 336, 337, -1, 324.00, 273.00, 20.00, 17, ABalppppaa
337, 337, 338, -1, 339.00, 282.00, 17.00, 15, ABalpppaaa
338, 338, 339, -1, 344.00, 283.00, 22.00, 15, ABalpppaap
339, 339, 340, -1, 320.00, 299.00, 19.00, 17, ABalpppapa
340, 340, 341, -1, 339.00, 256.00, 18.00, 15, ABalppaaaa
341, 341, 342, -1, 350.00, 266.00, 18.00, 16, ABalppaaap
342, 342, 343, -1, 311.00, 299.00, 15.00, 15, ABalppaapp
343, 343, 344, -1, 321.00, 288.00, 15.00, 13, ABalppaapa
344, 344, 345, 346, 279.00, 303.00, 12.00, 17, ABalppappp
345, 345, 347, -1, 304.00, 277.00, 14.00, 17, ABalppappa
346, 346, 348, -1, 292.00, 286.00, 10.00, 17, ABalppapap
347, 347, 349, -1, 310.00, 277.00, 11.00, 17, ABalppapaa
348, 348, 350, -1, 273.00, 283.00, 11.00, 17, ABalpapapa
349, 349, 351, -1, 255.00, 319.00, 11.00, 17, ABalpapapp
350, 350, 352, -1, 280.00, 260.00, 9.00, 17, ABalpapaap
351, 351, 353, -1, 301.00, 261.00, 11.00, 17, ABalpapaaa
352, 352, 354, -1, 267.00, 257.00, 11.00, 15, ABalpappapa
353, 353, 355, -1, 241.00, 264.00, 11.00, 15, ABalpappapp
354, 354, 356, -1, 286.00, 247.00, 13.00, 17, ABalpappaa
355, 355, 357, -1, 235.00, 273.00, 14.00, 17, ABalpappppp
356, 356, 358, -1, 259.00, 274.00, 13.00, 13, ABalpappppa
357, 357, 359, -1, 268.00, 257.00, 14.00, 15, ABalpapppa
358, 358, 360, -1, 282.00, 255.00, 17.00, 15, ABalpaaapp
359, 359, 361, -1, 302.00, 242.00, 14.00, 15, ABalpaaapa
360, 360, 362, -1, 308.00, 242.00, 10.00, 13, ABalpaaaap
361, 361, 363, -1, 318.00, 226.00, 11.00, 15, ABalpaaaaa
362, 362, 364, -1, 323.00, 261.00, 13.00, 15, ABalpaappp
363, 363, 365, -1, 331.00, 241.00, 11.00, 17, ABalpaappa
364, 364, 366, -1, 303.00, 244.00, 18.00, 15, ABalpaapapp
365, 365, 367, -1, 318.00, 237.00, 17.00, 15, ABalpaapapa
366, 366, 368, -1, 331.00, 222.00, 18.00, 15, ABalpaapaa
367, 367, 369, -1, 174.00, 254.00, 27.00, 19, Epraa
368, 368, 370, -1, 150.00, 266.00, 26.00, 21, Eprap
369, 369, 371, -1, 224.00, 218.00, 25.00, 13, MSpaapp
370, 370, 372, -1, 166.00, 259.00, 22.00, 21, Earpp
371, 371, 373, -1, 199.00, 271.00, 27.00, 21, Ealap
372, 372, 374, -1, 227.00, 261.00, 27.00, 21, Ealaa
373, 373, 375, -1, 175.00, 278.00, 28.00, 21, Eplaa
374, 374, 376, -1, 153.00, 290.00, 26.00, 19, Eplap
375, 375, 377, -1, 122.00, 281.00, 21.00, 21, Eprpp
376, 376, 378, -1, 191.00, 334.00, 26.00, 17, Dapap
377, 377, 379, -1, 218.00, 321.00, 26.00, 17, Dapaa
378, 378, 380, 381, 245.00, 267.00, 23.00, 15, MSaapaap
379, 379, 382, -1, 144.00, 217.00, 32.00, 15, ABarpppapp
380, 380, 383, -1, 229.00, 327.00, 12.00, 17, ABplppaapa
381, 381, 384, -1, 66.00, 302.00, 24.00, 17, Cpapap
382, 382, 385, -1, 228.00, 237.00, 26.00, 19, Earaa
383, 383, 386, -1, 346.00, 244.00, 15.00, 15, ABalaaaala
384, 384, 387, -1, 245.00, 189.00, 34.00, 15, ABarpappaa
385, 385, 388, -1, 344.00, 196.00, 27.00, 13, ABalappaaa
386, 386, 389, -1, 94.00, 270.00, 21.00, 17, Cppppa
387, 387, 390, -1, 97.00, 287.00, 16.00, 19, Cppppp
388, 388, 391, -1, 190.00, 247.00, 20.00, 17, Earpa
389, 389, 392, -1, 244.00, 199.00, 29.00, 15, MSppappp
390, 390, 393, -1, 132.00, 271.00, 25.00, 21, Eprpa
391, 391, 394, -1, 217.00, 251.00, 33.00, 17, ABarpaappa
392, 392, 395, -1, 195.00, 303.00, 34.00, 19, ABarppaapa
393, 393, 396, -1, 119.00, 253.00, 33.00, 21, Cpaaap
394, 394, 397, -1, 114.00, 330.00, 32.00, 19, Caaapa
395, 395, 398, -1, 104.00, 284.00, 32.00, 19, Cpaapa
396, 396, 399, -1, 134.00, 300.00, 19.00, 23, Eplpp
397, 397, 400, -1, 203.00, 290.00, 14.00, 13, MSaappap
399, 400, 404, -1, 265.00, 176.00, 15.00, 16, ABalaapapp
400, 397, 405, -1, 212.00, 280.00, 13.67, 15, MSaappaa
401, 398, 403, -1, 182.00, 228.00, 34.50, 19, ABarpppapa
402, 401, 406, -1, 155.00, 247.00, 34.00, 20, Cpaaaa
403, 402, 407, -1, 131.00, 314.00, 33.00, 15, Caaaap
404, 403, 408, -1, 168.00, 306.00, 33.00, 17, Caaaaa
405, 404, 409, -1, 134.00, 316.00, 9.00, 10, ABplpppapap
