1, 1, 1, -1, 309.00, 208.00, 24.00, 15, ABaraappaa
2, 2, 2, -1, 273.00, 211.00, 24.00, 15, ABaraappapp
3, 3, 3, -1, 290.00, 205.00, 24.00, 15, ABaraappapa
4, 4, 4, -1, 251.00, 225.00, 21.00, 15, ABaraapppap
5, 5, 5, -1, 264.00, 213.00, 21.00, 15, ABaraapppaa
6, 6, 6, -1, 236.00, 241.00, 20.00, 15, ABaraappppp
7, 7, 7, -1, 255.00, 263.00, 20.00, 15, ABaraapapp
8, 8, 8, -1, 267.00, 258.00, 23.00, 15, ABaraapapap
9, 9, 9, -1, 279.00, 250.00, 23.00, 17, ABaraapapaa
10, 10, 10, -1, 319.00, 227.00, 23.00, 17, ABaraapaaa
11, 11, 11, -1, 289.00, 236.00, 26.00, 15, ABaraapaapp
12, 12, 12, -1, 304.00, 231.00, 24.00, 13, ABaraapaapa
13, 13, 13, -1, 314.00, 220.00, 11.00, 17, ABaraaappa
14, 14, 14, -1, 307.00, 205.00, 13.00, 11, ABaraaapppa
15, 15, 15, -1, 278.00, 206.00, 10.00, 11, ABaraaapppp
16, 16, 16, -1, 314.00, 214.00, 19.00, 13, ABaraaapaaa
17, 17, 17, -1, 290.00, 222.00, 20.00, 13, ABaraaapapa
18, 18, 18, -1, 299.00, 209.00, 20.00, 15, ABaraaapaap
19, 19, 19, -1, 278.00, 222.00, 21.00, 15, ABaraaapapp
20, 20, 20, -1, 312.00, 234.00, 17.00, 15, ABaraaaaaa
21, 21, 21, -1, 301.00, 211.00, 16.00, 17, ABaraaaaap
22, 22, 22, -1, 309.00, 226.00, 28.00, 13, ABaraaaapp
23, 23, 23, -1, 327.00, 213.00, 19.00, 15, ABaraaaapa
24, 24, 24, -1, 241.00, 246.00, 11.00, 13, ABarapapapp
25, 25, 25, -1, 256.00, 237.00, 11.00, 13, ABarapapapa
26, 26, 26, -1, 263.00, 233.00, 14.00, 15, ABarapapaap
27, 27, 27, -1, 272.00, 220.00, 16.00, 15, ABarapapaaa
28, 28, 28, -1, 219.00, 241.00, 13.00, 17, ABarapapppp
29, 29, 29, -1, 247.00, 224.00, 16.00, 15, ABarapappa
30, 30, 30, -1, 281.00, 227.00, 11.00, 15, ABarapaaap
31, 31, 31, -1, 294.00, 223.00, 13.00, 15, ABarapaaaa
32, 32, 32, -1, 280.00, 214.00, 17.00, 17, ABarapaapa
33, 33, 33, -1, 247.00, 219.00, 18.00, 17, ABarapaappp
34, 34, 34, -1, 264.00, 231.00, 18.00, 13, ABarapaappa
35, 35, 35, -1, 260.00, 198.00, 10.00, 13, ABarapppapa
36, 36, 36, -1, 236.00, 209.00, 10.00, 11, ABarapppapp
37, 37, 37, -1, 290.00, 197.00, 10.00, 13, ABarapppaaa
38, 38, 38, -1, 268.00, 187.00, 10.00, 13, ABarapppaap
39, 39, 39, -1, 254.00, 197.00, 14.00, 13, ABarappppap
40, 40, 40, -1, 270.00, 189.00, 14.00, 13, ABarappppaa
41, 41, 41, -1, 242.00, 196.00, 12.00, 13, ABarapppppa
42, 42, 42, -1, 226.00, 188.00, 12.00, 13, ABarapppppp
43, 43, 43, -1, 250.00, 215.00, 11.00, 13, ABarappaaap
44, 43, 44, -1, 266.00, 218.00, 11.00, 13, ABarappaaaa
45, 44, 45, -1, 239.00, 227.00, 11.00, 17, ABarappaap
46, 45, 46, -1, 216.00, 219.00, 10.00, 15, ABarappapap
47, 46, 47, -1, 224.00, 196.00, 10.00, 13, ABarappapaa
48, 47, 48, -1, 175.00, 209.00, 12.00, 13, ABarappappp
49, 48, 49, -1, 201.00, 207.00, 10.00, 13, ABarappappa
50, 49, 50, -1, 222.00, 176.00, 31.00, 17, ABarpapppa
51, 50, 51, -1, 216.00, 186.00, 34.00, 15, ABarpapppp
52, 51, 52, -1, 246.00, 175.00, 33.00, 17, ABarpappap
53, 52, 53, -1, 299.00, 187.00, 35.00, 19, ABarpapaaa
54, 53, 54, -1, 293.00, 193.00, 32.00, 13, ABarpapaapa
55, 54, 55, -1, 278.00, 196.00, 34.00, 15, ABarpapaapp
56, 55, 56, -1, 240.00, 214.00, 35.00, 15, ABarpapapp
57, 56, 57, -1, 276.00, 218.00, 35.00, 15, ABarpapapa
58, 57, 58, -1, 217.00, 267.00, 35.00, 17, ABarpaappp
59, 58, 59, -1, 257.00, 216.00, 35.00, 13, ABarpaapaa
60, 59, 60, -1, 247.00, 250.00, 34.00, 21, ABarpaapap
61, 60, 61, -1, 328.00, 211.00, 32.00, 15, ABarpaaaaa
62, 61, 62, -1, 303.00, 235.00, 35.00, 17, ABarpaaaap
63, 62, 63, -1, 274.00, 235.00, 35.00, 11, ABarpaaapp
64, 63, 64, -1, 298.00, 212.00, 36.00, 17, ABarpaaapa
65, 64, 65, -1, 234.00, 323.00, 34.00, 17, ABarppaaap
66, 65, 66, -1, 237.00, 292.00, 35.00, 13, ABarppaaaa
67, 66, 67, -1, 192.00, 331.00, 33.00, 15, ABarppaapp
68, 67, 68, -1, 139.00, 352.00, 31.00, 17, ABarppappa
69, 68, 69, -1, 109.00, 360.00, 22.00, 15, ABarppappp
70, 69, 70, -1, 191.00, 351.00, 31.00, 17, ABarppapap
71, 70, 71, -1, 215.00, 334.00, 33.00, 17, ABarppapaa
72, 71, 72, -1, 73.00, 257.00, 21.00, 17, ABarpppppp
73, 72, 73, -1, 98.00, 244.00, 29.00, 17, ABarpppppa
74, 73, 74, -1, 165.00, 197.00, 31.00, 15, ABarppppaa
75, 74, 75, -1, 136.00, 214.00, 32.00, 15, ABarppppap
76, 75, 76, -1, 188.00, 194.00, 34.00, 17, ABarpppaap
77, 76, 77, -1, 209.00, 213.00, 35.00, 15, ABarpppaaa
78, 77, 78, -1, 328.00, 190.00, 26.00, 13, ABalappppaa
79, 78, 79, -1, 303.00, 185.00, 28.00, 13, ABalappppap
80, 79, 80, -1, 277.00, 178.00, 33.00, 13, ABalapppppp
81, 80, 81, -1, 343.00, 201.00, 24.00, 15, ABalapppaaa
82, 81, 82, -1, 333.00, 190.00, 29.00, 13, ABalapppaap
83, 82, 83, -1, 320.00, 200.00, 30.00, 11, ABalapppapa
84, 84, 84, -1, 316.00, 183.00, 24.00, 15, ABalappapa
85, 85, 85, -1, 343.00, 222.00, 27.00, 17, ABalappaap
86, 86, 86, -1, 324.00, 170.00, 25.00, 13, ABalappappa
87, 87, 87, -1, 304.00, 168.00, 27.00, 13, ABalappappp
88, 88, 88, -1, 310.00, 272.00, 36.00, 15, ABalapapppp
89, 89, 89, -1, 321.00, 263.00, 32.00, 11, ABalapapppa
90, 90, 90, -1, 337.00, 244.00, 27.00, 17, ABalapappaa
91, 91, 91, -1, 326.00, 261.00, 29.00, 13, ABalapappap
92, 92, 92, -1, 327.00, 229.00, 33.00, 15, ABalapapaa
93, 93, 93, -1, 311.00, 249.00, 32.00, 13, ABalapapapp
94, 94, 94, -1, 342.00, 244.00, 24.00, 19, ABalapaaaa
95, 95, 95, -1, 353.00, 257.00, 26.00, 13, ABalapaaapa
96, 96, 96, -1, 343.00, 269.00, 29.00, 15, ABalapaaapp
97, 97, 97, -1, 339.00, 256.00, 22.00, 15, ABalapaappa
98, 98, 98, -1, 329.00, 267.00, 20.00, 15, ABalapaapa
99, 99, 99, -1, 336.00, 273.00, 24.00, 15, ABalapaappp
100, 100, 100, -1, 313.00, 191.00, 15.00, 15, ABalaapaaa
101, 101, 101, -1, 247.00, 179.00, 10.00, 15, ABalaapapa
102, 102, 102, -1, 305.00, 189.00, 12.00, 15, ABalaapaap
103, 103, 103, 104, 289.00, 185.00, 14.00, 15, ABalaappap
104, 104, 105, -1, 284.00, 173.00, 13.00, 17, ABalaappaa
105, 105, 106, -1, 302.00, 169.00, 24.00, 15, ABalaappppp
106, 106, 107, -1, 315.00, 174.00, 20.00, 13, ABalaappppa
107, 107, 108, -1, 299.00, 185.00, 21.00, 15, ABalaapppa
108, 108, 109, -1, 345.00, 249.00, 13.00, 17, ABalaaaalp
109, 109, 110, -1, 329.00, 199.00, 17.00, 17, ABalaaaarr
110, 110, 111, -1, 342.00, 222.00, 17.00, 15, ABalaaaarl
111, 111, 112, -1, 333.00, 192.00, 21.00, 17, ABalaaappl
112, 112, 113, -1, 320.00, 189.00, 19.00, 13, ABalaaapprr
113, 113, 114, -1, 301.00, 178.00, 17.00, 15, ABalaaapprl
114, 114, 115, -1, 344.00, 220.00, 22.00, 17, ABalaaapar
115, 115, 116, -1, 344.00, 265.00, 19.00, 15, ABalaaapalr
116, 116, 117, -1, 159.00, 327.00, 10.00, 15, ABplppppapa
117, 117, 118, -1, 149.00, 314.00, 10.00, 13, ABplppppapp
118, 118, 119, -1, 176.00, 307.00, 10.00, 13, ABplppppaaa
119, 119, 120, -1, 166.00, 307.00, 10.00, 13, ABplppppaap
120, 120, 121, -1, 92.00, 325.00, 12.00, 13, ABplppppppp
121, 121, 122, -1, 112.00, 313.00, 10.00, 13, ABplppppppa
122, 122, 123, -1, 143.00, 309.00, 13.00, 13, ABplpppppap
123, 122, 124, -1, 156.00, 305.00, 15.00, 13, ABplpppppaa
124, 123, 125, -1, 124.00, 312.00, 12.00, 13, ABplpppapp
125, 124, 126, -1, 136.00, 325.00, 10.00, 13, ABplpppapaa
126, 125, 127, -1, 133.00, 342.00, 11.00, 13, ABplpppaapp
127, 126, 128, -1, 151.00, 342.00, 12.00, 15, ABplpppaapa
128, 127, 129, -1, 179.00, 333.00, 10.00, 15, ABplpppaaaa
129, 128, 130, -1, 167.00, 346.00, 13.00, 13, ABplpppaaap
130, 129, 131, -1, 188.00, 338.00, 14.00, 17, ABplppappp
131, 130, 132, 133, 211.00, 330.00, 14.00, 15, ABplppappa
132, 131, 134, -1, 212.00, 346.00, 17.00, 13, ABplppapaap
133, 132, 135, -1, 194.00, 344.00, 17.00, 21, ABplppapap
134, 133, 136, -1, 210.00, 311.00, 11.00, 13, ABplppaappa
135, 134, 137, -1, 190.00, 321.00, 10.00, 13, ABplppaappp
136, 135, 138, -1, 264.00, 311.00, 19.00, 13, ABplppaaaaa
137, 136, 139, -1, 252.00, 316.00, 18.00, 13, ABplppaaap
138, 137, 140, -1, 245.00, 271.00, 9.00, 15, ABplpappaaa
139, 138, 141, -1, 228.00, 284.00, 10.00, 15, ABplpappaap
140, 139, 142, -1, 217.00, 269.00, 11.00, 15, ABplpappap
141, 140, 143, -1, 146.00, 297.00, 10.00, 13, ABplpappppp
142, 141, 144, -1, 167.00, 283.00, 11.00, 13, ABplpappppa
143, 142, 145, -1, 186.00, 285.00, 10.00, 15, ABplpapppaa
144, 143, 146, -1, 165.00, 267.00, 9.00, 15, ABplpapppap
145, 144, 147, -1, 216.00, 298.00, 10.00, 13, ABplpapappa
146, 145, 148, -1, 191.00, 301.00, 10.00, 13, ABplpapappp
147, 146, 149, -1, 224.00, 314.00, 12.00, 13, ABplpapapap
148, 147, 150, -1, 240.00, 304.00, 13.00, 11, ABplpapapaa
149, 148, 151, -1, 260.00, 308.00, 14.00, 15, ABplpapaap
150, 149, 152, -1, 253.00, 295.00, 13.00, 13, ABplpapaaap
151, 150, 153, -1, 274.00, 287.00, 12.00, 11, ABplpapaaaa
152, 151, 154, -1, 250.00, 334.00, 15.00, 13, ABplpaaaapp
153, 152, 155, -1, 263.00, 323.00, 13.00, 15, ABplpaaaapa
154, 153, 156, -1, 290.00, 290.00, 17.00, 13, ABplpaaaaap
155, 154, 157, -1, 310.00, 275.00, 16.00, 15, ABplpaaaaaa
156, 155, 158, -1, 305.00, 306.00, 18.00, 19, ABplpaaapa
157, 156, 159, -1, 287.00, 311.00, 15.00, 15, ABplpaaappa
158, 157, 160, -1, 276.00, 317.00, 16.00, 15, ABplpaaappp
159, 158, 161, -1, 264.00, 308.00, 26.00, 13, ABplpaappap
160, 159, 162, -1, 283.00, 299.00, 24.00, 15, ABplpaappaa
161, 160, 163, -1, 290.00, 320.00, 18.00, 13, ABplpaapppa
162, 161, 164, -1, 299.00, 319.00, 21.00, 13, ABplpaapapp
163, 162, 165, -1, 275.00, 325.00, 20.00, 15, ABplpaapppp
164, 163, 166, -1, 298.00, 298.00, 20.00, 13, ABplpaapaap
165, 164, 167, -1, 304.00, 277.00, 19.00, 13, ABplpaapaaa
166, 165, 168, -1, 304.00, 312.00, 25.00, 15, ABplpaapapa
167, 166, 169, -1, 272.00, 330.00, 24.00, 17, ABplaappap
168, 167, 170, -1, 286.00, 322.00, 23.00, 15, ABplaappaa
169, 168, 171, -1, 257.00, 332.00, 26.00, 19, ABplaapppa
170, 169, 172, -1, 230.00, 346.00, 25.00, 17, ABplaapppp
171, 170, 173, -1, 336.00, 253.00, 32.00, 17, ABplaapaaa
172, 171, 174, -1, 340.00, 272.00, 33.00, 13, ABplaapaapa
173, 172, 175, -1, 323.00, 282.00, 31.00, 15, ABplaapaapp
174, 173, 176, -1, 292.00, 293.00, 30.00, 17, ABplaapappp
175, 174, 177, -1, 305.00, 280.00, 30.00, 13, ABplaapappa
176, 175, 178, -1, 306.00, 286.00, 26.00, 13, ABplaapapa
177, 176, 179, -1, 295.00, 259.00, 35.00, 13, ABplaaaaapp
178, 177, 180, -1, 308.00, 259.00, 30.00, 13, ABplaaaaapa
179, 178, 181, -1, 320.00, 249.00, 36.00, 17, ABplaaaaaa
180, 179, 182, -1, 267.00, 267.00, 34.00, 17, ABplaaaapp
181, 180, 183, -1, 278.00, 253.00, 34.00, 13, ABplaaaapa
182, 181, 184, -1, 261.00, 296.00, 33.00, 15, ABplaaappp
183, 182, 185, -1, 277.00, 302.00, 33.00, 15, ABplaaappa
184, 183, 186, -1, 296.00, 300.00, 33.00, 17, ABplaaapap
185, 184, 187, -1, 305.00, 283.00, 34.00, 13, ABplaaapaa
186, 185, 188, -1, 139.00, 351.00, 15.00, 17, ABplappppa
187, 186, 189, -1, 107.00, 338.00, 13.00, 15, ABplappppp
188, 187, 190, -1, 118.00, 346.00, 17.00, 15, ABplapppaa
189, 188, 191, -1, 124.00, 335.00, 14.00, 15, ABplapppap
190, 189, 192, -1, 193.00, 357.00, 25.00, 15, ABplappaaa
191, 190, 193, -1, 175.00, 362.00, 26.00, 15, ABplappaap
192, 191, 194, -1, 163.00, 363.00, 22.00, 15, ABplappapp
193, 192, 195, -1, 164.00, 347.00, 32.00, 17, ABplappapa
194, 193, 196, -1, 209.00, 353.00, 26.00, 15, ABplapaapp
195, 194, 197, -1, 244.00, 337.00, 27.00, 15, ABplapaapa
196, 195, 512, -1, 244.00, 305.00, 34.00, 15, ABplapaaaap
197, 196, 199, -1, 238.00, 329.00, 31.00, 13, ABplapaaapp
198, 197, 200, -1, 254.00, 313.00, 29.00, 13, ABplapaaapa
199, 198, 201, -1, 101.00, 345.00, 19.00, 19, ABplapappp
200, 199, 202, -1, 141.00, 371.00, 22.00, 17, ABplapapap
201, 200, 203, -1, 132.00, 363.00, 18.00, 17, ABplapappa
202, 201, 204, -1, 125.00, 360.00, 27.00, 19, ABplapapaa
203, 202, 205, 303, 223.00, 213.00, 13.00, 15, ABprpapaaa
204, 203, 206, -1, 199.00, 202.00, 14.00, 11, ABprpapaapp
205, 204, 207, -1, 182.00, 236.00, 11.00, 13, ABprpapappa
206, 205, 208, -1, 178.00, 256.00, 10.00, 13, ABprpapappp
207, 206, 209, -1, 183.00, 226.00, 12.00, 13, ABprpapapap
208, 207, 210, -1, 208.00, 224.00, 13.00, 13, ABprpapapaa
209, 208, 211, -1, 132.00, 293.00, 12.00, 11, ABprpappppp
210, 209, 212, -1, 148.00, 282.00, 14.00, 13, ABprpappppa
211, 210, 213, -1, 199.00, 245.00, 11.00, 15, ABprpapppaa
212, 211, 214, -1, 190.00, 265.00, 11.00, 15, ABprpapppap
213, 212, 215, -1, 202.00, 280.00, 10.00, 17, ABprpappapp
214, 213, 216, -1, 214.00, 237.00, 10.00, 13, ABprpappaap
215, 214, 217, -1, 230.00, 246.00, 9.00, 15, ABprpappaaa
216, 215, 218, -1, 238.00, 183.00, 16.00, 15, ABprpaaaaap
217, 216, 219, -1, 257.00, 181.00, 17.00, 15, ABprpaapaaa
218, 217, 220, -1, 185.00, 193.00, 12.00, 13, ABprpaaaapp
219, 218, 221, -1, 206.00, 189.00, 11.00, 15, ABprpaaaapa
220, 219, 222, -1, 227.00, 174.00, 14.00, 15, ABprpaaappa
221, 203, 223, -1, 217.00, 194.00, 14.00, 11, ABprpapaapa
222, 220, 224, -1, 219.00, 182.00, 15.00, 15, ABprpaaappp
223, 221, 225, -1, 241.00, 171.00, 13.00, 15, ABprpaaapa
224, 222, 226, -1, 246.00, 172.00, 20.00, 13, ABprpaapaap
225, 223, 227, -1, 245.00, 158.00, 22.00, 15, ABprpaapapa
226, 224, 228, -1, 234.00, 160.00, 19.00, 15, ABprpaapapp
227, 225, 229, -1, 226.00, 163.00, 17.00, 17, ABprpaapppa
228, 226, 230, -1, 216.00, 167.00, 18.00, 17, ABprpaapppp
229, 227, 231, -1, 220.00, 189.00, 26.00, 15, ABprpaappap
230, 228, 232, -1, 233.00, 184.00, 22.00, 17, ABprpaappaa
231, 229, 233, -1, 86.00, 264.00, 10.00, 15, ABprpppaapp
232, 230, 234, -1, 107.00, 252.00, 10.00, 15, ABprpppaapa
233, 231, 235, -1, 113.00, 238.00, 11.00, 15, ABprpppaaap
234, 232, 236, -1, 146.00, 240.00, 11.00, 15, ABprpppaaaa
235, 233, 237, -1, 115.00, 272.00, 9.00, 13, ABprpppapaa
236, 234, 238, -1, 111.00, 287.00, 10.00, 13, ABprpppapap
237, 235, 239, -1, 118.00, 300.00, 11.00, 13, ABprpppapp
238, 236, 240, -1, 135.00, 256.00, 10.00, 15, ABprppppapa
239, 237, 241, -1, 130.00, 279.00, 10.00, 15, ABprppppapp
240, 238, 242, -1, 153.00, 264.00, 9.00, 15, ABprppppaaa
241, 239, 243, -1, 145.00, 273.00, 11.00, 13, ABprppppaap
242, 240, 244, -1, 83.00, 298.00, 10.00, 15, ABprppppppp
243, 241, 245, -1, 101.00, 298.00, 9.00, 13, ABprppppppa
244, 242, 246, -1, 133.00, 262.00, 15.00, 15, ABprpppppaa
245, 243, 247, -1, 120.00, 282.00, 14.00, 13, ABprpppppap
246, 244, 248, -1, 188.00, 213.00, 14.00, 15, ABprppaapa
247, 245, 249, -1, 164.00, 241.00, 10.00, 15, ABprppaapp
248, 246, 250, -1, 209.00, 182.00, 17.00, 15, ABprppaaaaa
249, 247, 251, -1, 189.00, 192.00, 16.00, 13, ABprppaaaap
250, 248, 252, -1, 193.00, 179.00, 20.00, 13, ABprppaaap
251, 249, 253, -1, 167.00, 199.00, 15.00, 15, ABprppapaaa
252, 250, 254, -1, 149.00, 203.00, 16.00, 13, ABprppapaap
253, 251, 255, -1, 134.00, 219.00, 14.00, 17, ABprppapap
254, 252, 256, -1, 127.00, 231.00, 12.00, 19, ABprppappp
255, 253, 257, -1, 156.00, 218.00, 12.00, 17, ABprppappa
256, 254, 258, -1, 318.00, 182.00, 32.00, 13, ABpraapaaa
257, 255, 259, -1, 294.00, 169.00, 30.00, 15, ABpraapaapa
258, 256, 260, -1, 266.00, 180.00, 26.00, 15, ABpraapapa
259, 257, 261, -1, 242.00, 175.00, 30.00, 15, ABpraapappp
260, 258, 262, -1, 260.00, 179.00, 29.00, 13, ABpraapappa
261, 259, 263, -1, 159.00, 191.00, 22.00, 15, ABpraapppp
262, 260, 264, -1, 190.00, 177.00, 23.00, 17, ABpraapppa
263, 261, 265, -1, 208.00, 170.00, 23.00, 15, ABpraappap
264, 262, 266, -1, 225.00, 165.00, 23.00, 15, ABpraappaa
265, 263, 267, -1, 283.00, 168.00, 26.00, 17, ABpraaapap
266, 264, 268, -1, 281.00, 181.00, 19.00, 15, ABpraaapaa
267, 265, 269, -1, 266.00, 176.00, 21.00, 15, ABpraaappaa
268, 266, 270, -1, 253.00, 174.00, 24.00, 13, ABpraaappap
269, 267, 271, -1, 245.00, 191.00, 26.00, 15, ABpraaapppa
270, 268, 272, -1, 231.00, 177.00, 27.00, 19, ABpraaapppp
271, 269, 273, -1, 291.00, 162.00, 20.00, 17, ABpraaaaap
272, 270, 274, -1, 273.00, 167.00, 15.00, 17, ABpraaaaaa
273, 271, 275, -1, 268.00, 165.00, 19.00, 17, ABpraaaapa
274, 272, 276, -1, 282.00, 161.00, 23.00, 13, ABpraaaappa
275, 273, 277, -1, 259.00, 158.00, 25.00, 15, ABpraaaappp
276, 274, 278, -1, 106.00, 223.00, 20.00, 15, ABprappapp
277, 275, 279, -1, 114.00, 225.00, 30.00, 15, ABprappapa
278, 276, 280, -1, 114.00, 213.00, 23.00, 15, ABprappaap
279, 277, 281, -1, 134.00, 205.00, 20.00, 15, ABprappaaa
280, 278, 282, -1, 88.00, 262.00, 17.00, 15, ABprapppaa
281, 279, 283, -1, 100.00, 269.00, 13.00, 15, ABprapppap
282, 280, 284, -1, 75.00, 279.00, 13.00, 17, ABprappppp
283, 281, 285, -1, 83.00, 252.00, 14.00, 17, ABprappppa
284, 282, 286, -1, 202.00, 187.00, 28.00, 15, ABprapaaapa
285, 283, 287, -1, 181.00, 189.00, 29.00, 15, ABprapaaapp
286, 284, 288, -1, 212.00, 200.00, 31.00, 15, ABprapaaaa
287, 285, 289, -1, 141.00, 197.00, 25.00, 13, ABprapaapp
288, 286, 290, -1, 172.00, 183.00, 24.00, 15, ABprapaapa
289, 287, 291, -1, 91.00, 240.00, 16.00, 17, ABprapappa
290, 288, 292, -1, 77.00, 276.00, 19.00, 17, ABprapappp
291, 289, 293, -1, 89.00, 237.00, 22.00, 15, ABprapapap
292, 290, 294, -1, 83.00, 256.00, 27.00, 15, ABprapapaa
293, 291, 295, -1, 228.00, 207.00, 26.00, 15, MSppppap
294, 292, 296, -1, 222.00, 199.00, 20.00, 15, MSppppaa
295, 293, 297, -1, 233.00, 215.00, 30.00, 15, MSpppppa
296, 294, 298, -1, 199.00, 221.00, 30.00, 17, MSpppppp
297, 295, 299, -1, 207.00, 226.00, 18.00, 17, MSpppaaa
298, 296, 300, -1, 174.00, 227.00, 20.00, 15, MSpppaap
299, 297, 301, -1, 191.00, 214.00, 18.00, 15, MSpppapp
300, 298, 302, -1, 209.00, 205.00, 19.00, 11, MSpppapa
301, 299, 304, -1, 211.00, 220.00, 16.00, 15, MSppaapp
302, 300, 305, -1, 235.00, 206.00, 16.00, 11, MSppaapa
303, 301, 306, -1, 276.00, 205.00, 14.00, 13, MSppaaaa
304, 302, 307, -1, 280.00, 191.00, 23.00, 17, MSppaaap
305, 303, 308, -1, 278.00, 188.00, 29.00, 15, MSppappa
306, 304, 309, -1, 254.00, 195.00, 21.00, 15, MSppapaa
307, 305, 310, -1, 237.00, 190.00, 18.00, 17, MSppapap
308, 306, 311, -1, 197.00, 264.00, 14.00, 13, MSpapappp
309, 307, 312, -1, 214.00, 256.00, 16.00, 13, MSpapappa
310, 308, 313, -1, 203.00, 250.00, 19.00, 17, MSpapapa
311, 309, 314, -1, 243.00, 240.00, 17.00, 13, MSpapaaaa
312, 310, 315, -1, 228.00, 246.00, 17.00, 15, MSpapaaap
313, 311, 316, -1, 219.00, 239.00, 20.00, 13, MSpapaapa
314, 312, 317, -1, 207.00, 249.00, 22.00, 15, MSpapaapp
315, 313, 318, -1, 173.00, 302.00, 13.00, 17, MSpappaa
316, 314, 319, -1, 152.00, 238.00, 15.00, 15, MSpapppp
317, 315, 320, -1, 171.00, 225.00, 17.00, 19, MSpapppa
318, 316, 321, -1, 257.00, 232.00, 28.00, 15, MSpaaappa
319, 317, 322, -1, 234.00, 239.00, 27.00, 15, MSpaaappp
320, 318, 323, -1, 243.00, 246.00, 30.00, 19, MSpaaapa
321, 319, 324, -1, 286.00, 213.00, 28.00, 17, MSpaaaapa
322, 320, 325, -1, 265.00, 213.00, 30.00, 15, MSpaaaapp
323, 321, 326, -1, 287.00, 211.00, 31.00, 17, MSpaaaaa
324, 322, 327, -1, 238.00, 218.00, 19.00, 15, ABaraappppa
325, 323, 525, -1, 253.00, 222.00, 24.00, 15, MSpaapapa
326, 324, 329, -1, 257.00, 211.00, 27.00, 17, MSpaapaa
327, 325, 330, -1, 187.00, 256.00, 24.00, 23, Earap
328, 326, 331, -1, 264.00, 301.00, 22.00, 17, MSapppaa
329, 327, 332, -1, 256.00, 282.00, 26.00, 13, MSapppap
330, 328, 333, -1, 243.00, 281.00, 31.00, 15, MSappppa
331, 329, 334, -1, 211.00, 306.00, 30.00, 15, MSappppp
332, 330, 335, -1, 198.00, 319.00, 19.00, 15, MSappaap
333, 331, 336, -1, 229.00, 300.00, 21.00, 15, MSappaaa
334, 332, 337, -1, 238.00, 312.00, 20.00, 11, MSappapp
335, 333, 338, -1, 250.00, 302.00, 21.00, 11, MSappapa
336, 334, 339, -1, 290.00, 268.00, 30.00, 15, MSapappa
337, 335, 340, -1, 266.00, 271.00, 30.00, 15, MSapappp
338, 336, 341, -1, 273.00, 291.00, 18.00, 15, MSapapap
339, 337, 342, -1, 275.00, 278.00, 22.00, 15, MSapapaa
340, 338, 343, -1, 240.00, 298.00, 17.00, 15, MSapaapp
341, 339, 344, -1, 288.00, 272.00, 17.00, 11, MSapaapa
342, 340, 345, -1, 322.00, 251.00, 16.00, 15, MSapaaaa
343, 341, 346, -1, 315.00, 257.00, 25.00, 15, MSapaaap
344, 342, 347, -1, 312.00, 211.00, 29.00, 13, MSaaaaapa
345, 343, 348, -1, 305.00, 230.00, 32.00, 15, MSaaaaapp
346, 344, 349, -1, 329.00, 209.00, 24.00, 15, MSaaaaaa
347, 345, 350, -1, 287.00, 229.00, 31.00, 13, MSaaaapaa
348, 346, 351, -1, 268.00, 238.00, 30.00, 13, MSaaaapap
349, 347, 352, -1, 249.00, 264.00, 28.00, 15, MSaaaappp
350, 348, 353, -1, 271.00, 253.00, 29.00, 13, MSaaaappa
351, 349, 354, -1, 251.00, 255.00, 25.00, 13, MSaaapapp
352, 350, 355, -1, 287.00, 251.00, 29.00, 11, MSaaapaap
353, 351, 356, -1, 304.00, 245.00, 28.00, 13, MSaaapaaa
354, 352, 357, -1, 232.00, 274.00, 27.00, 13, MSaaappa
355, 353, 358, -1, 229.00, 257.00, 27.00, 13, MSaaappp
356, 354, 359, -1, 189.00, 313.00, 15.00, 15, MSaapppp
357, 355, 360, -1, 213.00, 308.00, 16.00, 17, MSaapppa
358, 356, 361, -1, 247.00, 279.00, 17.00, 15, MSaapaaap
359, 357, 362, -1, 258.00, 267.00, 17.00, 13, MSaapaaaa
360, 358, 363, -1, 211.00, 288.00, 17.00, 15, MSaapappp
361, 359, 364, -1, 230.00, 277.00, 17.00, 13, MSaapappa
362, 360, 365, -1, 225.00, 280.00, 20.00, 15, MSaapapa
363, 361, 366, -1, 205.00, 284.00, 21.00, 21, Ealpa
364, 362, 367, -1, 165.00, 304.00, 22.00, 21, Ealpp
365, 363, 368, -1, 129.00, 307.00, 23.00, 21, Eplpa
366, 364, 369, -1, 130.00, 338.00, 20.00, 19, Cappap
367, 365, 370, -1, 154.00, 340.00, 26.00, 17, Cappaa
368, 366, 371, -1, 118.00, 339.00, 25.00, 17, Capppa
369, 367, 372, -1, 106.00, 321.00, 16.00, 17, Capppp
370, 368, 373, -1, 152.00, 345.00, 22.00, 17, Capapa
371, 369, 374, -1, 153.00, 329.00, 14.00, 17, Capapp
372, 370, 375, -1, 169.00, 330.00, 18.00, 21, Capaap
373, 371, 376, -1, 192.00, 331.00, 22.00, 19, Capaaa
374, 372, 377, -1, 86.00, 320.00, 28.00, 21, Caaapp
375, 373, 378, -1, 80.00, 320.00, 17.00, 23, Caappd
376, 374, 379, -1, 80.00, 326.00, 13.00, 13, Caappv
377, 375, 380, -1, 103.00, 297.00, 15.00, 13, Caapaa
378, 376, 381, -1, 92.00, 308.00, 11.00, 13, Caapap
379, 377, 382, -1, 63.00, 304.00, 19.00, 19, Cpappd
380, 378, 383, -1, 74.00, 304.00, 14.00, 17, Cpappv
381, 379, 384, -1, 76.00, 333.00, 22.00, 17, Cpapaa
382, 380, 385, -1, 86.00, 293.00, 31.00, 21, Cpaapp
383, 381, 386, -1, 133.00, 240.00, 17.00, 19, Cppaap
384, 382, 387, -1, 148.00, 224.00, 21.00, 21, Cppaaa
385, 383, 388, -1, 120.00, 242.00, 24.00, 19, Cppapa
386, 384, 389, -1, 117.00, 251.00, 15.00, 21, Cppapp
387, 385, 390, -1, 117.00, 246.00, 28.00, 17, Cpppaap
388, 386, 391, -1, 135.00, 223.00, 25.00, 15, Cpppaaa
389, 387, 392, -1, 99.00, 263.00, 20.00, 15, Cpppap
390, 388, 393, -1, 236.00, 320.00, 24.00, 15, Daapa
391, 389, 394, -1, 220.00, 328.00, 20.00, 15, Daapp
392, 390, 395, -1, 246.00, 297.00, 24.00, 15, Daaaa
393, 391, 396, -1, 231.00, 308.00, 27.00, 15, Daaap
394, 392, 397, -1, 194.00, 319.00, 29.00, 19, Dappa
395, 393, 398, -1, 157.00, 328.00, 30.00, 17, Dappp
396, 394, 399, -1, 171.00, 208.00, 19.00, 15, Dpapp
397, 395, 400, -1, 195.00, 205.00, 22.00, 15, Dpapa
398, 396, 401, -1, 201.00, 210.00, 27.00, 13, Dpaap
399, 397, 402, -1, 215.00, 206.00, 23.00, 15, Dpaaa
400, 398, 403, -1, 141.00, 235.00, 30.00, 17, Dpppp
401, 399, 404, -1, 167.00, 224.00, 28.00, 17, Dpppa
402, 400, 405, -1, 184.00, 205.00, 25.00, 17, Dppaa
403, 401, 406, -1, 159.00, 210.00, 24.00, 15, Dppap
404, 402, 407, -1, 159.00, 256.00, 14.00, 25, Z2
406, 404, 409, -1, 328.00, 299.00, 21.00, 11, ABalpppappa
407, 405, 410, -1, 322.00, 300.00, 26.00, 15, ABalpppappp
408, 406, 411, -1, 303.00, 279.00, 23.00, 13, ABalpppppaa
409, 407, 412, -1, 289.00, 285.00, 23.00, 13, ABalpppppap
410, 408, 413, -1, 275.00, 288.00, 26.00, 15, ABalppppppa
411, 409, 414, -1, 285.00, 308.00, 28.00, 17, ABalppppppp
412, 410, 415, -1, 333.00, 292.00, 28.00, 13, ABalppppapp
413, 411, 416, -1, 340.00, 277.00, 26.00, 17, ABalppppapa
414, 412, 417, -1, 314.00, 271.00, 20.00, 13, ABalppppaad
415, 413, 418, -1, 319.00, 279.00, 24.00, 15, ABalppppaav
416, 414, 419, -1, 331.00, 285.00, 17.00, 15, ABalpppaaa
417, 415, 420, -1, 341.00, 286.00, 22.00, 17, ABalpppaap
418, 416, 421, -1, 318.00, 292.00, 18.00, 13, ABalpppapad
419, 417, 422, -1, 314.00, 304.00, 22.00, 15, ABalpppapav
420, 418, 423, -1, 337.00, 262.00, 16.00, 13, ABalppaaaa
421, 419, 520, -1, 349.00, 264.00, 16.00, 13, ABalppaaapa
422, 419, 425, -1, 337.00, 271.00, 14.00, 15, ABalppaaapp
423, 420, 426, 427, 303.00, 294.00, 14.00, 15, ABalppaapp
424, 421, 428, -1, 315.00, 289.00, 13.00, 15, ABalppaapa
425, 422, 429, -1, 289.00, 284.00, 12.00, 15, ABalppapppa
426, 423, 430, -1, 281.00, 302.00, 12.00, 13, ABalppapppp
427, 424, 431, -1, 302.00, 273.00, 13.00, 13, ABalppappap
428, 425, 432, -1, 321.00, 263.00, 15.00, 13, ABalppappaa
429, 426, 433, -1, 301.00, 269.00, 9.00, 13, ABalppapapa
430, 427, 434, -1, 279.00, 290.00, 9.00, 15, ABalppapapp
431, 428, 435, -1, 330.00, 264.00, 12.00, 15, ABalppapaaa
432, 429, 436, -1, 312.00, 277.00, 11.00, 15, ABalppapaap
433, 430, 437, -1, 252.00, 295.00, 9.00, 17, ABalpapapap
434, 431, 438, -1, 268.00, 274.00, 10.00, 15, ABalpapapaa
435, 432, 439, -1, 252.00, 317.00, 11.00, 17, ABalpapappa
436, 433, 440, -1, 229.00, 332.00, 13.00, 13, ABalpapappp
437, 434, 441, -1, 274.00, 240.00, 10.00, 15, ABalpapaap
438, 435, 442, -1, 307.00, 256.00, 10.00, 13, ABalpapaaaa
439, 436, 443, -1, 285.00, 262.00, 10.00, 15, ABalpapaaap
440, 437, 444, -1, 269.00, 256.00, 11.00, 15, ABalpappapa
441, 438, 445, -1, 244.00, 265.00, 11.00, 15, ABalpappapp
442, 439, 446, -1, 285.00, 254.00, 14.00, 17, ABalpappaap
443, 440, 447, -1, 283.00, 235.00, 15.00, 11, ABalpappaaa
444, 441, 522, -1, 238.00, 270.00, 14.00, 17, ABalpappppp
445, 442, 521, -1, 261.00, 261.00, 13.00, 15, ABalpappppa
446, 443, 449, -1, 272.00, 259.00, 16.00, 19, ABalpapppa
447, 444, 450, -1, 276.00, 259.00, 20.00, 15, ABalpaaapp
448, 445, 451, -1, 295.00, 252.00, 18.00, 17, ABalpaaapa
449, 446, 452, -1, 294.00, 245.00, 11.00, 15, ABalpaaaap
450, 447, 453, -1, 303.00, 242.00, 14.00, 17, ABalpaaaaa
451, 448, 454, -1, 331.00, 231.00, 12.00, 13, ABalpaapppa
452, 449, 455, -1, 322.00, 256.00, 11.00, 13, ABalpaapppp
453, 450, 456, -1, 322.00, 225.00, 15.00, 15, ABalpaappaa
454, 451, 457, -1, 316.00, 239.00, 11.00, 15, ABalpaappap
455, 452, 458, -1, 295.00, 255.00, 22.00, 15, ABalpaapapp
456, 453, 459, -1, 302.00, 244.00, 21.00, 17, ABalpaapapa
457, 454, 460, -1, 318.00, 245.00, 21.00, 13, ABalpaapaap
458, 455, 461, -1, 327.00, 231.00, 19.00, 13, ABalpaapaaa
459, 456, 462, -1, 173.00, 266.00, 27.00, 19, Epraa
461, 458, 464, -1, 203.00, 237.00, 26.00, 11, MSpaapp
462, 459, 465, -1, 156.00, 260.00, 25.00, 17, Earpp
463, 460, 466, -1, 187.00, 286.00, 25.00, 21, Ealap
464, 461, 467, -1, 209.00, 274.00, 27.00, 21, Ealaa
465, 462, 468, -1, 166.00, 292.00, 27.00, 21, Eplaa
466, 463, 469, -1, 146.00, 296.00, 23.00, 17, Eplap
467, 464, 470, -1, 129.00, 277.00, 19.00, 19, Eprpp
468, 465, 471, -1, 186.00, 339.00, 27.00, 17, Dapap
469, 466, 472, -1, 214.00, 326.00, 25.00, 15, Dapaa
470, 467, 473, -1, 225.00, 273.00, 23.00, 17, MSaapaapp
471, 468, 474, -1, 239.00, 264.00, 22.00, 13, MSaapaapa
472, 469, 475, -1, 154.00, 212.00, 32.00, 15, ABarpppapp
473, 470, 476, -1, 238.00, 320.00, 15.00, 17, ABplppaapa
474, 471, 477, -1, 67.00, 295.00, 24.00, 19, Cpapap
476, 473, 479, -1, 344.00, 244.00, 17.00, 15, ABalaaaala
477, 474, 480, -1, 263.00, 181.00, 35.00, 13, ABarpappaa
478, 475, 481, -1, 342.00, 206.00, 28.00, 15, ABalappaaa
479, 476, 482, -1, 100.00, 269.00, 27.00, 15, Cppppa
480, 477, 510, -1, 92.00, 285.00, 17.00, 21, Cppppp
481, 478, 484, -1, 189.00, 262.00, 18.00, 19, Earpa
482, 479, 485, -1, 251.00, 199.00, 31.00, 15, MSppappp
483, 480, 486, -1, 128.00, 277.00, 23.00, 19, Eprpa
484, 481, 487, -1, 227.00, 248.00, 34.00, 17, ABarpaappa
485, 482, 488, -1, 211.00, 298.00, 35.00, 21, ABarppaapa
486, 483, 489, -1, 130.00, 301.00, 17.00, 23, Eplpp
487, 484, 490, -1, 204.00, 286.00, 13.00, 13, MSaappap
488, 485, 491, -1, 184.00, 289.00, 16.00, 19, Z3
489, 486, 492, -1, 261.00, 174.00, 12.00, 17, ABalaapapp
490, 487, 493, -1, 213.00, 271.00, 14.00, 13, MSaappaa
492, 489, 495, -1, 270.00, 248.00, 27.00, 15, MSaaapapa
493, 490, 496, -1, 253.00, 322.00, 20.00, 15, ABplppaaaap
494, 491, 497, -1, 129.00, 311.00, 10.00, 13, ABplpppapap
495, 492, 498, -1, 273.00, 167.00, 31.00, 15, ABpraapaapp
496, 493, 499, -1, 236.00, 338.00, 18.00, 15, ABplppapaaa
497, 494, 500, -1, 212.00, 247.00, 27.00, 17, Earaa
498, 495, 501, -1, 334.00, 232.00, 31.00, 15, ABalapapapa
499, 496, 502, -1, 347.00, 238.00, 20.00, 13, ABalaaapall
500, 497, 503, -1, 145.00, 280.00, 27.00, 17, Eprap
501, 498, 504, -1, 259.00, 193.00, 16.00, 15, ABprpaaaaaa
502, 499, 505, -1, 185.00, 259.00, 34.00, 19, Cpaaaa
503, 500, 517, -1, 138.00, 293.00, 34.00, 17, Caaaap
504, 501, 506, -1, 165.00, 279.00, 13.00, 15, MSpappap
505, 502, 507, -1, 233.00, 239.00, 24.00, 15, MSpaapapp
507, 504, 509, -1, 188.00, 222.00, 35.00, 19, ABarpppapa
508, 505, 511, -1, 248.00, 298.00, 29.50, 14, ABplapaaaaa
509, 506, 513, -1, 146.00, 266.00, 34.00, 18, Cpaaap
510, 507, 514, -1, 241.00, 233.00, 13.00, 15, ABarapapppa
511, 508, 515, -1, 117.00, 291.00, 33.00, 15, Cpaapa
512, 509, 516, -1, 111.00, 318.00, 33.00, 15, Caaapa
513, 510, 518, -1, 188.00, 305.00, 33.00, 17, Caaaaa
514, 511, 519, -1, 198.00, 251.00, 8.00, 13, ABprpappapa
515, 512, 523, -1, 298.00, 175.00, 32.00, 13, ABalapppppa
516, 83, 524, -1, 305.00, 202.00, 33.82, 11, ABalapppapp
