1, 1, 1, -1, 311.00, 207.00, 22.00, 13, ABaraappaaa
2, 2, 2, -1, 298.00, 208.00, 24.00, 13, ABaraappaap
3, 3, 3, -1, 265.00, 210.00, 24.00, 17, ABaraappapp
4, 4, 4, -1, 286.00, 209.00, 24.00, 17, ABaraappapa
5, 5, 5, -1, 244.00, 232.00, 24.00, 15, MSpaapapa
6, 6, 6, -1, 249.00, 219.00, 21.00, 17, ABaraapppaa
7, 7, 7, -1, 240.00, 242.00, 20.00, 13, ABaraappppp
8, 8, 8, -1, 252.00, 275.00, 21.00, 15, ABaraapappa
9, 9, 9, -1, 245.00, 254.00, 20.00, 13, ABaraapappp
10, 10, 10, -1, 255.00, 269.00, 24.00, 19, ABaraapapap
11, 11, 11, -1, 269.00, 265.00, 24.00, 17, ABaraapapaa
12, 12, 12, -1, 316.00, 221.00, 22.00, 15, ABaraapaaaa
13, 13, 13, -1, 308.00, 229.00, 24.00, 13, ABaraapaaap
14, 14, 14, -1, 285.00, 250.00, 25.00, 15, ABaraapaapp
15, 15, 15, -1, 302.00, 236.00, 23.00, 15, ABaraapaapa
16, 16, 16, -1, 308.00, 209.00, 10.00, 15, ABaraaappap
17, 17, 17, -1, 323.00, 212.00, 14.00, 11, ABaraaappaa
18, 18, 18, -1, 316.00, 199.00, 14.00, 15, ABaraaapppa
19, 19, 19, -1, 284.00, 207.00, 9.00, 15, ABaraaapppp
20, 20, 20, -1, 307.00, 212.00, 18.00, 13, ABaraaapaaa
21, 21, 21, -1, 280.00, 212.00, 21.00, 15, ABaraaapapa
22, 22, 22, -1, 296.00, 207.00, 20.00, 13, ABaraaapaap
23, 23, 23, -1, 265.00, 222.00, 21.00, 17, ABaraaapapp
24, 24, 24, -1, 296.00, 230.00, 17.00, 11, ABaraaaaaap
25, 25, 25, -1, 315.00, 234.00, 16.00, 13, ABaraaaaaaa
26, 26, 26, -1, 290.00, 211.00, 17.00, 11, ABaraaaaapp
27, 27, 27, -1, 306.00, 213.00, 15.00, 13, ABaraaaaapa
28, 28, 28, -1, 289.00, 235.00, 26.00, 11, ABaraaaapp
29, 29, 29, -1, 326.00, 214.00, 17.00, 17, ABaraaaapa
30, 30, 30, -1, 235.00, 256.00, 11.00, 15, ABarapapapp
31, 31, 31, -1, 256.00, 240.00, 11.00, 17, ABarapapapa
32, 32, 32, -1, 262.00, 235.00, 15.00, 13, ABarapapaap
33, 33, 33, -1, 267.00, 223.00, 14.00, 11, ABarapapaaa
34, 34, 34, -1, 227.00, 242.00, 14.00, 17, ABarapapppp
35, 35, 35, -1, 254.00, 217.00, 15.00, 11, ABarapappaa
36, 35, 36, -1, 242.00, 230.00, 16.00, 13, ABarapappap
37, 36, 37, -1, 284.00, 225.00, 12.00, 17, ABarapaaap
38, 37, 38, -1, 284.00, 231.00, 14.00, 13, ABarapaaaap
39, 38, 39, -1, 279.00, 220.00, 16.00, 13, ABarapaapap
40, 39, 40, -1, 274.00, 209.00, 18.00, 13, ABarapaapaa
41, 40, 41, -1, 264.00, 225.00, 18.00, 15, ABarapaappa
42, 41, 42, -1, 260.00, 201.00, 10.00, 13, ABarapppapa
43, 42, 43, -1, 239.00, 211.00, 10.00, 15, ABarapppapp
44, 43, 44, -1, 288.00, 196.00, 11.00, 13, ABarapppaaa
45, 44, 45, -1, 274.00, 194.00, 10.00, 11, ABarapppaap
46, 45, 46, -1, 267.00, 193.00, 13.00, 13, ABarappppap
47, 46, 47, -1, 282.00, 190.00, 14.00, 13, ABarappppaa
48, 47, 48, -1, 250.00, 193.00, 12.00, 13, ABarapppppa
49, 48, 49, -1, 234.00, 195.00, 11.00, 13, ABarapppppp
50, 49, 50, -1, 248.00, 216.00, 11.00, 15, ABarappaaap
51, 50, 51, -1, 269.00, 213.00, 11.00, 13, ABarappaaaa
52, 51, 52, -1, 262.00, 227.00, 10.00, 15, ABarappaapa
53, 52, 53, -1, 241.00, 229.00, 10.00, 13, ABarappaapp
54, 53, 54, -1, 215.00, 219.00, 10.00, 15, ABarappapap
55, 54, 55, -1, 222.00, 198.00, 9.00, 15, ABarappapaa
56, 55, 56, -1, 179.00, 220.00, 12.00, 15, ABarappappp
57, 56, 57, -1, 187.00, 216.00, 11.00, 15, ABarappappa
58, 57, 58, -1, 232.00, 171.00, 32.00, 19, ABarpapppa
59, 58, 59, -1, 224.00, 182.00, 34.00, 17, ABarpapppp
60, 59, 60, -1, 258.00, 169.00, 32.00, 19, ABarpappap
61, 60, 61, -1, 298.00, 189.00, 34.00, 15, ABarpapaaap
62, 61, 62, -1, 283.00, 192.00, 26.00, 11, ABarpapaapa
63, 62, 63, -1, 290.00, 194.00, 30.00, 15, ABarpapaapp
64, 63, 64, -1, 254.00, 216.00, 35.00, 19, ABarpapapp
65, 64, 65, -1, 291.00, 211.00, 35.00, 15, ABarpapapa
66, 65, 66, -1, 241.00, 276.00, 34.00, 17, ABarpaappp
67, 66, 67, -1, 273.00, 216.00, 35.00, 15, ABarpaapaa
68, 67, 68, -1, 265.00, 270.00, 34.00, 21, ABarpaapap
69, 68, 69, -1, 331.00, 213.00, 31.00, 19, ABarpaaaaa
70, 69, 70, -1, 314.00, 231.00, 34.00, 17, ABarpaaaap
71, 70, 71, -1, 290.00, 227.00, 35.00, 13, ABarpaaapp
72, 71, 72, -1, 313.00, 211.00, 34.00, 13, ABarpaaapaa
73, 72, 73, -1, 304.00, 207.00, 34.00, 13, ABarpaaapap
74, 73, 74, -1, 253.00, 330.00, 31.00, 15, ABarppaaap
75, 74, 75, -1, 213.00, 332.00, 30.00, 13, ABarppaapp
76, 75, 76, -1, 144.00, 352.00, 31.00, 17, ABarppappa
77, 76, 77, -1, 112.00, 361.00, 22.00, 17, ABarppappp
78, 77, 78, -1, 201.00, 349.00, 31.00, 17, ABarppapap
79, 78, 79, -1, 229.00, 336.00, 31.00, 15, ABarppapaa
80, 79, 80, -1, 75.00, 251.00, 22.00, 17, ABarpppppp
81, 80, 81, -1, 107.00, 230.00, 29.00, 15, ABarpppppa
82, 81, 82, -1, 173.00, 192.00, 31.00, 15, ABarppppaa
83, 82, 83, -1, 147.00, 209.00, 32.00, 17, ABarppppap
84, 83, 84, -1, 198.00, 189.00, 34.00, 19, ABarpppaap
85, 84, 85, -1, 222.00, 208.00, 34.00, 15, ABarpppaaa
86, 85, 86, -1, 328.00, 192.00, 23.00, 13, ABalappppaa
87, 86, 87, -1, 319.00, 182.00, 27.00, 13, ABalappppap
88, 87, 88, -1, 287.00, 178.00, 31.00, 13, ABalapppppp
89, 88, 89, -1, 334.00, 206.00, 23.00, 11, ABalapppaaa
90, 89, 90, -1, 325.00, 198.00, 27.00, 13, ABalapppaap
91, 90, 91, -1, 317.00, 201.00, 30.00, 13, ABalapppapa
92, 91, 92, -1, 297.00, 182.00, 27.00, 11, ABalappapap
93, 92, 93, -1, 312.00, 187.00, 24.00, 11, ABalappapaa
94, 93, 94, -1, 334.00, 210.00, 29.00, 13, ABalappaaa
95, 94, 95, -1, 320.00, 176.00, 22.00, 11, ABalappappa
96, 95, 96, -1, 309.00, 167.00, 25.00, 13, ABalappappp
97, 96, 97, -1, 319.00, 268.00, 32.00, 13, ABalapapppp
98, 97, 98, -1, 330.00, 262.00, 30.00, 13, ABalapapppa
99, 98, 99, -1, 340.00, 234.00, 24.00, 13, ABalapappaa
100, 99, 100, -1, 335.00, 248.00, 28.00, 13, ABalapappap
101, 100, 101, -1, 324.00, 231.00, 31.00, 13, ABalapapaa
102, 101, 102, -1, 316.00, 248.00, 31.00, 13, ABalapapapp
103, 102, 103, -1, 332.00, 251.00, 25.00, 17, ABalapaaaa
104, 103, 104, -1, 352.00, 251.00, 24.00, 13, ABalapaaapa
105, 104, 105, -1, 345.00, 267.00, 28.00, 13, ABalapaaapp
108, 107, 108, -1, 324.00, 283.00, 17.00, 11, ABalapaapap
109, 108, 109, -1, 325.00, 259.00, 19.00, 13, ABalapaapaa
110, 109, 110, -1, 334.00, 272.00, 22.00, 17, ABalapaappp
111, 110, 111, -1, 316.00, 186.00, 15.00, 19, ABalaapaaa
112, 111, 112, -1, 235.00, 174.00, 11.00, 13, ABalaapapa
113, 112, 113, -1, 300.00, 190.00, 12.00, 19, ABalaapaap
114, 113, 114, -1, 295.00, 174.00, 13.00, 13, ABalaappapa
115, 114, 115, -1, 276.00, 171.00, 13.00, 11, ABalaappaa
116, 115, 116, -1, 304.00, 174.00, 22.00, 15, ABalaappppp
117, 116, 117, -1, 305.00, 188.00, 19.00, 13, ABalaappppa
118, 117, 118, -1, 296.00, 183.00, 20.00, 15, ABalaapppaa
119, 118, 119, -1, 288.00, 187.00, 17.00, 13, ABalaapppap
120, 119, 120, -1, 336.00, 258.00, 12.00, 11, ABalaaaalpp
121, 120, 121, -1, 347.00, 241.00, 13.00, 13, ABalaaaalpa
122, 121, 122, -1, 337.00, 202.00, 20.00, 15, ABalaaaarrp
123, 122, 123, -1, 330.00, 192.00, 17.00, 13, ABalaaaarra
124, 123, 124, -1, 342.00, 212.00, 17.00, 13, ABalaaaarlp
125, 124, 125, -1, 341.00, 230.00, 19.00, 15, ABalaaaarla
126, 125, 126, -1, 333.00, 180.00, 20.00, 13, ABalaaapplr
127, 126, 127, -1, 316.00, 189.00, 18.00, 15, ABalaaapprr
128, 127, 128, -1, 305.00, 176.00, 16.00, 13, ABalaaapprl
130, 129, 130, -1, 152.00, 322.00, 11.00, 13, ABplppppapa
131, 130, 131, -1, 139.00, 307.00, 10.00, 15, ABplppppapp
132, 131, 132, -1, 168.00, 303.00, 11.00, 11, ABplppppaaa
133, 132, 133, -1, 155.00, 306.00, 12.00, 11, ABplppppaap
134, 133, 134, -1, 86.00, 326.00, 13.00, 15, ABplppppppp
135, 134, 135, -1, 93.00, 320.00, 11.00, 13, ABplppppppa
136, 135, 136, -1, 133.00, 313.00, 14.00, 15, ABplpppppap
137, 136, 137, -1, 148.00, 314.00, 16.00, 15, ABplpppppaa
138, 137, 138, -1, 115.00, 301.00, 12.00, 11, ABplpppapp
139, 138, 139, -1, 127.00, 315.00, 9.00, 15, ABplpppapaa
140, 139, 140, -1, 128.00, 333.00, 11.00, 25, ABplpppaapp
141, 140, 141, -1, 174.00, 317.00, 10.00, 13, ABplpppaaaa
142, 141, 142, -1, 163.00, 334.00, 11.00, 15, ABplpppaaap
143, 142, 143, -1, 169.00, 335.00, 13.00, 15, ABplppapppp
144, 143, 144, -1, 185.00, 326.00, 12.00, 13, ABplppapppa
145, 144, 145, -1, 199.00, 318.00, 12.00, 13, ABplppappap
146, 145, 146, -1, 208.00, 308.00, 14.00, 13, ABplppappaa
147, 146, 147, -1, 204.00, 328.00, 15.00, 15, ABplppapaap
148, 147, 148, -1, 194.00, 336.00, 16.00, 13, ABplppapapa
149, 148, 149, -1, 180.00, 333.00, 17.00, 13, ABplppapapp
150, 149, 150, -1, 201.00, 303.00, 10.00, 13, ABplppaappa
151, 150, 151, -1, 187.00, 309.00, 10.00, 13, ABplppaappp
152, 151, 152, -1, 265.00, 299.00, 17.00, 13, ABplppaaaaa
153, 152, 153, -1, 256.00, 307.00, 18.00, 13, ABplppaaap
154, 153, 154, -1, 242.00, 269.00, 10.00, 15, ABplpappaaa
155, 154, 155, -1, 225.00, 279.00, 10.00, 11, ABplpappaap
156, 155, 156, -1, 215.00, 271.00, 12.00, 13, ABplpappap
157, 156, 157, -1, 140.00, 296.00, 11.00, 15, ABplpappppp
158, 157, 158, -1, 159.00, 283.00, 11.00, 13, ABplpappppa
159, 158, 159, -1, 176.00, 284.00, 10.00, 15, ABplpapppaa
160, 159, 160, -1, 163.00, 265.00, 10.00, 13, ABplpapppap
161, 160, 161, -1, 209.00, 290.00, 10.00, 13, ABplpapappa
162, 161, 162, -1, 189.00, 288.00, 11.00, 13, ABplpapappp
163, 162, 163, -1, 223.00, 299.00, 15.00, 13, ABplpapapap
164, 163, 164, -1, 237.00, 294.00, 15.00, 13, ABplpapapaa
165, 164, 165, -1, 272.00, 292.00, 13.00, 11, ABplpapaapa
166, 165, 166, -1, 254.00, 300.00, 14.00, 13, ABplpapaapp
167, 166, 167, -1, 258.00, 286.00, 13.00, 11, ABplpapaaap
168, 167, 168, -1, 269.00, 278.00, 12.00, 11, ABplpapaaaa
169, 168, 169, -1, 215.00, 327.00, 12.00, 15, ABplpaaaapp
170, 169, 170, -1, 232.00, 318.00, 11.00, 15, ABplpaaaapa
171, 170, 171, -1, 313.00, 271.00, 16.00, 15, ABplpaaaaaa
172, 171, 172, -1, 301.00, 305.00, 15.00, 13, ABplpaaapap
173, 172, 173, -1, 313.00, 294.00, 14.00, 13, ABplpaaapaa
174, 173, 174, -1, 290.00, 291.00, 14.00, 15, ABplpaaappa
175, 174, 175, -1, 282.00, 293.00, 16.00, 13, ABplpaaappp
176, 175, 176, -1, 267.00, 316.00, 24.00, 13, ABplpaappap
177, 176, 177, -1, 283.00, 302.00, 22.00, 15, ABplpaappaa
178, 177, 178, -1, 295.00, 304.00, 17.00, 11, ABplpaapppa
179, 178, 179, -1, 306.00, 309.00, 18.00, 13, ABplpaapapp
180, 179, 180, -1, 278.00, 307.00, 15.00, 11, ABplpaapppp
181, 180, 181, -1, 303.00, 290.00, 19.00, 15, ABplpaapaap
182, 181, 182, -1, 306.00, 271.00, 18.00, 17, ABplpaapaaa
183, 182, 183, -1, 318.00, 306.00, 21.00, 15, ABplpaapapa
184, 183, 184, -1, 274.00, 323.00, 18.00, 13, ABplaappap
185, 184, 185, -1, 290.00, 318.00, 18.00, 11, ABplaappaa
186, 185, 186, -1, 263.00, 331.00, 20.00, 15, ABplaapppa
187, 186, 187, -1, 233.00, 343.00, 23.00, 15, ABplaapppp
188, 187, 188, -1, 349.00, 233.00, 28.00, 13, ABplaapaaaa
189, 188, 189, -1, 346.00, 252.00, 30.00, 13, ABplaapaaap
190, 189, 190, -1, 338.00, 273.00, 31.00, 13, ABplaapaapa
191, 190, 191, -1, 327.00, 282.00, 27.00, 17, ABplaapaapp
192, 191, 192, -1, 295.00, 299.00, 29.00, 17, ABplaapappp
193, 192, 193, -1, 305.00, 278.00, 28.00, 15, ABplaapappa
194, 193, 194, -1, 297.00, 291.00, 25.00, 13, ABplaapapap
195, 194, 195, -1, 302.00, 273.00, 25.00, 13, ABplaapapaa
196, 195, 196, -1, 308.00, 257.00, 32.00, 15, ABplaaaaapp
197, 196, 197, -1, 316.00, 251.00, 29.00, 11, ABplaaaaapa
198, 197, 198, -1, 333.00, 250.00, 33.00, 15, ABplaaaaaa
199, 198, 199, -1, 281.00, 257.00, 34.00, 17, ABplaaaapp
200, 199, 200, -1, 297.00, 249.00, 35.00, 15, ABplaaaapa
201, 200, 201, -1, 294.00, 302.00, 32.00, 17, ABplaaappa
202, 201, 202, -1, 277.00, 312.00, 32.00, 15, ABplaaappp
203, 202, 203, -1, 310.00, 300.00, 31.00, 17, ABplaaapap
204, 203, 204, -1, 321.00, 283.00, 32.00, 13, ABplaaapaa
205, 204, 205, -1, 129.00, 349.00, 13.00, 15, ABplappppa
206, 205, 206, -1, 101.00, 335.00, 13.00, 13, ABplappppp
207, 206, 207, -1, 115.00, 346.00, 16.00, 17, ABplapppaa
208, 207, 208, -1, 114.00, 324.00, 12.00, 11, ABplapppapp
209, 208, 209, -1, 120.00, 336.00, 12.00, 11, ABplapppapa
210, 209, 210, -1, 197.00, 353.00, 23.00, 15, ABplappaaa
211, 210, 211, -1, 178.00, 359.00, 24.00, 15, ABplappaap
212, 211, 212, -1, 163.00, 359.00, 20.00, 15, ABplappapp
213, 212, 213, -1, 170.00, 350.00, 32.00, 19, ABplappapa
214, 213, 214, -1, 214.00, 351.00, 23.00, 15, ABplapaapp
215, 214, 215, -1, 249.00, 340.00, 20.00, 15, ABplapaapa
216, 215, 216, -1, 262.00, 298.00, 33.00, 13, ABarppaaaa
217, 216, 217, -1, 243.00, 330.00, 26.00, 15, ABplapaaapp
218, 217, 218, -1, 249.00, 319.00, 27.00, 19, ABplapaaapa
219, 218, 219, -1, 100.00, 354.00, 19.00, 11, ABplapapppa
220, 219, 220, -1, 94.00, 342.00, 17.00, 15, ABplapapppp
221, 220, 221, -1, 142.00, 367.00, 21.00, 15, ABplapapap
222, 221, 222, -1, 131.00, 361.00, 18.00, 15, ABplapappa
223, 222, 223, -1, 128.00, 360.00, 27.00, 19, ABplapapaa
224, 223, 224, -1, 237.00, 211.00, 12.00, 13, ABprpapaaaa
225, 224, 225, -1, 215.00, 202.00, 12.00, 11, ABprpapaapp
226, 225, 226, -1, 185.00, 239.00, 11.00, 13, ABprpapappa
227, 226, 227, -1, 183.00, 263.00, 10.00, 15, ABprpapappp
228, 227, 228, -1, 194.00, 231.00, 13.00, 13, ABprpapapap
229, 228, 229, -1, 206.00, 224.00, 13.00, 11, ABprpapapaa
230, 229, 230, -1, 126.00, 287.00, 13.00, 15, ABprpappppp
231, 230, 231, -1, 149.00, 290.00, 13.00, 13, ABprpappppa
232, 231, 232, -1, 213.00, 238.00, 12.00, 13, ABprpapppaa
233, 232, 233, -1, 196.00, 252.00, 12.00, 15, ABprpapppap
234, 233, 234, -1, 198.00, 273.00, 11.00, 15, ABprpappapp
235, 234, 235, -1, 221.00, 235.00, 10.00, 15, ABprpappaap
236, 235, 236, -1, 233.00, 244.00, 9.00, 13, ABprpappaaa
237, 236, 237, -1, 251.00, 183.00, 17.00, 13, ABprpaaaaap
238, 237, 238, -1, 265.00, 191.00, 18.00, 13, ABprpaapaaa
239, 238, 239, -1, 174.00, 204.00, 13.00, 13, ABprpaaaapp
240, 239, 240, -1, 197.00, 206.00, 10.00, 17, ABprpaaaapa
241, 240, 241, -1, 243.00, 183.00, 15.00, 15, ABprpaaappa
242, 241, 242, -1, 229.00, 201.00, 14.00, 13, ABprpapaapa
243, 242, 243, -1, 227.00, 185.00, 14.00, 15, ABprpaaappp
244, 243, 244, -1, 253.00, 172.00, 12.00, 13, ABprpaaapaa
245, 244, 245, -1, 246.00, 164.00, 16.00, 13, ABprpaaapap
246, 245, 246, -1, 247.00, 178.00, 20.00, 13, ABprpaapaap
247, 246, 247, -1, 259.00, 159.00, 21.00, 15, ABprpaapapa
248, 247, 248, -1, 244.00, 163.00, 19.00, 13, ABprpaapapp
249, 248, 249, -1, 238.00, 168.00, 17.00, 13, ABprpaapppa
250, 249, 250, -1, 224.00, 175.00, 16.00, 15, ABprpaapppp
251, 250, 251, -1, 217.00, 185.00, 25.00, 13, ABprpaappap
252, 251, 252, -1, 232.00, 181.00, 23.00, 15, ABprpaappaa
253, 252, 253, -1, 87.00, 264.00, 10.00, 15, ABprpppaapp
254, 253, 254, -1, 103.00, 261.00, 11.00, 13, ABprpppaapa
255, 254, 255, -1, 120.00, 241.00, 11.00, 15, ABprpppaaap
256, 255, 256, -1, 143.00, 251.00, 11.00, 15, ABprpppaaaa
257, 256, 257, -1, 113.00, 276.00, 10.00, 13, ABprpppapaa
258, 257, 258, -1, 101.00, 293.00, 10.00, 13, ABprpppapap
259, 258, 259, -1, 105.00, 310.00, 10.00, 11, ABprpppapp
260, 259, 260, -1, 132.00, 261.00, 10.00, 15, ABprppppapa
261, 260, 261, -1, 124.00, 280.00, 11.00, 13, ABprppppapp
262, 261, 262, -1, 150.00, 269.00, 11.00, 13, ABprppppaaa
263, 262, 263, -1, 141.00, 274.00, 12.00, 13, ABprppppaap
264, 263, 264, -1, 74.00, 299.00, 12.00, 13, ABprppppppp
265, 264, 265, -1, 86.00, 306.00, 10.00, 13, ABprppppppa
266, 265, 266, -1, 128.00, 258.00, 16.00, 15, ABprpppppaa
267, 266, 267, -1, 109.00, 272.00, 15.00, 13, ABprpppppap
268, 267, 268, -1, 188.00, 215.00, 14.00, 11, ABprppaapap
269, 268, 269, -1, 202.00, 209.00, 13.00, 15, ABprppaapaa
270, 269, 270, -1, 175.00, 242.00, 10.00, 13, ABprppaappa
271, 270, 271, -1, 159.00, 245.00, 10.00, 13, ABprppaappp
272, 271, 272, -1, 221.00, 194.00, 17.00, 13, ABprppaaaaa
273, 272, 273, -1, 205.00, 192.00, 15.00, 15, ABprppaaaap
274, 273, 274, -1, 198.00, 186.00, 17.00, 11, ABprppaaap
275, 274, 275, -1, 172.00, 206.00, 16.00, 13, ABprppapaaa
276, 275, 276, -1, 157.00, 214.00, 15.00, 13, ABprppapaap
277, 276, 277, -1, 143.00, 215.00, 14.00, 13, ABprppapapa
278, 277, 278, -1, 126.00, 228.00, 16.00, 13, ABprppapapp
279, 278, 279, -1, 138.00, 238.00, 12.00, 17, ABprppappp
280, 279, 280, -1, 169.00, 226.00, 13.00, 13, ABprppappaa
281, 280, 281, -1, 156.00, 227.00, 11.00, 13, ABprppappap
282, 281, 282, -1, 337.00, 189.00, 28.00, 13, ABpraapaaaa
283, 282, 283, -1, 317.00, 185.00, 33.00, 15, ABarpapaaaa
284, 283, 284, -1, 324.00, 178.00, 30.00, 15, ABpraapaaap
285, 284, 285, -1, 298.00, 166.00, 27.00, 15, ABpraapaapa
286, 285, 286, -1, 247.00, 178.00, 26.00, 13, ABpraapapap
287, 286, 287, -1, 266.00, 186.00, 25.00, 15, ABpraapapaa
288, 287, 288, -1, 243.00, 171.00, 29.00, 15, ABpraapappp
289, 288, 289, -1, 262.00, 181.00, 28.00, 15, ABpraapappa
290, 289, 290, -1, 170.00, 187.00, 23.00, 17, ABpraapppp
291, 290, 291, -1, 194.00, 173.00, 19.00, 13, ABpraapppa
292, 291, 292, -1, 212.00, 172.00, 18.00, 15, ABpraappap
293, 292, 293, -1, 229.00, 162.00, 20.00, 13, ABpraappaa
294, 293, 294, -1, 293.00, 169.00, 24.00, 13, ABpraaapapa
295, 294, 295, -1, 277.00, 165.00, 25.00, 13, ABpraaapapp
296, 295, 296, -1, 270.00, 172.00, 22.00, 13, ABpraaapaad
297, 296, 297, -1, 280.00, 182.00, 19.00, 11, ABpraaapaav
298, 297, 298, -1, 260.00, 188.00, 21.00, 13, ABpraaappaa
299, 298, 299, -1, 247.00, 180.00, 23.00, 13, ABpraaappap
300, 299, 300, -1, 233.00, 186.00, 28.00, 13, ABpraaapppa
301, 300, 301, -1, 225.00, 167.00, 25.00, 17, ABpraaapppp
302, 301, 302, -1, 281.00, 160.00, 22.00, 13, ABpraaaaapd
303, 302, 303, -1, 292.00, 168.00, 18.00, 15, ABpraaaaapv
304, 303, 304, -1, 280.00, 171.00, 15.00, 13, ABpraaaaaaa
305, 304, 305, -1, 264.00, 168.00, 14.00, 13, ABpraaaaaap
306, 305, 306, -1, 265.00, 173.00, 17.00, 13, ABpraaaapav
307, 306, 307, -1, 271.00, 161.00, 18.00, 13, ABpraaaapad
308, 307, 308, -1, 272.00, 155.00, 24.00, 13, ABpraaaappa
309, 308, 309, -1, 261.00, 165.00, 25.00, 15, ABpraaaappp
310, 309, 310, -1, 110.00, 221.00, 20.00, 15, ABprappapp
311, 310, 311, -1, 125.00, 217.00, 30.00, 15, ABprappapa
312, 311, 312, -1, 124.00, 208.00, 23.00, 15, ABprappaap
313, 312, 313, -1, 145.00, 209.00, 19.00, 17, ABprappaaa
314, 313, 314, -1, 84.00, 257.00, 17.00, 15, ABprapppaa
315, 314, 315, -1, 91.00, 276.00, 12.00, 13, ABprapppapp
316, 315, 316, -1, 86.00, 265.00, 13.00, 11, ABprapppapa
317, 316, 317, -1, 72.00, 277.00, 13.00, 17, ABprappppp
318, 317, 318, -1, 83.00, 250.00, 13.00, 15, ABprappppa
319, 318, 319, -1, 206.00, 189.00, 28.00, 17, ABprapaaapa
320, 319, 320, -1, 188.00, 188.00, 26.00, 13, ABprapaaapp
321, 320, 321, -1, 212.00, 200.00, 32.00, 15, ABprapaaaap
322, 321, 322, -1, 225.00, 201.00, 31.00, 13, ABprapaaaaa
323, 322, 323, -1, 152.00, 195.00, 22.00, 13, ABprapaapp
324, 323, 324, -1, 181.00, 184.00, 19.00, 13, ABprapaapa
325, 324, 325, -1, 93.00, 239.00, 15.00, 15, ABprapappa
326, 325, 326, -1, 72.00, 274.00, 18.00, 13, ABprapapppp
327, 326, 327, -1, 65.00, 266.00, 20.00, 13, ABprapapppa
328, 327, 328, -1, 95.00, 231.00, 20.00, 15, ABprapapap
329, 328, 329, -1, 84.00, 251.00, 27.00, 13, ABprapapaa
330, 329, 330, -1, 242.00, 201.00, 30.00, 13, MSppppap
331, 330, 331, -1, 226.00, 200.00, 20.00, 13, MSppppaa
332, 331, 332, -1, 242.00, 220.00, 32.00, 19, MSpppppa
333, 332, 333, -1, 212.00, 227.00, 31.00, 17, MSpppppp
334, 333, 334, -1, 216.00, 214.00, 24.00, 13, MSpppaaa
335, 334, 335, -1, 140.00, 245.00, 20.00, 17, MSpppaap
336, 335, 336, -1, 203.00, 211.00, 17.00, 13, MSpppapp
337, 336, 337, -1, 216.00, 211.00, 18.00, 13, MSpppapa
338, 337, 338, -1, 223.00, 219.00, 13.00, 13, ABprpapaaap
339, 338, 339, -1, 170.00, 257.00, 13.00, 15, MSppaapp
340, 339, 340, -1, 244.00, 207.00, 16.00, 13, MSppaapa
341, 340, 341, -1, 284.00, 207.00, 14.00, 13, MSppaaaa
342, 341, 342, -1, 286.00, 190.00, 23.00, 19, MSppaaap
343, 342, 343, -1, 264.00, 191.00, 30.00, 15, MSppappa
344, 343, 344, -1, 243.00, 198.00, 23.00, 13, MSppapaa
345, 344, 345, -1, 240.00, 196.00, 18.00, 15, MSppapap
346, 345, 346, -1, 198.00, 257.00, 15.00, 13, MSpapappp
347, 346, 347, -1, 210.00, 243.00, 19.00, 15, MSpapappa
348, 347, 348, -1, 197.00, 243.00, 17.00, 15, MSpapapa
349, 348, 349, -1, 223.00, 232.00, 17.00, 15, MSpapaaap
350, 349, 350, -1, 205.00, 232.00, 23.00, 17, MSpapaapp
351, 350, 351, -1, 195.00, 247.00, 23.00, 11, Nuc266_24_194_238
353, 352, 353, -1, 163.00, 320.00, 15.00, 13, MSpappaa
354, 353, 354, -1, 149.00, 229.00, 17.00, 15, MSpapppp
355, 354, 355, -1, 177.00, 220.00, 18.00, 21, MSpapppa
356, 355, 356, -1, 252.00, 234.00, 28.00, 15, MSpaaappa
357, 356, 357, -1, 234.00, 240.00, 28.00, 13, MSpaaappp
358, 357, 358, -1, 249.00, 253.00, 31.00, 13, MSpaaapaa
359, 358, 359, -1, 227.00, 255.00, 30.00, 15, MSpaaapap
360, 359, 360, -1, 282.00, 215.00, 27.00, 15, MSpaaaapa
361, 360, 361, -1, 263.00, 216.00, 28.00, 17, MSpaaaapp
362, 361, 362, -1, 273.00, 224.00, 31.00, 17, MSpaaaaa
363, 362, 363, -1, 231.00, 220.00, 19.00, 13, ABaraappppa
364, 363, 364, -1, 233.00, 223.00, 22.00, 15, ABaraapppap
365, 364, 365, -1, 233.00, 221.00, 27.00, 13, MSpaapaap
366, 365, 366, -1, 254.00, 218.00, 26.00, 13, MSpaapaaa
367, 366, 367, -1, 174.00, 255.00, 24.00, 13, Earap
368, 367, 368, -1, 265.00, 297.00, 21.00, 15, MSapppaa
369, 368, 369, -1, 252.00, 289.00, 27.00, 15, MSapppap
370, 369, 370, -1, 249.00, 281.00, 30.00, 15, MSappppa
371, 370, 371, -1, 219.00, 300.00, 31.00, 17, MSappppp
372, 371, 372, -1, 164.00, 317.00, 18.00, 15, MSappaap
373, 372, 373, -1, 238.00, 297.00, 23.00, 15, MSappaaa
374, 373, 374, -1, 241.00, 298.00, 18.00, 11, MSappapp
375, 374, 375, -1, 252.00, 296.00, 20.00, 15, MSappapa
376, 375, 376, -1, 287.00, 276.00, 30.00, 19, MSapappa
377, 376, 377, -1, 281.00, 262.00, 32.00, 15, MSapappp
378, 377, 378, -1, 272.00, 279.00, 18.00, 13, MSapapap
379, 378, 379, -1, 276.00, 282.00, 24.00, 15, MSapapaa
380, 379, 380, -1, 195.00, 297.00, 14.00, 15, MSapaapp
381, 380, 381, -1, 287.00, 278.00, 18.00, 11, MSapaapa
382, 381, 382, -1, 317.00, 251.00, 16.00, 15, MSapaaaa
383, 382, 383, -1, 312.00, 256.00, 25.00, 15, MSapaaap
384, 383, 384, -1, 304.00, 218.00, 28.00, 15, MSaaaaapa
385, 384, 385, -1, 295.00, 234.00, 31.00, 15, MSaaaaapp
386, 385, 386, -1, 327.00, 221.00, 24.00, 13, MSaaaaaa
387, 386, 387, -1, 279.00, 240.00, 30.00, 13, MSaaaapaa
388, 387, 388, -1, 262.00, 243.00, 31.00, 13, MSaaaapap
389, 388, 389, -1, 241.00, 263.00, 28.00, 15, MSaaaappp
390, 389, 390, -1, 259.00, 259.00, 29.00, 13, MSaaaappa
391, 390, 391, -1, 241.00, 267.00, 26.00, 13, MSaaapapp
392, 391, 392, -1, 279.00, 258.00, 28.00, 13, MSaaapaap
394, 393, 394, -1, 225.00, 275.00, 27.00, 11, MSaaappa
395, 394, 395, -1, 225.00, 273.00, 29.00, 13, MSaaappp
396, 395, 396, -1, 180.00, 313.00, 16.00, 17, MSaapppp
397, 396, 397, -1, 214.00, 309.00, 19.00, 13, MSaapppa
398, 397, 398, -1, 233.00, 277.00, 16.00, 15, MSaapaaap
399, 398, 399, -1, 251.00, 277.00, 17.00, 15, MSaapaaaa
400, 399, 400, -1, 210.00, 277.00, 17.00, 13, MSaapappp
401, 400, 401, -1, 233.00, 281.00, 19.00, 13, MSaapappa
402, 401, 402, -1, 219.00, 285.00, 20.00, 17, MSaapapa
403, 402, 403, -1, 197.00, 282.00, 21.00, 19, Ealpa
404, 403, 404, -1, 156.00, 300.00, 23.00, 17, Ealpp
405, 404, 405, -1, 118.00, 337.00, 20.00, 19, Cappap
406, 405, 406, -1, 163.00, 341.00, 26.00, 15, Cappaaa
407, 406, 407, -1, 108.00, 333.00, 27.00, 15, Capppa
408, 407, 408, -1, 97.00, 321.00, 16.00, 15, Capppp
409, 408, 409, -1, 139.00, 341.00, 25.00, 19, Capapa
410, 409, 410, -1, 144.00, 336.00, 15.00, 15, Capapp
411, 410, 411, -1, 154.00, 341.00, 20.00, 15, Capaap
412, 411, 412, -1, 188.00, 334.00, 23.00, 21, Capaaa
413, 412, 413, -1, 82.00, 287.00, 29.00, 19, Caaapp
414, 413, 414, -1, 61.00, 299.00, 18.00, 19, Caappd
415, 414, 416, -1, 72.00, 319.00, 14.00, 15, Caappv
416, 415, 417, -1, 96.00, 306.00, 15.00, 15, Caapaa
417, 416, 418, -1, 73.00, 317.00, 21.00, 21, Cpappd
418, 417, 419, -1, 72.00, 317.00, 17.00, 17, Cpappv
419, 418, 420, -1, 77.00, 326.00, 25.00, 21, Cpapaa
420, 419, 421, -1, 119.00, 238.00, 21.00, 15, Cppaap
421, 420, 422, -1, 135.00, 223.00, 22.00, 13, Cppaaap
422, 421, 423, -1, 161.00, 214.00, 23.00, 15, Cppaaaa
423, 422, 424, -1, 129.00, 229.00, 26.00, 13, Cppapaa
424, 423, 425, -1, 111.00, 255.00, 14.00, 19, Cppapp
425, 424, 426, -1, 126.00, 244.00, 30.00, 17, Cpppaap
426, 425, 427, -1, 145.00, 221.00, 27.00, 15, Cpppaaa
427, 426, 428, -1, 93.00, 264.00, 19.00, 13, Cpppapp
428, 427, 429, -1, 97.00, 254.00, 22.00, 15, Cpppapa
429, 428, 430, -1, 243.00, 316.00, 21.00, 15, Daapa
430, 429, 431, -1, 226.00, 326.00, 21.00, 15, Daapp
431, 430, 432, -1, 252.00, 303.00, 24.00, 15, Daaaa
432, 431, 433, -1, 232.00, 308.00, 28.00, 15, Daaap
433, 432, 434, -1, 200.00, 314.00, 29.00, 17, Dappa
434, 433, 435, -1, 161.00, 329.00, 31.00, 19, Dappp
435, 434, 436, -1, 183.00, 204.00, 20.00, 15, Dpapp
436, 435, 437, -1, 202.00, 199.00, 22.00, 19, Dpapa
437, 436, 438, -1, 206.00, 211.00, 28.00, 17, Dpaap
438, 437, 439, -1, 216.00, 199.00, 25.00, 13, Dpaaa
439, 438, 440, -1, 155.00, 231.00, 31.00, 17, Dpppp
440, 439, 441, -1, 186.00, 225.00, 31.00, 21, Dpppa
441, 440, 442, -1, 188.00, 207.00, 26.00, 13, Dppaa
442, 441, 443, -1, 164.00, 214.00, 27.00, 15, Dppap
443, 442, 444, -1, 157.00, 246.00, 16.00, 21, Z2
445, 444, 446, -1, 321.00, 295.00, 24.00, 13, ABalpppappa
446, 445, 447, -1, 315.00, 283.00, 25.00, 13, ABalpppappp
447, 446, 448, -1, 299.00, 279.00, 22.00, 13, ABalpppppaa
448, 447, 449, -1, 290.00, 291.00, 22.00, 15, ABalpppppap
449, 448, 450, -1, 275.00, 303.00, 26.00, 13, ABalppppppa
450, 449, 451, -1, 294.00, 313.00, 25.00, 19, ABalppppppp
451, 598, 452, -1, 339.00, 272.00, 26.00, 11, ABalppppapp
452, 451, 453, -1, 320.00, 282.00, 22.00, 15, ABalppppaav
453, 452, 454, -1, 342.00, 282.00, 16.00, 13, ABalpppaaaa
454, 453, 455, -1, 325.00, 284.00, 14.00, 13, ABalpppaaap
455, 454, 456, -1, 349.00, 277.00, 19.00, 13, ABalpppaapd
456, 455, 457, -1, 339.00, 285.00, 24.00, 15, ABalpppaapv
457, 456, 458, -1, 332.00, 292.00, 18.00, 15, ABalpppapad
458, 457, 459, -1, 319.00, 302.00, 18.00, 13, ABalpppapav
459, 458, 460, -1, 352.00, 259.00, 17.00, 13, ABalaaapalr
460, 459, 461, -1, 342.00, 264.00, 14.00, 11, ABalppaaaa
462, 461, 463, -1, 333.00, 272.00, 12.00, 13, ABalppaaapp
463, 462, 464, -1, 282.00, 303.00, 10.00, 13, ABalppaappp
464, 463, 465, -1, 310.00, 275.00, 10.00, 11, ABalppaapa
465, 464, 466, -1, 302.00, 282.00, 16.00, 15, ABplpaaaaap
466, 465, 467, -1, 297.00, 278.00, 12.00, 15, ABalppapppa
467, 466, 468, -1, 308.00, 265.00, 13.00, 11, ABalppappap
468, 467, 469, -1, 329.00, 261.00, 16.00, 13, ABalppappaa
469, 468, 470, -1, 294.00, 266.00, 10.00, 13, ABalppapapa
470, 469, 471, -1, 277.00, 287.00, 9.00, 17, ABalppapapp
471, 470, 472, -1, 321.00, 261.00, 11.00, 13, ABalppapaaa
472, 471, 473, -1, 308.00, 260.00, 11.00, 13, ABalppapaap
473, 472, 474, -1, 244.00, 298.00, 11.00, 15, ABalpapapap
474, 473, 475, -1, 255.00, 287.00, 10.00, 15, ABalpapapaa
475, 474, 476, -1, 221.00, 309.00, 10.00, 15, ABalpapappa
476, 475, 477, -1, 221.00, 312.00, 13.00, 13, ABalpapappp
477, 476, 478, -1, 266.00, 244.00, 9.00, 13, ABalpapaapp
478, 477, 479, -1, 285.00, 241.00, 9.00, 13, ABalpapaapa
479, 478, 480, -1, 302.00, 251.00, 10.00, 15, ABalpapaaaa
480, 479, 481, -1, 277.00, 263.00, 9.00, 17, ABalpapaaap
481, 481, 482, -1, 295.00, 245.00, 15.00, 13, ABalpaaaaap
482, 482, 483, -1, 280.00, 236.00, 17.00, 11, ABalpappaaa
483, 483, 484, -1, 227.00, 264.00, 14.00, 15, ABalpappapp
484, 484, 485, -1, 279.00, 265.00, 17.00, 13, ABalpapppaa
485, 485, 486, -1, 261.00, 258.00, 18.00, 15, ABalpapppap
486, 486, 487, -1, 303.00, 248.00, 17.00, 13, ABalpaaapaa
487, 487, 488, -1, 298.00, 257.00, 21.00, 13, ABalpaaapap
488, 488, 489, -1, 288.00, 251.00, 12.00, 11, ABalpaaaapp
489, 489, 490, -1, 305.00, 240.00, 12.00, 11, ABalpaaaapa
490, 490, 491, -1, 285.00, 251.00, 16.00, 17, ABalpappaap
491, 491, 492, -1, 311.00, 233.00, 14.00, 13, ABalpaaaaaa
492, 492, 493, -1, 337.00, 225.00, 14.00, 15, ABalpaapppa
493, 493, 494, -1, 326.00, 245.00, 12.00, 13, ABalpaapppp
494, 494, 495, -1, 325.00, 223.00, 13.00, 13, ABalpaappaa
495, 495, 496, -1, 318.00, 232.00, 11.00, 13, ABalpaappap
496, 496, 497, -1, 298.00, 241.00, 20.00, 15, ABalpaapapa
497, 497, 498, -1, 317.00, 240.00, 21.00, 13, ABalpaapaap
498, 498, 499, -1, 317.00, 228.00, 19.00, 13, ABalpaapaaa
499, 499, 500, -1, 169.00, 270.00, 28.00, 19, Epraa
501, 501, 502, -1, 204.00, 250.00, 27.00, 13, Earaa
502, 502, 503, -1, 149.00, 267.00, 26.00, 19, Earpp
503, 503, 504, -1, 179.00, 284.00, 22.00, 17, Ealap
504, 504, 505, -1, 206.00, 276.00, 26.00, 21, Ealaa
505, 505, 506, -1, 162.00, 293.00, 27.00, 21, Eplaa
506, 506, 507, -1, 133.00, 302.00, 25.00, 23, Eplap
507, 507, 508, -1, 121.00, 276.00, 18.00, 25, Eprpp
508, 508, 509, -1, 189.00, 335.00, 28.00, 17, Dapap
509, 509, 510, -1, 215.00, 327.00, 24.00, 17, Dapaa
510, 510, 511, -1, 225.00, 280.00, 23.00, 15, MSaapaapp
511, 511, 512, -1, 235.00, 268.00, 23.00, 17, MSaapaapa
512, 512, 513, -1, 165.00, 208.00, 31.00, 15, ABarpppapp
513, 513, 514, -1, 233.00, 314.00, 16.00, 15, ABplppaapap
514, 514, 515, -1, 242.00, 311.00, 14.00, 11, ABplppaapaa
515, 515, 516, -1, 74.00, 304.00, 27.00, 21, Cpapap
516, 516, 517, -1, 342.00, 252.00, 16.00, 11, ABalaaaalar
517, 517, 518, -1, 339.00, 234.00, 17.00, 13, ABalaaaalal
518, 518, 519, -1, 278.00, 171.00, 33.00, 15, ABarpappaa
519, 519, 520, -1, 102.00, 263.00, 30.00, 15, Cppppaa
520, 520, 521, -1, 83.00, 278.00, 25.00, 15, Cppppap
521, 521, 522, -1, 92.00, 287.00, 15.00, 15, Cpppppv
522, 522, 523, -1, 184.00, 260.00, 18.00, 19, Earpa
523, 523, 524, -1, 270.00, 199.00, 32.00, 17, MSppappp
525, 525, 526, -1, 239.00, 242.00, 34.00, 17, ABarpaappa
526, 526, 527, -1, 231.00, 307.00, 34.00, 19, ABarppaapa
527, 527, 528, -1, 119.00, 299.00, 17.00, 25, Eplpp
528, 528, 529, -1, 197.00, 276.00, 15.00, 13, MSaappap
529, 529, 530, -1, 175.00, 291.00, 15.00, 21, Z3
530, 530, 531, -1, 262.00, 181.00, 10.00, 13, ABalaapappa
533, 533, 534, -1, 255.00, 319.00, 17.00, 13, ABplppaaaap
534, 534, 535, -1, 118.00, 300.00, 10.00, 17, ABplpppapap
535, 535, 536, -1, 226.00, 329.00, 16.00, 13, ABplppapaaa
536, 536, 537, -1, 341.00, 245.00, 20.00, 15, ABalaaapall
537, 537, 538, -1, 135.00, 282.00, 28.00, 19, Eprap
538, 538, 539, -1, 267.00, 192.00, 16.00, 13, ABprpaaaaaa
539, 540, 540, -1, 147.00, 261.00, 14.00, 17, MSpappap
540, 541, 541, -1, 221.00, 241.00, 25.00, 17, MSpaapapp
542, 543, 543, -1, 201.00, 216.00, 35.00, 17, ABarpppapa
543, 544, 544, -1, 79.00, 287.00, 21.00, 17, Cpppppd
544, 545, 545, -1, 262.00, 298.00, 30.00, 13, ABplapaaaaa
545, 546, 546, -1, 128.00, 301.00, 20.00, 19, Eplpa
547, 548, 548, -1, 258.00, 310.00, 32.00, 15, ABplapaaaap
548, 549, 549, -1, 353.00, 269.00, 15.00, 13, ABalppaaapa
549, 550, 550, -1, 252.00, 261.00, 14.00, 15, ABalpappppp
551, 552, 552, -1, 347.00, 209.00, 22.00, 13, ABalaaaparr
552, 553, 553, -1, 348.00, 230.00, 22.00, 15, ABalaaaparl
553, 554, 554, -1, 262.00, 260.00, 21.00, 11, ABalpaaappp
554, 555, 555, -1, 281.00, 257.00, 20.00, 15, ABalpaaappa
556, 557, 557, -1, 208.00, 253.00, 9.00, 13, ABprpappapa
558, 559, 559, -1, 135.00, 334.00, 30.00, 15, Cappaap
559, 560, 560, -1, 267.00, 255.00, 13.00, 15, ABalpappppa
560, 561, 561, -1, 244.00, 235.00, 13.00, 15, ABarapapppa
562, 563, 563, -1, 305.00, 199.00, 31.00, 11, ABalapppapp
563, 564, 564, -1, 221.00, 243.00, 22.00, 17, MSpapaapa
564, 565, 565, -1, 277.00, 167.00, 29.00, 15, ABpraapaapp
565, 566, 566, -1, 307.00, 180.00, 29.00, 11, ABalapppppa
567, 569, 568, -1, 303.00, 224.00, 11.00, 13, ABarapaaaaa
569, 571, 570, -1, 284.00, 280.00, 12.00, 13, ABalppapppp
570, 572, 571, -1, 343.00, 192.00, 23.00, 13, ABalaaappll
572, 574, 573, -1, 107.00, 249.00, 25.00, 13, Cppapap
573, 575, 574, -1, 282.00, 178.00, 10.00, 13, ABalaappapp
574, 576, 575, -1, 122.00, 277.00, 22.00, 19, Eprpa
577, 579, 578, -1, 247.00, 220.00, 19.00, 17, ABarapaappp
578, 580, 579, -1, 310.00, 273.00, 20.00, 11, ABalppppaad
581, 583, 582, -1, 310.00, 286.00, 11.00, 13, ABalppaappa
584, 594, 585, -1, 139.00, 331.00, 12.00, 15, ABplpppaapa
585, 585, 589, -1, 174.00, 302.00, 34.00, 18, Cpaaap
586, 586, 590, -1, 102.00, 304.00, 32.00, 15, Cpaapp
587, 587, 591, -1, 134.00, 302.00, 33.00, 15, Cpaapa
588, 539, 592, -1, 208.00, 283.00, 33.00, 15, Cpaaaa
589, 588, 593, -1, 108.00, 278.00, 33.00, 15, Caaapa
590, 589, 594, -1, 225.00, 230.00, 16.00, 16, MSpapaaaa
591, 590, 588, -1, 213.00, 269.00, 14.00, 14, MSaappaa
592, 591, 595, -1, 139.00, 266.00, 33.00, 15, Caaaap
593, 592, 596, -1, 199.00, 311.00, 33.00, 17, Caaaaa
594, 593, 597, -1, 91.00, 303.00, 12.50, 13, Caapap
595, 480, 598, -1, 276.00, 246.00, 11.00, 17, ABalpappapa
596, 595, 599, -1, 264.00, 266.00, 27.00, 13, MSaaapapa
597, 596, 600, -1, 285.00, 254.00, 23.00, 15, ABalpaapapp
598, 597, 107, -1, 343.00, 265.00, 24.50, 14, ABalppppapa
599, 599, 601, -1, 340.00, 260.00, 21.00, 15, ABalapaappa
600, 600, 602, -1, 328.00, 232.00, 29.00, 15, ABalapapapa
601, 601, 603, -1, 338.00, 219.00, 26.00, 15, ABalappaap
602, 602, 604, -1, 296.00, 244.00, 28.00, 13, MSaaapaaa
604, 604, 606, -1, 240.00, 181.00, 12.00, 13, ABalaapappp
