1, 1, 1, -1, 308.00, 209.00, 21.00, 13, ABaraappaaa
2, 2, 2, -1, 300.00, 210.00, 24.00, 15, ABaraappaap
3, 3, 3, -1, 264.00, 214.00, 25.00, 19, ABaraappapp
4, 4, 4, -1, 287.00, 207.00, 24.00, 15, ABaraappapa
5, 5, 5, -1, 242.00, 235.00, 25.00, 17, MSpaapapa
6, 6, 6, -1, 248.00, 217.00, 22.00, 17, ABaraapppaa
7, 7, 7, -1, 240.00, 240.00, 20.00, 13, ABaraappppp
8, 8, 8, -1, 254.00, 277.00, 21.00, 15, ABaraapappa
9, 9, 9, -1, 246.00, 254.00, 20.00, 15, ABaraapappp
10, 10, 10, -1, 253.00, 271.00, 24.00, 17, ABaraapapap
11, 11, 11, -1, 269.00, 267.00, 24.00, 17, ABaraapapaa
12, 12, 12, -1, 316.00, 220.00, 22.00, 15, ABaraapaaaa
13, 13, 13, -1, 306.00, 226.00, 24.00, 13, ABaraapaaap
14, 14, 14, -1, 290.00, 254.00, 24.00, 13, ABaraapaapp
15, 15, 15, -1, 303.00, 239.00, 23.00, 13, ABaraapaapa
16, 16, 16, -1, 306.00, 209.00, 10.00, 15, ABaraaappap
17, 17, 17, -1, 321.00, 210.00, 13.00, 13, ABaraaappaa
18, 18, 18, -1, 313.00, 200.00, 13.00, 14, ABaraaapppa
19, 19, 19, -1, 282.00, 206.00, 9.00, 13, ABaraaapppp
20, 20, 20, -1, 306.00, 210.00, 18.00, 13, ABaraaapaaa
21, 21, 21, -1, 279.00, 211.00, 21.00, 17, ABaraaapapa
22, 22, 22, -1, 294.00, 204.00, 20.00, 13, ABaraaapaap
23, 23, 23, -1, 263.00, 223.00, 22.00, 15, ABaraaapapp
24, 24, 24, -1, 296.00, 228.00, 18.00, 11, ABaraaaaaap
25, 25, 25, -1, 316.00, 232.00, 16.00, 13, ABaraaaaaaa
26, 26, 26, -1, 288.00, 213.00, 18.00, 11, ABaraaaaapp
27, 27, 27, -1, 305.00, 211.00, 15.00, 13, ABaraaaaapa
28, 28, 28, -1, 290.00, 235.00, 26.00, 11, ABaraaaapp
29, 29, 29, -1, 324.00, 211.00, 18.00, 13, ABaraaaapa
30, 30, 30, -1, 230.00, 252.00, 12.00, 17, ABarapapapp
31, 31, 31, -1, 256.00, 243.00, 11.00, 15, ABarapapapa
32, 32, 32, -1, 264.00, 230.00, 17.00, 13, ABarapapaap
33, 33, 33, -1, 266.00, 227.00, 13.00, 11, ABarapapaaa
34, 34, 34, -1, 234.00, 239.00, 15.00, 17, ABarapapppp
35, 35, 35, -1, 257.00, 212.00, 17.00, 13, ABarapappaa
36, 36, 36, -1, 243.00, 228.00, 16.00, 15, ABarapappap
37, 37, 37, 38, 282.00, 223.00, 12.00, 15, ABarapaaap
38, 38, 39, -1, 283.00, 230.00, 15.00, 15, ABarapaaaap
39, 39, 40, -1, 277.00, 216.00, 16.00, 13, ABarapaapap
40, 40, 41, -1, 275.00, 204.00, 18.00, 13, ABarapaapaa
41, 41, 42, -1, 262.00, 214.00, 19.00, 17, ABarapaappa
42, 42, 43, -1, 256.00, 202.00, 10.00, 13, ABarapppapa
43, 43, 44, -1, 238.00, 212.00, 10.00, 13, ABarapppapp
44, 44, 45, -1, 288.00, 195.00, 12.00, 15, ABarapppaaa
45, 45, 46, -1, 276.00, 190.00, 9.00, 13, ABarapppaap
46, 46, 47, -1, 268.00, 190.00, 13.00, 13, ABarappppap
47, 47, 48, -1, 285.00, 187.00, 15.00, 13, ABarappppaa
48, 48, 49, -1, 250.00, 192.00, 12.00, 13, ABarapppppa
49, 49, 50, -1, 236.00, 196.00, 11.00, 13, ABarapppppp
50, 50, 51, -1, 247.00, 219.00, 11.00, 13, ABarappaaap
51, 51, 52, -1, 268.00, 210.00, 11.00, 13, ABarappaaaa
52, 52, 53, -1, 262.00, 226.00, 10.00, 13, ABarappaapa
53, 53, 54, -1, 244.00, 230.00, 10.00, 13, ABarappaapp
54, 54, 55, -1, 216.00, 223.00, 10.00, 15, ABarappapap
55, 55, 56, -1, 221.00, 207.00, 9.00, 15, ABarappapaa
56, 56, 57, -1, 185.00, 221.00, 13.00, 15, ABarappappp
57, 57, 58, -1, 187.00, 228.00, 11.00, 15, ABarappappa
58, 58, 59, -1, 239.00, 171.00, 32.00, 15, ABarpapppa
59, 59, 60, -1, 223.00, 179.00, 33.00, 17, ABarpapppp
60, 60, 61, -1, 263.00, 169.00, 32.00, 17, ABarpappap
61, 61, 62, -1, 300.00, 182.00, 32.00, 15, ABarpapaaap
62, 62, 63, -1, 278.00, 190.00, 26.00, 11, ABarpapaapa
63, 63, 64, -1, 293.00, 192.00, 31.00, 13, ABarpapaapp
64, 64, 65, -1, 258.00, 217.00, 35.00, 17, ABarpapapp
65, 65, 66, -1, 303.00, 211.00, 35.00, 15, ABarpapapa
66, 66, 67, -1, 247.00, 280.00, 34.00, 19, ABarpaappp
67, 67, 68, -1, 278.00, 210.00, 35.00, 15, ABarpaapaa
68, 68, 597, -1, 265.00, 261.00, 34.00, 17, ABarpaapap
69, 69, 69, -1, 333.00, 208.00, 31.00, 19, ABarpaaaaa
70, 70, 70, -1, 324.00, 220.00, 33.00, 13, ABarpaaaapa
71, 71, 71, -1, 295.00, 222.00, 34.00, 11, ABarpaaapp
72, 72, 72, -1, 326.00, 206.00, 34.00, 15, ABarpaaapaa
73, 73, 73, -1, 305.00, 194.00, 34.00, 13, ABarpaaapap
74, 74, 74, -1, 259.00, 328.00, 31.00, 15, ABarppaaap
75, 75, 75, -1, 217.00, 336.00, 30.00, 13, ABarppaapp
76, 76, 76, -1, 148.00, 352.00, 31.00, 15, ABarppappa
77, 77, 77, -1, 111.00, 362.00, 22.00, 17, ABarppappp
78, 78, 78, -1, 203.00, 350.00, 29.00, 17, ABarppapap
79, 79, 79, -1, 233.00, 337.00, 30.00, 15, ABarppapaa
80, 80, 80, -1, 75.00, 252.00, 21.00, 17, ABarpppppp
81, 81, 81, -1, 106.00, 227.00, 28.00, 17, ABarpppppa
82, 82, 82, -1, 173.00, 190.00, 30.00, 15, ABarppppaa
83, 83, 83, -1, 148.00, 203.00, 31.00, 15, ABarppppap
84, 84, 84, -1, 202.00, 185.00, 34.00, 13, ABarpppaap
85, 85, 85, -1, 226.00, 203.00, 34.00, 13, ABarpppaaa
86, 86, 86, -1, 329.00, 193.00, 23.00, 13, ABalappppaa
87, 87, 87, -1, 321.00, 183.00, 26.00, 13, ABalappppap
88, 88, 88, -1, 290.00, 176.00, 30.00, 14, ABalapppppp
89, 89, 89, -1, 336.00, 207.00, 22.00, 11, ABalapppaaa
90, 90, 90, -1, 324.00, 198.00, 26.00, 11, ABalapppaap
91, 91, 91, -1, 319.00, 201.00, 28.00, 15, ABalapppapa
92, 92, 92, -1, 295.00, 183.00, 27.00, 11, ABalappapap
93, 93, 93, -1, 313.00, 187.00, 23.00, 13, ABalappapaa
94, 94, 94, -1, 339.00, 203.00, 27.00, 13, ABalappaaa
95, 95, 95, -1, 321.00, 176.00, 22.00, 13, ABalappappa
96, 96, 96, -1, 309.00, 170.00, 24.00, 11, ABalappappp
97, 97, 97, -1, 322.00, 265.00, 31.00, 13, ABalapapppp
98, 98, 98, -1, 327.00, 263.00, 30.00, 11, ABalapapppa
99, 99, 99, -1, 344.00, 229.00, 23.00, 15, ABalapappaa
100, 100, 100, -1, 338.00, 244.00, 28.00, 15, ABalapappap
101, 101, 101, -1, 320.00, 231.00, 30.00, 13, ABalapapaa
102, 102, 102, -1, 317.00, 244.00, 30.00, 11, ABalapapapp
103, 103, 103, -1, 331.00, 258.00, 26.00, 19, ABalapaaaa
104, 104, 104, -1, 348.00, 246.00, 24.00, 13, ABalapaaapa
105, 105, 105, -1, 348.00, 264.00, 27.00, 15, ABalapaaapp
107, 107, 107, -1, 343.00, 260.00, 23.00, 17, ABalppppapa
108, 108, 108, -1, 329.00, 280.00, 18.00, 13, ABalapaapap
109, 109, 109, -1, 324.00, 262.00, 18.00, 13, ABalapaapaa
110, 110, 110, -1, 340.00, 272.00, 21.00, 15, ABalapaappp
111, 111, 111, -1, 317.00, 187.00, 16.00, 13, ABalaapaaa
112, 112, 112, -1, 229.00, 176.00, 10.00, 15, ABalaapapa
113, 113, 113, -1, 294.00, 183.00, 11.00, 13, ABalaapaapp
114, 114, 114, -1, 313.00, 186.00, 14.00, 13, ABalaapaapa
115, 115, 115, -1, 296.00, 172.00, 14.00, 15, ABalaappapa
116, 116, 116, -1, 276.00, 170.00, 12.00, 13, ABalaappaa
117, 117, 117, -1, 303.00, 177.00, 22.00, 17, ABalaappppp
118, 118, 118, -1, 301.00, 185.00, 19.00, 13, ABalaappppa
119, 119, 119, -1, 289.00, 178.00, 20.00, 11, ABalaapppaa
120, 120, 120, -1, 338.00, 251.00, 11.00, 13, ABalaaaalpp
121, 121, 121, -1, 344.00, 234.00, 14.00, 15, ABalaaaalpa
122, 122, 122, -1, 337.00, 200.00, 20.00, 13, ABalaaaarrp
123, 123, 123, -1, 330.00, 193.00, 17.00, 13, ABalaaaarra
124, 124, 124, -1, 342.00, 210.00, 18.00, 13, ABalaaaarlp
125, 125, 125, -1, 343.00, 226.00, 19.00, 13, ABalaaaarla
126, 126, 126, -1, 332.00, 180.00, 21.00, 13, ABalaaapplr
127, 127, 127, -1, 315.00, 189.00, 18.00, 17, ABalaaapprr
128, 128, 128, -1, 303.00, 178.00, 16.00, 15, ABalaaapprl
129, 608, 129, -1, 334.00, 224.00, 28.00, 11, ABalappaapp
130, 130, 130, -1, 152.00, 321.00, 11.00, 13, ABplppppapa
131, 131, 131, -1, 139.00, 304.00, 10.00, 15, ABplppppapp
132, 132, 132, -1, 162.00, 302.00, 12.00, 15, ABplppppaaa
133, 133, 133, -1, 151.00, 304.00, 13.00, 13, ABplppppaap
134, 134, 134, -1, 88.00, 321.00, 13.00, 15, ABplppppppp
135, 135, 135, -1, 95.00, 317.00, 11.00, 13, ABplppppppa
136, 136, 136, -1, 131.00, 314.00, 14.00, 13, ABplpppppap
137, 137, 137, -1, 147.00, 315.00, 16.00, 15, ABplpppppaa
139, 139, 139, -1, 128.00, 313.00, 9.00, 15, ABplpppapaa
140, 140, 140, -1, 127.00, 326.00, 10.00, 15, ABplpppaapp
141, 141, 141, -1, 171.00, 313.00, 10.00, 15, ABplpppaaaa
142, 142, 142, -1, 165.00, 332.00, 11.00, 15, ABplpppaaap
143, 143, 143, -1, 171.00, 330.00, 13.00, 13, ABplppapppp
144, 144, 144, -1, 179.00, 316.00, 13.00, 11, ABplppapppa
145, 145, 145, -1, 194.00, 315.00, 13.00, 13, ABplppappap
146, 146, 146, -1, 207.00, 303.00, 14.00, 13, ABplppappaa
147, 147, 147, -1, 202.00, 324.00, 16.00, 13, ABplppapaap
148, 148, 148, -1, 194.00, 332.00, 16.00, 13, ABplppapapa
149, 149, 149, -1, 179.00, 332.00, 17.00, 13, ABplppapapp
150, 150, 150, -1, 200.00, 301.00, 10.00, 13, ABplppaappa
151, 151, 151, -1, 186.00, 306.00, 11.00, 15, ABplppaappp
152, 152, 152, -1, 265.00, 297.00, 16.00, 13, ABplppaaaaa
153, 153, 153, -1, 254.00, 305.00, 17.00, 11, ABplppaaap
154, 154, 154, -1, 240.00, 261.00, 10.00, 15, ABplpappaaa
155, 155, 155, -1, 228.00, 278.00, 10.00, 13, ABplpappaap
156, 597, 156, -1, 211.00, 265.00, 15.00, 15, MSaappaa
157, 157, 157, -1, 138.00, 292.00, 11.00, 11, ABplpappppp
158, 158, 158, -1, 159.00, 285.00, 12.00, 11, ABplpappppa
159, 159, 159, -1, 173.00, 284.00, 11.00, 13, ABplpapppaa
160, 160, 160, -1, 160.00, 269.00, 10.00, 13, ABplpapppap
161, 161, 161, -1, 208.00, 289.00, 11.00, 13, ABplpapappa
162, 162, 162, -1, 189.00, 285.00, 11.00, 13, ABplpapappp
163, 163, 163, -1, 224.00, 297.00, 16.00, 15, ABplpapapap
164, 164, 164, -1, 236.00, 290.00, 15.00, 13, ABplpapapaa
165, 165, 165, -1, 272.00, 285.00, 13.00, 11, ABplpapaapa
166, 166, 166, -1, 257.00, 297.00, 13.00, 13, ABplpapaapp
167, 167, 167, -1, 255.00, 284.00, 13.00, 13, ABplpapaaap
168, 168, 168, -1, 264.00, 275.00, 12.00, 13, ABplpapaaaa
169, 169, 169, -1, 208.00, 319.00, 12.00, 15, ABplpaaaapp
170, 170, 170, -1, 229.00, 310.00, 11.00, 15, ABplpaaaapa
171, 171, 171, -1, 314.00, 269.00, 16.00, 15, ABplpaaaaaa
172, 172, 172, -1, 307.00, 298.00, 15.00, 13, ABplpaaapap
173, 173, 173, -1, 315.00, 289.00, 13.00, 13, ABplpaaapaa
174, 174, 174, -1, 295.00, 286.00, 14.00, 13, ABplpaaappa
175, 175, 175, -1, 283.00, 290.00, 16.00, 13, ABplpaaappp
176, 176, 176, -1, 266.00, 318.00, 23.00, 13, ABplpaappap
177, 177, 177, -1, 282.00, 301.00, 22.00, 15, ABplpaappaa
178, 178, 178, -1, 294.00, 302.00, 17.00, 11, ABplpaapppa
179, 179, 179, -1, 307.00, 308.00, 18.00, 13, ABplpaapapp
180, 180, 180, -1, 278.00, 300.00, 13.00, 13, ABplpaapppp
181, 181, 181, -1, 302.00, 288.00, 19.00, 15, ABplpaapaap
182, 182, 182, -1, 308.00, 272.00, 19.00, 17, ABplpaapaaa
183, 183, 183, -1, 324.00, 301.00, 21.00, 17, ABplpaapapa
184, 184, 184, -1, 271.00, 317.00, 14.00, 11, ABplaappap
185, 185, 185, -1, 290.00, 313.00, 16.00, 13, ABplaappaa
186, 186, 186, -1, 264.00, 330.00, 19.00, 13, ABplaapppa
187, 187, 187, -1, 237.00, 339.00, 22.00, 15, ABplaapppp
188, 188, 188, -1, 350.00, 228.00, 27.00, 15, ABplaapaaaa
189, 189, 189, -1, 347.00, 249.00, 30.00, 13, ABplaapaaap
190, 190, 190, -1, 341.00, 271.00, 30.00, 13, ABplaapaapa
191, 191, 191, -1, 331.00, 284.00, 27.00, 17, ABplaapaapp
192, 192, 192, -1, 297.00, 300.00, 28.00, 17, ABplaapappp
193, 193, 193, -1, 305.00, 279.00, 28.00, 15, ABplaapappa
194, 194, 194, -1, 295.00, 291.00, 25.00, 13, ABplaapapap
195, 195, 195, -1, 303.00, 274.00, 25.00, 15, ABplaapapaa
196, 196, 196, -1, 307.00, 257.00, 31.00, 13, ABplaaaaapp
197, 197, 197, -1, 313.00, 254.00, 26.00, 11, ABplaaaaapa
198, 198, 198, -1, 329.00, 249.00, 33.00, 13, ABplaaaaaa
199, 199, 199, -1, 287.00, 251.00, 35.00, 15, ABplaaaapp
200, 200, 200, -1, 300.00, 242.00, 35.00, 17, ABplaaaapa
201, 201, 201, -1, 299.00, 301.00, 31.00, 15, ABplaaappa
202, 202, 202, -1, 283.00, 313.00, 31.00, 17, ABplaaappp
203, 203, 203, -1, 315.00, 297.00, 30.00, 15, ABplaaapap
204, 204, 204, -1, 321.00, 278.00, 32.00, 13, ABplaaapaa
205, 205, 205, -1, 130.00, 346.00, 13.00, 15, ABplappppa
206, 206, 206, -1, 100.00, 335.00, 13.00, 15, ABplappppp
207, 207, 207, -1, 114.00, 348.00, 17.00, 15, ABplapppaa
208, 208, 208, -1, 115.00, 324.00, 12.00, 13, ABplapppapp
209, 209, 209, -1, 117.00, 335.00, 13.00, 11, ABplapppapa
210, 210, 210, -1, 200.00, 349.00, 22.00, 15, ABplappaaa
211, 211, 211, -1, 179.00, 357.00, 23.00, 15, ABplappaap
212, 212, 212, -1, 163.00, 358.00, 20.00, 15, ABplappapp
213, 213, 213, -1, 175.00, 351.00, 30.00, 15, ABplappapa
214, 214, 214, -1, 218.00, 350.00, 22.00, 15, ABplapaapp
215, 215, 215, -1, 246.00, 335.00, 18.00, 15, ABplapaapa
216, 216, 216, -1, 268.00, 298.00, 34.00, 13, ABarppaaaa
217, 217, 217, -1, 247.00, 328.00, 25.00, 13, ABplapaaapp
218, 218, 218, -1, 252.00, 321.00, 27.00, 21, ABplapaaapa
219, 219, 219, -1, 102.00, 347.00, 20.00, 13, ABplapapppa
220, 220, 220, -1, 94.00, 341.00, 17.00, 15, ABplapapppp
221, 221, 221, -1, 143.00, 366.00, 20.00, 17, ABplapapap
222, 222, 222, -1, 132.00, 359.00, 17.00, 17, ABplapappa
223, 223, 223, -1, 130.00, 361.00, 27.00, 19, ABplapapaa
224, 224, 224, -1, 236.00, 213.00, 12.00, 11, ABprpapaaaa
225, 225, 225, -1, 216.00, 203.00, 12.00, 13, ABprpapaapp
226, 226, 226, -1, 186.00, 246.00, 12.00, 13, ABprpapappa
227, 227, 227, -1, 182.00, 266.00, 11.00, 13, ABprpapappp
228, 228, 228, -1, 196.00, 230.00, 14.00, 13, ABprpapapap
229, 229, 229, -1, 207.00, 225.00, 13.00, 13, ABprpapapaa
230, 230, 230, -1, 126.00, 288.00, 14.00, 15, ABprpappppp
231, 231, 231, -1, 147.00, 287.00, 14.00, 15, ABprpappppa
232, 232, 232, -1, 222.00, 234.00, 12.00, 13, ABprpapppaa
233, 233, 233, -1, 196.00, 252.00, 14.00, 15, ABprpapppap
234, 234, 234, -1, 196.00, 272.00, 11.00, 11, ABprpappapp
235, 235, 235, -1, 223.00, 243.00, 10.00, 15, ABprpappaap
236, 236, 236, -1, 234.00, 238.00, 9.00, 15, ABprpappaaa
237, 237, 237, -1, 252.00, 175.00, 18.00, 15, ABprpaaaaap
238, 238, 238, -1, 263.00, 188.00, 19.00, 13, ABprpaapaaa
239, 239, 239, -1, 171.00, 218.00, 11.00, 13, ABprpaaaapp
240, 240, 240, -1, 199.00, 224.00, 10.00, 17, ABprpaaaapa
241, 241, 241, -1, 247.00, 184.00, 15.00, 13, ABprpaaappa
242, 242, 242, -1, 233.00, 201.00, 14.00, 13, ABprpapaapa
243, 243, 243, -1, 233.00, 186.00, 14.00, 13, ABprpaaappp
244, 244, 244, -1, 254.00, 173.00, 12.00, 13, ABprpaaapaa
245, 245, 245, -1, 247.00, 166.00, 15.00, 13, ABprpaaapap
246, 246, 246, -1, 246.00, 177.00, 21.00, 15, ABprpaapaap
247, 247, 247, -1, 260.00, 156.00, 21.00, 15, ABprpaapapa
248, 248, 248, -1, 244.00, 161.00, 18.00, 13, ABprpaapapp
249, 249, 249, -1, 238.00, 168.00, 16.00, 13, ABprpaapppa
250, 250, 250, -1, 225.00, 176.00, 15.00, 13, ABprpaapppp
251, 251, 251, -1, 214.00, 181.00, 25.00, 15, ABprpaappap
252, 252, 252, -1, 230.00, 179.00, 22.00, 15, ABprpaappaa
253, 253, 253, -1, 92.00, 263.00, 10.00, 15, ABprpppaapp
254, 254, 254, -1, 104.00, 261.00, 12.00, 13, ABprpppaapa
255, 255, 255, -1, 124.00, 243.00, 11.00, 15, ABprpppaaap
256, 256, 256, -1, 150.00, 252.00, 11.00, 13, ABprpppaaaa
257, 257, 257, -1, 114.00, 272.00, 10.00, 13, ABprpppapaa
258, 258, 258, -1, 104.00, 288.00, 10.00, 13, ABprpppapap
260, 260, 260, -1, 133.00, 261.00, 11.00, 15, ABprppppapa
261, 261, 261, -1, 127.00, 276.00, 10.00, 13, ABprppppapp
262, 262, 262, -1, 150.00, 268.00, 12.00, 13, ABprppppaaa
263, 263, 263, -1, 140.00, 273.00, 13.00, 15, ABprppppaap
264, 264, 264, -1, 77.00, 297.00, 14.00, 11, ABprppppppp
265, 265, 265, -1, 90.00, 303.00, 10.00, 15, ABprppppppa
266, 266, 266, -1, 130.00, 258.00, 18.00, 15, ABprpppppaa
267, 267, 267, -1, 111.00, 271.00, 16.00, 13, ABprpppppap
268, 268, 268, -1, 192.00, 211.00, 15.00, 15, ABprppaapap
269, 269, 269, -1, 200.00, 209.00, 13.00, 13, ABprppaapaa
270, 270, 270, -1, 181.00, 250.00, 11.00, 15, ABprppaappa
271, 271, 271, -1, 164.00, 248.00, 10.00, 13, ABprppaappp
272, 272, 272, -1, 222.00, 194.00, 16.00, 11, ABprppaaaaa
273, 273, 273, -1, 206.00, 195.00, 15.00, 15, ABprppaaaap
275, 275, 275, -1, 173.00, 211.00, 15.00, 13, ABprppapaaa
276, 276, 276, -1, 160.00, 217.00, 15.00, 13, ABprppapaap
277, 277, 277, -1, 147.00, 220.00, 15.00, 13, ABprppapapa
278, 278, 278, -1, 132.00, 229.00, 16.00, 15, ABprppapapp
279, 279, 279, 280, 142.00, 237.00, 12.00, 17, ABprppappp
280, 280, 281, -1, 173.00, 233.00, 14.00, 13, ABprppappaa
281, 281, 282, -1, 163.00, 233.00, 12.00, 13, ABprppappap
282, 282, 283, -1, 339.00, 187.00, 28.00, 13, ABpraapaaaa
283, 283, 284, -1, 317.00, 182.00, 31.00, 15, ABarpapaaaa
284, 284, 285, -1, 324.00, 177.00, 29.00, 15, ABpraapaaap
285, 285, 286, -1, 298.00, 166.00, 27.00, 15, ABpraapaapa
286, 286, 287, -1, 247.00, 176.00, 26.00, 15, ABpraapapap
287, 287, 288, -1, 260.00, 186.00, 25.00, 13, ABpraapapaa
288, 288, 289, -1, 242.00, 168.00, 29.00, 17, ABpraapappp
289, 289, 290, -1, 258.00, 181.00, 28.00, 15, ABpraapappa
290, 290, 291, -1, 171.00, 187.00, 22.00, 17, ABpraapppp
292, 292, 293, -1, 212.00, 173.00, 17.00, 15, ABpraappap
293, 293, 294, -1, 228.00, 162.00, 18.00, 11, ABpraappaa
294, 294, 295, -1, 295.00, 172.00, 24.00, 15, ABpraaapapa
295, 295, 296, -1, 283.00, 163.00, 25.00, 13, ABpraaapapp
296, 296, 297, -1, 273.00, 176.00, 24.00, 13, ABpraaapaad
297, 297, 298, -1, 277.00, 182.00, 20.00, 11, ABpraaapaav
298, 298, 299, -1, 260.00, 187.00, 22.00, 13, ABpraaappaa
299, 299, 300, -1, 244.00, 179.00, 23.00, 13, ABpraaappap
300, 300, 301, -1, 230.00, 184.00, 28.00, 15, ABpraaapppa
301, 301, 302, -1, 227.00, 166.00, 26.00, 17, ABpraaapppp
302, 302, 303, -1, 282.00, 158.00, 22.00, 13, ABpraaaaapd
303, 303, 304, -1, 296.00, 163.00, 19.00, 15, ABpraaaaapv
304, 304, 305, -1, 280.00, 167.00, 16.00, 15, ABpraaaaaaa
305, 305, 306, -1, 266.00, 167.00, 15.00, 13, ABpraaaaaap
306, 306, 307, -1, 266.00, 169.00, 17.00, 13, ABpraaaapav
307, 307, 308, -1, 272.00, 158.00, 18.00, 15, ABpraaaapad
308, 308, 309, -1, 270.00, 156.00, 26.00, 11, ABpraaaappa
309, 309, 310, -1, 264.00, 167.00, 26.00, 15, ABpraaaappp
310, 310, 311, -1, 109.00, 218.00, 20.00, 13, ABprappapp
311, 311, 312, -1, 126.00, 214.00, 29.00, 15, ABprappapa
312, 312, 313, -1, 125.00, 208.00, 22.00, 15, ABprappaap
313, 313, 314, -1, 148.00, 208.00, 20.00, 15, ABprappaaa
314, 314, 315, -1, 86.00, 253.00, 16.00, 15, ABprapppaa
315, 315, 316, -1, 92.00, 269.00, 14.00, 13, ABprapppapp
316, 316, 317, -1, 83.00, 264.00, 13.00, 13, ABprapppapa
317, 317, 318, -1, 74.00, 278.00, 13.00, 17, ABprappppp
318, 318, 319, -1, 86.00, 248.00, 12.00, 17, ABprappppa
319, 319, 320, -1, 209.00, 190.00, 28.00, 17, ABprapaaapa
320, 320, 321, -1, 188.00, 187.00, 26.00, 15, ABprapaaapp
321, 321, 322, -1, 212.00, 202.00, 33.00, 15, ABprapaaaap
322, 322, 323, -1, 223.00, 198.00, 31.00, 13, ABprapaaaaa
323, 323, 324, -1, 154.00, 195.00, 21.00, 15, ABprapaapp
324, 324, 325, -1, 181.00, 187.00, 17.00, 15, ABprapaapa
325, 325, 326, -1, 96.00, 236.00, 14.00, 15, ABprapappa
326, 326, 327, -1, 74.00, 273.00, 18.00, 13, ABprapapppp
327, 327, 328, -1, 66.00, 262.00, 19.00, 11, ABprapapppa
328, 328, 329, -1, 94.00, 231.00, 19.00, 15, ABprapapap
329, 329, 330, -1, 82.00, 250.00, 26.00, 13, ABprapapaa
330, 330, 331, -1, 243.00, 198.00, 31.00, 13, MSppppap
331, 331, 332, -1, 227.00, 199.00, 20.00, 15, MSppppaa
332, 332, 333, -1, 247.00, 215.00, 31.00, 13, MSpppppa
333, 333, 334, -1, 213.00, 227.00, 32.00, 17, MSpppppp
334, 334, 335, -1, 227.00, 206.00, 25.00, 13, MSpppaaa
335, 335, 336, -1, 138.00, 248.00, 20.00, 17, MSpppaap
337, 338, 338, -1, 223.00, 218.00, 13.00, 13, ABprpapaaap
338, 339, 339, -1, 166.00, 264.00, 14.00, 15, MSppaapp
339, 340, 340, -1, 244.00, 207.00, 16.00, 11, MSppaapa
340, 341, 341, -1, 287.00, 201.00, 14.00, 17, MSppaaaa
341, 342, 342, -1, 284.00, 190.00, 24.00, 15, MSppaaap
342, 343, 343, -1, 264.00, 190.00, 31.00, 17, MSppappa
343, 344, 344, -1, 241.00, 197.00, 24.00, 15, MSppapaa
344, 345, 345, -1, 244.00, 194.00, 18.00, 15, MSppapap
345, 346, 346, -1, 201.00, 257.00, 17.00, 13, MSpapappp
346, 347, 347, -1, 208.00, 234.00, 21.00, 15, MSpapappa
347, 348, 348, -1, 200.00, 242.00, 18.00, 17, MSpapapa
348, 349, 349, -1, 219.00, 228.00, 18.00, 15, MSpapaaap
349, 350, 350, -1, 202.00, 232.00, 24.00, 19, MSpapaapp
350, 351, 351, -1, 193.00, 247.00, 24.00, 11, Nuc266_24_194_238
352, 353, 353, -1, 163.00, 321.00, 16.00, 13, MSpappaa
353, 354, 354, -1, 150.00, 228.00, 18.00, 15, MSpapppp
354, 355, 355, -1, 175.00, 217.00, 19.00, 13, MSpapppa
355, 356, 356, -1, 256.00, 234.00, 29.00, 15, MSpaaappa
356, 357, 357, -1, 234.00, 238.00, 29.00, 15, MSpaaappp
357, 358, 358, -1, 247.00, 254.00, 30.00, 15, MSpaaapaa
358, 359, 359, -1, 229.00, 251.00, 31.00, 13, MSpaaapap
359, 360, 360, -1, 283.00, 210.00, 27.00, 15, MSpaaaapa
360, 361, 361, -1, 264.00, 219.00, 27.00, 13, MSpaaaapp
361, 362, 362, -1, 274.00, 222.00, 31.00, 17, MSpaaaaa
362, 363, 363, -1, 233.00, 219.00, 19.00, 13, ABaraappppa
363, 364, 364, -1, 233.00, 223.00, 23.00, 15, ABaraapppap
364, 365, 365, -1, 237.00, 222.00, 28.00, 13, MSpaapaap
365, 366, 366, -1, 252.00, 217.00, 27.00, 13, MSpaapaaa
366, 367, 367, -1, 181.00, 257.00, 26.00, 21, Earap
367, 368, 368, -1, 265.00, 296.00, 21.00, 13, MSapppaa
368, 369, 369, -1, 256.00, 292.00, 28.00, 15, MSapppap
369, 370, 370, -1, 249.00, 285.00, 30.00, 17, MSappppa
370, 371, 371, -1, 220.00, 299.00, 30.00, 15, MSappppp
371, 372, 372, -1, 162.00, 318.00, 19.00, 15, MSappaap
372, 373, 373, -1, 241.00, 296.00, 24.00, 15, MSappaaa
373, 374, 374, -1, 241.00, 294.00, 18.00, 9, MSappapp
374, 375, 375, -1, 254.00, 292.00, 19.00, 9, MSappapa
375, 376, 376, -1, 295.00, 276.00, 31.00, 17, MSapappa
376, 377, 377, -1, 283.00, 262.00, 30.00, 15, MSapappp
377, 378, 378, -1, 276.00, 279.00, 19.00, 13, MSapapap
378, 379, 379, -1, 271.00, 287.00, 25.00, 13, MSapapaa
379, 380, 380, -1, 193.00, 294.00, 15.00, 17, MSapaapp
380, 381, 381, -1, 288.00, 282.00, 18.00, 11, MSapaapa
381, 382, 382, -1, 315.00, 250.00, 16.00, 13, MSapaaaa
382, 383, 383, -1, 314.00, 257.00, 24.00, 13, MSapaaap
383, 384, 384, -1, 304.00, 220.00, 28.00, 17, MSaaaaapa
384, 385, 385, -1, 293.00, 238.00, 31.00, 17, MSaaaaapp
385, 386, 386, -1, 325.00, 219.00, 25.00, 15, MSaaaaaa
386, 387, 387, -1, 275.00, 241.00, 31.00, 13, MSaaaapaa
387, 388, 388, -1, 261.00, 243.00, 31.00, 13, MSaaaapap
388, 389, 389, -1, 244.00, 263.00, 28.00, 13, MSaaaappp
389, 390, 390, -1, 262.00, 260.00, 29.00, 13, MSaaaappa
390, 391, 391, -1, 242.00, 277.00, 27.00, 13, MSaaapapp
391, 392, 392, -1, 278.00, 259.00, 27.00, 13, MSaaapaap
393, 394, 394, -1, 224.00, 271.00, 27.00, 11, MSaaappa
394, 395, 395, -1, 225.00, 269.00, 29.00, 13, MSaaappp
395, 396, 396, -1, 181.00, 312.00, 17.00, 17, MSaapppp
396, 397, 397, -1, 210.00, 309.00, 19.00, 23, MSaapppa
397, 398, 398, -1, 234.00, 274.00, 16.00, 13, MSaapaaap
398, 399, 399, -1, 252.00, 274.00, 18.00, 13, MSaapaaaa
399, 400, 400, -1, 214.00, 277.00, 17.00, 13, MSaapappp
400, 401, 401, -1, 234.00, 280.00, 20.00, 13, MSaapappa
401, 402, 402, -1, 219.00, 285.00, 20.00, 17, MSaapapa
402, 403, 403, -1, 199.00, 279.00, 21.00, 21, Ealpa
403, 404, 604, -1, 154.00, 297.00, 24.00, 19, Ealpp
404, 405, 405, -1, 127.00, 340.00, 22.00, 15, Cappapa
405, 406, 406, -1, 114.00, 328.00, 17.00, 15, Cappapp
406, 407, 407, -1, 167.00, 340.00, 27.00, 15, Cappaaa
407, 408, 408, -1, 102.00, 330.00, 24.00, 15, Capppap
408, 408, 409, -1, 109.00, 331.00, 27.00, 15, Capppaa
409, 409, 410, -1, 101.00, 319.00, 15.00, 13, Capppp
410, 410, 411, -1, 141.00, 338.00, 26.00, 21, Capapa
411, 411, 412, -1, 142.00, 336.00, 16.00, 17, Capapp
412, 412, 413, -1, 155.00, 342.00, 21.00, 19, Capaap
413, 413, 414, -1, 189.00, 332.00, 23.00, 14, Capaaa
414, 414, 415, -1, 80.00, 284.00, 29.00, 17, Caaapp
415, 415, 416, -1, 62.00, 295.00, 18.00, 19, Caappd
416, 416, 417, -1, 73.00, 313.00, 14.00, 15, Caappv
417, 417, 418, -1, 98.00, 303.00, 14.00, 15, Caapaa
418, 418, 419, -1, 78.00, 326.00, 21.00, 19, Cpappd
419, 419, 420, -1, 73.00, 324.00, 16.00, 17, Cpappv
420, 420, 421, -1, 70.00, 303.00, 24.00, 13, Cpapaa
421, 421, 422, -1, 122.00, 235.00, 20.00, 17, Cppaap
422, 422, 423, -1, 140.00, 221.00, 23.00, 13, Cppaaap
423, 423, 424, -1, 163.00, 215.00, 23.00, 15, Cppaaaa
424, 424, 425, -1, 129.00, 229.00, 26.00, 15, Cppapaa
425, 425, 426, 427, 114.00, 253.00, 15.00, 15, Cppapp
426, 426, 428, -1, 126.00, 244.00, 30.00, 17, Cpppaap
427, 427, 429, -1, 148.00, 222.00, 28.00, 15, Cpppaaa
428, 428, 430, -1, 94.00, 265.00, 19.00, 15, Cpppapp
429, 429, 431, -1, 96.00, 255.00, 23.00, 15, Cpppapa
430, 430, 432, -1, 245.00, 315.00, 21.00, 15, Daapa
431, 431, 433, -1, 224.00, 323.00, 19.00, 15, Daapp
432, 432, 434, -1, 252.00, 304.00, 23.00, 15, Daaaa
433, 433, 435, -1, 234.00, 308.00, 28.00, 15, Daaap
434, 434, 436, -1, 203.00, 316.00, 30.00, 17, Dappa
435, 435, 437, -1, 166.00, 326.00, 31.00, 17, Dappp
436, 436, 438, -1, 186.00, 203.00, 20.00, 15, Dpapp
437, 437, 439, -1, 206.00, 199.00, 21.00, 13, Dpapa
438, 438, 440, -1, 206.00, 211.00, 29.00, 19, Dpaap
439, 439, 441, -1, 211.00, 199.00, 24.00, 13, Dpaaa
440, 440, 442, -1, 157.00, 229.00, 31.00, 17, Dpppp
441, 441, 443, -1, 181.00, 223.00, 31.00, 17, Dpppa
442, 442, 444, -1, 188.00, 206.00, 25.00, 15, Dppaa
443, 443, 445, -1, 166.00, 214.00, 27.00, 15, Dppap
444, 444, 550, -1, 157.00, 245.00, 16.00, 19, Z2
446, 446, 447, -1, 323.00, 290.00, 24.00, 13, ABalpppappa
447, 447, 448, -1, 315.00, 290.00, 26.00, 17, ABalpppappp
448, 448, 449, -1, 299.00, 281.00, 22.00, 13, ABalpppppaa
449, 449, 450, -1, 292.00, 291.00, 23.00, 15, ABalpppppap
450, 450, 451, -1, 275.00, 308.00, 27.00, 15, ABalppppppa
451, 451, 452, -1, 295.00, 315.00, 24.00, 15, ABalppppppp
453, 453, 454, -1, 320.00, 279.00, 21.00, 13, ABalppppaav
454, 454, 455, -1, 345.00, 279.00, 17.00, 13, ABalpppaaaa
455, 455, 456, -1, 329.00, 282.00, 14.00, 11, ABalpppaaap
456, 456, 457, -1, 350.00, 277.00, 19.00, 15, ABalpppaapd
457, 457, 458, -1, 344.00, 283.00, 24.00, 13, ABalpppaapv
458, 458, 459, -1, 330.00, 291.00, 17.00, 15, ABalpppapad
459, 459, 460, -1, 319.00, 300.00, 16.00, 14, ABalpppapav
460, 460, 461, -1, 354.00, 259.00, 17.00, 15, ABalaaapalr
461, 461, 462, -1, 343.00, 259.00, 13.00, 11, ABalppaaaa
462, 462, 463, -1, 334.00, 269.00, 12.00, 13, ABalppaaapp
463, 463, 464, -1, 284.00, 295.00, 10.00, 15, ABalppaappp
464, 464, 465, -1, 310.00, 269.00, 9.00, 11, ABalppaapa
465, 465, 466, -1, 304.00, 278.00, 17.00, 15, ABplpaaaaap
466, 466, 467, -1, 301.00, 274.00, 13.00, 13, ABalppapppa
467, 467, 468, -1, 314.00, 264.00, 13.00, 15, ABalppappap
468, 468, 469, -1, 329.00, 256.00, 15.00, 13, ABalppappaa
469, 469, 470, -1, 292.00, 262.00, 10.00, 13, ABalppapapa
470, 470, 471, -1, 278.00, 281.00, 10.00, 15, ABalppapapp
471, 471, 472, -1, 321.00, 256.00, 11.00, 13, ABalppapaaa
472, 472, 473, -1, 307.00, 256.00, 10.00, 13, ABalppapaap
473, 473, 474, -1, 242.00, 295.00, 11.00, 15, ABalpapapap
474, 474, 475, -1, 253.00, 282.00, 10.00, 15, ABalpapapaa
475, 475, 476, -1, 216.00, 309.00, 10.00, 15, ABalpapappa
476, 476, 477, -1, 222.00, 309.00, 14.00, 15, ABalpapappp
477, 477, 478, -1, 267.00, 244.00, 9.00, 15, ABalpapaapp
478, 478, 479, -1, 286.00, 237.00, 9.00, 15, ABalpapaapa
479, 479, 480, -1, 298.00, 247.00, 10.00, 13, ABalpapaaaa
480, 480, 481, -1, 274.00, 262.00, 10.00, 17, ABalpapaaap
481, 481, 482, -1, 293.00, 243.00, 14.00, 13, ABalpaaaaap
482, 482, 483, -1, 280.00, 235.00, 17.00, 13, ABalpappaaa
483, 483, 484, -1, 229.00, 261.00, 14.00, 17, ABalpappapp
484, 484, 485, -1, 277.00, 266.00, 17.00, 17, ABalpapppaa
485, 485, 486, -1, 262.00, 253.00, 19.00, 15, ABalpapppap
486, 486, 487, -1, 303.00, 248.00, 17.00, 13, ABalpaaapaa
487, 487, 488, -1, 298.00, 257.00, 21.00, 13, ABalpaaapap
488, 488, 489, -1, 283.00, 247.00, 13.00, 13, ABalpaaaapp
489, 489, 490, -1, 303.00, 235.00, 12.00, 13, ABalpaaaapa
490, 490, 491, -1, 287.00, 252.00, 16.00, 15, ABalpappaap
491, 491, 492, -1, 309.00, 234.00, 14.00, 15, ABalpaaaaaa
492, 492, 493, -1, 336.00, 222.00, 14.00, 15, ABalpaapppa
493, 493, 494, -1, 325.00, 241.00, 11.00, 13, ABalpaapppp
494, 494, 495, -1, 323.00, 222.00, 13.00, 13, ABalpaappaa
495, 495, 496, -1, 315.00, 229.00, 11.00, 13, ABalpaappap
496, 496, 497, -1, 299.00, 241.00, 21.00, 13, ABalpaapapa
497, 497, 498, -1, 318.00, 240.00, 21.00, 13, ABalpaapaap
498, 498, 499, -1, 316.00, 228.00, 19.00, 15, ABalpaapaaa
499, 499, 500, -1, 166.00, 268.00, 28.00, 21, Epraa
501, 501, 502, -1, 201.00, 252.00, 25.00, 19, Earaa
502, 502, 503, -1, 146.00, 265.00, 26.00, 21, Earpp
503, 503, 504, -1, 177.00, 288.00, 24.00, 15, Ealap
504, 504, 505, -1, 208.00, 275.00, 27.00, 23, Ealaa
505, 505, 506, -1, 162.00, 292.00, 27.00, 23, Eplaa
506, 506, 507, -1, 131.00, 302.00, 25.00, 19, Eplap
507, 507, 508, -1, 121.00, 275.00, 20.00, 25, Eprpp
508, 508, 509, -1, 189.00, 332.00, 28.00, 17, Dapap
509, 509, 510, -1, 218.00, 324.00, 23.00, 17, Dapaa
510, 510, 511, -1, 227.00, 282.00, 24.00, 17, MSaapaapp
511, 511, 512, -1, 236.00, 268.00, 23.00, 15, MSaapaapa
512, 512, 513, -1, 166.00, 204.00, 32.00, 15, ABarpppapp
513, 513, 514, -1, 236.00, 311.00, 16.00, 15, ABplppaapap
514, 514, 515, -1, 242.00, 305.00, 13.00, 13, ABplppaapaa
515, 515, 516, -1, 80.00, 317.00, 27.00, 17, Cpapap
516, 516, 517, -1, 342.00, 249.00, 16.00, 11, ABalaaaalar
517, 517, 518, -1, 338.00, 233.00, 17.00, 13, ABalaaaalal
518, 518, 519, -1, 284.00, 174.00, 33.00, 15, ABarpappaa
519, 519, 520, -1, 99.00, 264.00, 30.00, 15, Cppppaa
520, 520, 521, -1, 80.00, 279.00, 25.00, 17, Cppppap
521, 521, 522, -1, 96.00, 285.00, 15.00, 15, Cpppppv
522, 522, 523, -1, 185.00, 260.00, 20.00, 19, Earpa
523, 523, 524, -1, 279.00, 201.00, 31.00, 13, MSppappp
525, 525, 526, -1, 240.00, 243.00, 35.00, 19, ABarpaappa
526, 526, 527, -1, 235.00, 311.00, 34.00, 21, ABarppaapa
528, 528, 529, -1, 122.00, 299.00, 17.00, 29, Eplpp
529, 529, 530, -1, 200.00, 274.00, 17.00, 13, MSaappap
530, 530, 531, -1, 173.00, 293.00, 16.00, 21, Z3
531, 531, 532, -1, 260.00, 182.00, 10.00, 13, ABalaapappa
533, 534, 614, -1, 257.00, 316.00, 16.00, 17, ABplppaaaap
534, 535, 535, -1, 124.00, 295.00, 9.00, 11, ABplpppapap
535, 536, 536, -1, 224.00, 326.00, 15.00, 13, ABplppapaaa
536, 537, 537, -1, 341.00, 243.00, 19.00, 15, ABalaaapall
537, 538, 538, -1, 133.00, 284.00, 29.00, 17, Eprap
538, 539, 539, -1, 266.00, 188.00, 16.00, 15, ABprpaaaaaa
539, 540, 540, -1, 139.00, 253.00, 15.00, 17, MSpappap
540, 541, 541, -1, 219.00, 239.00, 27.00, 15, MSpaapapp
542, 543, 543, -1, 79.00, 290.00, 20.00, 15, Cpppppd
543, 544, 544, -1, 268.00, 298.00, 30.00, 11, ABplapaaaaa
544, 545, 545, -1, 129.00, 308.00, 21.00, 15, Eplpa
546, 547, 547, -1, 258.00, 308.00, 31.00, 15, ABplapaaaap
547, 548, 548, -1, 354.00, 265.00, 15.00, 14, ABalppaaapa
548, 549, 549, -1, 254.00, 259.00, 15.00, 17, ABalpappppp
550, 551, 551, -1, 351.00, 209.00, 22.00, 15, ABalaaaparr
551, 552, 552, -1, 347.00, 228.00, 21.00, 13, ABalaaaparl
552, 553, 553, -1, 264.00, 260.00, 21.00, 13, ABalpaaappp
553, 554, 554, -1, 282.00, 260.00, 20.00, 13, ABalpaaappa
555, 556, 556, -1, 208.00, 248.00, 11.00, 17, ABprpappapa
557, 558, 558, -1, 136.00, 333.00, 30.00, 15, Cappaap
558, 559, 559, -1, 270.00, 252.00, 14.00, 13, ABalpappppa
559, 560, 600, -1, 251.00, 234.00, 13.00, 14, ABarapapppa
561, 562, 562, -1, 308.00, 202.00, 31.00, 14, ABalapppapp
562, 563, 563, -1, 225.00, 242.00, 22.00, 15, MSpapaapa
563, 564, 564, -1, 274.00, 167.00, 29.00, 15, ABpraapaapp
564, 565, 565, -1, 307.00, 178.00, 28.00, 11, ABalapppppa
565, 566, 566, -1, 301.00, 218.00, 12.00, 15, ABarapaaaaa
567, 568, 568, -1, 288.00, 273.00, 12.00, 15, ABalppapppp
568, 569, 569, -1, 344.00, 189.00, 23.00, 13, ABalaaappll
570, 571, 571, -1, 103.00, 248.00, 26.00, 15, Cppapap
571, 572, 572, -1, 116.00, 277.00, 24.00, 19, Eprpa
572, 574, 573, -1, 248.00, 224.00, 19.00, 15, ABarapaappp
573, 575, 574, -1, 310.00, 272.00, 21.00, 11, ABalppppaad
576, 578, 577, -1, 313.00, 281.00, 11.00, 15, ABalppaappa
579, 581, 580, -1, 135.00, 329.00, 12.00, 13, ABplpppaapa
580, 582, 581, -1, 313.00, 237.00, 34.00, 13, ABarpaaaapp
584, 586, 585, -1, 193.00, 173.00, 19.00, 13, ABpraapppa
586, 588, 587, -1, 221.00, 232.00, 16.00, 15, MSpapaaaa
589, 604, 590, -1, 205.00, 183.00, 19.00, 11, ABprppaaap
592, 591, 598, -1, 203.00, 219.00, 35.64, 19, ABarpppapa
593, 592, 599, -1, 181.00, 311.00, 34.00, 19, Cpaaap
594, 593, 601, -1, 106.00, 316.00, 32.00, 15, Cpaapp
595, 595, 602, -1, 213.00, 289.00, 33.00, 15, Cpaaaa
596, 596, 603, -1, 106.00, 272.00, 33.33, 15, Caaapa
597, 336, 337, -1, 206.00, 207.00, 18.00, 16, MSpppapp
598, 594, 605, -1, 139.00, 305.00, 33.00, 15, Cpaapa
599, 598, 606, -1, 139.00, 258.00, 33.00, 15, Caaaap
600, 599, 607, -1, 203.00, 319.00, 33.00, 17, Caaaaa
601, 600, 608, -1, 90.00, 301.00, 12.75, 13, Caapap
602, 156, 609, -1, 214.00, 269.00, 13.00, 11, ABplpappap
603, 601, 595, -1, 273.00, 247.00, 11.00, 17, ABalpappapa
604, 602, 610, -1, 288.00, 186.00, 17.15, 13, ABalaapppap
605, 603, 611, -1, 281.00, 176.00, 10.67, 13, ABalaappapp
606, 337, 612, -1, 220.00, 209.00, 18.00, 13, MSpppapa
607, 259, 613, -1, 108.00, 305.00, 10.00, 11, ABprpppapp
608, 138, 259, -1, 116.00, 301.00, 11.50, 11, ABplpppapp
609, 605, 615, -1, 262.00, 271.00, 27.00, 13, MSaaapapa
610, 606, 616, -1, 283.00, 257.00, 23.00, 15, ABalpaapapp
611, 607, 617, -1, 339.00, 257.00, 20.00, 15, ABalapaappa
612, 452, 453, -1, 345.00, 268.00, 25.00, 12, ABalppppapp
613, 609, 618, -1, 321.00, 232.00, 28.00, 15, ABalapapapa
614, 610, 619, -1, 297.00, 245.00, 28.00, 13, MSaaapaaa
615, 611, 620, -1, 343.00, 205.00, 25.00, 15, ABalappaapa
617, 613, 622, -1, 231.00, 183.00, 11.00, 13, ABalaapappp
