1, 1, 1, -1, 290.00, 215.00, 27.00, 15, ABaraappaap
2, 2, 2, -1, 243.00, 214.00, 30.00, 14, ABaraappapp
3, 3, 3, -1, 278.00, 208.00, 27.00, 15, ABaraappapa
4, 4, 4, -1, 225.00, 210.00, 25.00, 15, ABaraapppaa
5, 5, 5, -1, 220.00, 230.00, 21.00, 15, ABaraappppp
6, 6, 6, -1, 253.00, 286.00, 22.00, 15, ABaraapappa
7, 7, 7, -1, 242.00, 276.00, 22.00, 13, ABaraapappp
8, 8, 8, -1, 245.00, 284.00, 29.00, 19, ABaraapapap
9, 9, 9, -1, 256.00, 279.00, 26.00, 17, ABaraapapaa
10, 10, 10, -1, 298.00, 230.00, 25.00, 15, ABaraapaaaa
11, 11, 11, -1, 294.00, 240.00, 26.00, 15, ABaraapaaap
13, 13, 13, -1, 298.00, 253.00, 27.00, 15, ABaraapaapa
14, 14, 14, -1, 302.00, 221.00, 15.00, 11, ABaraaappap
15, 15, 15, -1, 312.00, 215.00, 17.00, 13, ABaraaappaa
16, 16, 16, -1, 317.00, 211.00, 16.00, 17, ABaraaapppa
17, 17, 17, -1, 309.00, 208.00, 13.00, 11, ABaraaapppp
18, 18, 18, -1, 292.00, 216.00, 21.00, 13, ABaraaapaaa
19, 19, 19, -1, 280.00, 212.00, 24.00, 15, ABaraaapaap
20, 20, 20, -1, 240.00, 221.00, 26.00, 15, ABaraaapapp
21, 21, 21, -1, 277.00, 248.00, 21.00, 13, ABaraaaaaap
22, 22, 22, -1, 276.00, 218.00, 21.00, 11, ABaraaaaapp
23, 23, 23, -1, 296.00, 217.00, 19.00, 13, ABaraaaaapa
24, 24, 24, -1, 273.00, 240.00, 27.00, 11, ABaraaaapp
25, 25, 644, -1, 300.00, 223.00, 22.00, 13, ABaraaaapap
26, 26, 25, -1, 311.00, 223.00, 20.00, 13, ABaraaaapaa
27, 27, 26, -1, 215.00, 261.00, 20.00, 13, ABalpappapp
28, 28, 27, -1, 268.00, 245.00, 15.00, 13, ABalpappapa
29, 29, 28, -1, 253.00, 214.00, 19.00, 15, ABarapapaap
30, 30, 29, -1, 237.00, 243.00, 17.00, 13, ABarapapaaa
31, 31, 30, -1, 248.00, 207.00, 21.00, 15, ABarapappaa
32, 32, 32, -1, 263.00, 230.00, 16.00, 13, ABarapaaapp
33, 33, 33, -1, 274.00, 225.00, 17.00, 15, ABarapaaapa
34, 34, 34, -1, 265.00, 228.00, 19.00, 13, ABarapaaaap
35, 35, 35, -1, 266.00, 213.00, 21.00, 15, ABarapaapap
36, 36, 36, -1, 261.00, 204.00, 23.00, 11, ABarapaapaa
37, 37, 37, -1, 248.00, 205.00, 25.00, 15, ABarapaappa
38, 38, 38, -1, 260.00, 220.00, 12.00, 11, ABarapppapa
39, 39, 39, -1, 273.00, 217.00, 10.00, 15, ABarapppapp
40, 40, 40, -1, 298.00, 196.00, 15.00, 15, ABarapppaaa
41, 41, 41, -1, 298.00, 193.00, 11.00, 13, ABarapppaap
42, 42, 42, -1, 285.00, 195.00, 16.00, 13, ABarappppap
43, 43, 43, -1, 287.00, 182.00, 17.00, 13, ABarappppaa
44, 44, 44, -1, 267.00, 210.00, 14.00, 11, ABarapppppa
45, 45, 45, -1, 281.00, 207.00, 13.00, 13, ABarapppppp
46, 46, 46, -1, 264.00, 232.00, 11.00, 13, ABarappaaap
47, 47, 47, -1, 288.00, 215.00, 14.00, 13, ABarappaaaa
48, 48, 48, -1, 281.00, 226.00, 12.00, 15, ABarappaapa
49, 49, 49, -1, 278.00, 239.00, 10.00, 13, ABalpapaaap
50, 50, 50, -1, 229.00, 239.00, 10.00, 19, ABarappapap
51, 51, 51, -1, 251.00, 235.00, 11.00, 15, ABarappapaa
52, 52, 52, -1, 194.00, 239.00, 11.00, 13, ABarappappp
53, 53, 53, -1, 192.00, 237.00, 15.00, 13, ABprpapppap
54, 54, 54, -1, 263.00, 160.00, 28.00, 15, ABarpapppa
55, 55, 55, -1, 288.00, 165.00, 30.00, 17, ABarpappap
56, 56, 56, -1, 310.00, 199.00, 29.00, 15, ABarpapaaap
58, 58, 58, -1, 297.00, 196.00, 30.00, 11, ABarpapaapp
59, 59, 59, -1, 294.00, 226.00, 35.00, 17, ABarpapapp
60, 60, 60, -1, 337.00, 204.00, 32.00, 17, ABarpapapa
61, 61, 61, -1, 232.00, 202.00, 36.00, 19, ABarpaappp
62, 62, 62, -1, 302.00, 194.00, 35.00, 15, ABarpaapaa
63, 63, 63, -1, 349.00, 212.00, 26.00, 13, ABarpaaaaar
64, 64, 64, -1, 343.00, 213.00, 30.00, 17, ABarpaaaapa
65, 65, 65, -1, 320.00, 201.00, 34.00, 15, ABarpaaapp
66, 66, 66, -1, 343.00, 197.00, 28.00, 13, ABarpaaapaa
67, 67, 67, -1, 330.00, 181.00, 30.00, 15, ABarpaaapap
68, 68, 68, -1, 272.00, 335.00, 25.00, 15, ABarppaaap
69, 69, 69, -1, 236.00, 330.00, 28.00, 15, ABarppaapp
70, 70, 70, -1, 165.00, 360.00, 27.00, 15, ABarppappa
71, 71, 71, -1, 124.00, 364.00, 19.00, 15, ABarppappp
72, 72, 72, -1, 221.00, 348.00, 26.00, 17, ABarppapap
73, 73, 73, -1, 248.00, 341.00, 26.00, 15, ABarppapaa
74, 74, 74, -1, 115.00, 219.00, 26.00, 15, ABarpppppa
75, 75, 75, -1, 182.00, 184.00, 28.00, 13, ABarppppaa
76, 76, 76, -1, 160.00, 199.00, 30.00, 15, ABarppppap
77, 77, 77, -1, 208.00, 170.00, 28.00, 15, ABarpppaap
78, 78, 78, -1, 238.00, 189.00, 33.00, 15, ABarpppaaa
79, 79, 79, -1, 322.00, 198.00, 22.00, 9, ABalappppaa
80, 80, 80, -1, 326.00, 187.00, 24.00, 11, ABalappppap
81, 81, 81, -1, 323.00, 221.00, 24.00, 14, ABalapppaaa
82, 82, 82, -1, 319.00, 204.00, 26.00, 11, ABalapppaap
83, 83, 83, -1, 291.00, 190.00, 25.00, 13, ABalappapaa
84, 84, 84, -1, 331.00, 207.00, 25.00, 11, ABalappaaa
85, 85, 85, -1, 323.00, 185.00, 21.00, 13, ABalappappa
86, 86, 86, -1, 315.00, 174.00, 24.00, 11, ABalappappp
87, 87, 87, -1, 330.00, 255.00, 27.00, 17, ABalapapppa
88, 88, 88, -1, 337.00, 257.00, 29.00, 17, ABalapapppp
89, 89, 89, -1, 342.00, 230.00, 23.00, 11, ABalapappaa
90, 90, 90, -1, 341.00, 229.00, 26.00, 15, ABalapappap
91, 91, 91, -1, 320.00, 230.00, 32.00, 11, ABalapapaa
92, 92, 92, -1, 322.00, 236.00, 30.00, 13, ABalapapapp
93, 93, 93, -1, 321.00, 279.00, 26.00, 13, ABalapaaaap
94, 94, 94, -1, 327.00, 258.00, 25.00, 15, ABalapaaaaa
95, 95, 95, -1, 338.00, 243.00, 23.00, 13, ABalapaaapa
96, 96, 96, -1, 344.00, 256.00, 23.00, 11, ABalapaaapp
99, 99, 99, -1, 333.00, 285.00, 20.00, 11, ABalapaapap
100, 100, 100, -1, 311.00, 199.00, 20.00, 15, ABalaapaaar
101, 101, 101, -1, 272.00, 196.00, 10.00, 11, ABalaapapa
102, 102, 102, -1, 312.00, 189.00, 13.00, 13, ABalaapaapp
103, 103, 103, -1, 315.00, 188.00, 15.00, 13, ABalaapaapa
104, 104, 104, -1, 297.00, 172.00, 13.00, 11, ABalaappaa
105, 105, 105, -1, 307.00, 178.00, 19.00, 15, ABalaappppp
106, 106, 106, -1, 288.00, 184.00, 20.00, 11, ABalaappppa
107, 107, 107, -1, 275.00, 167.00, 17.00, 11, ABalaapppaa
108, 108, 108, -1, 339.00, 240.00, 13.00, 15, ABalaaaalpp
109, 109, 109, -1, 343.00, 239.00, 15.00, 15, ABalaaaalpa
110, 110, 110, -1, 325.00, 207.00, 20.00, 13, ABalaaaarrp
111, 111, 111, -1, 321.00, 196.00, 16.00, 15, ABalaaaarra
112, 112, 112, -1, 330.00, 219.00, 20.00, 11, ABalaaaarlp
113, 113, 113, -1, 341.00, 226.00, 17.00, 11, ABalaaaarla
114, 114, 114, -1, 328.00, 192.00, 18.00, 11, ABalaaapplr
115, 115, 115, -1, 304.00, 196.00, 23.00, 13, ABalaaapprr
116, 116, 116, -1, 309.00, 173.00, 16.00, 15, ABalaaapprl
117, 117, 117, -1, 332.00, 210.00, 27.00, 11, ABalappaapa
118, 118, 118, -1, 149.00, 303.00, 11.00, 15, ABplppppapa
120, 120, 120, -1, 139.00, 294.00, 12.00, 13, ABplppppapp
121, 121, 121, -1, 147.00, 302.00, 15.00, 13, ABplppppaaa
122, 122, 122, -1, 138.00, 299.00, 16.00, 13, ABplppppaap
123, 123, 123, -1, 85.00, 314.00, 12.00, 13, ABplppppppp
124, 124, 124, -1, 93.00, 308.00, 12.00, 11, ABplppppppa
125, 125, 125, -1, 135.00, 322.00, 17.00, 15, ABplpppppap
126, 126, 126, -1, 142.00, 315.00, 18.00, 15, ABplpppppaa
127, 127, 127, -1, 130.00, 311.00, 10.00, 13, ABplpppapaa
128, 128, 128, -1, 122.00, 323.00, 13.00, 13, ABplpppaapp
129, 129, 129, -1, 162.00, 310.00, 12.00, 15, ABplpppaaaa
130, 130, 130, -1, 162.00, 324.00, 14.00, 13, ABplpppaaap
131, 131, 131, -1, 166.00, 307.00, 14.00, 13, ABplppapppp
132, 132, 132, -1, 175.00, 296.00, 14.00, 13, ABplppapppa
133, 133, 133, -1, 193.00, 290.00, 17.00, 13, ABplppappap
134, 134, 134, -1, 206.00, 290.00, 16.00, 13, ABplppappaa
135, 135, 135, -1, 187.00, 301.00, 14.00, 15, ABplppapapa
136, 136, 136, -1, 178.00, 317.00, 15.00, 13, ABplppapapp
137, 137, 137, -1, 199.00, 276.00, 15.00, 11, ABplppaappa
138, 138, 138, -1, 176.00, 287.00, 12.00, 13, ABplppaappp
139, 139, 139, -1, 269.00, 299.00, 13.00, 13, ABplppaaaaa
142, 142, 142, -1, 245.00, 251.00, 12.00, 13, ABplpappaaa
143, 143, 143, -1, 204.00, 269.00, 19.00, 13, MSaappaa
144, 144, 144, -1, 125.00, 290.00, 14.00, 15, ABplpappppp
145, 145, 145, -1, 146.00, 282.00, 15.00, 11, ABplpappppa
146, 146, 146, -1, 155.00, 288.00, 13.00, 13, ABplpapppaa
147, 147, 147, -1, 143.00, 267.00, 14.00, 11, ABplpapppap
148, 148, 148, -1, 211.00, 284.00, 14.00, 13, ABplpapappa
149, 149, 149, -1, 179.00, 279.00, 15.00, 11, ABplpapappp
150, 150, 150, -1, 232.00, 292.00, 13.00, 13, ABplpapapap
151, 151, 151, -1, 240.00, 284.00, 15.00, 15, ABplpapapaa
152, 152, 152, -1, 272.00, 268.00, 13.00, 13, ABplpapaapa
153, 153, 153, -1, 263.00, 281.00, 13.00, 11, ABplpapaapp
154, 154, 154, -1, 245.00, 278.00, 12.00, 17, ABplpapaaap
155, 155, 155, -1, 253.00, 270.00, 14.00, 13, ABplpapaaaa
156, 156, 156, -1, 199.00, 309.00, 15.00, 13, ABplppapaap
157, 157, 157, -1, 223.00, 278.00, 10.00, 17, ABplpaaaapa
158, 158, 158, -1, 323.00, 275.00, 15.00, 13, ABplpaaaaaa
159, 159, 159, -1, 309.00, 281.00, 12.00, 15, ABplpaaapap
160, 160, 160, -1, 319.00, 265.00, 13.00, 11, ABplpaaapaa
161, 161, 161, -1, 304.00, 277.00, 15.00, 13, ABplpaaappa
162, 162, 162, -1, 271.00, 320.00, 19.00, 11, ABplpaappap
163, 163, 163, -1, 272.00, 309.00, 22.00, 13, ABplpaappaa
164, 164, 164, -1, 282.00, 281.00, 15.00, 15, ABplpaaappp
165, 165, 165, -1, 307.00, 282.00, 11.00, 13, ABplpaapapp
166, 166, 166, -1, 282.00, 275.00, 11.00, 17, ABplpaapppp
167, 167, 167, -1, 285.00, 305.00, 19.00, 15, ABplpaapaap
168, 168, 168, -1, 313.00, 278.00, 20.00, 13, ABplpaapaaa
169, 169, 169, -1, 348.00, 282.00, 19.00, 15, ABplpaapapa
170, 170, 170, -1, 264.00, 314.00, 12.00, 15, ABplaapppa
171, 171, 171, -1, 286.00, 257.00, 9.00, 17, ABplaappaa
173, 173, 173, -1, 241.00, 332.00, 18.00, 19, ABplaapppp
174, 174, 174, -1, 348.00, 214.00, 22.00, 13, ABplaapaaaa
175, 175, 175, -1, 355.00, 239.00, 26.00, 15, ABplaapaaap
176, 176, 176, -1, 339.00, 271.00, 23.00, 13, ABplaapaapa
177, 177, 177, -1, 327.00, 281.00, 23.00, 15, ABplaapaapp
178, 178, 178, -1, 295.00, 312.00, 27.00, 15, ABplaapappp
179, 179, 179, -1, 298.00, 290.00, 29.00, 17, ABplaapappa
180, 180, 180, -1, 277.00, 309.00, 26.00, 13, ABplaapapap
181, 181, 181, -1, 287.00, 296.00, 25.00, 13, ABplaapapaa
182, 182, 182, -1, 325.00, 251.00, 31.00, 14, ABplaaaaapp
183, 183, 183, -1, 310.00, 270.00, 28.00, 15, MSapaaap
184, 184, 185, -1, 342.00, 240.00, 30.00, 13, ABplaaaaaap
186, 186, 187, -1, 316.00, 237.00, 35.00, 15, ABplaaaapp
187, 187, 188, -1, 325.00, 292.00, 29.00, 13, ABplaaappa
188, 188, 189, -1, 308.00, 304.00, 30.00, 15, ABplaaappp
189, 189, 190, -1, 340.00, 283.00, 27.00, 15, ABplaaapap
190, 190, 191, -1, 350.00, 263.00, 27.00, 15, ABplaaapaa
191, 191, 192, -1, 141.00, 323.00, 10.00, 15, ABplappppa
192, 192, 193, -1, 95.00, 329.00, 12.00, 13, ABplappppp
193, 193, 194, -1, 122.00, 351.00, 16.00, 17, ABplapppaaa
194, 194, 195, -1, 111.00, 329.00, 13.00, 13, ABplapppapp
195, 195, 196, -1, 107.00, 333.00, 10.00, 11, ABplapppapa
196, 196, 197, -1, 205.00, 340.00, 20.00, 17, ABplappaaa
197, 197, 198, -1, 184.00, 345.00, 19.00, 15, ABplappaap
198, 198, 199, -1, 167.00, 348.00, 18.00, 15, ABplappapp
199, 199, 200, -1, 186.00, 355.00, 26.00, 15, ABplappapa
200, 200, 201, -1, 220.00, 333.00, 18.00, 15, ABplapaapp
201, 201, 202, -1, 240.00, 316.00, 12.00, 13, ABplapaapa
202, 202, 203, -1, 288.00, 296.00, 33.00, 13, ABarppaaaa
203, 203, 204, -1, 245.00, 327.00, 25.00, 13, ABplapaaapp
204, 204, 205, -1, 261.00, 324.00, 25.00, 15, ABplapaaapa
205, 205, 206, -1, 106.00, 360.00, 18.00, 13, ABplapapppa
206, 206, 207, -1, 99.00, 339.00, 15.00, 15, ABplapapppp
207, 207, 208, -1, 150.00, 356.00, 17.00, 15, ABplapapap
208, 208, 209, -1, 142.00, 345.00, 13.00, 14, ABplapappa
209, 209, 210, -1, 147.00, 367.00, 23.00, 13, ABplapapaa
210, 210, 211, -1, 236.00, 232.00, 13.00, 11, ABprpapaaaa
211, 211, 212, -1, 229.00, 218.00, 12.00, 11, ABprpapaapp
212, 212, 213, -1, 200.00, 247.00, 15.00, 11, ABprpapappa
213, 213, 214, -1, 165.00, 278.00, 14.00, 11, ABprpapappp
214, 214, 215, -1, 208.00, 226.00, 13.00, 11, ABprpapapap
215, 215, 216, -1, 216.00, 235.00, 15.00, 13, ABprpapapaa
216, 216, 217, -1, 119.00, 298.00, 16.00, 15, ABprpappppp
217, 217, 218, -1, 128.00, 284.00, 17.00, 13, ABprpappppa
218, 218, 219, -1, 238.00, 240.00, 14.00, 13, ABprpapppaa
219, 219, 220, -1, 185.00, 273.00, 16.00, 13, ABprpappapp
220, 220, 221, -1, 218.00, 256.00, 10.00, 13, ABprpappaap
221, 221, 222, -1, 261.00, 244.00, 12.00, 9, ABprpappaaa
222, 222, 223, -1, 241.00, 177.00, 16.00, 15, ABprpaaaaap
223, 223, 224, -1, 253.00, 180.00, 20.00, 13, ABpraaappaa
224, 224, 225, -1, 171.00, 253.00, 13.00, 15, ABprpaaaapp
225, 225, 226, -1, 206.00, 243.00, 11.00, 15, ABprpaaaapa
226, 226, 227, -1, 268.00, 193.00, 15.00, 13, ABprpaaappa
227, 227, 228, -1, 245.00, 220.00, 13.00, 11, ABprpapaapa
228, 228, 229, -1, 248.00, 203.00, 16.00, 13, ABprpaaappp
229, 229, 230, -1, 281.00, 187.00, 12.00, 13, ABprpaaapaa
230, 230, 231, -1, 264.00, 183.00, 14.00, 13, ABprpaaapap
231, 231, 232, -1, 225.00, 180.00, 18.00, 13, ABprpaapaap
232, 232, 233, -1, 283.00, 156.00, 20.00, 13, ABprpaapapa
233, 233, 234, -1, 254.00, 187.00, 13.00, 15, ABprpaapapp
234, 234, 235, -1, 251.00, 206.00, 11.00, 13, ABprpaapppp
235, 235, 236, -1, 209.00, 176.00, 18.00, 13, ABprpaappap
236, 236, 237, -1, 222.00, 182.00, 21.00, 13, ABprpaappaa
237, 237, 238, -1, 96.00, 257.00, 12.00, 13, ABprpppaapp
238, 238, 239, -1, 98.00, 263.00, 16.00, 13, ABprpppaapa
239, 239, 240, -1, 130.00, 236.00, 15.00, 13, ABprpppaaap
240, 240, 241, -1, 134.00, 252.00, 13.00, 13, ABprpppaaaa
241, 241, 242, -1, 111.00, 270.00, 11.00, 13, ABprpppapaa
242, 242, 243, -1, 106.00, 289.00, 9.00, 15, ABprpppapap
244, 244, 245, -1, 132.00, 256.00, 11.00, 17, ABprppppapa
245, 245, 246, -1, 127.00, 272.00, 12.00, 13, ABprppppapp
246, 246, 247, -1, 135.00, 265.00, 16.00, 13, ABprppppaaa
247, 247, 248, -1, 121.00, 272.00, 16.00, 13, ABprppppaap
248, 248, 249, -1, 92.00, 293.00, 10.00, 13, ABprppppppa
249, 249, 250, -1, 118.00, 257.00, 18.00, 13, ABprpppppaa
250, 250, 251, -1, 101.00, 261.00, 20.00, 13, ABprpppppap
251, 251, 252, -1, 210.00, 215.00, 13.00, 13, ABprppaapap
252, 252, 253, -1, 212.00, 221.00, 10.00, 13, ABprppaapaa
253, 253, 254, -1, 195.00, 261.00, 14.00, 11, ABprppaappa
254, 254, 255, -1, 167.00, 267.00, 14.00, 13, ABprppaappp
255, 255, 256, -1, 234.00, 206.00, 14.00, 13, ABprppaaaaa
256, 256, 257, -1, 218.00, 198.00, 13.00, 17, ABprppaaaap
257, 257, 258, -1, 208.00, 198.00, 11.00, 17, ABpraapppa
258, 258, 259, -1, 181.00, 225.00, 14.00, 13, ABprppapaaa
259, 259, 260, -1, 168.00, 235.00, 16.00, 13, ABprppapaap
260, 260, 261, -1, 161.00, 251.00, 15.00, 13, ABprppapapa
261, 261, 262, -1, 147.00, 244.00, 16.00, 13, ABprppapapp
262, 262, 263, -1, 156.00, 262.00, 14.00, 13, ABprppapppa
263, 263, 264, -1, 142.00, 247.00, 14.00, 15, ABprppapppp
264, 264, 265, -1, 184.00, 250.00, 17.00, 13, ABprppappaa
265, 265, 266, -1, 174.00, 258.00, 16.00, 13, ABprppappap
266, 266, 267, -1, 343.00, 194.00, 22.00, 15, ABpraapaaaa
267, 267, 268, -1, 329.00, 189.00, 27.00, 15, ABarpapaaaa
268, 268, 269, -1, 336.00, 178.00, 24.00, 13, ABpraapaaap
269, 269, 270, -1, 291.00, 169.00, 23.00, 15, ABpraapaapa
270, 270, 271, -1, 227.00, 178.00, 27.00, 13, ABpraapapap
271, 271, 272, -1, 238.00, 184.00, 25.00, 15, ABpraapapaa
272, 272, 273, -1, 237.00, 165.00, 25.00, 15, ABpraapappp
273, 273, 274, -1, 244.00, 181.00, 28.00, 13, ABpraapappa
274, 274, 275, -1, 185.00, 189.00, 18.00, 17, ABpraapppp
275, 276, 276, -1, 256.00, 190.00, 10.00, 15, ABpraappaa
276, 277, 277, -1, 300.00, 181.00, 23.00, 13, ABpraaapapa
277, 278, 278, -1, 305.00, 166.00, 21.00, 17, ABpraaapapp
278, 279, 279, -1, 264.00, 183.00, 24.00, 13, ABpraaapaad
279, 280, 280, -1, 280.00, 173.00, 23.00, 13, ABpraaapaav
280, 281, 281, -1, 242.00, 180.00, 22.00, 15, ABpraaappap
281, 282, 282, -1, 220.00, 171.00, 22.00, 15, ABpraaapppa
282, 283, 283, -1, 303.00, 160.00, 22.00, 13, ABpraaaaapd
283, 284, 284, -1, 301.00, 163.00, 18.00, 17, ABpraaaaapv
284, 285, 285, -1, 283.00, 168.00, 15.00, 15, ABpraaaaaaa
285, 286, 286, -1, 283.00, 178.00, 11.00, 15, ABpraaaaaap
286, 287, 287, -1, 264.00, 171.00, 16.00, 13, ABpraaaapav
287, 288, 288, -1, 269.00, 167.00, 13.00, 13, ABpraaaapad
288, 289, 289, -1, 257.00, 169.00, 25.00, 13, ABpraaaappa
289, 290, 290, -1, 260.00, 173.00, 27.00, 15, ABpraaaappp
290, 291, 291, -1, 120.00, 223.00, 20.00, 17, ABprappapp
291, 292, 292, -1, 136.00, 208.00, 28.00, 15, ABprappapa
292, 293, 293, -1, 140.00, 218.00, 19.00, 15, ABprappaap
293, 294, 294, -1, 156.00, 209.00, 21.00, 15, ABprappaaa
294, 295, 295, -1, 76.00, 249.00, 15.00, 11, ABprapppaap
295, 296, 296, -1, 90.00, 248.00, 16.00, 13, ABprapppaaa
296, 297, 297, -1, 89.00, 271.00, 14.00, 13, ABprapppapp
297, 298, 298, -1, 80.00, 259.00, 11.00, 11, ABprapppapa
298, 299, 299, -1, 75.00, 274.00, 12.00, 17, ABprappppp
299, 300, 300, -1, 109.00, 255.00, 10.00, 17, ABprappppa
300, 301, 301, -1, 203.00, 184.00, 25.00, 15, ABprapaaapa
301, 302, 302, -1, 189.00, 194.00, 25.00, 13, ABprapaaapp
302, 303, 303, -1, 221.00, 187.00, 31.00, 17, ABprapaaaap
303, 304, 304, -1, 246.00, 173.00, 32.00, 11, ABprapaaaaa
304, 305, 305, -1, 168.00, 202.00, 19.00, 15, ABprapaapp
305, 306, 306, -1, 193.00, 224.00, 11.00, 15, ABprapaapa
306, 307, 307, -1, 104.00, 238.00, 13.00, 15, ABprapappa
307, 308, 308, -1, 73.00, 270.00, 16.00, 15, ABprapapppp
308, 309, 309, -1, 71.00, 251.00, 18.00, 11, ABprapapppa
309, 310, 310, -1, 111.00, 226.00, 16.00, 15, ABprapapap
310, 311, 311, -1, 93.00, 233.00, 24.00, 17, ABprapapaa
312, 313, 313, -1, 254.00, 192.00, 32.00, 13, MSppppap
313, 314, 314, -1, 232.00, 196.00, 22.00, 11, MSppppaa
314, 315, 315, -1, 260.00, 208.00, 34.00, 17, MSpppppa
315, 316, 316, -1, 228.00, 222.00, 34.00, 17, MSpppppp
316, 317, 317, -1, 249.00, 195.00, 28.00, 13, MSpppaaa
317, 318, 318, -1, 125.00, 244.00, 23.00, 13, MSpppaap
319, 320, 320, -1, 219.00, 228.00, 13.00, 13, ABprpapaaap
320, 321, 321, -1, 144.00, 279.00, 19.00, 15, MSppaapp
321, 322, 322, -1, 261.00, 196.00, 21.00, 9, MSppaapa
322, 323, 323, -1, 284.00, 200.00, 20.00, 15, MSppaaaa
323, 324, 324, -1, 279.00, 191.00, 28.00, 14, MSppaaap
324, 325, 325, -1, 209.00, 196.00, 28.00, 14, MSppapaa
325, 326, 326, -1, 254.00, 190.00, 18.00, 13, MSppapap
326, 327, 327, -1, 195.00, 258.00, 20.00, 11, MSpapappp
327, 328, 328, -1, 208.00, 241.00, 22.00, 13, MSpapapaa
328, 329, 329, -1, 206.00, 236.00, 19.00, 13, MSpapaaap
329, 330, 330, -1, 192.00, 226.00, 25.00, 15, MSpapaapp
330, 331, 331, -1, 171.00, 327.00, 19.00, 15, MSpappaa
331, 332, 332, -1, 166.00, 232.00, 19.00, 13, MSpappppa
332, 333, 333, -1, 147.00, 242.00, 20.00, 13, MSpappppp
333, 334, 334, -1, 252.00, 239.00, 31.00, 15, MSpaaappa
334, 335, 335, -1, 231.00, 239.00, 33.00, 17, MSpaaappp
335, 336, 336, -1, 243.00, 257.00, 32.00, 15, MSpaaapaa
336, 337, 337, -1, 221.00, 259.00, 31.00, 13, MSpaaapap
337, 338, 338, -1, 277.00, 214.00, 30.00, 15, MSpaaaapa
338, 339, 339, -1, 261.00, 217.00, 30.00, 17, MSpaaaapp
339, 340, 340, -1, 281.00, 237.00, 33.00, 15, MSpaaaaaa
340, 341, 341, -1, 264.00, 234.00, 33.00, 13, MSpaaaaap
341, 342, 342, -1, 220.00, 210.00, 22.00, 13, ABaraappppa
342, 343, 343, -1, 220.00, 213.00, 29.00, 15, ABaraapppap
343, 344, 344, -1, 230.00, 231.00, 31.00, 11, MSpaapaap
344, 345, 345, -1, 250.00, 229.00, 30.00, 13, MSpaapaaa
345, 346, 473, -1, 177.00, 267.00, 28.00, 19, Earap
346, 347, 347, -1, 268.00, 294.00, 21.00, 14, MSapppaa
347, 348, 348, -1, 262.00, 303.00, 31.00, 13, MSapppap
348, 349, 349, -1, 268.00, 273.00, 34.00, 19, MSappppa
349, 350, 350, -1, 233.00, 285.00, 33.00, 15, MSappppp
350, 351, 351, -1, 151.00, 326.00, 22.00, 17, MSappaap
351, 352, 352, -1, 270.00, 289.00, 29.00, 13, MSappaaa
353, 354, 354, -1, 271.00, 292.00, 16.00, 9, MSappapa
354, 355, 355, -1, 269.00, 267.00, 30.00, 17, ABaraapaapp
355, 356, 356, -1, 303.00, 251.00, 33.00, 15, MSapappp
356, 357, 357, -1, 254.00, 310.00, 26.00, 15, MSapapaa
357, 358, 358, -1, 162.00, 276.00, 18.00, 15, MSapaapp
358, 359, 359, -1, 297.00, 284.00, 19.00, 13, MSapaapa
359, 360, 360, -1, 303.00, 262.00, 20.00, 13, MSapaaaa
360, 361, 361, -1, 295.00, 233.00, 30.00, 17, MSaaaaapa
361, 362, 362, -1, 271.00, 252.00, 32.00, 15, MSaaaaapp
362, 363, 363, -1, 307.00, 214.00, 25.00, 11, MSaaaaaar
363, 364, 364, -1, 316.00, 238.00, 25.00, 13, MSaaaaaal
364, 365, 365, -1, 255.00, 248.00, 34.00, 13, MSaaaapaa
365, 366, 366, -1, 256.00, 260.00, 31.00, 15, MSaaaapap
366, 367, 367, -1, 238.00, 268.00, 31.00, 11, MSaaaappa
367, 368, 368, -1, 229.00, 285.00, 30.00, 13, MSaaapapp
368, 369, 637, -1, 265.00, 264.00, 27.00, 11, MSaaapaap
369, 370, 370, -1, 213.00, 283.00, 30.00, 11, MSaaappa
370, 371, 371, -1, 213.00, 267.00, 32.00, 15, MSaaappp
371, 372, 372, -1, 187.00, 313.00, 19.00, 17, MSaapppp
372, 373, 373, -1, 230.00, 275.00, 19.00, 13, MSaapaaap
373, 374, 374, -1, 248.00, 272.00, 18.00, 13, MSaapaaaa
374, 375, 375, -1, 211.00, 281.00, 20.00, 13, MSaapappp
375, 376, 376, -1, 240.00, 296.00, 25.00, 13, MSaapappa
376, 377, 377, -1, 226.00, 270.00, 23.00, 13, MSaapapaa
377, 378, 378, -1, 222.00, 290.00, 20.00, 13, MSaapapap
378, 379, 379, -1, 111.00, 312.00, 25.00, 29, Eplpa
379, 380, 380, -1, 116.00, 351.00, 22.00, 15, Cappapa
380, 381, 381, -1, 111.00, 342.00, 19.00, 17, Cappapp
381, 382, 382, -1, 178.00, 338.00, 29.00, 15, Cappaaa
382, 383, 383, -1, 86.00, 341.00, 23.00, 15, Capppap
383, 384, 384, -1, 110.00, 342.00, 30.00, 15, Capppaa
384, 385, 385, -1, 81.00, 321.00, 17.00, 15, Cappppv
385, 386, 386, -1, 125.00, 350.00, 25.00, 15, Capapap
386, 387, 387, -1, 157.00, 343.00, 27.00, 15, Capapaa
387, 388, 388, -1, 134.00, 314.00, 13.00, 15, Capappp
388, 389, 389, -1, 149.00, 337.00, 18.00, 15, Capappa
389, 390, 390, -1, 185.00, 340.00, 23.00, 13, Capaaap
390, 391, 391, -1, 212.00, 330.00, 23.00, 15, Capaaaa
392, 393, 393, -1, 72.00, 306.00, 14.00, 13, Caappv
393, 394, 394, -1, 105.00, 293.00, 11.00, 11, Caapap
394, 395, 395, -1, 83.00, 349.00, 19.00, 19, Cpappd
395, 396, 396, -1, 77.00, 327.00, 13.00, 15, Cpappv
396, 397, 397, -1, 65.00, 286.00, 23.00, 19, Cpapaa
397, 398, 398, -1, 109.00, 242.00, 23.00, 15, Cppaapp
398, 399, 399, -1, 136.00, 229.00, 24.00, 15, Cppaapa
399, 400, 400, -1, 152.00, 221.00, 24.00, 15, Cppaaap
400, 401, 401, -1, 172.00, 218.00, 24.00, 15, Cppaaaa
401, 402, 402, -1, 134.00, 234.00, 29.00, 17, Cppapaa
402, 403, 403, -1, 114.00, 256.00, 15.00, 13, Cppappp
403, 404, 404, -1, 105.00, 243.00, 18.00, 13, Cppappa
404, 405, 405, -1, 131.00, 248.00, 33.00, 15, Cpppaap
405, 406, 406, -1, 158.00, 222.00, 29.00, 13, Cpppaaa
406, 407, 407, -1, 81.00, 264.00, 20.00, 17, Cpppapp
407, 408, 408, -1, 85.00, 262.00, 24.00, 15, Cpppapa
408, 409, 409, -1, 251.00, 307.00, 17.00, 15, Daapa
409, 410, 410, -1, 236.00, 313.00, 16.00, 15, Daapp
410, 411, 411, -1, 252.00, 307.00, 21.00, 15, Daaaa
411, 412, 412, -1, 241.00, 306.00, 30.00, 15, Daaap
412, 413, 413, -1, 223.00, 300.00, 33.00, 13, Dappaa
413, 414, 414, -1, 198.00, 318.00, 30.00, 11, Dappap
414, 415, 415, -1, 179.00, 323.00, 32.00, 19, Dappp
415, 416, 416, -1, 195.00, 212.00, 17.00, 15, Dpapp
416, 417, 417, -1, 206.00, 200.00, 17.00, 15, Dpapa
417, 418, 418, -1, 205.00, 205.00, 31.00, 17, Dpaap
419, 420, 420, -1, 208.00, 195.00, 21.00, 15, Dpaaa
420, 421, 421, -1, 163.00, 232.00, 33.00, 13, Dpppp
421, 422, 422, -1, 183.00, 236.00, 33.00, 13, Dpppap
422, 423, 423, -1, 210.00, 225.00, 34.00, 15, Dpppaa
423, 424, 424, -1, 190.00, 203.00, 21.00, 15, Dppaa
424, 425, 425, -1, 175.00, 214.00, 29.00, 15, Dppap
426, 670, 427, -1, 305.00, 283.00, 25.00, 13, ABalppppaav
427, 428, 428, -1, 314.00, 300.00, 25.00, 13, ABalpppappp
428, 429, 429, -1, 291.00, 297.00, 22.00, 15, ABalpppppap
429, 430, 430, -1, 300.00, 310.00, 22.00, 13, ABalppppppaa
430, 431, 431, -1, 276.00, 324.00, 23.00, 13, ABalppppppap
431, 432, 432, -1, 306.00, 313.00, 20.00, 15, ABalpppppppa
432, 433, 433, -1, 346.00, 255.00, 21.00, 11, ABalppppapp
433, 434, 434, -1, 342.00, 277.00, 15.00, 13, ABalpppaaaa
434, 435, 435, -1, 331.00, 267.00, 11.00, 15, ABalpppaaap
435, 436, 436, -1, 355.00, 266.00, 17.00, 11, ABalpppaapd
436, 437, 437, -1, 353.00, 260.00, 21.00, 13, ABalpppaapv
437, 438, 438, -1, 319.00, 293.00, 16.00, 15, ABalpppapad
438, 439, 439, -1, 324.00, 287.00, 14.00, 15, ABalpppapav
440, 441, 441, -1, 341.00, 255.00, 12.00, 15, ABalppaaapp
441, 442, 442, -1, 298.00, 267.00, 12.00, 13, ABalppaappp
442, 443, 443, -1, 313.00, 238.00, 10.00, 13, ABalppaapa
443, 444, 444, -1, 296.00, 298.00, 16.00, 17, ABplpaaaaap
444, 445, 445, -1, 306.00, 259.00, 13.00, 11, ABalppapppa
445, 446, 672, -1, 319.00, 258.00, 16.00, 11, ABalppappap
447, 448, 448, -1, 287.00, 254.00, 13.00, 13, ABalppapapa
448, 449, 449, -1, 287.00, 252.00, 11.00, 13, ABalppapapp
449, 450, 450, -1, 327.00, 245.00, 14.00, 13, ABalppapaaa
450, 451, 451, -1, 266.00, 256.00, 11.00, 15, ABalpapapaa
451, 452, 452, -1, 196.00, 287.00, 13.00, 13, ABalpapappa
452, 453, 453, -1, 294.00, 235.00, 11.00, 11, ABalpapaapp
453, 454, 454, -1, 300.00, 225.00, 13.00, 11, ABalpapaapa
454, 455, 455, -1, 316.00, 248.00, 10.00, 11, ABalppaappa
455, 456, 456, -1, 305.00, 240.00, 14.00, 15, ABalpapaaaa
456, 457, 457, -1, 282.00, 252.00, 18.00, 15, ABalpaaaaap
457, 458, 458, -1, 258.00, 244.00, 19.00, 13, ABalpappaaa
458, 459, 459, -1, 275.00, 277.00, 19.00, 15, ABalpapppaa
459, 460, 460, -1, 260.00, 259.00, 22.00, 15, ABalpapppap
460, 461, 461, -1, 293.00, 261.00, 23.00, 13, ABalpaaapaa
461, 462, 462, -1, 293.00, 268.00, 26.00, 11, ABalpaaapap
462, 463, 463, -1, 277.00, 253.00, 16.00, 13, ABalpaaaapp
463, 464, 464, -1, 289.00, 242.00, 17.00, 13, ABalpaaaapa
464, 465, 465, -1, 280.00, 264.00, 19.00, 14, ABalpappaap
465, 466, 466, -1, 300.00, 243.00, 18.00, 13, ABalpaaaaaa
466, 467, 467, -1, 326.00, 225.00, 17.00, 11, ABalpaapppa
467, 468, 468, -1, 329.00, 230.00, 14.00, 11, ABalpaapppp
468, 469, 469, -1, 313.00, 231.00, 17.00, 13, ABalpaappaa
469, 471, 470, -1, 278.00, 258.00, 26.00, 13, ABalpaapapa
473, 475, 474, -1, 139.00, 315.00, 27.00, 13, Ealpp
474, 476, 475, -1, 195.00, 257.00, 24.00, 11, Nuc266_24_194_238
475, 477, 476, -1, 137.00, 281.00, 29.00, 21, Earpp
476, 478, 477, -1, 169.00, 295.00, 25.00, 17, Ealap
477, 479, 478, -1, 209.00, 279.00, 25.00, 17, Ealaa
478, 480, 479, -1, 116.00, 312.00, 28.00, 23, Eplap
479, 481, 480, -1, 105.00, 283.00, 20.00, 25, Eprpp
480, 482, 481, -1, 203.00, 329.00, 28.00, 15, Dapap
481, 483, 482, -1, 232.00, 316.00, 21.00, 15, Dapaa
482, 484, 483, -1, 223.00, 299.00, 23.00, 13, MSaapaapp
483, 485, 484, -1, 238.00, 296.00, 22.00, 11, MSaapaapa
484, 486, 485, -1, 178.00, 199.00, 30.00, 15, ABarpppapp
485, 487, 486, -1, 251.00, 298.00, 13.00, 13, ABplppaapap
486, 488, 487, -1, 245.00, 299.00, 10.00, 13, ABplppaapaa
487, 489, 488, -1, 336.00, 242.00, 18.00, 13, ABalaaaalar
488, 490, 489, -1, 302.00, 180.00, 28.00, 13, ABalapppppp
489, 491, 490, -1, 302.00, 166.00, 27.00, 15, ABarpappaa
490, 492, 491, -1, 98.00, 274.00, 34.00, 17, Cppppaa
491, 493, 492, -1, 73.00, 287.00, 27.00, 15, Cppppap
492, 494, 493, -1, 104.00, 279.00, 15.00, 13, Cpppppv
493, 495, 494, -1, 177.00, 262.00, 24.00, 19, Earpa
495, 497, 583, -1, 105.00, 290.00, 25.00, 17, Eprpa
496, 498, 497, -1, 264.00, 234.00, 35.00, 15, ABarpaappa
497, 499, 498, -1, 257.00, 305.00, 35.00, 19, ABarppaapa
499, 501, 500, -1, 197.00, 275.00, 20.00, 13, MSaappap
500, 502, 501, -1, 293.00, 208.00, 12.00, 13, ABalaapappa
502, 504, 503, -1, 220.00, 309.00, 12.00, 15, ABplppapaaa
505, 507, 506, -1, 273.00, 195.00, 18.00, 13, ABprpaaaaaa
506, 508, 507, -1, 137.00, 247.00, 17.00, 13, MSpappap
507, 509, 508, -1, 207.00, 243.00, 30.00, 15, MSpaapapp
509, 511, 510, -1, 74.00, 298.00, 18.00, 15, Cpppppd
510, 512, 511, -1, 289.00, 301.00, 31.00, 15, ABplapaaaaa
512, 514, 513, -1, 278.00, 311.00, 31.00, 15, ABplapaaaap
513, 515, 514, -1, 336.00, 265.00, 14.00, 11, ABalppaaapa
514, 516, 515, -1, 261.00, 263.00, 18.00, 13, ABalpappppp
515, 517, 516, -1, 343.00, 211.00, 18.00, 13, ABalaaaparr
516, 518, 517, -1, 346.00, 224.00, 19.00, 15, ABalaaaparl
517, 519, 518, -1, 264.00, 278.00, 23.00, 13, ABalpaaappp
518, 520, 519, -1, 279.00, 277.00, 22.00, 13, ABalpaaappa
519, 521, 520, -1, 189.00, 283.00, 24.00, 17, Ealpa
520, 522, 521, -1, 223.00, 245.00, 13.00, 11, ABprpappapa
521, 523, 522, -1, 165.00, 302.00, 18.00, 23, Z3
522, 524, 523, -1, 148.00, 337.00, 32.00, 15, Cappaap
523, 525, 524, -1, 278.00, 238.00, 14.00, 11, ABarappaapp
525, 527, 526, -1, 204.00, 221.00, 27.00, 15, MSpapappa
526, 528, 527, -1, 202.00, 213.00, 24.00, 17, MSpapaapa
527, 529, 528, -1, 272.00, 163.00, 24.00, 13, ABpraapaapp
528, 530, 529, -1, 299.00, 182.00, 26.00, 13, ABalapppppa
529, 531, 530, -1, 287.00, 219.00, 17.00, 13, ABarapaaaaa
530, 532, 531, -1, 304.00, 257.00, 15.00, 15, ABalppapppp
531, 533, 532, -1, 338.00, 201.00, 19.00, 13, ABalaaappll
533, 535, 534, -1, 103.00, 250.00, 28.00, 15, Cppapap
534, 536, 535, -1, 240.00, 227.00, 22.00, 13, ABarapaappp
535, 537, 536, -1, 307.00, 283.00, 22.00, 13, ABalppppaad
538, 540, 539, -1, 279.00, 278.00, 25.00, 15, ABalpaapapp
539, 541, 540, -1, 127.00, 336.00, 14.00, 13, ABplpppaapa
540, 542, 634, -1, 340.00, 232.00, 31.00, 17, ABarpaaaapp
543, 545, 544, -1, 221.00, 230.00, 18.00, 13, MSpapaaaa
544, 546, 545, -1, 194.00, 224.00, 18.00, 15, MSpapppaa
545, 547, 546, -1, 179.00, 231.00, 19.00, 13, MSpapppap
546, 548, 547, -1, 292.00, 249.00, 36.00, 15, ABarpaapap
547, 549, 548, -1, 270.00, 179.00, 21.00, 15, ABprpaapaaa
548, 550, 549, -1, 253.00, 249.00, 17.00, 13, ABalpappppa
549, 551, 550, -1, 291.00, 314.00, 17.00, 9, ABalpppppppp
550, 552, 551, -1, 105.00, 307.00, 9.00, 11, ABprpppapp
552, 554, 553, -1, 224.00, 205.00, 10.00, 9, ABprppaaap
555, 557, 556, -1, 106.00, 246.00, 32.00, 17, Caaapa
557, 559, 558, -1, 153.00, 281.00, 32.00, 13, Epraa
558, 560, 559, -1, 133.00, 355.00, 31.00, 19, Cpaapp
559, 561, 560, -1, 306.00, 195.00, 18.00, 15, ABalaapaaal
560, 562, 561, -1, 344.00, 195.00, 25.00, 13, ABarpaaaaal
562, 564, 563, -1, 94.00, 293.00, 13.00, 11, Caapaa
563, 565, 564, -1, 209.00, 192.00, 35.00, 13, ABarpppapa
564, 566, 565, -1, 258.00, 289.00, 17.00, 13, MSappapp
565, 567, 566, -1, 82.00, 239.00, 19.00, 13, ABarpppppp
567, 569, 568, -1, 277.00, 291.00, 10.00, 19, ABplaappap
569, 571, 569, -1, 234.00, 205.00, 19.00, 11, MSpppapa
570, 572, 570, -1, 300.00, 274.00, 33.00, 13, MSapappa
571, 573, 571, -1, 118.00, 290.00, 29.00, 23, Eprap
572, 574, 572, -1, 290.00, 203.00, 33.00, 15, MSppappp
573, 575, 573, -1, 89.00, 348.00, 26.00, 17, Cpapap
574, 576, 574, -1, 110.00, 309.00, 13.00, 13, Cappppd
576, 578, 576, -1, 228.00, 258.00, 29.00, 15, MSaaaappp
577, 579, 577, -1, 115.00, 349.00, 13.00, 13, ABplapppaap
578, 580, 578, -1, 135.00, 260.00, 22.00, 21, Z2
579, 581, 579, -1, 321.00, 271.00, 30.00, 11, ABplaaaaapa
580, 582, 632, -1, 332.00, 227.00, 35.00, 17, ABplaaaapa
581, 583, 581, -1, 194.00, 241.00, 20.00, 11, MSpapapap
584, 586, 584, -1, 112.00, 308.00, 19.00, 21, Eplpp
587, 589, 587, -1, 140.00, 344.00, 21.00, 15, Capaapp
588, 590, 588, -1, 167.00, 342.00, 23.00, 13, Capaapa
589, 275, 589, -1, 235.00, 193.00, 10.00, 19, ABpraappap
590, 592, 590, -1, 278.00, 185.00, 32.00, 15, MSppappa
591, 593, 591, -1, 222.00, 292.00, 11.00, 15, ABalpapappp
593, 595, 593, -1, 218.00, 233.00, 29.00, 11, MSpaapapa
595, 597, 595, -1, 226.00, 170.00, 16.00, 13, ABpraaappppp
596, 598, 596, -1, 248.00, 159.00, 19.00, 13, ABpraaappppa
597, 599, 597, -1, 305.00, 291.00, 19.00, 11, ABalpppppaa
602, 605, 601, -1, 216.00, 255.00, 16.00, 13, ABarapapapp
604, 607, 603, -1, 207.00, 312.00, 20.00, 15, MSaapppap
605, 608, 604, -1, 222.00, 335.00, 32.00, 15, Caaaaa
606, 609, 605, -1, 60.00, 280.00, 18.00, 17, Caappd
607, 633, 606, -1, 85.00, 256.00, 29.00, 15, Caaapp
609, 612, 608, -1, 240.00, 228.00, 18.00, 17, ABarapapppp
610, 613, 636, -1, 232.00, 250.00, 17.00, 17, ABarapapppa
611, 614, 610, -1, 228.00, 297.00, 17.00, 13, MSaapppaa
614, 617, 613, -1, 186.00, 254.00, 14.00, 15, ABarappappa
615, 618, 614, -1, 305.00, 238.00, 22.00, 15, ABalpaapaaa
617, 620, 616, -1, 153.00, 302.00, 30.00, 21, Eplaa
619, 622, 618, -1, 237.00, 164.00, 29.00, 15, ABarpapppp
620, 623, 619, -1, 194.00, 306.00, 13.00, 15, ABplpaaaapp
624, 627, 623, -1, 224.00, 206.00, 18.00, 13, MSpppapp
627, 630, 626, -1, 240.00, 229.00, 20.00, 13, ABarapappap
631, 631, 633, -1, 340.00, 230.00, 28.00, 15, ABplaaaaaaa
632, 632, 635, -1, 198.00, 331.00, 34.00, 23, Cpaaap
633, 634, 638, -1, 293.00, 282.00, 19.00, 15, MSapapap
634, 635, 639, -1, 122.00, 303.00, 33.00, 15, Cpaapa
635, 636, 640, -1, 234.00, 308.00, 33.00, 15, Cpaaaa
636, 637, 641, -1, 141.00, 232.00, 33.00, 15, Caaaap
637, 615, 611, -1, 196.00, 257.00, 26.00, 17, Earaa
638, 638, 642, -1, 246.00, 202.00, 14.00, 15, ABprpaapppa
639, 639, 643, -1, 295.00, 218.00, 25.00, 13, ABaraappaaa
640, 640, 645, -1, 265.00, 214.00, 25.60, 13, ABaraaapapa
641, 641, 646, -1, 315.00, 237.00, 11.62, 13, ABalppapaap
642, 642, 647, -1, 243.00, 277.00, 10.00, 18, ABalpapapap
643, 643, 648, -1, 314.00, 214.00, 29.29, 9, ABalapppapa
644, 644, 649, -1, 318.00, 203.00, 30.19, 12, ABalapppapp
645, 645, 650, -1, 278.00, 179.00, 26.00, 11, ABalappapap
646, 646, 651, -1, 319.00, 277.00, 18.00, 13, ABalapaapaa
647, 647, 652, -1, 331.00, 256.00, 22.00, 14, ABalppppapa
648, 648, 653, -1, 271.00, 180.00, 19.00, 13, ABalaapppap
649, 650, 504, -1, 327.00, 238.00, 19.00, 12, ABalaaaalal
650, 651, 654, -1, 78.00, 293.00, 12.00, 11, ABprppppppp
653, 440, 657, -1, 344.00, 257.00, 19.00, 13, ABalapaappp
654, 653, 440, -1, 350.00, 253.00, 16.00, 12, ABalaaapalr
655, 654, 658, -1, 278.00, 286.00, 12.40, 12, ABplpaapppa
657, 656, 660, -1, 125.00, 297.00, 10.00, 10, ABplpppapap
658, 657, 661, -1, 294.00, 179.00, 15.00, 13, ABalaappapa
659, 658, 662, -1, 251.00, 279.00, 30.00, 13, MSaaapapa
660, 505, 663, -1, 328.00, 242.00, 21.00, 15, ABalaaapall
661, 659, 664, -1, 267.00, 315.00, 16.00, 16, ABplppaaaap
662, 660, 665, -1, 225.00, 268.00, 13.00, 15, ABplpappaap
663, 661, 666, -1, 305.00, 246.00, 20.80, 11, ABaraaaaaaa
664, 470, 667, -1, 309.00, 230.00, 15.00, 13, ABalpaappap
665, 662, 668, -1, 295.00, 249.00, 24.00, 13, ABalpaapaap
666, 663, 447, -1, 324.00, 262.00, 19.00, 14, ABalapaappa
667, 664, 669, -1, 303.00, 182.00, 12.00, 11, ABalaappapp
668, 665, 670, -1, 319.00, 226.00, 29.00, 15, ABalapapapa
669, 447, 671, -1, 324.00, 253.00, 17.33, 13, ABalppappaa
670, 666, 673, -1, 290.00, 252.00, 30.00, 13, MSaaapaaa
672, 668, 675, -1, 266.00, 204.00, 12.00, 13, ABalaapappp
673, 669, 676, -1, 270.00, 231.00, 15.00, 13, ABarapapapa
