1, 1, 1, -1, 291.00, 217.00, 28.00, 15, ABaraappaap
2, 2, 2, -1, 239.00, 215.00, 30.00, 17, ABaraappapp
3, 3, 3, -1, 279.00, 209.00, 28.00, 13, ABaraappapa
4, 4, 4, -1, 224.00, 209.00, 25.00, 17, ABaraapppaa
5, 5, 5, -1, 221.00, 230.00, 21.00, 15, ABaraappppp
6, 6, 6, -1, 253.00, 289.00, 23.00, 13, ABaraapappa
7, 7, 7, -1, 242.00, 277.00, 22.00, 15, ABaraapappp
8, 8, 8, -1, 246.00, 286.00, 29.00, 19, ABaraapapap
9, 9, 9, -1, 257.00, 281.00, 26.00, 17, ABaraapapaa
10, 10, 10, -1, 299.00, 230.00, 25.00, 15, ABaraapaaaa
11, 11, 11, -1, 298.00, 240.00, 27.00, 15, ABaraapaaap
13, 13, 13, -1, 298.00, 254.00, 27.00, 15, ABaraapaapa
14, 14, 14, -1, 299.00, 223.00, 15.00, 13, ABaraaappap
15, 15, 15, -1, 310.00, 214.00, 18.00, 13, ABaraaappaa
16, 16, 16, -1, 318.00, 210.00, 16.00, 11, ABaraaapppa
17, 17, 17, -1, 309.00, 208.00, 14.00, 13, ABaraaapppp
18, 18, 18, -1, 290.00, 216.00, 22.00, 15, ABaraaapaaa
19, 19, 19, -1, 280.00, 213.00, 24.00, 15, ABaraaapaap
20, 20, 20, -1, 239.00, 223.00, 25.00, 13, ABaraaapapp
21, 21, 21, -1, 278.00, 249.00, 21.00, 14, ABaraaaaaap
22, 22, 22, -1, 276.00, 218.00, 21.00, 11, ABaraaaaapp
23, 23, 23, -1, 295.00, 218.00, 19.00, 13, ABaraaaaapa
24, 24, 24, -1, 274.00, 241.00, 27.00, 11, ABaraaaapp
25, 26, 25, -1, 311.00, 222.00, 20.00, 13, ABaraaaapaa
26, 27, 26, -1, 214.00, 262.00, 20.00, 13, ABalpappapp
27, 28, 27, -1, 267.00, 244.00, 16.00, 13, ABalpappapa
28, 29, 28, -1, 252.00, 215.00, 19.00, 17, ABarapapaap
29, 30, 29, -1, 236.00, 244.00, 17.00, 15, ABarapapaaa
30, 31, 30, -1, 247.00, 204.00, 21.00, 15, ABarapappaa
32, 32, 32, -1, 262.00, 230.00, 17.00, 13, ABarapaaapp
33, 33, 33, -1, 272.00, 224.00, 18.00, 15, ABarapaaapa
34, 34, 34, -1, 264.00, 227.00, 19.00, 15, ABarapaaaap
35, 35, 35, -1, 265.00, 213.00, 21.00, 17, ABarapaapap
36, 36, 36, -1, 260.00, 207.00, 23.00, 11, ABarapaapaa
37, 37, 37, -1, 247.00, 206.00, 25.00, 13, ABarapaappa
38, 38, 38, -1, 259.00, 220.00, 12.00, 11, ABarapppapa
39, 39, 39, -1, 276.00, 218.00, 10.00, 13, ABarapppapp
40, 40, 40, -1, 298.00, 195.00, 15.00, 15, ABarapppaaa
41, 41, 41, -1, 297.00, 192.00, 11.00, 13, ABarapppaap
42, 42, 42, -1, 284.00, 192.00, 15.00, 11, ABarappppap
43, 43, 43, -1, 286.00, 183.00, 18.00, 13, ABarappppaa
44, 44, 44, -1, 268.00, 210.00, 14.00, 13, ABarapppppa
45, 45, 45, -1, 282.00, 207.00, 14.00, 13, ABarapppppp
46, 46, 46, -1, 267.00, 232.00, 10.00, 15, ABarappaaap
47, 47, 47, -1, 285.00, 215.00, 15.00, 13, ABarappaaaa
48, 48, 48, -1, 280.00, 227.00, 12.00, 15, ABarappaapa
49, 49, 49, -1, 279.00, 241.00, 11.00, 13, ABalpapaaap
50, 50, 50, -1, 231.00, 241.00, 10.00, 14, ABarappapap
51, 51, 51, -1, 251.00, 234.00, 11.00, 15, ABarappapaa
52, 52, 52, -1, 194.00, 238.00, 12.00, 13, ABarappappp
53, 53, 53, -1, 191.00, 238.00, 15.00, 13, ABprpapppap
54, 54, 54, -1, 264.00, 159.00, 28.00, 15, ABarpapppa
55, 55, 55, -1, 288.00, 165.00, 30.00, 17, ABarpappap
56, 56, 56, -1, 312.00, 197.00, 29.00, 15, ABarpapaaap
58, 58, 58, -1, 301.00, 193.00, 31.00, 19, ABarpapaapp
59, 59, 59, -1, 296.00, 225.00, 35.00, 17, ABarpapapp
60, 60, 60, -1, 337.00, 203.00, 32.00, 19, ABarpapapa
61, 61, 61, -1, 235.00, 203.00, 36.00, 15, ABarpaappp
62, 62, 62, -1, 303.00, 192.00, 35.00, 15, ABarpaapaa
63, 63, 63, -1, 350.00, 213.00, 25.00, 13, ABarpaaaaar
64, 64, 64, -1, 343.00, 212.00, 29.00, 15, ABarpaaaapa
65, 65, 65, -1, 321.00, 198.00, 33.00, 13, ABarpaaapp
66, 66, 66, -1, 342.00, 196.00, 28.00, 11, ABarpaaapaa
67, 67, 67, -1, 333.00, 179.00, 29.00, 15, ABarpaaapap
68, 68, 68, -1, 274.00, 334.00, 25.00, 13, ABarppaaap
69, 69, 69, -1, 239.00, 329.00, 28.00, 15, ABarppaapp
70, 70, 70, -1, 165.00, 358.00, 27.00, 15, ABarppappa
71, 71, 71, -1, 123.00, 364.00, 19.00, 17, ABarppappp
72, 72, 72, -1, 221.00, 348.00, 26.00, 19, ABarppapap
73, 73, 73, -1, 248.00, 342.00, 26.00, 15, ABarppapaa
74, 74, 74, -1, 115.00, 219.00, 27.00, 17, ABarpppppa
75, 75, 75, -1, 182.00, 183.00, 28.00, 13, ABarppppaa
76, 76, 76, -1, 161.00, 198.00, 30.00, 15, ABarppppap
77, 77, 77, -1, 210.00, 171.00, 29.00, 15, ABarpppaap
78, 78, 78, -1, 237.00, 188.00, 33.00, 13, ABarpppaaa
79, 79, 79, -1, 320.00, 199.00, 23.00, 9, ABalappppaa
80, 80, 80, -1, 327.00, 187.00, 24.00, 11, ABalappppap
81, 81, 81, -1, 322.00, 221.00, 25.00, 11, ABalapppaaa
82, 82, 82, -1, 318.00, 204.00, 26.00, 9, ABalapppaap
83, 83, 83, -1, 290.00, 189.00, 25.00, 15, ABalappapaa
84, 84, 84, -1, 330.00, 206.00, 25.00, 11, ABalappaaa
85, 85, 85, -1, 322.00, 186.00, 21.00, 13, ABalappappa
86, 86, 86, -1, 315.00, 174.00, 24.00, 11, ABalappappp
87, 87, 87, -1, 330.00, 256.00, 27.00, 17, ABalapapppa
88, 88, 88, -1, 339.00, 256.00, 29.00, 14, ABalapapppp
89, 89, 89, -1, 340.00, 227.00, 22.00, 15, ABalapappaa
90, 90, 90, -1, 339.00, 228.00, 26.00, 13, ABalapappap
91, 91, 91, -1, 321.00, 229.00, 32.00, 11, ABalapapaa
92, 92, 92, -1, 322.00, 235.00, 30.00, 13, ABalapapapp
93, 93, 93, -1, 322.00, 278.00, 26.00, 13, ABalapaaaap
94, 94, 94, -1, 327.00, 258.00, 25.00, 15, ABalapaaaaa
95, 95, 95, -1, 338.00, 242.00, 23.00, 15, ABalapaaapa
96, 96, 96, -1, 346.00, 256.00, 24.00, 11, ABalapaaapp
99, 99, 99, -1, 336.00, 284.00, 20.00, 11, ABalapaapap
100, 100, 100, -1, 311.00, 197.00, 19.00, 15, ABalaapaaar
101, 101, 101, -1, 273.00, 195.00, 10.00, 11, ABalaapapa
102, 102, 102, -1, 311.00, 189.00, 13.00, 13, ABalaapaapp
103, 103, 103, -1, 315.00, 187.00, 15.00, 15, ABalaapaapa
104, 104, 104, -1, 299.00, 169.00, 14.00, 11, ABalaappaa
105, 105, 105, -1, 306.00, 177.00, 19.00, 13, ABalaappppp
106, 106, 106, -1, 287.00, 184.00, 20.00, 11, ABalaappppa
107, 107, 107, -1, 272.00, 166.00, 17.00, 13, ABalaapppaa
108, 108, 108, -1, 337.00, 238.00, 13.00, 15, ABalaaaalpp
109, 109, 109, -1, 343.00, 240.00, 16.00, 13, ABalaaaalpa
110, 110, 110, -1, 324.00, 206.00, 20.00, 13, ABalaaaarrp
111, 111, 111, -1, 321.00, 195.00, 16.00, 15, ABalaaaarra
112, 112, 112, -1, 329.00, 217.00, 19.00, 11, ABalaaaarlp
113, 113, 113, -1, 340.00, 226.00, 18.00, 13, ABalaaaarla
114, 114, 114, -1, 328.00, 192.00, 18.00, 13, ABalaaapplr
115, 115, 115, -1, 302.00, 196.00, 22.00, 13, ABalaaapprr
116, 116, 116, -1, 307.00, 172.00, 16.00, 13, ABalaaapprl
117, 117, 117, -1, 332.00, 209.00, 27.00, 11, ABalappaapa
118, 118, 118, -1, 150.00, 303.00, 11.00, 13, ABplppppapa
120, 120, 120, -1, 139.00, 294.00, 12.00, 13, ABplppppapp
121, 121, 121, -1, 147.00, 303.00, 15.00, 13, ABplppppaaa
122, 122, 122, -1, 138.00, 300.00, 16.00, 13, ABplppppaap
123, 123, 123, -1, 86.00, 315.00, 12.00, 13, ABplppppppp
124, 124, 124, -1, 93.00, 308.00, 11.00, 11, ABplppppppa
125, 125, 125, -1, 136.00, 322.00, 17.00, 15, ABplpppppap
126, 126, 126, -1, 142.00, 316.00, 19.00, 15, ABplpppppaa
127, 127, 127, -1, 130.00, 312.00, 10.00, 11, ABplpppapaa
128, 128, 128, -1, 122.00, 323.00, 13.00, 14, ABplpppaapp
129, 129, 129, -1, 163.00, 308.00, 11.00, 15, ABplpppaaaa
130, 130, 130, -1, 164.00, 323.00, 14.00, 13, ABplpppaaap
131, 131, 131, -1, 167.00, 305.00, 14.00, 13, ABplppapppp
132, 132, 132, -1, 176.00, 296.00, 15.00, 13, ABplppapppa
133, 133, 133, -1, 194.00, 291.00, 17.00, 13, ABplppappap
134, 134, 134, -1, 208.00, 291.00, 16.00, 13, ABplppappaa
135, 135, 135, -1, 188.00, 300.00, 15.00, 15, ABplppapapa
136, 136, 136, -1, 179.00, 318.00, 15.00, 13, ABplppapapp
137, 137, 137, -1, 200.00, 277.00, 15.00, 11, ABplppaappa
138, 138, 138, -1, 176.00, 287.00, 12.00, 13, ABplppaappp
139, 139, 139, -1, 270.00, 298.00, 13.00, 13, ABplppaaaaa
142, 142, 142, -1, 245.00, 251.00, 12.00, 15, ABplpappaaa
143, 143, 143, -1, 202.00, 269.00, 19.00, 13, MSaappaa
144, 144, 144, -1, 124.00, 292.00, 14.00, 15, ABplpappppp
145, 145, 145, -1, 145.00, 283.00, 16.00, 13, ABplpappppa
146, 146, 146, -1, 154.00, 287.00, 13.00, 11, ABplpapppaa
147, 147, 147, -1, 143.00, 266.00, 14.00, 11, ABplpapppap
148, 148, 148, -1, 214.00, 286.00, 14.00, 13, ABplpapappa
149, 149, 149, -1, 179.00, 279.00, 15.00, 11, ABplpapappp
150, 150, 150, -1, 233.00, 292.00, 13.00, 15, ABplpapapap
151, 151, 151, -1, 241.00, 283.00, 15.00, 15, ABplpapapaa
152, 152, 152, -1, 271.00, 267.00, 14.00, 11, ABplpapaapa
153, 153, 153, -1, 263.00, 280.00, 13.00, 11, ABplpapaapp
154, 154, 154, -1, 245.00, 279.00, 12.00, 17, ABplpapaaap
155, 155, 155, -1, 252.00, 270.00, 14.00, 13, ABplpapaaaa
156, 156, 156, -1, 200.00, 310.00, 16.00, 13, ABplppapaap
157, 157, 157, -1, 224.00, 278.00, 10.00, 15, ABplpaaaapa
158, 158, 158, -1, 324.00, 275.00, 15.00, 15, ABplpaaaaaa
159, 159, 159, -1, 308.00, 280.00, 13.00, 15, ABplpaaapap
160, 160, 160, -1, 320.00, 261.00, 12.00, 11, ABplpaaapaa
161, 161, 161, -1, 305.00, 275.00, 15.00, 15, ABplpaaappa
162, 162, 162, -1, 275.00, 318.00, 20.00, 15, ABplpaappap
163, 163, 163, -1, 274.00, 309.00, 22.00, 13, ABplpaappaa
164, 164, 164, -1, 283.00, 280.00, 15.00, 15, ABplpaaappp
165, 165, 165, -1, 307.00, 280.00, 11.00, 17, ABplpaapapp
166, 166, 166, -1, 281.00, 274.00, 11.00, 15, ABplpaapppp
167, 167, 167, -1, 286.00, 304.00, 19.00, 15, ABplpaapaap
168, 168, 168, -1, 312.00, 278.00, 20.00, 13, ABplpaapaaa
169, 169, 169, -1, 349.00, 281.00, 19.00, 15, ABplpaapapa
170, 170, 170, -1, 264.00, 313.00, 13.00, 11, ABplaapppa
171, 171, 655, -1, 285.00, 255.00, 9.00, 17, ABplaappaa
173, 173, 172, -1, 242.00, 332.00, 19.00, 19, ABplaapppp
174, 174, 173, -1, 347.00, 213.00, 22.00, 15, ABplaapaaaa
175, 175, 174, -1, 355.00, 238.00, 25.00, 13, ABplaapaaap
176, 176, 175, -1, 339.00, 269.00, 23.00, 13, ABplaapaapa
177, 177, 176, -1, 330.00, 282.00, 23.00, 17, ABplaapaapp
178, 178, 177, -1, 295.00, 313.00, 27.00, 15, ABplaapappp
179, 179, 178, -1, 301.00, 290.00, 28.00, 15, ABplaapappa
180, 180, 179, -1, 277.00, 309.00, 26.00, 13, ABplaapapap
181, 181, 180, -1, 288.00, 296.00, 25.00, 13, ABplaapapaa
182, 182, 181, -1, 323.00, 252.00, 31.00, 17, ABplaaaaapp
183, 183, 182, -1, 310.00, 271.00, 28.00, 13, MSapaaap
185, 184, 184, -1, 343.00, 240.00, 29.00, 15, ABplaaaaaap
187, 186, 186, -1, 319.00, 235.00, 35.00, 19, ABplaaaapp
188, 187, 187, -1, 326.00, 291.00, 29.00, 15, ABplaaappa
189, 188, 188, -1, 311.00, 305.00, 29.00, 13, ABplaaappp
190, 189, 189, -1, 341.00, 282.00, 27.00, 17, ABplaaapap
191, 190, 190, -1, 349.00, 262.00, 27.00, 13, ABplaaapaa
192, 191, 191, -1, 143.00, 322.00, 10.00, 15, ABplappppa
193, 192, 192, -1, 95.00, 329.00, 12.00, 15, ABplappppp
194, 193, 193, -1, 125.00, 351.00, 16.00, 15, ABplapppaaa
195, 194, 194, -1, 111.00, 329.00, 13.00, 13, ABplapppapp
196, 195, 195, -1, 109.00, 332.00, 10.00, 13, ABplapppapa
197, 196, 196, -1, 205.00, 339.00, 20.00, 15, ABplappaaa
198, 197, 197, -1, 185.00, 346.00, 19.00, 17, ABplappaap
199, 198, 198, -1, 167.00, 349.00, 19.00, 15, ABplappapp
200, 199, 199, -1, 186.00, 355.00, 27.00, 15, ABplappapa
201, 200, 200, -1, 221.00, 334.00, 18.00, 15, ABplapaapp
202, 201, 201, -1, 241.00, 315.00, 12.00, 13, ABplapaapa
203, 202, 202, -1, 291.00, 294.00, 33.00, 13, ABarppaaaa
204, 203, 203, -1, 246.00, 328.00, 24.00, 13, ABplapaaapp
205, 204, 204, -1, 261.00, 325.00, 24.00, 15, ABplapaaapa
206, 205, 205, -1, 108.00, 358.00, 17.00, 13, ABplapapppa
207, 206, 206, -1, 100.00, 339.00, 15.00, 15, ABplapapppp
208, 207, 207, -1, 150.00, 356.00, 17.00, 15, ABplapapap
209, 208, 208, -1, 146.00, 342.00, 13.00, 17, ABplapappa
210, 209, 209, -1, 145.00, 368.00, 23.00, 19, ABplapapaa
211, 210, 210, -1, 235.00, 229.00, 14.00, 13, ABprpapaaaa
212, 211, 211, -1, 230.00, 218.00, 12.00, 11, ABprpapaapp
213, 212, 212, -1, 201.00, 245.00, 15.00, 13, ABprpapappa
214, 213, 213, -1, 165.00, 280.00, 14.00, 11, ABprpapappp
215, 214, 214, -1, 208.00, 229.00, 13.00, 11, ABprpapapap
216, 215, 215, -1, 217.00, 234.00, 15.00, 15, ABprpapapaa
217, 216, 216, -1, 118.00, 302.00, 16.00, 17, ABprpappppp
218, 217, 217, -1, 128.00, 284.00, 18.00, 13, ABprpappppa
219, 218, 218, -1, 238.00, 241.00, 14.00, 15, ABprpapppaa
220, 219, 219, -1, 185.00, 274.00, 16.00, 13, ABprpappapp
221, 220, 220, -1, 221.00, 256.00, 10.00, 13, ABprpappaap
222, 221, 221, -1, 259.00, 245.00, 12.00, 11, ABprpappaaa
223, 222, 222, -1, 243.00, 175.00, 17.00, 13, ABprpaaaaap
224, 223, 223, -1, 253.00, 178.00, 20.00, 13, ABpraaappaa
225, 224, 224, -1, 171.00, 253.00, 13.00, 15, ABprpaaaapp
226, 225, 225, -1, 208.00, 244.00, 10.00, 15, ABprpaaaapa
227, 226, 226, -1, 268.00, 194.00, 15.00, 15, ABprpaaappa
228, 227, 227, -1, 243.00, 219.00, 13.00, 11, ABprpapaapa
229, 228, 228, -1, 248.00, 204.00, 16.00, 13, ABprpaaappp
230, 229, 229, -1, 281.00, 187.00, 12.00, 13, ABprpaaapaa
231, 230, 230, -1, 264.00, 183.00, 14.00, 11, ABprpaaapap
232, 231, 231, -1, 225.00, 179.00, 19.00, 13, ABprpaapaap
233, 232, 232, -1, 284.00, 156.00, 21.00, 13, ABprpaapapa
234, 233, 233, -1, 253.00, 187.00, 13.00, 13, ABprpaapapp
235, 234, 234, -1, 250.00, 205.00, 11.00, 13, ABprpaapppp
236, 235, 235, -1, 208.00, 177.00, 19.00, 13, ABprpaappap
237, 236, 236, -1, 224.00, 182.00, 22.00, 15, ABprpaappaa
238, 237, 237, -1, 97.00, 259.00, 12.00, 11, ABprpppaapp
239, 238, 238, -1, 99.00, 262.00, 16.00, 13, ABprpppaapa
240, 239, 239, -1, 131.00, 236.00, 15.00, 15, ABprpppaaap
241, 240, 240, -1, 135.00, 252.00, 13.00, 15, ABprpppaaaa
242, 241, 241, -1, 112.00, 269.00, 11.00, 11, ABprpppapaa
243, 242, 242, -1, 106.00, 289.00, 10.00, 19, ABprpppapap
245, 244, 244, -1, 134.00, 258.00, 10.00, 15, ABprppppapa
246, 245, 245, -1, 128.00, 271.00, 12.00, 13, ABprppppapp
247, 246, 246, -1, 134.00, 265.00, 17.00, 13, ABprppppaaa
248, 247, 247, -1, 122.00, 273.00, 16.00, 13, ABprppppaap
249, 248, 248, -1, 91.00, 292.00, 11.00, 13, ABprppppppa
250, 249, 249, -1, 117.00, 256.00, 19.00, 13, ABprpppppaa
251, 250, 250, -1, 100.00, 260.00, 20.00, 13, ABprpppppap
252, 251, 251, -1, 210.00, 215.00, 13.00, 13, ABprppaapap
253, 252, 252, -1, 212.00, 220.00, 10.00, 13, ABprppaapaa
254, 253, 253, -1, 196.00, 261.00, 15.00, 11, ABprppaappa
255, 254, 254, -1, 167.00, 268.00, 14.00, 13, ABprppaappp
256, 255, 255, -1, 232.00, 203.00, 14.00, 13, ABprppaaaaa
257, 256, 256, -1, 216.00, 198.00, 13.00, 15, ABprppaaaap
258, 257, 257, -1, 208.00, 199.00, 11.00, 19, ABpraapppa
259, 258, 258, -1, 181.00, 226.00, 14.00, 13, ABprppapaaa
260, 259, 259, -1, 169.00, 238.00, 16.00, 13, ABprppapaap
261, 260, 260, -1, 161.00, 253.00, 16.00, 13, ABprppapapa
262, 261, 261, -1, 151.00, 245.00, 16.00, 13, ABprppapapp
263, 262, 262, -1, 157.00, 265.00, 14.00, 13, ABprppapppa
264, 263, 263, -1, 143.00, 249.00, 14.00, 13, ABprppapppp
265, 264, 264, -1, 185.00, 251.00, 17.00, 13, ABprppappaa
266, 265, 265, -1, 174.00, 259.00, 17.00, 13, ABprppappap
267, 266, 266, -1, 343.00, 195.00, 22.00, 15, ABpraapaaaa
268, 267, 267, -1, 329.00, 187.00, 26.00, 15, ABarpapaaaa
269, 268, 268, -1, 337.00, 180.00, 24.00, 13, ABpraapaaap
270, 269, 269, -1, 290.00, 170.00, 23.00, 13, ABpraapaapa
271, 270, 270, -1, 227.00, 179.00, 27.00, 13, ABpraapapap
272, 271, 271, -1, 237.00, 185.00, 25.00, 15, ABpraapapaa
273, 272, 272, -1, 236.00, 165.00, 25.00, 17, ABpraapappp
274, 273, 273, -1, 244.00, 181.00, 28.00, 13, ABpraapappa
275, 274, 274, -1, 185.00, 189.00, 19.00, 17, ABpraapppp
276, 275, 275, -1, 257.00, 190.00, 10.00, 13, ABpraappaa
277, 276, 276, -1, 299.00, 181.00, 23.00, 13, ABpraaapapa
278, 277, 277, -1, 305.00, 166.00, 21.00, 17, ABpraaapapp
279, 278, 278, -1, 265.00, 184.00, 24.00, 13, ABpraaapaad
280, 279, 279, -1, 278.00, 174.00, 23.00, 11, ABpraaapaav
281, 280, 280, -1, 244.00, 180.00, 22.00, 13, ABpraaappap
282, 281, 281, -1, 219.00, 171.00, 23.00, 15, ABpraaapppa
283, 282, 282, -1, 305.00, 160.00, 23.00, 13, ABpraaaaapd
284, 283, 283, -1, 301.00, 163.00, 18.00, 15, ABpraaaaapv
285, 284, 284, -1, 282.00, 166.00, 15.00, 13, ABpraaaaaaa
286, 285, 285, -1, 285.00, 177.00, 11.00, 15, ABpraaaaaap
287, 286, 286, -1, 261.00, 171.00, 16.00, 13, ABpraaaapav
288, 287, 287, -1, 270.00, 168.00, 13.00, 13, ABpraaaapad
289, 288, 288, -1, 257.00, 168.00, 25.00, 13, ABpraaaappa
290, 289, 289, -1, 259.00, 172.00, 27.00, 15, ABpraaaappp
291, 290, 290, -1, 121.00, 223.00, 20.00, 15, ABprappapp
292, 291, 291, -1, 136.00, 208.00, 28.00, 15, ABprappapa
293, 292, 292, -1, 141.00, 217.00, 20.00, 15, ABprappaap
294, 293, 293, -1, 156.00, 209.00, 21.00, 15, ABprappaaa
295, 294, 294, -1, 77.00, 250.00, 15.00, 13, ABprapppaap
296, 295, 295, -1, 89.00, 248.00, 16.00, 15, ABprapppaaa
297, 296, 296, -1, 91.00, 272.00, 14.00, 13, ABprapppapp
298, 297, 297, -1, 81.00, 260.00, 11.00, 11, ABprapppapa
299, 298, 298, -1, 75.00, 274.00, 12.00, 17, ABprappppp
300, 299, 299, -1, 110.00, 255.00, 10.00, 19, ABprappppa
301, 300, 300, -1, 203.00, 184.00, 25.00, 15, ABprapaaapa
302, 301, 301, -1, 188.00, 195.00, 26.00, 13, ABprapaaapp
303, 302, 302, -1, 222.00, 187.00, 31.00, 17, ABprapaaaap
304, 303, 303, -1, 245.00, 173.00, 32.00, 11, ABprapaaaaa
305, 304, 304, -1, 169.00, 203.00, 20.00, 13, ABprapaapp
306, 305, 305, -1, 192.00, 224.00, 11.00, 15, ABprapaapa
307, 306, 306, -1, 104.00, 237.00, 13.00, 17, ABprapappa
308, 307, 307, -1, 73.00, 270.00, 16.00, 15, ABprapapppp
309, 308, 308, -1, 71.00, 251.00, 18.00, 13, ABprapapppa
310, 309, 309, -1, 110.00, 226.00, 16.00, 15, ABprapapap
311, 310, 310, -1, 94.00, 232.00, 24.00, 17, ABprapapaa
313, 312, 312, -1, 253.00, 192.00, 32.00, 13, MSppppap
314, 313, 313, -1, 231.00, 196.00, 21.00, 11, MSppppaa
315, 314, 314, -1, 259.00, 209.00, 34.00, 15, MSpppppa
316, 315, 315, -1, 229.00, 222.00, 34.00, 15, MSpppppp
317, 316, 316, -1, 252.00, 195.00, 28.00, 13, MSpppaaa
318, 317, 317, -1, 126.00, 244.00, 23.00, 15, MSpppaap
320, 319, 319, -1, 220.00, 228.00, 12.00, 11, ABprpapaaap
321, 320, 320, -1, 145.00, 279.00, 19.00, 15, MSppaapp
322, 321, 321, -1, 264.00, 194.00, 21.00, 9, MSppaapa
323, 322, 322, -1, 283.00, 201.00, 20.00, 15, MSppaaaa
324, 323, 323, -1, 282.00, 192.00, 28.00, 13, MSppaaap
325, 324, 324, -1, 204.00, 197.00, 28.00, 13, MSppapaa
326, 325, 325, -1, 255.00, 190.00, 19.00, 13, MSppapap
327, 326, 326, -1, 196.00, 259.00, 20.00, 13, MSpapappp
328, 327, 327, -1, 209.00, 240.00, 22.00, 13, MSpapapaa
329, 328, 328, -1, 208.00, 235.00, 19.00, 13, MSpapaaap
330, 329, 329, -1, 191.00, 228.00, 25.00, 17, MSpapaapp
331, 330, 330, -1, 172.00, 327.00, 19.00, 15, MSpappaa
332, 331, 331, -1, 168.00, 234.00, 20.00, 15, MSpappppa
333, 332, 332, -1, 147.00, 242.00, 20.00, 15, MSpappppp
334, 333, 333, -1, 250.00, 234.00, 32.00, 15, MSpaaappa
335, 334, 334, -1, 228.00, 242.00, 32.00, 17, MSpaaappp
336, 335, 335, -1, 244.00, 257.00, 33.00, 13, MSpaaapaa
337, 336, 336, -1, 221.00, 259.00, 32.00, 13, MSpaaapap
338, 337, 337, -1, 279.00, 215.00, 31.00, 17, MSpaaaapa
339, 338, 338, -1, 260.00, 217.00, 30.00, 15, MSpaaaapp
340, 339, 339, -1, 282.00, 237.00, 33.00, 15, MSpaaaaaa
341, 340, 340, -1, 266.00, 233.00, 33.00, 13, MSpaaaaap
342, 341, 341, -1, 219.00, 209.00, 22.00, 15, ABaraappppa
343, 342, 342, -1, 220.00, 213.00, 28.00, 17, ABaraapppap
344, 343, 343, -1, 228.00, 230.00, 31.00, 11, MSpaapaap
345, 344, 345, -1, 249.00, 230.00, 30.00, 13, MSpaapaaa
347, 346, 347, -1, 270.00, 293.00, 21.00, 11, MSapppaa
348, 347, 348, -1, 263.00, 303.00, 32.00, 17, MSapppap
349, 348, 349, -1, 269.00, 272.00, 34.00, 19, MSappppa
350, 349, 350, -1, 234.00, 286.00, 33.00, 15, MSappppp
351, 350, 351, -1, 151.00, 325.00, 22.00, 15, MSappaap
352, 351, 352, -1, 271.00, 288.00, 30.00, 17, MSappaaa
354, 353, 354, -1, 273.00, 289.00, 17.00, 9, MSappapa
355, 354, 355, -1, 268.00, 266.00, 30.00, 19, ABaraapaapp
356, 355, 356, -1, 304.00, 249.00, 33.00, 17, MSapappp
357, 356, 357, -1, 257.00, 308.00, 26.00, 15, MSapapaa
358, 357, 358, -1, 162.00, 274.00, 19.00, 15, MSapaapp
359, 358, -1, -1, 297.00, 282.00, 19.00, 11, MSapaapa
360, 359, 360, -1, 303.00, 262.00, 20.00, 13, MSapaaaa
361, 360, 361, -1, 296.00, 235.00, 30.00, 19, MSaaaaapa
362, 361, 362, -1, 274.00, 252.00, 32.00, 13, MSaaaaapp
363, 362, 363, -1, 305.00, 213.00, 25.00, 13, MSaaaaaar
364, 363, 364, -1, 316.00, 238.00, 25.00, 13, MSaaaaaal
365, 364, 365, -1, 256.00, 247.00, 34.00, 13, MSaaaapaa
366, 365, 366, -1, 258.00, 260.00, 32.00, 13, MSaaaapap
367, 366, 367, -1, 238.00, 266.00, 31.00, 13, MSaaaappa
368, 367, 368, -1, 230.00, 284.00, 30.00, 13, MSaaapapp
370, 369, 369, -1, 214.00, 284.00, 31.00, 11, MSaaappa
371, 370, 370, -1, 215.00, 269.00, 32.00, 13, MSaaappp
372, 371, 371, -1, 188.00, 314.00, 20.00, 15, MSaapppp
373, 372, 372, -1, 230.00, 275.00, 19.00, 13, MSaapaaap
374, 373, 373, -1, 247.00, 273.00, 18.00, 13, MSaapaaaa
375, 374, 374, -1, 211.00, 281.00, 20.00, 13, MSaapappp
376, 375, 375, -1, 237.00, 296.00, 26.00, 15, MSaapappa
377, 376, 376, -1, 227.00, 268.00, 22.00, 11, MSaapapaa
378, 377, 377, -1, 222.00, 290.00, 20.00, 13, MSaapapap
379, 378, 378, -1, 108.00, 312.00, 24.00, 25, Eplpa
380, 379, 379, -1, 117.00, 350.00, 22.00, 17, Cappapa
381, 380, 380, -1, 110.00, 342.00, 19.00, 17, Cappapp
382, 381, 381, -1, 178.00, 337.00, 30.00, 15, Cappaaa
383, 382, 382, -1, 86.00, 340.00, 23.00, 15, Capppap
384, 383, 383, -1, 110.00, 342.00, 30.00, 17, Capppaa
385, 384, 384, -1, 81.00, 325.00, 17.00, 17, Cappppv
386, 385, 385, -1, 125.00, 350.00, 25.00, 13, Capapap
387, 386, 386, -1, 156.00, 343.00, 28.00, 15, Capapaa
388, 387, 387, -1, 134.00, 315.00, 13.00, 17, Capappp
389, 388, 388, -1, 149.00, 337.00, 18.00, 15, Capappa
390, 389, 389, -1, 186.00, 338.00, 23.00, 15, Capaaap
391, 390, 390, -1, 212.00, 331.00, 23.00, 15, Capaaaa
393, 392, 392, -1, 72.00, 306.00, 14.00, 13, Caappv
394, 393, 393, -1, 107.00, 295.00, 11.00, 13, Caapap
395, 394, 394, -1, 84.00, 348.00, 19.00, 17, Cpappd
396, 395, 395, -1, 77.00, 327.00, 13.00, 15, Cpappv
397, 396, 396, -1, 64.00, 283.00, 24.00, 19, Cpapaa
398, 397, 397, -1, 109.00, 242.00, 23.00, 15, Cppaapp
399, 398, 398, -1, 136.00, 229.00, 24.00, 15, Cppaapa
400, 399, 399, -1, 153.00, 222.00, 25.00, 15, Cppaaap
401, 400, 400, -1, 172.00, 218.00, 24.00, 15, Cppaaaa
402, 401, 401, -1, 136.00, 235.00, 29.00, 17, Cppapaa
403, 402, 402, -1, 114.00, 256.00, 15.00, 15, Cppappp
404, 403, 403, -1, 106.00, 242.00, 18.00, 15, Cppappa
405, 404, 404, -1, 132.00, 249.00, 34.00, 17, Cpppaap
406, 405, 405, -1, 159.00, 223.00, 29.00, 15, Cpppaaa
407, 406, 406, -1, 81.00, 266.00, 20.00, 15, Cpppapp
408, 407, 407, -1, 85.00, 261.00, 24.00, 15, Cpppapa
409, 408, 408, -1, 250.00, 307.00, 17.00, 17, Daapa
410, 409, 409, -1, 235.00, 313.00, 16.00, 15, Daapp
411, 410, 410, -1, 254.00, 307.00, 22.00, 13, Daaaa
412, 411, 411, -1, 241.00, 307.00, 30.00, 15, Daaap
413, 412, 412, -1, 227.00, 302.00, 32.00, 15, Dappaa
414, 413, 413, -1, 198.00, 316.00, 31.00, 13, Dappap
415, 414, 414, -1, 179.00, 323.00, 33.00, 19, Dappp
416, 415, 415, -1, 196.00, 214.00, 17.00, 17, Dpapp
417, 416, 416, -1, 206.00, 200.00, 17.00, 15, Dpapa
418, 417, 417, -1, 204.00, 205.00, 31.00, 13, Dpaap
420, 419, 419, -1, 208.00, 194.00, 21.00, 15, Dpaaa
421, 420, 420, -1, 163.00, 237.00, 33.00, 17, Dpppp
422, 421, 421, -1, 184.00, 237.00, 33.00, 15, Dpppap
423, 422, 422, -1, 211.00, 225.00, 34.00, 15, Dpppaa
424, 423, 423, -1, 190.00, 204.00, 22.00, 13, Dppaa
425, 424, 424, -1, 176.00, 216.00, 30.00, 13, Dppap
427, 426, 426, -1, 306.00, 284.00, 25.00, 15, ABalppppaav
428, 427, 427, -1, 316.00, 297.00, 25.00, 21, ABalpppappp
429, 428, 428, -1, 289.00, 297.00, 22.00, 14, ABalpppppap
430, 429, 429, -1, 301.00, 310.00, 22.00, 15, ABalppppppaa
431, 430, 430, -1, 275.00, 323.00, 23.00, 11, ABalppppppap
432, 431, 431, -1, 308.00, 311.00, 19.00, 15, ABalpppppppa
433, 432, 432, -1, 347.00, 256.00, 21.00, 13, ABalppppapp
434, 433, 433, -1, 342.00, 276.00, 15.00, 13, ABalpppaaaa
435, 434, 434, -1, 329.00, 269.00, 11.00, 14, ABalpppaaap
436, 435, 435, -1, 354.00, 264.00, 17.00, 13, ABalpppaapd
437, 436, 436, -1, 353.00, 260.00, 21.00, 13, ABalpppaapv
438, 437, 437, -1, 319.00, 293.00, 16.00, 15, ABalpppapad
439, 438, 438, -1, 324.00, 285.00, 13.00, 13, ABalpppapav
440, 654, 439, -1, 348.00, 251.00, 16.00, 11, ABalaaapalr
441, 440, 440, -1, 340.00, 254.00, 12.00, 15, ABalppaaapp
442, 441, 441, -1, 298.00, 266.00, 12.00, 13, ABalppaappp
443, 442, 442, -1, 313.00, 237.00, 10.00, 13, ABalppaapa
444, 443, 443, -1, 297.00, 297.00, 16.00, 15, ABplpaaaaap
445, 444, 444, -1, 305.00, 256.00, 13.00, 11, ABalppapppa
447, 666, 446, -1, 322.00, 263.00, 19.00, 13, ABalapaappa
448, 447, 447, -1, 285.00, 254.00, 13.00, 13, ABalppapapa
449, 448, 448, -1, 288.00, 251.00, 11.00, 13, ABalppapapp
450, 449, 449, -1, 328.00, 243.00, 14.00, 11, ABalppapaaa
451, 450, 450, -1, 265.00, 255.00, 11.00, 15, ABalpapapaa
452, 451, 451, -1, 197.00, 287.00, 13.00, 13, ABalpapappa
453, 452, 452, -1, 296.00, 233.00, 11.00, 11, ABalpapaapp
454, 453, 453, -1, 296.00, 231.00, 13.00, 13, ABalpapaapa
455, 454, 454, -1, 314.00, 243.00, 10.00, 11, ABalppaappa
456, 455, 647, -1, 306.00, 238.00, 14.00, 14, ABalpapaaaa
457, 456, 456, -1, 282.00, 253.00, 19.00, 15, ABalpaaaaap
458, 457, 457, -1, 257.00, 245.00, 19.00, 13, ABalpappaaa
459, 458, 458, -1, 274.00, 277.00, 20.00, 15, ABalpapppaa
460, 459, 459, -1, 259.00, 258.00, 23.00, 13, ABalpapppap
461, 460, 460, -1, 294.00, 261.00, 23.00, 13, ABalpaaapaa
462, 461, 461, -1, 293.00, 269.00, 26.00, 11, ABalpaaapap
463, 462, 462, -1, 277.00, 254.00, 17.00, 13, ABalpaaaapp
464, 463, 463, -1, 286.00, 243.00, 18.00, 13, ABalpaaaapa
465, 464, 464, -1, 283.00, 267.00, 21.00, 17, ABalpappaap
466, 465, 465, -1, 300.00, 245.00, 19.00, 13, ABalpaaaaaa
467, 466, 466, -1, 325.00, 223.00, 17.00, 11, ABalpaapppa
468, 467, 467, -1, 328.00, 228.00, 14.00, 15, ABalpaapppp
469, 468, 468, -1, 311.00, 230.00, 18.00, 13, ABalpaappaa
470, 469, 469, -1, 279.00, 259.00, 27.00, 15, ABalpaapapa
473, 345, 472, -1, 179.00, 273.00, 29.00, 21, Earap
474, 473, 473, -1, 138.00, 315.00, 26.00, 13, Ealpp
475, 474, -1, -1, 196.00, 258.00, 24.00, 11, Nuc266_24_194_238
476, 475, 475, -1, 136.00, 281.00, 29.00, 23, Earpp
477, 476, 476, -1, 170.00, 293.00, 26.00, 17, Ealap
478, 477, 477, -1, 209.00, 280.00, 24.00, 13, Ealaa
479, 478, 478, -1, 114.00, 311.00, 28.00, 19, Eplap
480, 479, 479, -1, 106.00, 284.00, 20.00, 25, Eprpp
481, 480, 480, -1, 202.00, 330.00, 28.00, 17, Dapap
482, 481, 481, -1, 233.00, 315.00, 21.00, 17, Dapaa
483, 482, 482, -1, 223.00, 300.00, 23.00, 13, MSaapaapp
484, 483, 483, -1, 238.00, 297.00, 22.00, 11, MSaapaapa
485, 484, 484, -1, 179.00, 200.00, 31.00, 15, ABarpppapp
486, 485, 485, -1, 252.00, 299.00, 14.00, 13, ABplppaapap
487, 486, 486, -1, 245.00, 300.00, 10.00, 13, ABplppaapaa
488, 487, 487, -1, 333.00, 243.00, 18.00, 13, ABalaaaalar
489, 488, 488, -1, 300.00, 181.00, 28.00, 15, ABalapppppp
490, 489, 489, -1, 303.00, 165.00, 26.00, 13, ABarpappaa
491, 490, 490, -1, 97.00, 275.00, 33.00, 19, Cppppaa
492, 491, 491, -1, 73.00, 287.00, 27.00, 15, Cppppap
493, 492, 492, -1, 105.00, 280.00, 15.00, 13, Cpppppv
494, 493, 493, -1, 177.00, 263.00, 24.00, 19, Earpa
497, 496, 496, -1, 261.00, 231.00, 36.00, 15, ABarpaappa
498, 497, 497, -1, 261.00, 306.00, 35.00, 19, ABarppaapa
500, 499, 499, -1, 198.00, 277.00, 20.00, 13, MSaappap
501, 500, 500, -1, 293.00, 207.00, 12.00, 11, ABalaapappa
503, 502, 502, -1, 219.00, 310.00, 12.00, 15, ABplppapaaa
504, 649, 503, -1, 325.00, 237.00, 20.00, 15, ABalaaaalal
506, 505, 505, -1, 273.00, 193.00, 17.00, 13, ABprpaaaaaa
507, 506, 506, -1, 135.00, 244.00, 18.00, 17, MSpappap
508, 507, 507, -1, 202.00, 239.00, 30.00, 14, MSpaapapp
510, 509, 509, -1, 74.00, 297.00, 18.00, 17, Cpppppd
511, 510, 510, -1, 292.00, 301.00, 30.00, 13, ABplapaaaaa
513, 512, 512, -1, 279.00, 311.00, 30.00, 15, ABplapaaaap
514, 513, 513, -1, 335.00, 266.00, 15.00, 11, ABalppaaapa
515, 514, 514, -1, 259.00, 263.00, 19.00, 13, ABalpappppp
516, 515, 515, -1, 343.00, 209.00, 18.00, 13, ABalaaaparr
517, 516, 516, -1, 344.00, 223.00, 19.00, 19, ABalaaaparl
518, 517, 517, -1, 263.00, 278.00, 23.00, 13, ABalpaaappp
519, 518, 518, -1, 280.00, 278.00, 23.00, 13, ABalpaaappa
520, 519, 519, -1, 190.00, 285.00, 24.00, 17, Ealpa
521, 520, 520, -1, 222.00, 246.00, 14.00, 14, ABprpappapa
522, 521, 521, -1, 166.00, 303.00, 18.00, 24, Z3
523, 522, 522, -1, 149.00, 336.00, 32.00, 15, Cappaap
524, 523, 523, -1, 277.00, 239.00, 14.00, 11, ABarappaapp
526, 525, 525, -1, 204.00, 222.00, 27.00, 15, MSpapappa
527, 526, 526, -1, 203.00, 212.00, 23.00, 17, MSpapaapa
528, 527, 527, -1, 271.00, 162.00, 24.00, 13, ABpraapaapp
529, 528, 528, -1, 298.00, 181.00, 26.00, 13, ABalapppppa
530, 529, 529, -1, 284.00, 220.00, 18.00, 15, ABarapaaaaa
531, 530, 530, -1, 304.00, 254.00, 15.00, 15, ABalppapppp
532, 531, 531, -1, 338.00, 200.00, 19.00, 13, ABalaaappll
534, 533, 533, -1, 104.00, 251.00, 29.00, 15, Cppapap
535, 534, 534, -1, 238.00, 223.00, 23.00, 15, ABarapaappp
536, 535, 535, -1, 307.00, 285.00, 22.00, 13, ABalppppaad
539, 538, 538, -1, 279.00, 278.00, 26.00, 13, ABalpaapapp
540, 539, 539, -1, 127.00, 337.00, 14.00, 13, ABplpppaapa
544, 543, 543, -1, 222.00, 232.00, 18.00, 13, MSpapaaaa
545, 544, 544, -1, 194.00, 224.00, 18.00, 13, MSpapppaa
546, 545, 545, -1, 181.00, 233.00, 19.00, 13, MSpapppap
547, 546, 546, -1, 292.00, 254.00, 36.00, 14, ABarpaapap
548, 547, 547, -1, 269.00, 180.00, 21.00, 15, ABprpaapaaa
549, 548, 548, -1, 251.00, 250.00, 17.00, 15, ABalpappppa
550, 549, 549, -1, 292.00, 313.00, 17.00, 11, ABalpppppppp
551, 550, 550, -1, 107.00, 309.00, 9.00, 11, ABprpppapp
553, 552, 552, -1, 226.00, 202.00, 11.00, 9, ABprppaaap
556, 555, 555, -1, 108.00, 239.00, 33.00, 13, Caaapa
558, 557, 557, -1, 153.00, 282.00, 32.00, 21, Epraa
559, 558, 558, -1, 126.00, 352.00, 30.00, 13, Cpaapp
560, 559, 559, -1, 304.00, 195.00, 18.00, 14, ABalaapaaal
561, 560, 560, -1, 344.00, 195.00, 25.00, 13, ABarpaaaaal
563, 562, 561, -1, 96.00, 294.00, 14.00, 11, Caapaa
564, 563, 562, -1, 206.00, 188.00, 35.00, 14, ABarpppapa
565, 564, 563, -1, 260.00, 292.00, 18.00, 13, MSappapp
566, 565, 564, -1, 81.00, 240.00, 19.00, 15, ABarpppppp
568, 567, 566, -1, 278.00, 291.00, 10.00, 19, ABplaappap
569, 569, 567, -1, 232.00, 205.00, 19.00, 13, MSpppapa
570, 570, 568, -1, 302.00, 274.00, 32.00, 17, MSapappa
571, 571, 569, -1, 117.00, 291.00, 29.00, 23, Eprap
572, 572, 570, -1, 291.00, 202.00, 33.00, 15, MSppappp
573, 573, 571, -1, 89.00, 345.00, 27.00, 15, Cpapap
574, 574, 572, -1, 110.00, 310.00, 13.00, 13, Cappppd
576, 576, 574, -1, 229.00, 258.00, 29.00, 15, MSaaaappp
577, 577, 575, -1, 115.00, 347.00, 13.00, 11, ABplapppaap
578, 578, 576, -1, 135.00, 260.00, 23.00, 17, Z2
579, 579, 577, -1, 320.00, 272.00, 31.00, 11, ABplaaaaapa
581, 581, 579, -1, 195.00, 242.00, 20.00, 13, MSpapapap
583, 495, 581, -1, 104.00, 289.00, 25.00, 19, Eprpa
584, 584, 582, -1, 115.00, 307.00, 20.00, 25, Eplpp
587, 587, 585, -1, 141.00, 343.00, 21.00, 15, Capaapp
588, 588, 586, -1, 167.00, 342.00, 24.00, 15, Capaapa
589, 589, 587, -1, 232.00, 191.00, 10.00, 14, ABpraappap
590, 590, 588, -1, 279.00, 185.00, 32.00, 15, MSppappa
591, 591, 589, -1, 223.00, 292.00, 11.00, 15, ABalpapappp
593, 593, 591, -1, 218.00, 235.00, 29.00, 11, MSpaapapa
595, 595, 593, -1, 226.00, 171.00, 16.00, 15, ABpraaappppp
596, 596, 594, -1, 249.00, 159.00, 20.00, 15, ABpraaappppa
597, 597, 595, -1, 306.00, 290.00, 19.00, 13, ABalpppppaa
601, 602, 599, -1, 216.00, 257.00, 17.00, 15, ABarapapapp
603, 604, 601, -1, 207.00, 314.00, 20.00, 13, MSaapppap
604, 605, 602, -1, 220.00, 334.00, 33.00, 13, Caaaaa
605, 606, 603, -1, 61.00, 280.00, 18.00, 17, Caappd
606, 607, 604, -1, 85.00, 257.00, 29.00, 15, Caaapp
608, 609, 606, -1, 238.00, 226.00, 18.00, 13, ABarapapppp
610, 611, 608, -1, 231.00, 298.00, 18.00, 13, MSaapppaa
611, 637, 641, -1, 197.00, 258.00, 26.00, 19, Earaa
613, 614, 611, -1, 187.00, 258.00, 14.00, 15, ABarappappa
614, 615, 612, -1, 305.00, 238.00, 22.00, 15, ABalpaapaaa
616, 617, 614, -1, 151.00, 302.00, 30.00, 25, Eplaa
618, 619, 616, -1, 238.00, 164.00, 29.00, 14, ABarpapppp
619, 620, 617, -1, 194.00, 303.00, 12.00, 15, ABplpaaaapp
623, 624, 621, -1, 224.00, 212.00, 17.00, 9, MSpppapp
626, 627, 623, -1, 241.00, 233.00, 21.00, 13, ABarapappap
632, 580, 632, -1, 332.00, 226.00, 35.00, 17, ABplaaaapa
633, 631, 633, -1, 339.00, 228.00, 28.00, 15, ABplaaaaaaa
634, 540, 634, -1, 340.00, 232.00, 31.00, 15, ABarpaaaapp
635, 632, 635, -1, 198.00, 331.00, 34.00, 23, Cpaaap
636, 610, 636, -1, 232.00, 250.00, 17.06, 17, ABarapapppa
637, 368, 637, -1, 265.00, 265.00, 27.14, 11, MSaaapaap
638, 633, 359, -1, 291.00, 282.00, 19.00, 14, MSapapap
639, 634, 638, -1, 120.00, 302.00, 33.00, 15, Cpaapa
640, 635, 639, -1, 235.00, 308.00, 33.00, 15, Cpaaaa
641, 636, 640, -1, 142.00, 233.00, 33.00, 15, Caaaap
642, 638, 642, -1, 245.00, 204.00, 14.00, 15, ABprpaapppa
643, 639, 643, -1, 295.00, 219.00, 25.00, 13, ABaraappaaa
644, 25, 644, -1, 300.00, 223.00, 22.13, 13, ABaraaaapap
645, 640, 645, -1, 264.00, 214.00, 25.90, 13, ABaraaapapa
646, 641, 646, -1, 316.00, 236.00, 11.69, 13, ABalppapaap
647, 642, 648, -1, 243.00, 276.00, 10.00, 18, ABalpapapap
648, 643, 649, -1, 313.00, 214.00, 29.43, 9, ABalapppapa
649, 644, 650, -1, 318.00, 203.00, 30.14, 12, ABalapppapp
650, 645, 651, -1, 278.00, 179.00, 26.00, 11, ABalappapap
651, 646, 652, -1, 318.00, 278.00, 18.00, 13, ABalapaapaa
652, 647, 97, -1, 331.00, 256.00, 22.00, 14, ABalppppapa
653, 648, 653, -1, 270.00, 180.00, 19.00, 13, ABalaapppap
654, 650, 654, -1, 77.00, 293.00, 12.00, 12, ABprppppppp
657, 653, 658, -1, 342.00, 258.00, 19.00, 13, ABalapaappp
658, 655, 631, -1, 278.00, 285.00, 12.20, 12, ABplpaapppa
660, 657, 660, -1, 124.00, 299.00, 10.00, 10, ABplpppapap
661, 658, 661, -1, 293.00, 178.00, 15.00, 13, ABalaappapa
662, 659, 662, -1, 251.00, 279.00, 30.50, 13, MSaaapapa
663, 660, 663, -1, 327.00, 243.00, 21.00, 15, ABalaaapall
664, 661, 664, -1, 268.00, 314.00, 16.00, 16, ABplppaaaap
665, 662, 665, -1, 224.00, 269.00, 13.00, 15, ABplpappaap
666, 663, 666, -1, 304.00, 247.00, 21.20, 12, ABaraaaaaaa
667, 664, 667, -1, 303.00, 231.00, 16.00, 13, ABalpaappap
668, 665, 668, -1, 296.00, 251.00, 24.00, 13, ABalpaapaap
669, 667, 669, -1, 303.00, 181.00, 12.00, 11, ABalaappapp
670, 668, 670, -1, 319.00, 225.00, 29.00, 15, ABalapapapa
671, 669, 445, -1, 322.00, 254.00, 17.67, 13, ABalppappaa
672, 445, 671, -1, 319.00, 259.00, 16.00, 11, ABalppappap
673, 670, 672, -1, 288.00, 252.00, 30.00, 13, MSaaapaaa
675, 672, 674, -1, 267.00, 203.00, 12.00, 13, ABalaapappp
676, 673, 675, -1, 271.00, 232.00, 15.00, 13, ABarapapapa
