1, 1, 1, -1, 289.00, 221.00, 27.00, 15, ABaraappaap
2, 2, 2, -1, 238.00, 216.00, 30.00, 17, ABaraappapp
3, 3, 3, -1, 280.00, 211.00, 28.00, 15, ABaraappapa
4, 4, 4, -1, 224.00, 212.00, 26.00, 17, ABaraapppaa
5, 5, 5, -1, 221.00, 230.00, 22.00, 15, ABaraappppp
6, 6, 6, -1, 253.00, 292.00, 22.00, 15, ABaraapappa
7, 7, 7, -1, 244.00, 280.00, 21.00, 15, ABaraapappp
8, 8, 8, -1, 248.00, 290.00, 29.00, 17, ABaraapapap
9, 9, 9, -1, 255.00, 283.00, 25.00, 17, ABaraapapaa
10, 10, 10, -1, 299.00, 234.00, 26.00, 15, ABaraapaaaa
11, 11, 11, -1, 299.00, 243.00, 27.00, 15, ABaraapaaap
13, 13, 13, -1, 300.00, 257.00, 28.00, 15, ABaraapaapa
14, 14, 14, -1, 296.00, 222.00, 16.00, 13, ABaraaappap
15, 15, 15, -1, 305.00, 220.00, 19.00, 13, ABaraaappaa
16, 16, 16, -1, 311.00, 214.00, 17.00, 15, ABaraaapppa
17, 17, 17, -1, 308.00, 208.00, 15.00, 13, ABaraaapppp
18, 18, 18, -1, 289.00, 218.00, 22.00, 13, ABaraaapaaa
19, 19, 19, -1, 281.00, 214.00, 25.00, 13, ABaraaapaap
20, 20, 20, -1, 238.00, 216.00, 27.00, 15, ABaraaapapp
21, 21, 21, -1, 276.00, 252.00, 22.00, 15, ABaraaaaaap
22, 22, 22, -1, 273.00, 221.00, 22.00, 11, ABaraaaaapp
23, 23, 23, -1, 288.00, 219.00, 20.00, 13, ABaraaaaapa
24, 24, 24, -1, 271.00, 245.00, 27.00, 13, ABaraaaapp
25, 25, 25, -1, 305.00, 224.00, 21.00, 11, ABaraaaapaa
26, 26, 26, -1, 211.00, 261.00, 19.00, 19, ABalpappapp
27, 27, 27, -1, 266.00, 244.00, 16.00, 11, ABalpappapa
28, 28, 28, -1, 250.00, 214.00, 19.00, 15, ABarapapaap
30, 30, 30, -1, 246.00, 205.00, 22.00, 15, ABarapappaa
32, 32, 32, -1, 260.00, 233.00, 17.00, 15, ABarapaaapp
33, 33, 33, -1, 268.00, 224.00, 18.00, 15, ABarapaaapa
34, 34, 34, -1, 263.00, 227.00, 20.00, 13, ABarapaaaap
35, 35, 35, -1, 263.00, 212.00, 22.00, 15, ABarapaapap
36, 36, 36, -1, 265.00, 210.00, 26.00, 11, ABarapaapaa
37, 37, 37, -1, 248.00, 205.00, 25.00, 15, ABarapaappa
38, 38, 38, -1, 258.00, 222.00, 12.00, 11, ABarapppapa
39, 39, 39, -1, 278.00, 217.00, 10.00, 15, ABarapppapp
40, 40, 40, -1, 292.00, 198.00, 16.00, 15, ABarapppaaa
41, 41, 41, -1, 298.00, 193.00, 12.00, 15, ABarapppaap
42, 42, 42, -1, 282.00, 189.00, 15.00, 11, ABarappppap
43, 43, 43, -1, 283.00, 181.00, 18.00, 13, ABarappppaa
44, 44, 44, -1, 265.00, 213.00, 14.00, 15, ABarapppppa
45, 45, 45, -1, 278.00, 206.00, 14.00, 13, ABarapppppp
46, 46, 46, -1, 271.00, 231.00, 11.00, 15, ABarappaaap
47, 47, 47, -1, 287.00, 216.00, 15.00, 15, ABarappaaaa
48, 48, 48, -1, 275.00, 229.00, 13.00, 17, ABarappaapa
49, 49, 49, -1, 285.00, 236.00, 11.00, 11, ABalpapaaap
50, 50, 50, -1, 232.00, 239.00, 10.00, 17, ABarappapap
51, 51, 51, -1, 250.00, 237.00, 12.00, 13, ABarappapaa
52, 52, 52, -1, 194.00, 238.00, 12.00, 15, ABarappappp
53, 53, 53, -1, 191.00, 239.00, 14.00, 13, ABprpapppap
54, 54, 54, -1, 266.00, 162.00, 29.00, 15, ABarpapppa
55, 55, 55, -1, 291.00, 166.00, 30.00, 17, ABarpappap
56, 56, 56, -1, 308.00, 198.00, 30.00, 13, ABarpapaaap
57, 57, 57, -1, 278.00, 191.00, 29.00, 19, MSppaaap
58, 58, 58, -1, 302.00, 190.00, 31.00, 13, ABarpapaapp
59, 59, 59, -1, 298.00, 228.00, 35.00, 15, ABarpapapp
60, 60, 60, -1, 337.00, 201.00, 32.00, 19, ABarpapapa
61, 61, 630, -1, 235.00, 201.00, 36.00, 19, ABarpaappp
62, 62, 61, -1, 305.00, 192.00, 35.00, 15, ABarpaapaa
63, 63, 62, -1, 349.00, 212.00, 25.00, 13, ABarpaaaaar
64, 64, 63, -1, 342.00, 212.00, 29.00, 15, ABarpaaaapa
65, 65, 64, -1, 322.00, 197.00, 33.00, 15, ABarpaaapp
66, 66, 65, -1, 342.00, 196.00, 27.00, 13, ABarpaaapaa
67, 67, 66, -1, 327.00, 186.00, 29.00, 15, ABarpaaapap
68, 68, 67, -1, 273.00, 335.00, 25.00, 13, ABarppaaap
69, 69, 68, -1, 237.00, 331.00, 28.00, 15, ABarppaapp
70, 70, 69, -1, 163.00, 362.00, 27.00, 15, ABarppappa
71, 71, 70, -1, 121.00, 366.00, 19.00, 15, ABarppappp
72, 72, 71, -1, 222.00, 349.00, 26.00, 17, ABarppapap
73, 73, 72, -1, 249.00, 343.00, 25.00, 15, ABarppapaa
74, 74, 73, -1, 116.00, 221.00, 27.00, 17, ABarpppppa
75, 75, 74, -1, 183.00, 185.00, 28.00, 15, ABarppppaa
76, 76, 75, -1, 160.00, 201.00, 30.00, 15, ABarppppap
77, 77, 76, -1, 209.00, 171.00, 28.00, 15, ABarpppaap
78, 78, 77, -1, 237.00, 190.00, 33.00, 13, ABarpppaaa
79, 79, 78, -1, 320.00, 208.00, 23.00, 11, ABalappppaa
80, 80, 79, -1, 327.00, 190.00, 23.00, 9, ABalappppap
81, 81, 80, -1, 321.00, 224.00, 25.00, 11, ABalapppaaa
82, 82, 81, -1, 319.00, 207.00, 24.00, 9, ABalapppaap
83, 83, 82, -1, 286.00, 185.00, 25.00, 17, ABalappapaa
84, 84, 83, -1, 326.00, 207.00, 25.00, 11, ABalappaaa
85, 85, 84, -1, 318.00, 185.00, 22.00, 11, ABalappappa
87, 87, 86, -1, 329.00, 258.00, 27.00, 17, ABalapapppa
88, 88, 87, -1, 339.00, 255.00, 29.00, 14, ABalapapppp
89, 89, 88, -1, 338.00, 227.00, 22.00, 11, ABalapappaa
90, 90, 89, -1, 340.00, 226.00, 26.00, 13, ABalapappap
91, 91, 90, -1, 320.00, 229.00, 32.00, 11, ABalapapaa
93, 93, 92, -1, 321.00, 280.00, 27.00, 11, ABalapaaaap
94, 94, 93, -1, 326.00, 258.00, 26.00, 15, ABalapaaaaa
95, 95, 94, -1, 339.00, 243.00, 24.00, 13, ABalapaaapa
96, 97, 95, -1, 328.00, 256.00, 23.00, 13, ABalppppapa
98, 99, 97, -1, 337.00, 283.00, 20.00, 11, ABalapaapap
99, 100, 98, -1, 309.00, 202.00, 20.00, 15, ABalaapaaar
100, 101, 99, -1, 277.00, 198.00, 10.00, 11, ABalaapapa
101, 102, 100, -1, 305.00, 189.00, 15.00, 15, ABalaapaapp
102, 103, 101, -1, 310.00, 189.00, 16.00, 15, ABalaapaapa
103, 104, 102, -1, 296.00, 172.00, 13.00, 11, ABalaappaa
104, 105, 103, -1, 303.00, 178.00, 20.00, 13, ABalaappppp
105, 106, 104, -1, 284.00, 183.00, 20.00, 11, ABalaappppa
106, 107, 105, -1, 268.00, 167.00, 17.00, 11, ABalaapppaa
107, 108, 106, -1, 337.00, 238.00, 13.00, 13, ABalaaaalpp
108, 109, 107, -1, 343.00, 240.00, 16.00, 13, ABalaaaalpa
109, 110, 108, -1, 323.00, 206.00, 20.00, 15, ABalaaaarrp
110, 111, 109, -1, 316.00, 198.00, 17.00, 13, ABalaaaarra
111, 112, 110, -1, 326.00, 220.00, 20.00, 13, ABalaaaarlp
112, 113, 111, -1, 339.00, 225.00, 17.00, 13, ABalaaaarla
113, 114, 112, -1, 326.00, 195.00, 18.00, 13, ABalaaapplr
114, 115, 113, -1, 300.00, 197.00, 22.00, 15, ABalaaapprr
115, 116, 114, -1, 309.00, 174.00, 16.00, 15, ABalaaapprl
116, 117, 115, -1, 331.00, 209.00, 27.00, 11, ABalappaapa
117, 118, 116, -1, 149.00, 304.00, 12.00, 13, ABplppppapa
118, 665, 117, -1, 124.00, 296.00, 10.00, 17, ABplpppapap
119, 120, 118, -1, 137.00, 297.00, 12.00, 13, ABplppppapp
120, 121, 119, -1, 146.00, 305.00, 15.00, 13, ABplppppaaa
121, 122, 120, -1, 136.00, 303.00, 16.00, 13, ABplppppaap
122, 123, 121, -1, 85.00, 315.00, 13.00, 13, ABplppppppp
123, 124, 122, -1, 90.00, 309.00, 12.00, 13, ABplppppppa
124, 125, 123, -1, 132.00, 327.00, 18.00, 15, ABplpppppap
125, 126, 124, -1, 141.00, 317.00, 19.00, 15, ABplpppppaa
126, 127, 125, -1, 128.00, 312.00, 10.00, 13, ABplpppapaa
127, 128, 126, -1, 121.00, 323.00, 14.00, 13, ABplpppaapp
128, 129, 127, -1, 160.00, 313.00, 11.00, 15, ABplpppaaaa
129, 130, 128, -1, 163.00, 322.00, 14.00, 14, ABplpppaaap
130, 131, 129, -1, 166.00, 306.00, 14.00, 13, ABplppapppp
131, 132, 130, -1, 174.00, 296.00, 15.00, 13, ABplppapppa
132, 133, 131, -1, 192.00, 291.00, 17.00, 13, ABplppappap
133, 134, 132, -1, 205.00, 291.00, 16.00, 13, ABplppappaa
134, 135, 133, -1, 186.00, 298.00, 15.00, 15, ABplppapapa
135, 136, 134, -1, 178.00, 317.00, 15.00, 13, ABplppapapp
136, 137, 135, -1, 202.00, 279.00, 15.00, 13, ABplppaappa
137, 138, 136, -1, 174.00, 291.00, 12.00, 15, ABplppaappp
138, 139, 137, -1, 268.00, 298.00, 13.00, 13, ABplppaaaaa
140, 141, 139, -1, 248.00, 251.00, 13.00, 13, ABplpappaaa
141, 142, 140, -1, 202.00, 272.00, 19.00, 13, MSaappaa
142, 143, 141, -1, 122.00, 292.00, 15.00, 15, ABplpappppp
143, 144, 142, -1, 142.00, 285.00, 16.00, 13, ABplpappppa
144, 145, 143, -1, 152.00, 289.00, 14.00, 13, ABplpapppaa
145, 146, 144, -1, 142.00, 268.00, 15.00, 11, ABplpapppap
146, 147, 145, -1, 214.00, 288.00, 14.00, 15, ABplpapappa
147, 148, 146, -1, 177.00, 279.00, 15.00, 11, ABplpapappp
148, 149, 147, -1, 237.00, 290.00, 13.00, 15, ABplpapapap
149, 150, 148, -1, 241.00, 282.00, 15.00, 15, ABplpapapaa
150, 151, 149, -1, 273.00, 267.00, 14.00, 11, ABplpapaapa
151, 152, 150, -1, 263.00, 278.00, 12.00, 11, ABplpapaapp
152, 153, 151, -1, 247.00, 279.00, 12.00, 13, ABplpapaaap
153, 154, 152, -1, 254.00, 270.00, 14.00, 13, ABplpapaaaa
154, 155, 153, -1, 199.00, 308.00, 16.00, 13, ABplppapaap
155, 156, 154, -1, 221.00, 274.00, 10.00, 17, ABplpaaaapa
156, 157, 155, -1, 322.00, 278.00, 15.00, 13, ABplpaaaaaa
157, 158, 156, -1, 305.00, 277.00, 14.00, 13, ABplpaaapap
158, 159, 157, -1, 318.00, 263.00, 13.00, 11, ABplpaaapaa
159, 160, 644, -1, 302.00, 275.00, 16.00, 13, ABplpaaappa
160, 161, 159, -1, 278.00, 321.00, 20.00, 15, ABplpaappap
161, 162, 160, -1, 273.00, 311.00, 22.00, 13, ABplpaappaa
162, 163, 161, -1, 282.00, 281.00, 15.00, 15, ABplpaaappp
163, 164, 162, -1, 308.00, 277.00, 11.00, 15, ABplpaapapp
164, 165, 163, -1, 283.00, 271.00, 11.00, 15, ABplpaapppp
165, 166, 164, -1, 284.00, 308.00, 18.00, 17, ABplpaapaap
166, 167, 165, -1, 312.00, 281.00, 21.00, 13, ABplpaapaaa
167, 168, 166, -1, 348.00, 281.00, 19.00, 13, ABplpaapapa
168, 169, 628, -1, 265.00, 306.00, 11.00, 21, ABplaapppa
170, 171, 169, -1, 244.00, 331.00, 17.00, 17, ABplaapppp
171, 172, 170, -1, 348.00, 213.00, 22.00, 13, ABplaapaaaa
172, 173, 171, -1, 355.00, 236.00, 24.00, 15, ABplaapaaap
173, 174, 172, -1, 337.00, 272.00, 23.00, 15, ABplaapaapa
174, 175, 173, -1, 329.00, 284.00, 23.00, 17, ABplaapaapp
175, 176, 174, -1, 293.00, 316.00, 26.00, 15, ABplaapappp
176, 177, 175, -1, 299.00, 292.00, 28.00, 15, ABplaapappa
177, 178, 176, -1, 276.00, 311.00, 26.00, 13, ABplaapapap
178, 179, 177, -1, 284.00, 300.00, 25.00, 13, ABplaapapaa
179, 180, 178, -1, 323.00, 251.00, 31.00, 17, ABplaaaaapp
180, 181, 179, -1, 310.00, 274.00, 29.00, 13, MSapaaap
182, 183, 181, -1, 341.00, 239.00, 29.00, 13, ABplaaaaaap
183, 185, 182, -1, 320.00, 229.00, 35.00, 17, ABplaaaapp
185, 187, 184, -1, 312.00, 304.00, 29.00, 13, ABplaaappp
186, 188, 185, -1, 344.00, 279.00, 27.00, 17, ABplaaapap
187, 189, 186, -1, 351.00, 259.00, 26.00, 15, ABplaaapaa
188, 190, 187, -1, 141.00, 317.00, 10.00, 15, ABplappppa
189, 191, 188, -1, 92.00, 330.00, 12.00, 15, ABplappppp
190, 192, 189, -1, 123.00, 352.00, 17.00, 15, ABplapppaaa
191, 193, 190, -1, 110.00, 332.00, 12.00, 15, ABplapppapp
192, 194, 191, -1, 106.00, 334.00, 10.00, 11, ABplapppapa
193, 195, 192, -1, 205.00, 340.00, 20.00, 17, ABplappaaa
194, 196, 193, -1, 183.00, 347.00, 19.00, 17, ABplappaap
195, 197, 194, -1, 165.00, 349.00, 19.00, 15, ABplappapp
196, 198, 195, -1, 186.00, 357.00, 26.00, 15, ABplappapa
197, 199, 196, -1, 221.00, 335.00, 18.00, 15, ABplapaapp
198, 200, 197, -1, 238.00, 312.00, 11.00, 15, ABplapaapa
199, 201, 198, -1, 293.00, 296.00, 33.00, 15, ABarppaaaa
200, 202, 199, -1, 245.00, 328.00, 24.00, 15, ABplapaaapp
201, 204, 200, -1, 105.00, 361.00, 17.00, 13, ABplapapppa
202, 205, 201, -1, 99.00, 339.00, 15.00, 15, ABplapapppp
203, 206, 202, -1, 149.00, 355.00, 17.00, 17, ABplapapap
204, 207, 203, -1, 143.00, 344.00, 13.00, 17, ABplapappa
205, 208, 204, -1, 142.00, 369.00, 23.00, 19, ABplapapaa
206, 209, 205, -1, 232.00, 235.00, 13.00, 11, ABprpapaaaa
207, 210, 206, -1, 229.00, 219.00, 12.00, 13, ABprpapaapp
208, 211, 207, -1, 201.00, 246.00, 15.00, 13, ABprpapappa
209, 212, 208, -1, 163.00, 282.00, 15.00, 11, ABprpapappp
210, 213, 209, -1, 208.00, 228.00, 13.00, 11, ABprpapapap
211, 214, 210, -1, 217.00, 235.00, 15.00, 13, ABprpapapaa
213, 216, 212, -1, 122.00, 282.00, 18.00, 19, ABprpappppa
214, 217, 213, -1, 184.00, 274.00, 15.00, 11, ABprpappapp
215, 218, 214, -1, 220.00, 256.00, 10.00, 15, ABprpappaap
216, 219, 215, -1, 262.00, 243.00, 12.00, 11, ABprpappaaa
217, 220, 216, -1, 239.00, 178.00, 17.00, 13, ABprpaaaaap
218, 221, 217, -1, 250.00, 178.00, 20.00, 15, ABpraaappaa
219, 222, 218, -1, 171.00, 256.00, 13.00, 13, ABprpaaaapp
220, 223, 219, -1, 207.00, 245.00, 11.00, 13, ABprpaaaapa
221, 224, 220, -1, 265.00, 194.00, 15.00, 13, ABprpaaappa
222, 225, 221, -1, 243.00, 221.00, 14.00, 13, ABprpapaapa
223, 226, 222, -1, 245.00, 204.00, 15.00, 13, ABprpaaappp
224, 227, 223, -1, 281.00, 189.00, 12.00, 15, ABprpaaapaa
225, 228, 224, -1, 263.00, 183.00, 13.00, 13, ABprpaaapap
226, 229, 225, -1, 221.00, 175.00, 19.00, 15, ABprpaapaap
227, 230, 226, -1, 282.00, 157.00, 20.00, 15, ABprpaapapa
228, 231, 227, -1, 253.00, 188.00, 13.00, 15, ABprpaapapp
229, 232, 228, -1, 252.00, 206.00, 11.00, 13, ABprpaapppp
230, 233, 229, -1, 206.00, 178.00, 19.00, 13, ABprpaappap
231, 234, 230, -1, 223.00, 183.00, 21.00, 15, ABprpaappaa
232, 235, 231, -1, 96.00, 257.00, 12.00, 13, ABprpppaapp
233, 236, 232, -1, 99.00, 262.00, 16.00, 13, ABprpppaapa
234, 237, 233, -1, 133.00, 239.00, 15.00, 15, ABprpppaaap
235, 238, 234, -1, 137.00, 254.00, 13.00, 15, ABprpppaaaa
236, 239, 235, -1, 111.00, 269.00, 11.00, 13, ABprpppapaa
237, 240, 236, -1, 103.00, 287.00, 10.00, 15, ABprpppapap
239, 242, 238, -1, 134.00, 258.00, 11.00, 17, ABprppppapa
240, 243, 239, -1, 129.00, 273.00, 12.00, 15, ABprppppapp
241, 244, 240, -1, 133.00, 267.00, 17.00, 13, ABprppppaaa
242, 245, 241, -1, 121.00, 275.00, 16.00, 13, ABprppppaap
243, 246, 242, -1, 89.00, 294.00, 11.00, 13, ABprppppppa
244, 247, 243, -1, 115.00, 255.00, 20.00, 13, ABprpppppaa
245, 248, 244, -1, 101.00, 262.00, 20.00, 13, ABprpppppap
246, 249, 245, -1, 212.00, 216.00, 13.00, 13, ABprppaapap
247, 250, 246, -1, 213.00, 221.00, 10.00, 15, ABprppaapaa
248, 251, 247, -1, 195.00, 260.00, 15.00, 13, ABprppaappa
249, 252, 248, -1, 166.00, 272.00, 14.00, 13, ABprppaappp
250, 253, 249, -1, 230.00, 202.00, 13.00, 13, ABprppaaaaa
251, 254, 250, -1, 214.00, 197.00, 14.00, 17, ABprppaaaap
252, 255, 251, -1, 205.00, 205.00, 11.00, 14, ABpraapppa
253, 256, 252, -1, 181.00, 227.00, 14.00, 15, ABprppapaaa
254, 257, 253, -1, 171.00, 239.00, 17.00, 13, ABprppapaap
255, 258, 254, -1, 163.00, 256.00, 16.00, 13, ABprppapapa
256, 259, 255, -1, 150.00, 249.00, 16.00, 17, ABprppapapp
257, 260, 256, -1, 157.00, 267.00, 15.00, 11, ABprppapppa
258, 261, 257, -1, 144.00, 250.00, 15.00, 17, ABprppapppp
259, 262, 258, -1, 186.00, 254.00, 17.00, 13, ABprppappaa
260, 263, 259, -1, 177.00, 261.00, 17.00, 13, ABprppappap
261, 264, 260, -1, 345.00, 196.00, 22.00, 15, ABpraapaaaa
262, 265, 261, -1, 325.00, 188.00, 26.00, 15, ABarpapaaaa
263, 266, 262, -1, 335.00, 180.00, 23.00, 13, ABpraapaaap
264, 267, 263, -1, 285.00, 170.00, 22.00, 13, ABpraapaapa
265, 268, 264, -1, 226.00, 181.00, 27.00, 13, ABpraapapap
266, 269, 265, -1, 235.00, 188.00, 25.00, 15, ABpraapapaa
267, 270, 266, -1, 235.00, 165.00, 25.00, 15, ABpraapappp
268, 271, 267, -1, 242.00, 182.00, 28.00, 13, ABpraapappa
269, 272, 268, -1, 187.00, 190.00, 20.00, 13, ABpraapppp
270, 273, 269, -1, 259.00, 188.00, 10.00, 15, ABpraappaa
271, 274, 270, -1, 291.00, 182.00, 23.00, 13, ABpraaapapa
272, 275, 271, -1, 302.00, 175.00, 22.00, 15, ABpraaapapp
273, 276, 272, -1, 262.00, 185.00, 25.00, 13, ABpraaapaad
274, 277, 273, -1, 272.00, 176.00, 23.00, 13, ABpraaapaav
275, 278, 274, -1, 243.00, 180.00, 22.00, 15, ABpraaappap
276, 279, 275, -1, 219.00, 176.00, 24.00, 15, ABpraaapppa
277, 280, 276, -1, 306.00, 164.00, 22.00, 13, ABpraaaaapd
278, 281, 277, -1, 303.00, 164.00, 19.00, 15, ABpraaaaapv
279, 282, 278, -1, 281.00, 166.00, 16.00, 13, ABpraaaaaaa
280, 283, 279, -1, 285.00, 180.00, 11.00, 15, ABpraaaaaap
281, 284, 280, -1, 260.00, 172.00, 16.00, 15, ABpraaaapav
282, 285, 281, -1, 270.00, 169.00, 13.00, 13, ABpraaaapad
283, 286, 282, -1, 254.00, 168.00, 26.00, 13, ABpraaaappa
284, 287, 283, -1, 256.00, 174.00, 28.00, 15, ABpraaaappp
285, 288, 284, -1, 122.00, 226.00, 20.00, 15, ABprappapp
286, 289, 285, -1, 136.00, 210.00, 28.00, 15, ABprappapa
287, 290, 286, -1, 142.00, 221.00, 20.00, 15, ABprappaap
288, 291, 287, -1, 156.00, 212.00, 22.00, 15, ABprappaaa
289, 292, 288, -1, 77.00, 250.00, 15.00, 11, ABprapppaap
290, 293, 289, -1, 90.00, 248.00, 16.00, 13, ABprapppaaa
291, 294, 290, -1, 90.00, 271.00, 14.00, 13, ABprapppapp
292, 295, 291, -1, 82.00, 260.00, 11.00, 11, ABprapppapa
293, 296, 292, -1, 75.00, 275.00, 12.00, 15, ABprappppp
294, 297, 293, -1, 111.00, 258.00, 10.00, 19, ABprappppa
295, 298, 294, -1, 200.00, 187.00, 25.00, 15, ABprapaaapa
296, 299, 295, -1, 186.00, 197.00, 25.00, 15, ABprapaaapp
297, 300, 296, -1, 222.00, 186.00, 31.00, 17, ABprapaaaap
298, 301, 297, -1, 242.00, 176.00, 31.00, 11, ABprapaaaaa
299, 302, 298, -1, 169.00, 207.00, 19.00, 15, ABprapaapp
300, 303, 299, -1, 193.00, 227.00, 11.00, 17, ABprapaapa
301, 304, 300, -1, 105.00, 239.00, 13.00, 17, ABprapappa
302, 305, 301, -1, 73.00, 269.00, 16.00, 13, ABprapapppp
303, 306, 302, -1, 73.00, 249.00, 18.00, 11, ABprapapppa
304, 307, 303, -1, 112.00, 228.00, 16.00, 15, ABprapapap
305, 308, 304, -1, 93.00, 231.00, 23.00, 17, ABprapapaa
306, 310, 305, -1, 252.00, 195.00, 32.00, 13, MSppppap
307, 311, 306, -1, 230.00, 197.00, 22.00, 11, MSppppaa
308, 312, 307, -1, 264.00, 208.00, 34.00, 15, MSpppppa
309, 313, 308, -1, 228.00, 223.00, 34.00, 17, MSpppppp
310, 314, 309, -1, 254.00, 194.00, 28.00, 13, MSpppaaa
311, 315, 310, -1, 126.00, 246.00, 23.00, 15, MSpppaap
312, 317, 311, -1, 219.00, 228.00, 12.00, 11, ABprpapaaap
313, 318, 312, -1, 142.00, 285.00, 19.00, 15, MSppaapp
314, 319, 313, -1, 260.00, 193.00, 21.00, 11, MSppaapa
315, 320, 314, -1, 278.00, 202.00, 21.00, 11, MSppaaaa
317, 322, 316, -1, 204.00, 199.00, 28.00, 19, MSppapaa
318, 323, 317, -1, 253.00, 192.00, 18.00, 13, MSppapap
319, 324, 318, -1, 195.00, 260.00, 21.00, 13, MSpapappp
320, 325, 319, -1, 212.00, 247.00, 23.00, 13, MSpapapaa
321, 326, 320, -1, 207.00, 234.00, 20.00, 13, MSpapaaap
322, 327, 321, -1, 193.00, 233.00, 24.00, 17, MSpapaapp
323, 328, 322, -1, 171.00, 328.00, 19.00, 13, MSpappaa
324, 329, 323, -1, 170.00, 240.00, 20.00, 15, MSpappppa
325, 330, 324, -1, 149.00, 243.00, 21.00, 13, MSpappppp
326, 331, 325, -1, 232.00, 244.00, 33.00, 17, MSpaaappp
327, 332, 326, -1, 245.00, 263.00, 32.00, 13, MSpaaapaa
328, 333, 327, -1, 219.00, 259.00, 31.00, 13, MSpaaapap
329, 334, 328, -1, 277.00, 216.00, 31.00, 13, MSpaaaapa
330, 335, 329, -1, 258.00, 220.00, 31.00, 15, MSpaaaapp
331, 336, 330, -1, 280.00, 240.00, 34.00, 15, MSpaaaaaa
332, 337, 331, -1, 263.00, 239.00, 33.00, 13, MSpaaaaap
333, 338, 332, -1, 219.00, 211.00, 22.00, 13, ABaraappppa
334, 339, 333, -1, 219.00, 214.00, 29.00, 15, ABaraapppap
335, 340, 334, -1, 227.00, 239.00, 31.00, 13, MSpaapaap
336, 341, 335, -1, 252.00, 237.00, 32.00, 13, MSpaaappa
337, 342, 336, -1, 245.00, 233.00, 29.00, 11, MSpaapaaa
339, 344, 337, -1, 268.00, 296.00, 21.00, 11, MSapppaa
340, 345, 338, -1, 264.00, 303.00, 31.00, 15, MSapppap
341, 346, 339, -1, 270.00, 272.00, 35.00, 19, MSappppa
342, 347, 340, -1, 236.00, 288.00, 34.00, 15, MSappppp
343, 348, 341, -1, 149.00, 330.00, 22.00, 15, MSappaap
344, 349, 342, -1, 276.00, 286.00, 31.00, 15, MSappaaa
347, 352, 345, -1, 268.00, 270.00, 30.00, 19, ABaraapaapp
348, 353, 346, -1, 304.00, 252.00, 33.00, 17, MSapappp
349, 354, 347, -1, 254.00, 311.00, 26.00, 13, MSapapaa
350, 355, 348, -1, 160.00, 274.00, 19.00, 17, MSapaapp
351, 356, 349, -1, 291.00, 281.00, 19.00, 13, MSapapap
352, 357, 350, -1, 301.00, 265.00, 20.00, 13, MSapaaaa
353, 358, 351, -1, 295.00, 235.00, 31.00, 19, MSaaaaapa
354, 359, 352, -1, 273.00, 255.00, 32.00, 13, MSaaaaapp
355, 360, 353, -1, 302.00, 213.00, 26.00, 13, MSaaaaaar
356, 361, 354, -1, 316.00, 241.00, 26.00, 11, MSaaaaaal
357, 362, 355, -1, 253.00, 250.00, 35.00, 13, MSaaaapaa
358, 363, 356, -1, 256.00, 261.00, 31.00, 15, MSaaaapap
359, 364, 357, -1, 236.00, 271.00, 31.00, 11, MSaaaappa
360, 365, 358, -1, 231.00, 289.00, 30.00, 13, MSaaapapp
361, 366, 359, -1, 217.00, 289.00, 30.00, 13, MSaaappa
362, 367, 360, -1, 216.00, 274.00, 33.00, 15, MSaaappp
363, 368, 361, -1, 188.00, 316.00, 19.00, 15, MSaapppp
364, 369, 362, -1, 227.00, 276.00, 19.00, 13, MSaapaaap
365, 370, 363, -1, 248.00, 273.00, 18.00, 15, MSaapaaaa
366, 371, 364, -1, 210.00, 283.00, 20.00, 13, MSaapappp
367, 372, 365, -1, 238.00, 298.00, 26.00, 17, MSaapappa
368, 373, 366, -1, 229.00, 273.00, 23.00, 13, MSaapapaa
369, 374, 367, -1, 223.00, 290.00, 20.00, 13, MSaapapap
370, 375, 368, -1, 105.00, 314.00, 24.00, 23, Eplpa
371, 376, 369, -1, 113.00, 352.00, 22.00, 15, Cappapa
372, 377, 370, -1, 109.00, 343.00, 19.00, 15, Cappapp
373, 378, 371, -1, 180.00, 339.00, 30.00, 15, Cappaaa
374, 379, 372, -1, 85.00, 341.00, 23.00, 15, Capppap
375, 380, 373, -1, 109.00, 344.00, 30.00, 15, Capppaa
376, 381, 634, -1, 78.00, 322.00, 17.00, 19, Cappppv
377, 382, 375, -1, 124.00, 350.00, 25.00, 15, Capapap
378, 383, 376, -1, 155.00, 346.00, 28.00, 15, Capapaa
379, 384, 377, -1, 136.00, 317.00, 13.00, 15, Capappp
380, 385, 378, -1, 147.00, 338.00, 17.00, 13, Capappa
381, 386, 379, -1, 185.00, 340.00, 23.00, 13, Capaaap
382, 387, 380, -1, 212.00, 332.00, 23.00, 15, Capaaaa
384, 389, 382, -1, 69.00, 305.00, 14.00, 15, Caappv
385, 390, 383, -1, 105.00, 299.00, 11.00, 13, Caapap
386, 391, 384, -1, 86.00, 351.00, 19.00, 17, Cpappd
387, 392, 385, -1, 74.00, 329.00, 13.00, 15, Cpappv
388, 393, 386, -1, 64.00, 279.00, 24.00, 17, Cpapaa
389, 394, 388, -1, 111.00, 243.00, 24.00, 15, Cppaapp
390, 395, 389, -1, 139.00, 232.00, 24.00, 17, Cppaapa
391, 396, 390, -1, 155.00, 224.00, 25.00, 13, Cppaaap
392, 397, 391, -1, 173.00, 220.00, 24.00, 15, Cppaaaa
393, 398, 392, -1, 136.00, 237.00, 31.00, 17, Cppapaa
394, 399, 393, -1, 116.00, 257.00, 15.00, 13, Cppappp
395, 400, 394, -1, 107.00, 244.00, 18.00, 15, Cppappa
396, 401, 395, -1, 132.00, 252.00, 34.00, 15, Cpppaap
397, 402, 396, -1, 160.00, 227.00, 30.00, 15, Cpppaaa
398, 403, 397, -1, 82.00, 267.00, 20.00, 17, Cpppapp
399, 404, 398, -1, 87.00, 261.00, 25.00, 17, Cpppapa
400, 405, 399, -1, 249.00, 307.00, 17.00, 15, Daapa
401, 406, 400, -1, 235.00, 313.00, 16.00, 17, Daapp
402, 407, 401, -1, 254.00, 309.00, 21.00, 13, Daaaa
403, 408, 402, -1, 241.00, 309.00, 31.00, 15, Daaap
404, 409, 403, -1, 222.00, 302.00, 33.00, 15, Dappaa
405, 410, 404, -1, 198.00, 316.00, 32.00, 15, Dappap
406, 411, 405, -1, 180.00, 320.00, 33.00, 19, Dappp
407, 412, 406, -1, 195.00, 212.00, 17.00, 17, Dpapp
408, 413, 407, -1, 209.00, 203.00, 18.00, 13, Dpapa
409, 414, 408, -1, 206.00, 208.00, 32.00, 19, Dpaap
411, 416, 410, -1, 209.00, 197.00, 21.00, 13, Dpaaa
412, 417, 411, -1, 166.00, 239.00, 34.00, 17, Dpppp
413, 418, 412, -1, 188.00, 242.00, 33.00, 15, Dpppap
414, 419, 413, -1, 211.00, 232.00, 34.00, 15, Dpppaa
415, 420, 414, -1, 191.00, 205.00, 22.00, 15, Dppaa
416, 421, 415, -1, 177.00, 220.00, 30.00, 13, Dppap
418, 423, 417, -1, 304.00, 286.00, 25.00, 13, ABalppppaav
419, 424, 418, -1, 314.00, 301.00, 25.00, 15, ABalpppappp
420, 425, 647, -1, 288.00, 298.00, 22.00, 14, ABalpppppap
421, 426, 419, -1, 303.00, 311.00, 21.00, 13, ABalppppppaa
422, 427, 420, -1, 279.00, 322.00, 23.00, 13, ABalppppppap
423, 428, 421, -1, 308.00, 311.00, 19.00, 15, ABalpppppppa
424, 429, 422, -1, 344.00, 256.00, 22.00, 11, ABalppppapp
425, 430, 423, -1, 340.00, 275.00, 15.00, 13, ABalpppaaaa
426, 431, 424, -1, 329.00, 267.00, 11.00, 15, ABalpppaaap
427, 432, 425, -1, 353.00, 267.00, 17.00, 13, ABalpppaapd
428, 433, 426, -1, 354.00, 257.00, 20.00, 13, ABalpppaapv
429, 434, 427, -1, 314.00, 294.00, 16.00, 15, ABalpppapad
430, 435, 428, -1, 326.00, 284.00, 13.00, 15, ABalpppapav
431, 436, 429, -1, 347.00, 253.00, 16.00, 13, ABalaaapalr
432, 437, 430, -1, 340.00, 254.00, 12.00, 15, ABalppaaapp
433, 438, 431, -1, 296.00, 264.00, 12.00, 13, ABalppaappp
435, 440, 433, -1, 288.00, 300.00, 16.00, 17, ABplpaaaaap
436, 441, 434, -1, 300.00, 257.00, 14.00, 13, ABalppapppa
437, 442, 435, -1, 322.00, 258.00, 18.00, 15, ABalppappaa
438, 443, 436, -1, 322.00, 264.00, 20.00, 13, ABalapaappa
439, 444, 437, -1, 283.00, 255.00, 13.00, 11, ABalppapapa
440, 445, 438, -1, 292.00, 247.00, 11.00, 15, ABalppapapp
441, 446, 440, -1, 327.00, 245.00, 15.00, 13, ABalppapaaa
442, 447, 441, -1, 267.00, 254.00, 12.00, 13, ABalpapapaa
443, 448, 442, -1, 195.00, 286.00, 12.00, 13, ABalpapappa
444, 449, 443, -1, 301.00, 231.00, 11.00, 11, ABalpapaapp
445, 450, 444, -1, 297.00, 226.00, 14.00, 13, ABalpapaapa
446, 451, 445, -1, 316.00, 236.00, 10.00, 11, ABalppaappa
448, 453, 447, -1, 281.00, 256.00, 19.00, 15, ABalpaaaaap
449, 454, 448, -1, 254.00, 244.00, 20.00, 13, ABalpappaaa
450, 455, 449, -1, 271.00, 279.00, 19.00, 15, ABalpapppaa
451, 456, 450, -1, 259.00, 259.00, 23.00, 13, ABalpapppap
452, 457, 451, -1, 293.00, 265.00, 23.00, 15, ABalpaaapaa
453, 458, 452, -1, 291.00, 273.00, 26.00, 13, ABalpaaapap
454, 459, 453, -1, 276.00, 256.00, 17.00, 13, ABalpaaaapp
455, 460, 454, -1, 285.00, 246.00, 19.00, 15, ABalpaaaapa
456, 461, 455, -1, 282.00, 272.00, 20.00, 15, ABalpappaap
457, 462, 656, -1, 297.00, 247.00, 19.00, 13, ABalpaaaaaa
458, 463, 457, -1, 321.00, 227.00, 18.00, 13, ABalpaapppa
459, 464, 458, -1, 326.00, 229.00, 15.00, 15, ABalpaapppp
460, 465, 459, -1, 309.00, 231.00, 19.00, 15, ABalpaappaa
461, 466, 460, -1, 278.00, 261.00, 26.00, 13, ABalpaapapa
464, 469, 463, -1, 179.00, 277.00, 30.00, 23, Earap
465, 470, 464, -1, 134.00, 309.00, 27.00, 13, Ealpp
467, 472, 466, -1, 136.00, 285.00, 29.00, 21, Earpp
469, 474, 468, -1, 210.00, 281.00, 24.00, 15, Ealaa
470, 476, 469, -1, 105.00, 285.00, 20.00, 23, Eprpp
471, 477, 470, -1, 205.00, 331.00, 28.00, 15, Dapap
472, 478, 471, -1, 232.00, 316.00, 20.00, 17, Dapaa
473, 479, 472, -1, 224.00, 301.00, 23.00, 13, MSaapaapp
474, 480, 473, -1, 238.00, 299.00, 23.00, 13, MSaapaapa
475, 481, 474, -1, 178.00, 203.00, 30.00, 15, ABarpppapp
476, 482, 475, -1, 253.00, 297.00, 13.00, 13, ABplppaapap
477, 483, 476, -1, 245.00, 298.00, 10.00, 13, ABplppaapaa
478, 484, 477, -1, 335.00, 242.00, 18.00, 15, ABalaaaalar
479, 485, 478, -1, 300.00, 181.00, 28.00, 13, ABalapppppp
480, 486, 479, -1, 307.00, 168.00, 26.00, 15, ABarpappaa
481, 487, 480, -1, 98.00, 274.00, 34.00, 17, Cppppaa
482, 488, 481, -1, 72.00, 287.00, 27.00, 15, Cppppap
483, 489, 482, -1, 104.00, 280.00, 15.00, 13, Cpppppv
484, 490, 483, -1, 179.00, 265.00, 24.00, 19, Earpa
487, 493, 486, -1, 266.00, 233.00, 36.00, 21, ABarpaappa
488, 494, 487, -1, 263.00, 308.00, 34.00, 19, ABarppaapa
490, 496, 489, -1, 195.00, 278.00, 20.00, 13, MSaappap
491, 497, 490, -1, 293.00, 206.00, 12.00, 11, ABalaapappa
493, 499, 492, -1, 217.00, 308.00, 12.00, 15, ABplppapaaa
494, 500, 493, -1, 327.00, 238.00, 20.00, 13, ABalaaaalal
496, 502, 495, -1, 271.00, 193.00, 17.00, 15, ABprpaaaaaa
497, 503, 496, -1, 138.00, 247.00, 18.00, 17, MSpappap
498, 504, 497, -1, 205.00, 243.00, 30.00, 17, MSpaapapp
500, 506, 499, -1, 70.00, 297.00, 19.00, 15, Cpppppd
501, 507, 500, -1, 294.00, 303.00, 30.00, 15, ABplapaaaaa
503, 509, 502, -1, 281.00, 311.00, 31.00, 15, ABplapaaaap
504, 510, 503, -1, 333.00, 265.00, 14.00, 11, ABalppaaapa
505, 511, 504, -1, 258.00, 263.00, 19.00, 13, ABalpappppp
506, 512, 505, -1, 340.00, 212.00, 18.00, 13, ABalaaaparr
507, 513, 506, -1, 344.00, 224.00, 19.00, 13, ABalaaaparl
508, 514, 507, -1, 263.00, 279.00, 22.00, 11, ABalpaaappp
509, 515, 508, -1, 278.00, 279.00, 22.00, 17, ABalpaaappa
510, 516, 509, -1, 191.00, 291.00, 23.00, 13, Ealpa
511, 517, 510, -1, 218.00, 249.00, 14.00, 14, ABprpappapa
512, 518, 511, -1, 163.00, 306.00, 19.00, 25, Z3
513, 519, 512, -1, 147.00, 338.00, 32.00, 15, Cappaap
514, 520, 513, -1, 277.00, 240.00, 15.00, 11, ABarappaapp
516, 522, 515, -1, 205.00, 227.00, 27.00, 17, MSpapappa
517, 523, 516, -1, 203.00, 216.00, 24.00, 17, MSpapaapa
518, 524, 517, -1, 269.00, 162.00, 24.00, 15, ABpraapaapp
519, 650, 518, -1, 297.00, 185.00, 26.00, 13, ABalapppppa
520, 526, 519, -1, 278.00, 224.00, 19.00, 17, ABarapaaaaa
521, 527, 520, -1, 307.00, 255.00, 16.00, 13, ABalppapppp
522, 528, 521, -1, 335.00, 202.00, 19.00, 13, ABalaaappll
523, 473, 522, -1, 169.00, 297.00, 26.00, 17, Ealap
524, 530, 523, -1, 105.00, 253.00, 29.00, 15, Cppapap
525, 531, 524, -1, 239.00, 225.00, 23.00, 13, ABarapaappp
526, 532, 525, -1, 302.00, 287.00, 22.00, 11, ABalppppaad
529, 535, 528, -1, 277.00, 280.00, 25.00, 13, ABalpaapapp
530, 536, 529, -1, 125.00, 337.00, 15.00, 15, ABplpppaapa
531, 626, 530, -1, 335.00, 222.00, 34.00, 19, ABplaaaapa
534, 540, 533, -1, 224.00, 234.00, 18.00, 11, MSpapaaaa
535, 541, 534, -1, 195.00, 225.00, 18.00, 15, MSpapppaa
536, 542, 535, -1, 182.00, 235.00, 19.00, 15, MSpapppap
537, 543, 536, -1, 288.00, 245.00, 36.00, 14, ABarpaapap
538, 544, 537, -1, 268.00, 182.00, 21.00, 15, ABprpaapaaa
539, 545, 538, -1, 250.00, 250.00, 17.00, 13, ABalpappppa
540, 546, 539, -1, 292.00, 313.00, 16.00, 11, ABalpppppppp
541, 547, 540, -1, 101.00, 311.00, 9.00, 11, ABprpppapp
543, 549, 542, -1, 226.00, 200.00, 10.00, 11, ABprppaaap
545, 552, 543, -1, 106.00, 249.00, 33.00, 15, Caaapa
547, 554, 545, -1, 157.00, 283.00, 32.00, 11, Epraa
548, 555, 546, -1, 129.00, 356.00, 31.00, 19, Cpaapp
549, 556, 547, -1, 296.00, 199.00, 18.00, 13, ABalaapaaal
550, 557, 548, -1, 345.00, 197.00, 23.00, 13, ABarpaaaaal
551, 558, 549, -1, 99.00, 295.00, 14.00, 13, Caapaa
552, 559, 550, -1, 210.00, 191.00, 35.00, 14, ABarpppapa
553, 560, 551, -1, 259.00, 292.00, 17.00, 15, MSappapp
554, 561, 552, -1, 83.00, 238.00, 19.00, 13, ABarpppppp
555, 562, 553, -1, 281.00, 291.00, 10.00, 19, ABplaappap
556, 563, 554, -1, 234.00, 202.00, 18.00, 11, MSpppapa
557, 564, 555, -1, 301.00, 275.00, 32.00, 17, MSapappa
558, 565, 556, -1, 116.00, 294.00, 29.00, 23, Eprap
559, 566, 557, -1, 294.00, 207.00, 33.00, 15, MSppappp
560, 567, 558, -1, 93.00, 353.00, 26.00, 19, Cpapap
561, 568, 559, -1, 108.00, 311.00, 13.00, 13, Cappppd
562, 570, 560, -1, 229.00, 262.00, 28.00, 15, MSaaaappp
563, 571, 561, -1, 114.00, 349.00, 13.00, 13, ABplapppaap
564, 572, 562, -1, 134.00, 262.00, 22.00, 21, Z2
565, 573, 563, -1, 323.00, 270.00, 31.00, 11, ABplaaaaapa
566, 575, 564, -1, 195.00, 240.00, 20.00, 13, MSpapapap
567, 475, 565, -1, 112.00, 314.00, 29.00, 19, Eplap
569, 578, 567, -1, 114.00, 310.00, 20.00, 27, Eplpp
572, 581, 570, -1, 141.00, 346.00, 22.00, 15, Capaapp
573, 582, 571, -1, 166.00, 344.00, 23.00, 15, Capaapa
574, 583, 572, -1, 233.00, 191.00, 10.00, 14, ABpraappap
575, 584, 573, -1, 281.00, 189.00, 33.00, 15, MSppappa
578, 587, 576, -1, 223.00, 239.00, 29.00, 15, MSpaapapa
580, 589, 578, -1, 227.00, 172.00, 15.00, 13, ABpraaappppp
581, 590, 579, -1, 245.00, 161.00, 20.00, 17, ABpraaappppa
582, 591, 580, -1, 307.00, 291.00, 18.00, 13, ABalpppppaa
586, 595, 584, -1, 216.00, 258.00, 17.00, 13, ABarapapapp
588, 597, 586, -1, 207.00, 315.00, 19.00, 13, MSaapppap
589, 598, 587, -1, 222.00, 334.00, 33.00, 17, Caaaaa
590, 599, 588, -1, 60.00, 278.00, 18.00, 15, Caappd
591, 600, 589, -1, 86.00, 254.00, 29.00, 17, Caaapp
592, 203, 590, -1, 260.00, 326.00, 24.00, 15, ABplapaaapa
593, 602, 591, -1, 239.00, 228.00, 19.00, 15, ABarapapppp
594, 604, 592, -1, 223.00, 298.00, 17.00, 15, MSaapppaa
595, 637, 593, -1, 202.00, 260.00, 26.00, 17, Earaa
596, 606, 594, -1, 185.00, 257.00, 13.00, 17, ABarappappa
597, 607, 595, -1, 305.00, 241.00, 23.00, 13, ABalpaapaaa
599, 609, 597, -1, 149.00, 305.00, 31.00, 25, Eplaa
601, 611, 599, -1, 238.00, 164.00, 29.00, 17, ABarpapppp
602, 612, 600, -1, 194.00, 304.00, 13.00, 15, ABplpaaaapp
606, 617, 604, -1, 240.00, 229.00, 21.00, 11, ABarapappap
614, 625, 612, -1, 278.00, 285.00, 12.00, 11, ABplpaapppa
615, 647, 613, -1, 244.00, 272.00, 10.00, 19, ABalpapapap
616, 646, 614, -1, 225.00, 291.00, 11.00, 15, ABalpapappp
618, 645, 616, -1, 304.00, 238.00, 15.00, 15, ABalpapaaaa
619, 577, 617, -1, 100.00, 294.00, 26.00, 21, Eprpa
620, 186, 618, -1, 327.00, 291.00, 28.00, 13, ABplaaappa
621, 628, 619, -1, 325.00, 235.00, 30.00, 14, ABalapapapp
622, 649, 620, -1, 319.00, 204.00, 30.00, 11, ABalapppapp
624, 627, 629, -1, 342.00, 226.00, 28.00, 15, ABplaaaaaaa
625, 629, 631, -1, 339.00, 231.00, 31.00, 13, ABarpaaaapp
626, 630, 632, -1, 200.00, 332.00, 34.00, 20, Cpaaap
627, 631, 607, -1, 238.00, 252.00, 18.00, 13, ABarapapaaa
628, 632, 633, -1, 232.00, 250.00, 17.22, 17, ABarapapppa
629, 615, 635, -1, 224.00, 210.00, 17.67, 13, MSpppapp
630, 633, 636, -1, 264.00, 268.00, 27.57, 13, MSaaapaap
631, 634, 637, -1, 117.00, 298.00, 33.00, 15, Cpaapa
632, 635, 638, -1, 238.00, 309.00, 33.00, 15, Cpaaaa
633, 636, 639, -1, 140.00, 236.00, 33.00, 15, Caaaap
634, 638, 640, -1, 118.00, 301.00, 16.00, 15, ABprpappppp
635, 639, 641, -1, 237.00, 242.00, 14.00, 14, ABprpapppaa
636, 640, 642, -1, 245.00, 204.00, 13.50, 15, ABprpaapppa
637, 641, 627, -1, 293.00, 221.00, 25.00, 13, ABaraappaaa
638, 642, 645, -1, 300.00, 224.00, 22.50, 13, ABaraaaapap
639, 643, 646, -1, 261.00, 212.00, 26.80, 13, ABaraaapapa
640, 644, 432, -1, 318.00, 232.00, 11.92, 13, ABalppapaap
641, 648, 91, -1, 310.00, 216.00, 29.86, 9, ABalapppapa
642, 651, 648, -1, 273.00, 179.00, 26.00, 11, ABalappapap
643, 86, 649, -1, 308.00, 174.00, 24.00, 15, ABalappappp
644, 96, 650, -1, 347.00, 256.00, 24.00, 13, ABalapaaapp
645, 652, 651, -1, 317.00, 279.00, 18.00, 13, ABalapaapaa
646, 653, 652, -1, 268.00, 182.00, 19.00, 13, ABalaapppap
647, 654, 653, -1, 77.00, 293.00, 12.00, 12, ABprppppppp
648, 655, 439, -1, 289.00, 248.00, 9.00, 15, ABplaappaa
651, 658, 657, -1, 340.00, 259.00, 19.00, 13, ABalapaappp
652, 659, 658, -1, 301.00, 248.00, 22.00, 13, ABaraaaaaaa
653, 660, 659, -1, 289.00, 177.00, 15.00, 13, ABalaappapa
654, 661, 660, -1, 249.00, 280.00, 31.00, 13, MSaaapapa
656, 663, 662, -1, 326.00, 244.00, 21.40, 15, ABalaaapall
657, 664, 663, -1, 268.00, 314.00, 16.00, 16, ABplppaaaap
658, 666, 664, -1, 222.00, 270.00, 13.00, 15, ABplpappaap
659, 667, 665, -1, 301.00, 235.00, 17.00, 13, ABalpaappap
660, 668, 666, -1, 296.00, 252.00, 24.00, 13, ABalpaapaap
661, 669, 667, -1, 303.00, 182.00, 12.00, 11, ABalaappapp
662, 670, 668, -1, 317.00, 224.00, 29.50, 15, ABalapapapa
663, 671, 669, -1, 319.00, 263.00, 16.00, 13, ABalppappap
664, 672, 670, -1, 291.00, 253.00, 30.00, 13, MSaaapaaa
666, 674, 672, -1, 267.00, 205.00, 12.00, 13, ABalaapappp
667, 675, 673, -1, 271.00, 232.00, 15.00, 13, ABarapapapa
