2, 2, 2, -1, 275.00, 214.00, 27.00, 15, ABaraaapaap
3, 3, 3, -1, 233.00, 211.00, 28.00, 13, ABaraaapapp
4, 4, 4, -1, 215.00, 221.00, 21.00, 15, ABaraappppp
5, 5, 5, -1, 256.00, 298.00, 22.00, 15, ABaraapappa
6, 6, 6, -1, 248.00, 284.00, 20.00, 13, ABaraapappp
7, 7, 7, -1, 256.00, 295.00, 29.00, 17, ABaraapapap
8, 8, 8, -1, 298.00, 234.00, 27.00, 15, ABaraapaaaa
9, 9, 9, -1, 294.00, 243.00, 29.00, 13, ABaraapaaap
10, 10, 10, -1, 275.00, 260.00, 33.00, 17, MSaaaaapp
11, 11, 11, -1, 298.00, 258.00, 29.00, 15, ABaraapaapa
12, 12, 12, -1, 290.00, 219.00, 21.00, 11, ABaraaappaa
13, 13, 13, -1, 305.00, 213.00, 17.00, 13, ABaraaapppa
14, 14, 14, -1, 306.00, 209.00, 20.00, 13, ABaraaapppp
15, 15, 15, -1, 282.00, 216.00, 24.00, 15, ABaraaapaaa
16, 16, 16, -1, 235.00, 218.00, 30.00, 17, ABaraappapp
17, 17, 17, -1, 283.00, 259.00, 23.00, 15, ABaraaaaaap
18, 18, 18, -1, 264.00, 219.00, 23.00, 13, ABaraaaaapp
19, 19, 19, -1, 263.00, 251.00, 27.00, 13, ABaraaaapp
20, 20, 20, -1, 292.00, 231.00, 24.00, 11, ABaraaaapaa
21, 21, 21, -1, 205.00, 257.00, 19.00, 14, ABalpappapp
22, 22, 22, -1, 262.00, 239.00, 17.00, 13, ABalpappapa
23, 23, 23, -1, 247.00, 207.00, 21.00, 17, ABarapapaap
24, 24, 24, -1, 248.00, 234.00, 15.00, 15, ABprpapppaa
25, 25, 25, -1, 241.00, 202.00, 24.00, 15, ABarapappaa
28, 28, 28, -1, 262.00, 237.00, 19.00, 11, ABarapaaapp
29, 29, 667, -1, 251.00, 222.00, 19.00, 11, ABarapaaaap
30, 30, 29, -1, 260.00, 220.00, 18.00, 11, ABarapaaapa
31, 31, 30, -1, 260.00, 204.00, 24.00, 13, ABarapaapap
32, 32, 31, -1, 252.00, 231.00, 27.00, 11, ABarapaapaa
33, 33, 32, -1, 245.00, 205.00, 26.00, 15, ABarapaappa
34, 34, 33, -1, 266.00, 219.00, 11.00, 11, ABarapppapa
35, 35, 34, -1, 286.00, 211.00, 10.00, 15, ABarapppapp
36, 36, 35, -1, 293.00, 198.00, 18.00, 13, ABarapppaaa
37, 37, 36, -1, 301.00, 205.00, 14.00, 15, ABarapppaap
39, 39, 38, -1, 270.00, 175.00, 19.00, 11, ABalaapppap
40, 40, 39, -1, 272.00, 210.00, 13.00, 15, ABarapppppa
41, 41, 40, -1, 280.00, 207.00, 15.00, 13, ABarapppppp
42, 42, 41, -1, 279.00, 241.00, 10.00, 11, ABarappaaap
43, 43, 42, -1, 284.00, 211.00, 17.00, 15, ABarappaaaa
45, 45, 44, -1, 242.00, 226.00, 10.00, 17, ABarappapap
46, 46, 45, -1, 258.00, 231.00, 12.00, 13, ABarappapaa
47, 47, 46, -1, 214.00, 222.00, 11.00, 15, ABarappappp
48, 48, 47, -1, 203.00, 237.00, 13.00, 11, ABprpapappa
49, 49, 48, -1, 277.00, 160.00, 28.00, 17, ABarpapppa
51, 51, 50, -1, 318.00, 188.00, 30.00, 15, ABarpapaaap
52, 52, 51, -1, 320.00, 224.00, 35.00, 21, ABarpapapp
53, 53, 52, -1, 349.00, 195.00, 26.00, 15, ABarpapapa
54, 54, 53, -1, 329.00, 192.00, 34.00, 15, ABarpaapaa
55, 55, 54, -1, 345.00, 207.00, 24.00, 13, ABarpaaaaar
56, 56, 55, -1, 345.00, 210.00, 26.00, 13, ABarpaaaapa
57, 57, 56, -1, 339.00, 193.00, 30.00, 13, ABarpaaapp
58, 58, 57, -1, 334.00, 202.00, 25.00, 13, ABarpaaapaa
59, 59, 58, -1, 331.00, 185.00, 27.00, 13, ABarpaaapap
60, 60, 59, -1, 277.00, 332.00, 22.00, 13, ABarppaaap
61, 61, 60, -1, 245.00, 329.00, 27.00, 17, ABarppaapp
62, 62, 61, -1, 169.00, 360.00, 25.00, 15, ABarppappa
63, 63, 62, -1, 121.00, 363.00, 19.00, 15, ABarppappp
64, 64, 63, -1, 228.00, 343.00, 25.00, 17, ABarppapap
65, 65, 64, -1, 255.00, 339.00, 25.00, 15, ABarppapaa
66, 66, 65, -1, 122.00, 222.00, 28.00, 15, ABarpppppa
67, 67, 66, -1, 189.00, 186.00, 28.00, 13, ABarppppaa
68, 68, 67, -1, 168.00, 205.00, 30.00, 15, ABarppppap
69, 69, 68, -1, 211.00, 169.00, 27.00, 13, ABarpppaap
70, 70, 69, -1, 311.00, 213.00, 26.00, 11, ABalappppaa
71, 71, 70, -1, 322.00, 191.00, 24.00, 11, ABalappppap
72, 72, 71, -1, 318.00, 228.00, 27.00, 11, ABalapppaaa
73, 73, 72, -1, 323.00, 212.00, 26.00, 11, ABalappaaa
74, 74, 73, -1, 312.00, 179.00, 25.00, 11, ABalappappa
75, 75, 74, -1, 332.00, 258.00, 27.00, 13, ABalapapppa
76, 76, 75, -1, 346.00, 247.00, 26.00, 13, ABalapapppp
77, 77, 76, -1, 336.00, 224.00, 26.00, 13, ABalapappap
80, 80, 79, -1, 318.00, 284.00, 28.00, 11, ABalapaaaap
81, 81, 80, -1, 326.00, 271.00, 27.00, 13, ABalapaaaaa
82, 82, 81, -1, 316.00, 250.00, 24.00, 17, ABalaaapall
83, 83, 82, -1, 333.00, 261.00, 24.00, 15, ABalppppapa
85, 85, 84, -1, 347.00, 275.00, 20.00, 15, ABalapaapap
86, 86, 85, -1, 299.00, 201.00, 22.00, 17, ABalaapaaar
87, 87, 86, -1, 288.00, 192.00, 11.00, 11, ABalaapapa
88, 88, 87, -1, 296.00, 183.00, 19.00, 13, ABalaapaapa
90, 90, 89, -1, 278.00, 189.00, 19.00, 13, ABarappppaa
91, 91, 90, -1, 260.00, 167.00, 17.00, 13, ABalaapppaa
92, 92, 91, -1, 333.00, 231.00, 15.00, 13, ABalaaaalpp
93, 93, 92, -1, 332.00, 247.00, 17.00, 11, ABalaaaalpa
94, 94, 93, -1, 315.00, 203.00, 22.00, 13, ABalaaaarrp
95, 708, 94, -1, 310.00, 192.00, 16.00, 11, ABalaapaapp
96, 95, 95, -1, 311.00, 196.00, 17.00, 15, ABalaaaarra
97, 96, 96, -1, 317.00, 222.00, 22.00, 15, ABalaaaarlp
98, 97, 97, -1, 334.00, 229.00, 18.00, 13, ABalaaaarla
99, 98, 98, -1, 316.00, 190.00, 20.00, 11, ABalaaapplr
100, 99, 99, -1, 294.00, 198.00, 24.00, 15, ABalaaapprr
101, 100, 100, -1, 302.00, 167.00, 18.00, 13, ABpraaaaapv
102, 101, 101, -1, 313.00, 177.00, 17.00, 13, ABalaaapprl
103, 102, 102, -1, 323.00, 215.00, 30.00, 11, ABalappaapa
105, 104, 104, -1, 131.00, 294.00, 11.00, 15, ABplppppapp
106, 105, 105, -1, 136.00, 305.00, 15.00, 13, ABplppppaaa
107, 106, 106, -1, 130.00, 298.00, 16.00, 13, ABplppppaap
108, 107, 107, -1, 86.00, 312.00, 13.00, 15, ABplppppppp
109, 108, 108, -1, 92.00, 306.00, 11.00, 11, ABplppppppa
110, 109, 109, -1, 126.00, 336.00, 19.00, 15, ABplpppppap
111, 110, 110, -1, 132.00, 317.00, 17.00, 13, ABplpppppaa
112, 111, 111, -1, 125.00, 316.00, 11.00, 13, ABplpppapaa
113, 112, 112, -1, 121.00, 325.00, 14.00, 13, ABplpppaapp
114, 113, 113, -1, 160.00, 309.00, 11.00, 15, ABplpppaaaa
115, 114, 114, -1, 160.00, 318.00, 14.00, 15, ABplpppaaap
116, 115, 115, -1, 164.00, 304.00, 14.00, 11, ABplppapppp
117, 116, 116, -1, 173.00, 289.00, 16.00, 13, ABplppapppa
118, 117, 117, -1, 192.00, 282.00, 15.00, 13, ABplppappap
119, 118, 118, -1, 206.00, 286.00, 14.00, 13, ABplppappaa
120, 119, 119, -1, 183.00, 291.00, 13.00, 13, ABplppapapa
121, 120, 120, -1, 173.00, 306.00, 16.00, 15, ABplppapapp
122, 121, 121, -1, 169.00, 289.00, 12.00, 13, ABplppaappp
123, 122, 122, -1, 259.00, 243.00, 13.00, 13, ABplpappaaa
124, 123, 123, -1, 203.00, 268.00, 19.00, 11, MSaappaa
125, 124, 124, -1, 118.00, 286.00, 14.00, 15, ABplpappppp
126, 125, 125, -1, 139.00, 280.00, 15.00, 11, ABplpappppa
127, 126, 126, -1, 144.00, 293.00, 14.00, 13, ABplpapppaa
128, 127, 127, -1, 133.00, 265.00, 14.00, 11, ABplpapppap
129, 128, 128, -1, 224.00, 281.00, 12.00, 11, ABplpapappa
130, 129, 129, -1, 171.00, 275.00, 14.00, 11, ABplpapappp
131, 130, 130, -1, 253.00, 280.00, 13.00, 11, ABplpapapap
133, 132, 132, -1, 241.00, 281.00, 15.00, 13, ABplpapapaa
134, 133, 133, -1, 272.00, 262.00, 13.00, 11, ABplpapaapa
135, 134, 134, -1, 272.00, 274.00, 13.00, 15, ABplpapaapp
136, 135, 135, -1, 247.00, 267.00, 12.00, 13, ABplpapaaap
137, 136, 136, -1, 256.00, 265.00, 14.00, 15, ABplpapaaaa
138, 137, 137, -1, 199.00, 298.00, 15.00, 13, ABplppapaap
140, 139, 139, -1, 319.00, 276.00, 16.00, 13, ABplpaaaaaa
141, 140, 140, -1, 313.00, 269.00, 14.00, 11, ABplpaaappa
144, 143, 143, -1, 281.00, 320.00, 20.00, 15, ABplpaappap
145, 144, 144, -1, 274.00, 305.00, 18.00, 13, ABplpaappaa
146, 145, 145, -1, 295.00, 276.00, 14.00, 15, ABplpaaappp
147, 146, 685, -1, 310.00, 261.00, 10.00, 15, ABplpaapapp
148, 147, 146, -1, 287.00, 263.00, 10.00, 17, ABplpaapppp
149, 148, 147, -1, 289.00, 313.00, 17.00, 13, ABplpaapaap
150, 149, 148, -1, 310.00, 281.00, 21.00, 13, ABplpaapaaa
151, 150, 149, -1, 357.00, 266.00, 17.00, 15, ABplpaapapa
154, 153, 152, -1, 244.00, 324.00, 14.00, 17, ABplaapppp
155, 154, 153, -1, 338.00, 211.00, 20.00, 13, ABplaapaaaa
156, 155, 154, -1, 350.00, 224.00, 21.00, 13, ABplaapaaap
157, 156, 155, -1, 348.00, 260.00, 21.00, 13, ABplaapaapa
158, 157, 156, -1, 338.00, 281.00, 22.00, 15, ABplaapaapp
159, 158, 157, -1, 297.00, 313.00, 26.00, 19, ABplaapappp
160, 159, 158, -1, 294.00, 299.00, 27.00, 13, ABplaapappa
161, 160, 159, -1, 269.00, 315.00, 26.00, 15, ABplaapapap
162, 161, 160, -1, 274.00, 309.00, 24.00, 15, ABplaapapaa
163, 162, 161, -1, 328.00, 249.00, 30.00, 17, ABplaaaaapp
164, 163, 162, -1, 309.00, 266.00, 26.00, 11, MSapaaap
165, 164, 163, -1, 352.00, 227.00, 26.00, 15, ABarpaaaapp
166, 165, 164, -1, 344.00, 237.00, 29.00, 11, ABplaaaaaap
167, 166, 165, -1, 337.00, 222.00, 34.00, 15, ABplaaaapp
170, 169, 168, -1, 317.00, 302.00, 27.00, 11, ABplaaappp
171, 170, 169, -1, 358.00, 264.00, 24.00, 17, ABplaaapap
172, 171, 170, -1, 356.00, 244.00, 21.00, 15, ABplaaapaa
173, 172, 171, -1, 137.00, 307.00, 9.00, 19, ABplappppa
174, 173, 172, -1, 90.00, 331.00, 12.00, 15, ABplappppp
175, 174, 173, -1, 126.00, 349.00, 15.00, 13, ABplapppaaa
176, 175, 174, -1, 107.00, 331.00, 13.00, 13, ABplapppapp
177, 176, 175, -1, 104.00, 333.00, 11.00, 11, ABplapppapa
178, 177, 176, -1, 211.00, 335.00, 20.00, 17, ABplappaaa
179, 178, 177, -1, 186.00, 342.00, 19.00, 17, ABplappaap
180, 179, 178, -1, 167.00, 346.00, 18.00, 15, ABplappapp
181, 180, 179, -1, 192.00, 352.00, 26.00, 15, ABplappapa
182, 181, 180, -1, 223.00, 328.00, 16.00, 15, ABplapaapp
183, 182, 181, -1, 240.00, 293.00, 9.00, 15, ABplapaapa
184, 183, 182, -1, 310.00, 290.00, 32.00, 13, ABarppaaaa
185, 184, 183, -1, 245.00, 328.00, 22.00, 13, ABplapaaapp
186, 185, 184, -1, 107.00, 366.00, 19.00, 11, ABplapapppa
187, 186, 185, -1, 97.00, 341.00, 15.00, 17, ABplapapppp
188, 187, 186, -1, 149.00, 354.00, 17.00, 17, ABplapapap
189, 188, 187, -1, 142.00, 344.00, 12.00, 17, ABplapappa
190, 189, 188, -1, 146.00, 368.00, 22.00, 17, ABplapapaa
191, 190, 189, -1, 236.00, 223.00, 14.00, 13, ABprpapaaaa
192, 191, 190, -1, 242.00, 209.00, 13.00, 15, ABprpapaapp
193, 192, 191, -1, 157.00, 288.00, 14.00, 11, ABprpapappp
194, 193, 192, -1, 216.00, 229.00, 15.00, 15, ABprpapapaa
196, 195, 194, -1, 111.00, 281.00, 17.00, 15, ABprpappppa
197, 196, 195, -1, 186.00, 279.00, 13.00, 11, ABprpappapp
198, 197, 196, -1, 241.00, 244.00, 12.00, 13, ABprpappaap
199, 198, 197, -1, 272.00, 234.00, 13.00, 11, ABprpappaaa
200, 199, 198, -1, 238.00, 179.00, 15.00, 15, ABprpaaaaap
201, 200, 199, -1, 251.00, 178.00, 19.00, 13, ABpraaappaa
202, 201, 200, -1, 179.00, 262.00, 12.00, 15, ABprpaaaapp
203, 202, 201, -1, 224.00, 243.00, 10.00, 17, ABprpaaaapa
204, 203, 202, -1, 269.00, 194.00, 18.00, 13, ABprpaaaaaa
205, 204, 203, -1, 252.00, 218.00, 13.00, 11, ABprpapaapa
206, 205, 204, -1, 252.00, 195.00, 15.00, 13, ABprpaaappp
208, 207, 206, -1, 269.00, 181.00, 13.00, 15, ABprpaaapap
209, 208, 207, -1, 228.00, 174.00, 18.00, 15, ABprpaapaap
210, 209, 208, -1, 302.00, 158.00, 21.00, 17, ABprpaapapa
211, 210, 209, -1, 273.00, 189.00, 10.00, 13, ABprpaapapp
212, 211, 210, -1, 258.00, 203.00, 11.00, 15, ABprpaapppp
213, 212, 211, -1, 215.00, 174.00, 19.00, 13, ABprpaappap
214, 213, 212, -1, 228.00, 180.00, 20.00, 13, ABprpaappaa
215, 214, 213, -1, 97.00, 256.00, 17.00, 15, ABprpppaapa
216, 215, 214, -1, 139.00, 244.00, 16.00, 13, ABprpppaaap
217, 216, 215, -1, 143.00, 254.00, 12.00, 15, ABprpppaaaa
218, 217, 216, -1, 105.00, 261.00, 11.00, 11, ABprpppapaa
219, 218, 217, -1, 98.00, 285.00, 10.00, 15, ABprpppapap
221, 220, 219, -1, 134.00, 256.00, 10.00, 17, ABprppppapa
222, 221, 220, -1, 127.00, 270.00, 12.00, 15, ABprppppapp
223, 222, 221, -1, 129.00, 266.00, 17.00, 15, ABprppppaaa
224, 223, 222, -1, 117.00, 270.00, 17.00, 13, ABprppppaap
226, 225, 224, -1, 118.00, 254.00, 20.00, 15, ABprpppppaa
227, 226, 225, -1, 101.00, 260.00, 20.00, 13, ABprpppppap
228, 227, 226, -1, 223.00, 201.00, 13.00, 13, ABprppaapap
229, 228, 227, -1, 212.00, 206.00, 11.00, 13, ABprppaapaa
230, 229, 228, -1, 202.00, 255.00, 13.00, 13, ABprppaappa
231, 230, 229, -1, 161.00, 268.00, 13.00, 13, ABprppaappp
232, 231, 230, -1, 229.00, 185.00, 13.00, 13, ABprppaaaaa
233, 232, 231, -1, 210.00, 186.00, 16.00, 15, ABprppaaaap
234, 233, 232, -1, 189.00, 230.00, 12.00, 15, ABprppapaaa
235, 234, 233, -1, 183.00, 253.00, 17.00, 13, ABprppapaap
236, 235, 234, -1, 169.00, 263.00, 17.00, 13, ABprppapapa
237, 236, 235, -1, 156.00, 258.00, 17.00, 13, ABprppapapp
238, 237, 236, -1, 159.00, 276.00, 16.00, 13, ABprppapppa
239, 238, 237, -1, 145.00, 258.00, 14.00, 13, ABprppapppp
240, 239, 238, -1, 186.00, 253.00, 15.00, 13, ABprppappaa
241, 240, 239, -1, 183.00, 270.00, 17.00, 11, ABprppappap
242, 241, 240, -1, 330.00, 202.00, 20.00, 13, ABpraapaaaa
243, 242, 241, -1, 324.00, 196.00, 27.00, 13, ABarpapaaaa
244, 243, 242, -1, 334.00, 187.00, 21.00, 11, ABpraapaaap
245, 244, 243, -1, 291.00, 168.00, 23.00, 13, ABpraapaapa
246, 245, 244, -1, 224.00, 186.00, 28.00, 15, ABpraapapap
247, 246, 245, -1, 223.00, 188.00, 26.00, 13, ABpraapapaa
249, 248, 247, -1, 240.00, 188.00, 28.00, 15, ABpraapappa
250, 249, 248, -1, 189.00, 191.00, 17.00, 19, ABpraapppp
251, 250, 249, -1, 290.00, 193.00, 9.00, 17, ABpraappaa
252, 251, 250, -1, 286.00, 182.00, 25.00, 15, ABpraaapapa
253, 252, 251, -1, 302.00, 178.00, 23.00, 11, ABpraaapapp
254, 253, 252, -1, 254.00, 183.00, 25.00, 15, ABpraaapaad
255, 254, 253, -1, 269.00, 173.00, 25.00, 11, ABpraaapaav
256, 255, 254, -1, 236.00, 182.00, 22.00, 15, ABpraaappap
257, 256, 255, -1, 218.00, 172.00, 23.00, 11, ABpraaapppap
258, 257, 256, -1, 316.00, 172.00, 19.00, 13, ABpraaaaapd
259, 258, 257, -1, 280.00, 167.00, 16.00, 15, ABpraaaaaaa
260, 259, 258, -1, 301.00, 181.00, 13.00, 13, ABpraaaaaap
261, 260, 259, -1, 253.00, 173.00, 15.00, 15, ABpraaaapav
262, 261, 260, -1, 287.00, 170.00, 14.00, 15, ABpraaaapad
263, 262, 261, -1, 257.00, 166.00, 24.00, 11, ABpraaaappa
264, 263, 262, -1, 257.00, 173.00, 28.00, 19, ABpraaaappp
265, 264, 263, -1, 130.00, 227.00, 21.00, 15, ABprappapp
266, 265, 264, -1, 144.00, 211.00, 28.00, 15, ABprappapa
267, 266, 265, -1, 148.00, 224.00, 21.00, 15, ABprappaap
268, 267, 266, -1, 164.00, 214.00, 22.00, 15, ABprappaaa
269, 268, 267, -1, 78.00, 241.00, 18.00, 11, ABprapppaap
270, 269, 268, -1, 85.00, 246.00, 16.00, 15, ABprapppaaa
271, 270, 269, -1, 91.00, 264.00, 14.00, 13, ABprapppapp
272, 271, 270, -1, 77.00, 258.00, 11.00, 11, ABprapppapa
273, 272, 271, -1, 76.00, 272.00, 12.00, 17, ABprappppp
274, 273, 272, -1, 118.00, 263.00, 9.00, 15, ABprappppa
275, 274, 273, -1, 205.00, 188.00, 24.00, 15, ABprapaaapa
276, 275, 274, -1, 190.00, 198.00, 25.00, 15, ABprapaaapp
277, 276, 275, -1, 230.00, 181.00, 31.00, 17, ABprapaaaap
278, 277, 276, -1, 174.00, 208.00, 19.00, 15, ABprapaapp
279, 278, 277, -1, 204.00, 222.00, 10.00, 15, ABprapaapa
280, 279, 278, -1, 108.00, 235.00, 14.00, 15, ABprapappa
281, 280, 279, -1, 74.00, 267.00, 16.00, 15, ABprapapppp
283, 282, 281, -1, 115.00, 227.00, 19.00, 17, ABprapapap
284, 283, 282, -1, 99.00, 232.00, 25.00, 17, ABprapapaa
285, 284, 283, -1, 245.00, 198.00, 32.00, 15, MSppppap
286, 285, 284, -1, 233.00, 195.00, 20.00, 11, MSppppaa
287, 286, 285, -1, 281.00, 206.00, 35.00, 15, MSpppppa
288, 287, 286, -1, 239.00, 217.00, 34.00, 19, MSpppppp
289, 288, 287, -1, 264.00, 197.00, 32.00, 13, MSpppaaa
290, 289, 288, -1, 130.00, 253.00, 25.00, 14, MSpppaap
291, 290, 289, -1, 229.00, 223.00, 12.00, 11, ABprpapaaap
292, 291, 290, -1, 137.00, 288.00, 19.00, 15, MSppaapp
293, 292, 291, -1, 254.00, 187.00, 23.00, 9, MSppaapa
294, 293, 292, -1, 272.00, 199.00, 22.00, 11, MSppaaaa
296, 295, 294, -1, 200.00, 203.00, 27.00, 15, MSppapaa
297, 296, 295, -1, 255.00, 193.00, 20.00, 11, MSppapap
298, 297, 296, -1, 196.00, 257.00, 22.00, 15, MSpapappp
299, 298, 297, -1, 208.00, 243.00, 22.00, 15, MSpapapaa
300, 299, 298, -1, 207.00, 233.00, 19.00, 13, MSpapaaap
301, 300, 299, -1, 195.00, 236.00, 24.00, 15, MSpapaapp
302, 301, 300, -1, 173.00, 323.00, 19.00, 15, MSpappaa
303, 302, 301, -1, 171.00, 243.00, 20.00, 13, MSpappppa
304, 303, 302, -1, 155.00, 248.00, 21.00, 15, MSpappppp
305, 304, 303, -1, 233.00, 250.00, 33.00, 15, MSpaaappp
306, 305, 304, -1, 243.00, 267.00, 31.00, 13, MSpaaapaa
307, 306, 305, -1, 216.00, 261.00, 32.00, 13, MSpaaapap
308, 307, 306, -1, 274.00, 219.00, 32.00, 15, MSpaaaapa
309, 308, 307, -1, 257.00, 224.00, 32.00, 15, MSpaaaapp
310, 309, 308, -1, 270.00, 247.00, 36.00, 17, MSpaaaaaa
311, 310, 309, -1, 247.00, 245.00, 30.00, 11, MSpaaaaap
312, 311, 310, -1, 211.00, 209.00, 24.00, 13, ABaraappppa
313, 312, 311, -1, 217.00, 218.00, 30.00, 13, ABaraapppap
314, 313, 312, -1, 233.00, 249.00, 30.00, 11, MSpaapaap
315, 314, 313, -1, 250.00, 241.00, 33.00, 15, MSpaaappa
316, 315, 314, -1, 230.00, 231.00, 31.00, 11, MSpaapaaa
317, 316, 315, -1, 274.00, 300.00, 31.00, 13, MSapppap
318, 317, 316, -1, 293.00, 265.00, 35.00, 19, MSappppa
320, 319, 318, -1, 146.00, 334.00, 19.00, 11, MSappaap
321, 320, 319, -1, 292.00, 280.00, 31.00, 17, MSappaaa
323, 322, 321, -1, 267.00, 279.00, 31.00, 17, ABaraapaapp
324, 323, 322, -1, 313.00, 245.00, 33.00, 15, MSapappp
325, 324, 323, -1, 236.00, 317.00, 26.00, 14, MSapapaa
326, 325, 324, -1, 153.00, 282.00, 20.00, 17, MSapaapp
327, 326, 325, -1, 293.00, 284.00, 19.00, 14, MSapapap
328, 327, 326, -1, 303.00, 263.00, 22.00, 11, MSapaaaa
329, 328, 327, -1, 279.00, 241.00, 31.00, 11, MSaaaaapap
330, 329, 328, -1, 296.00, 234.00, 31.00, 11, MSaaaaapaa
331, 330, 329, -1, 276.00, 257.00, 30.00, 11, MSaaapaaa
332, 331, 330, -1, 293.00, 208.00, 28.00, 13, MSaaaaaar
333, 332, 331, -1, 311.00, 247.00, 27.00, 11, MSaaaaaal
334, 333, 332, -1, 251.00, 257.00, 35.00, 13, MSaaaapaa
335, 334, 333, -1, 257.00, 266.00, 32.00, 13, MSaaaapap
336, 335, 334, -1, 231.00, 271.00, 32.00, 13, MSaaaappa
337, 336, 335, -1, 231.00, 288.00, 30.00, 13, MSaaapapp
338, 718, 336, -1, 206.00, 290.00, 30.00, 15, MSaaappa
339, 338, 337, -1, 215.00, 277.00, 33.00, 13, MSaaappp
340, 339, 338, -1, 192.00, 314.00, 18.00, 17, MSaapppp
341, 340, 339, -1, 232.00, 273.00, 18.00, 13, MSaapaaap
342, 341, 340, -1, 252.00, 275.00, 18.00, 15, MSaapaaaa
343, 342, 341, -1, 215.00, 278.00, 18.00, 11, MSaapappp
344, 343, 342, -1, 244.00, 300.00, 26.00, 15, MSaapappa
345, 344, 343, -1, 232.00, 277.00, 21.00, 13, MSaapapaa
346, 345, 344, -1, 230.00, 292.00, 18.00, 13, MSaapapap
347, 346, 345, -1, 98.00, 315.00, 24.00, 25, Eplpa
348, 347, 346, -1, 112.00, 352.00, 22.00, 14, Cappapa
349, 348, 347, -1, 102.00, 346.00, 20.00, 13, Cappapp
350, 349, 348, -1, 190.00, 332.00, 30.00, 15, Cappaaa
351, 350, 349, -1, 80.00, 339.00, 23.00, 15, Capppap
352, 351, 350, -1, 109.00, 345.00, 31.00, 15, Capppaa
353, 352, 351, -1, 124.00, 352.00, 26.00, 15, Capapap
354, 353, 352, -1, 161.00, 346.00, 29.00, 17, Capapaa
355, 354, 353, -1, 138.00, 318.00, 13.00, 15, Capappp
356, 355, 354, -1, 147.00, 336.00, 16.00, 13, Capappa
357, 356, 355, -1, 193.00, 336.00, 22.00, 13, Capaaap
358, 357, 356, -1, 213.00, 322.00, 22.00, 15, Capaaaa
360, 359, 358, -1, 67.00, 301.00, 14.00, 15, Caappv
361, 360, 359, -1, 100.00, 286.00, 9.00, 9, Caapap
362, 361, 360, -1, 91.00, 358.00, 19.00, 13, Cpappd
363, 362, 361, -1, 73.00, 325.00, 14.00, 15, Cpappv
364, 363, 362, -1, 71.00, 263.00, 24.00, 19, Cpapaa
365, 364, 363, -1, 119.00, 241.00, 25.00, 15, Cppaapp
366, 365, 364, -1, 145.00, 235.00, 25.00, 15, Cppaapa
367, 366, 365, -1, 163.00, 231.00, 24.00, 11, Cppaaap
368, 367, 366, -1, 178.00, 225.00, 22.00, 13, Cppaaaa
369, 368, 367, -1, 143.00, 244.00, 31.00, 15, Cppapaa
370, 369, 368, -1, 116.00, 253.00, 16.00, 13, Cppappp
371, 370, 369, -1, 110.00, 244.00, 19.00, 13, Cppappa
372, 371, 370, -1, 138.00, 262.00, 34.00, 15, Cpppaap
373, 372, 371, -1, 167.00, 232.00, 31.00, 15, Cpppaaa
374, 373, 372, -1, 79.00, 268.00, 21.00, 15, Cpppapp
375, 374, 373, -1, 87.00, 261.00, 27.00, 15, Cpppapa
376, 375, 374, -1, 254.00, 297.00, 15.00, 13, Daapa
377, 376, 375, -1, 237.00, 302.00, 14.00, 15, Daapp
378, 377, 376, -1, 254.00, 306.00, 19.00, 15, Daaaa
379, 378, 377, -1, 243.00, 310.00, 30.00, 17, Daaap
380, 379, 378, -1, 227.00, 295.00, 34.00, 13, Dappaa
381, 380, 379, -1, 169.00, 325.00, 33.00, 13, Dapppp
382, 381, 380, -1, 192.00, 311.00, 33.00, 15, Dapppa
383, 382, 381, -1, 200.00, 214.00, 15.00, 15, Dpapp
384, 383, 382, -1, 212.00, 205.00, 17.00, 13, Dpapa
385, 384, 383, -1, 214.00, 209.00, 33.00, 15, Dpaap
387, 386, 385, -1, 213.00, 196.00, 21.00, 13, Dpaaa
388, 387, 386, -1, 182.00, 242.00, 32.00, 13, Dppppa
389, 389, 387, -1, 199.00, 249.00, 34.00, 15, Dpppap
390, 390, 388, -1, 219.00, 232.00, 35.00, 17, Dpppaa
391, 391, 389, -1, 195.00, 206.00, 21.00, 15, Dppaa
392, 392, 390, -1, 186.00, 222.00, 31.00, 17, Dppap
395, 395, 393, -1, 299.00, 313.00, 21.00, 13, ABalppppppaa
396, 396, 394, -1, 279.00, 320.00, 22.00, 11, ABalppppppap
397, 397, 395, -1, 311.00, 308.00, 19.00, 13, ABalpppppppa
398, 398, 683, -1, 347.00, 256.00, 25.00, 11, ABalapaaapp
399, 399, 397, -1, 336.00, 274.00, 16.00, 13, ABalpppaaaa
400, 400, 398, -1, 328.00, 249.00, 13.00, 13, ABalpppaaap
401, 401, 399, -1, 347.00, 264.00, 16.00, 11, ABalpppaapd
402, 402, 400, -1, 349.00, 246.00, 18.00, 13, ABalpppaapv
403, 403, 401, -1, 308.00, 293.00, 15.00, 15, ABalpppapad
404, 404, 402, -1, 330.00, 271.00, 13.00, 17, ABalpppapav
405, 405, 403, -1, 344.00, 245.00, 15.00, 13, ABalaaapalr
406, 406, 404, -1, 338.00, 247.00, 13.00, 13, ABalppaaapp
408, 408, 406, -1, 287.00, 301.00, 15.00, 15, ABplpaaaaap
409, 409, 407, -1, 291.00, 256.00, 14.00, 11, ABalppapppa
410, 410, 408, -1, 315.00, 258.00, 20.00, 15, ABalppappaa
411, 411, 409, -1, 324.00, 271.00, 21.00, 11, ABalapaappa
412, 412, 410, -1, 282.00, 253.00, 12.00, 11, ABalppapapa
413, 413, 411, -1, 307.00, 242.00, 11.00, 15, ABalppapapp
414, 414, 412, -1, 307.00, 232.00, 9.00, 17, ABplaappaa
415, 415, 413, -1, 322.00, 243.00, 18.00, 15, ABalppapaaa
416, 416, 414, -1, 271.00, 249.00, 14.00, 15, ABalpapapaa
417, 417, 415, -1, 208.00, 282.00, 10.00, 13, ABalpapappa
418, 418, 416, -1, 307.00, 215.00, 12.00, 11, ABalpapaapp
419, 420, 417, -1, 312.00, 226.00, 12.00, 11, ABalppapaap
420, 421, 418, -1, 273.00, 249.00, 19.00, 13, ABalpaaaapa
421, 422, 419, -1, 271.00, 259.00, 18.00, 13, ABalpaaaaap
422, 423, 420, -1, 250.00, 245.00, 21.00, 11, ABalpappaaa
423, 424, 421, -1, 276.00, 281.00, 21.00, 13, ABalpapppaa
424, 425, 422, -1, 252.00, 261.00, 20.00, 11, ABalpapppap
425, 426, 423, -1, 294.00, 270.00, 24.00, 13, ABalpaaapaa
426, 427, 424, -1, 292.00, 268.00, 27.00, 11, ABalpaaapap
427, 428, 425, -1, 253.00, 252.00, 17.00, 11, ABalpaaaapp
428, 429, 426, -1, 283.00, 252.00, 21.00, 15, ABalpaaaaaa
429, 430, 427, -1, 274.00, 272.00, 19.00, 14, ABalpappaap
431, 432, 429, -1, 313.00, 229.00, 20.00, 13, ABalpaapppa
432, 433, 430, -1, 320.00, 227.00, 17.00, 13, ABalpaapppp
433, 434, 431, -1, 302.00, 230.00, 20.00, 15, ABalpaappaa
434, 435, 432, -1, 277.00, 266.00, 28.00, 15, ABalpaapapa
438, 439, 436, -1, 132.00, 316.00, 28.00, 15, Ealpp
439, 440, 437, -1, 136.00, 292.00, 28.00, 19, Earpp
441, 442, 439, -1, 214.00, 285.00, 21.00, 19, Ealaad
442, 443, 440, -1, 104.00, 283.00, 19.00, 19, Eprpp
443, 444, 441, -1, 210.00, 323.00, 29.00, 13, Dapap
444, 445, 442, -1, 231.00, 314.00, 20.00, 13, Dapaa
445, 446, 443, -1, 231.00, 296.00, 23.00, 15, MSaapaapp
446, 447, 444, -1, 240.00, 301.00, 21.00, 11, MSaapaapa
447, 448, 445, -1, 190.00, 204.00, 31.00, 15, ABarpppapp
448, 449, 446, -1, 270.00, 302.00, 13.00, 15, ABplppaapap
449, 450, 447, -1, 257.00, 294.00, 10.00, 11, ABplppaapaa
450, 451, 448, -1, 329.00, 245.00, 21.00, 13, ABalaaaalar
451, 452, 449, -1, 287.00, 179.00, 28.00, 13, ABalapppppa
452, 453, 450, -1, 325.00, 172.00, 22.00, 11, ABarpappaa
453, 454, 451, -1, 106.00, 281.00, 36.00, 17, Cppppaa
454, 455, 452, -1, 71.00, 288.00, 27.00, 17, Cppppap
455, 456, 453, -1, 101.00, 275.00, 14.00, 13, Cpppppv
456, 457, 454, -1, 179.00, 271.00, 24.00, 19, Earpa
457, 458, 455, -1, 303.00, 192.00, 31.00, 15, ABarpapaapp
458, 459, 456, -1, 116.00, 301.00, 30.00, 13, Eprap
459, 460, 457, -1, 286.00, 230.00, 36.00, 21, ABarpaappa
461, 462, 459, -1, 195.00, 276.00, 19.00, 13, MSaappap
462, 681, 460, -1, 295.00, 228.00, 15.00, 13, ABalpapaapa
464, 465, 462, -1, 221.00, 298.00, 11.00, 15, ABplppapaaa
465, 466, 463, -1, 330.00, 241.00, 23.00, 11, ABalaaaalal
466, 467, 464, -1, 283.00, 193.00, 16.00, 13, ABarappppap
467, 468, 465, -1, 141.00, 248.00, 19.00, 15, MSpappap
468, 469, 466, -1, 203.00, 245.00, 32.00, 15, MSpaapapp
469, 470, 467, -1, 70.00, 295.00, 18.00, 17, Cpppppd
470, 471, 468, -1, 302.00, 299.00, 30.00, 13, ABplapaaaaa
472, 473, 470, -1, 290.00, 308.00, 31.00, 19, ABplapaaaap
473, 474, 471, -1, 324.00, 264.00, 17.00, 9, ABalppaaapa
474, 475, 677, -1, 258.00, 261.00, 23.00, 15, ABalpappppp
475, 476, 472, -1, 330.00, 215.00, 18.00, 11, ABalaaaparr
476, 477, 473, -1, 340.00, 225.00, 19.00, 11, ABalaaaparl
477, 478, 474, -1, 263.00, 280.00, 23.00, 13, ABalpaaappp
478, 479, 475, -1, 277.00, 284.00, 24.00, 13, ABalpaaappa
479, 480, 476, -1, 191.00, 291.00, 23.00, 17, Ealpa
480, 481, 477, -1, 229.00, 238.00, 14.00, 13, ABprpappapa
481, 482, 478, -1, 152.00, 310.00, 19.00, 23, Z3
482, 483, 479, -1, 147.00, 339.00, 33.00, 15, Cappaap
483, 484, 480, -1, 277.00, 235.00, 18.00, 13, ABarappaapp
484, 485, 481, -1, 202.00, 225.00, 27.00, 15, MSpapappa
485, 486, 482, -1, 197.00, 221.00, 23.00, 19, MSpapaapa
486, 487, 483, -1, 275.00, 161.00, 23.00, 15, ABpraapaapp
487, 488, 678, -1, 275.00, 181.00, 27.00, 11, ABalappapaa
488, 679, 485, -1, 278.00, 219.00, 22.00, 13, ABaraaaaapa
489, 490, 486, -1, 299.00, 250.00, 16.00, 13, ABalppapppp
490, 491, 487, -1, 326.00, 198.00, 18.00, 13, ABalaaappll
491, 492, 488, -1, 108.00, 258.00, 32.00, 17, Cppapap
492, 493, 489, -1, 230.00, 214.00, 23.00, 19, ABarapaappp
493, 494, 490, -1, 302.00, 292.00, 22.00, 11, ABalppppaad
494, 495, 491, -1, 246.00, 287.00, 34.00, 15, MSappppp
495, 496, 492, -1, 281.00, 286.00, 26.00, 15, ABalpaapapp
496, 497, 493, -1, 122.00, 341.00, 16.00, 17, ABplpppaapa
497, 498, 494, -1, 347.00, 212.00, 30.00, 15, ABplaaaapa
499, 501, 496, -1, 225.00, 228.00, 19.00, 13, MSpapaaaa
500, 502, 497, -1, 191.00, 227.00, 16.00, 13, MSpapppaa
501, 503, 498, -1, 183.00, 237.00, 18.00, 15, MSpapppap
502, 504, 499, -1, 305.00, 245.00, 36.00, 11, ABarpaapap
503, 505, 500, -1, 267.00, 179.00, 22.00, 13, ABprpaapaaa
504, 506, 501, -1, 303.00, 305.00, 16.00, 9, ABalpppppppp
505, 507, 502, -1, 94.00, 307.00, 9.00, 11, ABprpppapp
506, 508, 503, -1, 236.00, 204.00, 11.00, 17, ABprpaapppa
507, 509, 504, -1, 159.00, 292.00, 31.00, 19, Epraa
508, 510, 505, -1, 300.00, 185.00, 21.00, 11, ABalaappppp
509, 511, 506, -1, 342.00, 204.00, 22.00, 15, ABarpaaaaal
510, 224, 507, -1, 90.00, 292.00, 12.00, 13, ABprppppppa
511, 513, 508, -1, 207.00, 194.00, 34.00, 15, ABarpppapa
512, 514, 509, -1, 274.00, 283.00, 16.00, 15, MSappapp
513, 515, 510, -1, 90.00, 233.00, 20.00, 11, ABarpppppp
514, 516, 511, -1, 238.00, 197.00, 17.00, 11, MSpppapa
515, 517, 512, -1, 312.00, 270.00, 32.00, 15, MSapappa
516, 519, 513, -1, 304.00, 206.00, 34.00, 15, MSppappp
517, 520, 514, -1, 109.00, 309.00, 13.00, 15, Cappppd
518, 521, 515, -1, 226.00, 266.00, 29.00, 15, MSaaaappp
519, 522, 516, -1, 110.00, 355.00, 15.00, 11, ABplapppaap
520, 523, 517, -1, 137.00, 264.00, 21.00, 21, Z2
521, 524, 518, -1, 322.00, 266.00, 29.00, 11, ABplaaaaapa
522, 525, 519, -1, 196.00, 240.00, 20.00, 13, MSpapapap
523, 526, 520, -1, 111.00, 318.00, 30.00, 17, Eplap
525, 528, 522, -1, 106.00, 306.00, 18.00, 25, Eplpp
527, 530, 524, -1, 143.00, 345.00, 22.00, 17, Capaapp
528, 531, 525, -1, 167.00, 346.00, 23.00, 11, Capaapa
529, 532, 526, -1, 251.00, 182.00, 11.00, 19, ABpraappap
530, 533, 527, -1, 285.00, 186.00, 32.00, 15, MSppappa
531, 682, 528, -1, 242.00, 246.00, 18.00, 13, ABalpappppa
535, 538, 532, -1, 238.00, 165.00, 16.00, 11, ABpraaappppp
537, 540, 534, -1, 301.00, 292.00, 19.00, 13, ABalpppppaa
539, 542, 536, -1, 279.00, 196.00, 28.00, 11, MSppaaap
541, 544, 538, -1, 215.00, 254.00, 18.00, 17, ABarapapapp
543, 546, 540, -1, 212.00, 310.00, 18.00, 13, MSaapppap
544, 547, 541, -1, 229.00, 328.00, 32.00, 19, Caaaaa
545, 548, 542, -1, 61.00, 273.00, 18.00, 13, Caappd
546, 549, 543, -1, 95.00, 246.00, 29.00, 15, Caaapp
547, 550, 544, -1, 260.00, 323.00, 23.00, 13, ABplapaaapa
548, 551, 545, -1, 238.00, 222.00, 21.00, 13, ABarapapppp
549, 552, 546, -1, 223.00, 297.00, 15.00, 13, MSaapppaa
550, 553, 547, -1, 197.00, 268.00, 13.00, 13, ABarappappa
551, 554, 548, -1, 294.00, 247.00, 21.00, 13, ABaraaaaaaa
552, 555, 549, -1, 170.00, 292.00, 25.00, 13, Ealap
555, 558, 552, -1, 196.00, 298.00, 12.00, 15, ABplpaaaapp
559, 562, 556, -1, 242.00, 236.00, 22.00, 15, ABarapappap
564, 567, 561, -1, 115.00, 305.00, 15.00, 15, ABprpappppp
566, 569, 563, -1, 278.00, 279.00, 11.00, 15, ABplpaapppa
567, 570, 564, -1, 248.00, 253.00, 10.00, 17, ABalpapapap
568, 571, 565, -1, 246.00, 283.00, 11.00, 15, ABalpapappp
569, 572, 566, -1, 100.00, 295.00, 26.00, 19, Eprpa
570, 573, 567, -1, 343.00, 280.00, 26.00, 15, ABplaaappa
571, 574, 707, -1, 331.00, 231.00, 30.00, 14, ABalapapapp
572, 575, 569, -1, 325.00, 201.00, 31.00, 11, ABalapppapp
574, 577, 571, -1, 231.00, 209.00, 17.00, 13, MSpppapp
575, 578, 572, -1, 302.00, 291.00, 24.00, 11, ABalppppaav
577, 580, 574, -1, 281.00, 222.00, 29.00, 17, ABaraappaap
578, 581, 575, -1, 292.00, 223.00, 28.00, 17, ABaraappaaa
582, 585, 579, -1, 287.00, 304.00, 22.00, 13, ABalpppppap
583, 586, 580, -1, 139.00, 361.00, 29.00, 19, Cpaapp
585, 588, 582, -1, 272.00, 288.00, 28.00, 13, MSaaapaap
586, 676, 583, -1, 248.00, 162.00, 29.00, 19, ABarpapppp
589, 592, 586, -1, 74.00, 320.00, 17.00, 17, Cappppv
591, 594, 588, -1, 121.00, 291.00, 9.00, 17, ABplpppapap
592, 595, 589, -1, 285.00, 303.00, 13.00, 13, ABplppaaaaa
593, 596, 590, -1, 307.00, 169.00, 15.00, 11, ABalaappaa
595, 598, 592, -1, 292.00, 222.00, 25.00, 11, ABaraaaapap
596, 599, 593, -1, 254.00, 214.00, 29.00, 17, ABaraaapapa
598, 601, 595, -1, 217.00, 238.00, 30.00, 15, MSpaapapa
599, 602, 596, -1, 298.00, 239.00, 16.00, 13, ABalpapaaaa
602, 605, 599, -1, 304.00, 166.00, 27.00, 17, ABarpappap
604, 607, 601, -1, 249.00, 182.00, 33.00, 13, ABarpppaaa
607, 610, 604, -1, 337.00, 258.00, 20.00, 11, ABalapaappp
609, 612, 606, -1, 270.00, 176.00, 30.00, 13, ABalappapap
610, 613, 607, -1, 296.00, 283.00, 10.00, 15, ABplaappap
613, 616, 610, -1, 245.00, 312.00, 35.00, 17, Cpaaaa
614, 617, 611, -1, 322.00, 291.00, 23.00, 17, ABalpppappp
615, 618, 612, -1, 211.00, 276.00, 13.00, 11, ABplppaappa
616, 619, 613, -1, 268.00, 294.00, 35.00, 21, ABarppaapa
617, 677, 614, -1, 232.00, 205.00, 9.00, 15, ABpraapppa
621, 625, 618, -1, 248.00, 158.00, 20.00, 17, ABpraaappppa
622, 626, 619, -1, 102.00, 363.00, 24.00, 15, Cpapap
623, 627, 620, -1, 229.00, 265.00, 11.00, 15, ABplpaaaapa
625, 629, 622, -1, 258.00, 286.00, 25.00, 15, ABaraapapaa
628, 632, 624, -1, 94.00, 251.00, 12.00, 13, ABprpppaapp
629, 633, 625, -1, 147.00, 303.00, 11.00, 13, ABplppppapa
630, 634, 626, -1, 192.00, 244.00, 13.00, 15, ABprpapppap
635, 639, 631, -1, 269.00, 191.00, 16.00, 15, ABprpaaappa
640, 644, 635, -1, 273.00, 299.00, 21.00, 9, MSapppaa
643, 647, 638, -1, 299.00, 241.00, 24.00, 13, ABalpaapaaa
648, 652, 643, -1, 245.00, 184.00, 35.00, 13, ABarpaappp
649, 653, 644, -1, 231.00, 171.00, 27.00, 15, ABpraapappp
651, 655, 646, -1, 277.00, 215.00, 30.00, 21, ABaraappapa
655, 659, 650, -1, 284.00, 179.00, 21.00, 14, ABalaappppa
656, 660, 651, -1, 339.00, 255.00, 22.00, 11, ABalppppapp
661, 668, 656, -1, 231.00, 248.00, 21.00, 13, ABarapapaaa
664, 675, 562, 630, 195.00, 260.00, 28.00, 11, Earaa
668, 667, 665, -1, 206.00, 334.00, 34.00, 20, Cpaaap
669, 669, 666, -1, 228.00, 251.00, 18.22, 15, ABarapapppa
670, 670, 654, -1, 207.00, 313.00, 32.00, 14, Dappap
671, 388, 668, -1, 161.00, 255.00, 33.00, 13, Dppppp
672, 671, 655, -1, 118.00, 241.00, 33.25, 18, Caaapa
673, 672, 669, -1, 149.00, 313.00, 31.00, 19, Eplaa
674, 673, 670, -1, 116.00, 299.00, 33.00, 15, Cpaapa
675, 674, 671, -1, 150.00, 229.00, 33.00, 15, Caaaap
678, 582, 674, -1, 271.00, 289.00, 9.67, 15, ABplaapppa
679, 680, 675, -1, 290.00, 219.00, 19.00, 15, ABaraaappap
680, 407, 676, -1, 301.00, 261.00, 12.00, 13, ABalppaappp
681, 683, 679, -1, 311.00, 216.00, 31.00, 11, ABalapppapa
682, 684, 680, -1, 325.00, 217.00, 24.00, 13, ABalapppaap
683, 685, 681, -1, 307.00, 174.00, 24.00, 15, ABalappappp
684, 686, 682, -1, 316.00, 284.00, 18.00, 13, ABalapaapaa
685, 687, 684, -1, 282.00, 220.00, 13.00, 13, ABalaapappa
686, 688, 223, -1, 76.00, 292.00, 12.94, 13, ABprppppppp
687, 689, 686, -1, 216.00, 230.00, 13.00, 13, ABprpapapap
688, 628, 621, -1, 313.00, 269.00, 11.50, 15, ABplpaaapap
689, 690, 26, -1, 282.00, 229.00, 14.00, 13, ABarappaapa
690, 691, 687, -1, 268.00, 219.00, 20.78, 15, ABarapaaaaa
692, 693, 690, -1, 239.00, 169.00, 23.00, 15, ABpraaapppaa
693, 206, 205, -1, 289.00, 194.00, 13.00, 13, ABprpaaapaa
694, 438, 691, -1, 177.00, 285.00, 29.33, 21, Earap
695, 694, 692, -1, 308.00, 258.00, 14.00, 13, ABplpaaapaa
696, 695, 693, -1, 295.00, 228.00, 12.00, 13, ABalpapaaap
697, 696, 694, -1, 211.00, 301.00, 29.00, 13, Ealaav
698, 698, 695, -1, 289.00, 180.00, 16.00, 13, ABalaappapa
699, 699, 696, -1, 103.00, 292.00, 14.00, 13, Caapaa
700, 700, 697, -1, 243.00, 283.00, 30.00, 13, MSaaapapa
701, 701, 698, -1, 263.00, 321.00, 16.00, 16, ABplppaaaap
702, 702, 699, -1, 222.00, 264.00, 14.00, 15, ABplpappaap
703, 703, 701, -1, 223.00, 217.00, 26.00, 13, ABaraapppaa
704, 704, 702, -1, 291.00, 251.00, 26.00, 13, ABalpaapaap
705, 705, 703, -1, 293.00, 233.00, 18.00, 13, ABalpaappap
706, 706, 704, -1, 342.00, 236.00, 21.00, 13, ABalapaaapa
707, 707, 705, -1, 304.00, 179.00, 15.00, 11, ABalaappapp
708, 709, 706, -1, 294.00, 198.00, 20.00, 13, ABalaapaaal
709, 710, 568, -1, 315.00, 231.00, 31.00, 15, ABalapapapa
710, 711, 708, -1, 302.00, 184.00, 28.00, 13, ABalapppppp
711, 712, 709, -1, 312.00, 255.00, 17.00, 13, ABalppappap
714, 715, 712, -1, 273.00, 199.00, 13.00, 13, ABalaapappp
715, 716, 713, -1, 323.00, 231.00, 24.00, 15, ABalapappaa
716, 717, 714, -1, 272.00, 231.00, 17.00, 13, ABarapapapa
