1, 1, 1, -1, 273.00, 213.00, 28.00, 13, ABaraaapaap
2, 2, 2, -1, 232.00, 210.00, 28.00, 13, ABaraaapapp
3, 3, 3, -1, 216.00, 222.00, 21.00, 15, ABaraappppp
4, 4, 4, -1, 253.00, 296.00, 22.00, 15, ABaraapappa
5, 5, 5, -1, 249.00, 285.00, 20.00, 15, ABaraapappp
6, 6, 6, -1, 255.00, 296.00, 28.00, 15, ABaraapapap
7, 7, 7, -1, 295.00, 233.00, 27.00, 17, ABaraapaaaa
8, 8, 8, -1, 297.00, 246.00, 29.00, 15, ABaraapaaap
9, 9, 9, -1, 278.00, 269.00, 31.00, 13, MSaaaaapp
10, 10, 10, -1, 296.00, 254.00, 30.00, 15, ABaraapaapa
11, 11, 11, -1, 294.00, 219.00, 22.00, 13, ABaraaappaa
12, 12, 12, -1, 306.00, 211.00, 18.00, 13, ABaraaapppa
13, 13, 13, -1, 303.00, 204.00, 21.00, 13, ABaraaapppp
14, 14, 14, -1, 280.00, 221.00, 25.00, 15, ABaraaapaaa
15, 15, 15, -1, 230.00, 224.00, 30.00, 15, ABaraappapp
16, 16, 16, -1, 287.00, 263.00, 22.00, 15, ABaraaaaaap
17, 17, 17, -1, 271.00, 258.00, 26.00, 11, ABaraaaapp
18, 18, 18, -1, 293.00, 233.00, 24.00, 13, ABaraaaapaa
19, 19, 19, -1, 207.00, 263.00, 19.00, 13, ABalpappapp
20, 20, 20, -1, 265.00, 243.00, 18.00, 17, ABalpappapa
21, 21, 21, -1, 245.00, 207.00, 21.00, 17, ABarapapaap
22, 22, 22, -1, 253.00, 242.00, 13.00, 13, ABprpappaap
23, 23, 23, -1, 243.00, 204.00, 24.00, 15, ABarapappaa
24, 24, 24, -1, 286.00, 225.00, 11.00, 11, ABalaapappa
25, 25, 25, -1, 266.00, 240.00, 20.00, 11, ABarapaaapp
26, 27, 26, -1, 259.00, 206.00, 26.00, 13, ABarapaapap
27, 28, 27, -1, 252.00, 224.00, 27.00, 13, ABarapaapaa
28, 29, 28, -1, 268.00, 221.00, 11.00, 13, ABarapppapa
29, 30, 29, -1, 296.00, 209.00, 10.00, 13, ABarapppapp
30, 31, 30, -1, 282.00, 201.00, 20.00, 13, ABalaapaaal
31, 32, 31, -1, 300.00, 211.00, 13.00, 14, ABarapppaap
32, 33, 32, -1, 259.00, 177.00, 18.00, 13, ABalaapppap
33, 34, 33, -1, 280.00, 212.00, 11.00, 11, ABarapppppa
34, 35, 34, -1, 277.00, 212.00, 15.00, 13, ABarapppppp
35, 36, 35, -1, 288.00, 213.00, 17.00, 15, ABarappaaaa
36, 37, 36, -1, 293.00, 225.00, 15.00, 13, ABarappaapa
37, 38, 37, -1, 245.00, 223.00, 10.00, 19, ABarappapap
38, 39, 38, -1, 265.00, 230.00, 13.00, 13, ABarappapaa
39, 40, 39, -1, 222.00, 212.00, 12.00, 13, ABarappappp
40, 41, 40, -1, 212.00, 233.00, 11.00, 15, ABprpapappa
41, 42, 41, -1, 284.00, 160.00, 25.00, 15, ABarpapppa
44, 45, 44, -1, 350.00, 194.00, 23.00, 15, ABarpapapa
45, 46, 45, -1, 340.00, 190.00, 31.00, 13, ABarpaapaa
46, 47, 46, -1, 347.00, 210.00, 23.00, 11, ABarpaaaaar
47, 48, 47, -1, 345.00, 213.00, 25.00, 11, ABarpaaaapa
48, 49, 48, -1, 344.00, 187.00, 28.00, 13, ABarpaaapp
49, 50, 49, -1, 334.00, 204.00, 25.00, 11, ABarpaaapaa
50, 51, 50, -1, 334.00, 181.00, 25.00, 15, ABarpaaapap
51, 52, 51, -1, 287.00, 327.00, 23.00, 15, ABarppaaap
52, 53, 52, -1, 254.00, 326.00, 27.00, 15, ABarppaapp
53, 54, 53, -1, 173.00, 359.00, 26.00, 15, ABarppappa
54, 55, 54, -1, 237.00, 345.00, 24.00, 17, ABarppapap
55, 56, 55, -1, 265.00, 339.00, 23.00, 15, ABarppapaa
56, 57, 56, -1, 127.00, 227.00, 29.00, 17, ABarpppppa
57, 58, 57, -1, 192.00, 186.00, 27.00, 13, ABarppppaa
58, 59, 58, -1, 174.00, 206.00, 29.00, 17, ABarppppap
59, 60, 59, -1, 222.00, 168.00, 28.00, 11, ABarpppaap
60, 61, 60, -1, 312.00, 215.00, 27.00, 11, ABalappppaa
61, 62, 61, -1, 326.00, 196.00, 26.00, 13, ABalappppap
62, 63, 62, -1, 317.00, 227.00, 29.00, 11, ABalapppaaa
64, 65, 64, -1, 302.00, 172.00, 29.00, 13, ABalappappa
68, 69, 68, -1, 333.00, 218.00, 34.00, 19, ABarpapapp
70, 71, 70, -1, 321.00, 298.00, 28.00, 11, ABalapaaaap
71, 72, 71, -1, 328.00, 279.00, 28.00, 15, ABalapaaaaa
72, 73, 72, -1, 329.00, 261.00, 26.00, 13, ABalaaapall
73, 74, 675, -1, 331.00, 291.00, 20.00, 13, ABalpppapppa
74, 75, 74, -1, 291.00, 200.00, 23.00, 13, ABalaapaaar
75, 76, 75, -1, 289.00, 193.00, 12.00, 11, ABalaapapa
76, 77, 76, -1, 286.00, 184.00, 18.00, 13, ABalaapaapa
77, 78, 77, -1, 302.00, 187.00, 15.00, 11, ABalaappaa
78, 79, 78, -1, 271.00, 189.00, 20.00, 13, ABarappppaa
79, 80, 79, -1, 251.00, 172.00, 16.00, 15, ABalaapppaa
80, 81, 80, -1, 305.00, 208.00, 24.00, 13, ABalaaaarrp
81, 82, 81, -1, 299.00, 197.00, 18.00, 11, ABalaapaapp
82, 83, 82, -1, 315.00, 198.00, 18.00, 11, ABalaaaarra
83, 84, 83, -1, 317.00, 236.00, 23.00, 13, ABalaaaarlp
84, 85, 84, -1, 331.00, 225.00, 17.00, 13, ABalaaaarla
85, 86, 85, -1, 324.00, 240.00, 18.00, 11, ABalaaaalpp
87, 88, 87, -1, 289.00, 189.00, 27.00, 13, ABalaaapprr
89, 90, 88, -1, 290.00, 173.00, 15.00, 13, ABpraaaaapv
91, 92, 90, -1, 324.00, 217.00, 31.00, 11, ABalappaapa
93, 94, 92, -1, 119.00, 296.00, 12.00, 13, ABplppppapp
94, 95, 93, -1, 131.00, 310.00, 15.00, 13, ABplppppaaa
95, 96, 94, -1, 122.00, 303.00, 16.00, 13, ABplppppaap
96, 97, 95, -1, 78.00, 309.00, 13.00, 13, ABplppppppp
97, 98, 96, -1, 90.00, 305.00, 12.00, 11, ABplppppppa
98, 99, 97, -1, 116.00, 341.00, 19.00, 15, ABplpppppap
99, 100, 98, -1, 121.00, 323.00, 18.00, 13, ABplpppppaa
100, 101, 99, -1, 118.00, 323.00, 11.00, 13, ABplpppapaa
101, 102, 100, -1, 116.00, 328.00, 15.00, 11, ABplpppaapp
102, 103, 101, -1, 150.00, 307.00, 10.00, 17, ABplpppaaaa
103, 104, 102, -1, 153.00, 315.00, 15.00, 13, ABplpppaaap
104, 105, 103, -1, 156.00, 304.00, 15.00, 13, ABplppapppp
105, 106, 104, -1, 176.00, 285.00, 14.00, 11, ABplppapppa
106, 107, 105, -1, 199.00, 283.00, 14.00, 13, ABplppappap
107, 108, 106, -1, 210.00, 284.00, 12.00, 11, ABplppappaa
108, 109, 107, -1, 189.00, 297.00, 14.00, 15, ABplppapapa
109, 110, 108, -1, 174.00, 301.00, 15.00, 13, ABplppapapp
110, 111, 109, -1, 163.00, 294.00, 13.00, 13, ABplppaappp
112, 113, 111, -1, 193.00, 272.00, 18.00, 13, MSaappap
113, 114, 112, -1, 110.00, 291.00, 14.00, 13, ABplpappppp
114, 115, 113, -1, 130.00, 287.00, 16.00, 11, ABplpappppa
115, 116, 114, -1, 133.00, 299.00, 13.00, 13, ABplpapppaa
116, 117, 115, -1, 121.00, 270.00, 15.00, 13, ABplpapppap
117, 118, 116, -1, 235.00, 271.00, 11.00, 11, ABplpapappa
118, 119, 117, -1, 167.00, 275.00, 14.00, 11, ABplpapappp
119, 120, 118, -1, 247.00, 276.00, 14.00, 15, ABplpapapap
120, 121, 119, -1, 230.00, 283.00, 15.00, 13, ABplpapapaa
121, 122, 120, -1, 276.00, 266.00, 12.00, 15, ABplpapaapp
122, 124, 121, -1, 270.00, 263.00, 13.00, 13, ABplpapaapa
123, 125, 122, -1, 249.00, 264.00, 13.00, 13, ABplpapaaap
124, 126, 123, -1, 254.00, 263.00, 15.00, 15, ABplpapaaaa
125, 127, 124, -1, 206.00, 293.00, 15.00, 15, ABplppapaap
126, 128, 125, -1, 314.00, 276.00, 17.00, 15, ABplpaaaaaa
127, 129, 126, -1, 315.00, 254.00, 10.00, 15, ABplpaapapp
130, 132, 129, -1, 279.00, 321.00, 19.00, 13, ABplpaappap
131, 133, 130, -1, 274.00, 307.00, 17.00, 13, ABplpaappaa
132, 134, 131, -1, 285.00, 267.00, 11.00, 17, ABplpaapppp
133, 135, 132, -1, 292.00, 314.00, 17.00, 13, ABplpaapaap
135, 137, 134, -1, 350.00, 258.00, 19.00, 15, ABplpaapapa
137, 139, 136, -1, 337.00, 208.00, 19.00, 13, ABplaapaaaa
138, 140, 137, -1, 353.00, 225.00, 22.00, 11, ABplaapaaap
139, 141, 138, -1, 337.00, 264.00, 21.00, 13, ABplaapaapa
140, 142, 139, -1, 331.00, 282.00, 24.00, 13, ABplaapaapp
141, 143, 140, -1, 309.00, 307.00, 23.00, 11, ABplaapapppa
142, 144, 141, -1, 289.00, 314.00, 25.00, 11, ABplaapapppp
143, 145, 142, -1, 285.00, 300.00, 26.00, 11, ABplaapappa
144, 146, 143, -1, 268.00, 310.00, 26.00, 13, ABplaapapap
145, 147, 144, -1, 269.00, 309.00, 23.00, 13, ABplaapapaa
146, 148, 145, -1, 334.00, 244.00, 29.00, 15, ABplaaaaapp
147, 149, 146, -1, 315.00, 262.00, 29.00, 13, MSapaaap
148, 150, 147, -1, 356.00, 236.00, 25.00, 15, ABarpaaaapp
149, 151, 148, -1, 339.00, 227.00, 27.00, 13, ABalapappap
150, 152, 149, -1, 347.00, 215.00, 32.00, 13, ABplaaaapp
153, 155, 152, -1, 329.00, 299.00, 25.00, 13, ABplaaappp
154, 156, 153, -1, 360.00, 260.00, 22.00, 15, ABplaaapap
155, 157, 154, -1, 352.00, 240.00, 18.00, 13, ABplaaapaa
156, 158, 155, -1, 129.00, 309.00, 9.00, 17, ABplappppa
157, 159, 156, -1, 86.00, 331.00, 12.00, 15, ABplappppp
158, 160, 157, -1, 121.00, 346.00, 14.00, 13, ABplapppaaa
159, 161, 158, -1, 104.00, 330.00, 14.00, 13, ABplapppapp
160, 162, 159, -1, 99.00, 342.00, 12.00, 11, ABplapppapa
161, 163, 160, -1, 216.00, 338.00, 19.00, 17, ABplappaaa
162, 164, 161, -1, 190.00, 346.00, 20.00, 17, ABplappaap
163, 165, 162, -1, 169.00, 348.00, 19.00, 15, ABplappapp
164, 166, 163, -1, 199.00, 350.00, 26.00, 15, ABplappapa
165, 167, 164, -1, 233.00, 332.00, 16.00, 15, ABplapaapp
166, 168, 165, -1, 245.00, 284.00, 9.00, 15, ABplapaapa
167, 169, 166, -1, 314.00, 291.00, 31.00, 13, ABarppaaaa
168, 170, 167, -1, 253.00, 328.00, 23.00, 15, ABplapaaapp
169, 171, 168, -1, 107.00, 370.00, 19.00, 11, ABplapapppa
170, 172, 169, -1, 145.00, 355.00, 17.00, 15, ABplapapap
171, 173, 170, -1, 135.00, 345.00, 12.00, 15, ABplapappa
172, 174, 171, -1, 142.00, 368.00, 23.00, 15, ABplapapaa
173, 175, 172, -1, 244.00, 226.00, 14.00, 15, ABprpapaaaa
174, 176, 173, -1, 249.00, 212.00, 13.00, 14, ABprpapaapp
175, 177, 174, -1, 148.00, 291.00, 14.00, 11, ABprpapappp
176, 178, 175, -1, 218.00, 230.00, 14.00, 13, ABprpapapaa
177, 179, 176, -1, 92.00, 304.00, 17.00, 15, Eplppa
178, 180, 177, -1, 101.00, 280.00, 17.00, 15, ABprpappppa
179, 181, 178, -1, 184.00, 288.00, 11.00, 14, ABprpappapp
180, 182, 179, -1, 250.00, 241.00, 15.00, 13, ABprpapppaa
181, 183, 180, -1, 280.00, 233.00, 15.00, 11, ABprpappaaa
182, 184, 181, -1, 231.00, 182.00, 15.00, 13, ABprpaaaaap
183, 185, 182, -1, 246.00, 180.00, 19.00, 11, ABpraaappaa
184, 186, 183, -1, 186.00, 265.00, 12.00, 13, ABprpaaaapp
185, 187, 184, -1, 234.00, 241.00, 10.00, 17, ABprpaaaapa
186, 188, 185, -1, 267.00, 195.00, 18.00, 13, ABprpaaaaaa
187, 189, 186, -1, 256.00, 219.00, 14.00, 13, ABprpapaapa
188, 190, 187, -1, 257.00, 195.00, 14.00, 13, ABprpaaappp
189, 191, 188, -1, 278.00, 186.00, 11.00, 14, ABprpaaapap
190, 192, 189, -1, 221.00, 172.00, 17.00, 13, ABprpaapaap
191, 193, 190, -1, 313.00, 169.00, 20.00, 15, ABprpaapapa
192, 194, 191, -1, 285.00, 196.00, 9.00, 15, ABprpaapapp
193, 195, 192, -1, 259.00, 204.00, 11.00, 14, ABprpaapppp
194, 196, 193, -1, 215.00, 177.00, 21.00, 13, ABprpaappap
195, 197, 194, -1, 230.00, 183.00, 19.00, 13, ABprpaappaa
196, 198, 195, -1, 96.00, 256.00, 18.00, 15, ABprpppaapa
197, 199, 196, -1, 141.00, 260.00, 15.00, 13, ABprpppaaap
198, 200, 197, -1, 139.00, 261.00, 13.00, 15, ABprpppaaaa
199, 201, 198, -1, 96.00, 259.00, 11.00, 11, ABprpppapaa
201, 203, 200, -1, 127.00, 259.00, 11.00, 15, ABprppppapa
202, 204, 201, -1, 118.00, 273.00, 11.00, 13, ABprppppapp
203, 205, 202, -1, 123.00, 269.00, 17.00, 13, ABprppppaaa
204, 206, 203, -1, 114.00, 275.00, 16.00, 15, ABprppppaap
205, 207, 204, -1, 124.00, 259.00, 21.00, 17, ABprpppppaa
206, 208, 205, -1, 102.00, 261.00, 21.00, 15, ABprpppppap
207, 209, 206, -1, 217.00, 191.00, 15.00, 11, ABprppaapap
208, 210, 207, -1, 219.00, 197.00, 11.00, 11, ABprppaapaa
209, 211, 208, -1, 208.00, 249.00, 12.00, 17, ABprppaappa
210, 212, 209, -1, 154.00, 277.00, 14.00, 13, ABprppaappp
211, 213, 210, -1, 225.00, 180.00, 13.00, 13, ABprppaaaaa
212, 214, 211, -1, 207.00, 187.00, 18.00, 19, ABprppaaaap
213, 215, 212, -1, 197.00, 227.00, 11.00, 15, ABprppapaaa
214, 216, 213, -1, 186.00, 255.00, 16.00, 15, ABprppapaap
215, 217, 214, -1, 178.00, 270.00, 16.00, 11, ABprppapapa
216, 218, 215, -1, 158.00, 272.00, 17.00, 13, ABprppapapp
217, 219, 216, -1, 161.00, 288.00, 16.00, 15, ABprppapppa
218, 220, 217, -1, 142.00, 274.00, 15.00, 13, ABprppapppp
219, 221, 218, -1, 192.00, 254.00, 14.00, 14, ABprppappaa
220, 222, 219, -1, 192.00, 275.00, 15.00, 13, ABprppappap
221, 223, 220, -1, 326.00, 209.00, 21.00, 13, ABpraapaaaa
222, 224, 221, -1, 326.00, 179.00, 29.00, 13, ABarpapaaap
223, 225, 222, -1, 333.00, 189.00, 21.00, 11, ABpraapaaap
224, 226, 223, -1, 295.00, 174.00, 21.00, 11, ABpraapaapa
225, 227, 224, -1, 228.00, 186.00, 28.00, 15, ABpraapapap
226, 228, 225, -1, 220.00, 192.00, 25.00, 13, ABpraapapaa
228, 230, 227, -1, 231.00, 191.00, 26.00, 13, ABpraapappa
229, 231, 228, -1, 189.00, 190.00, 19.00, 15, ABpraapppp
230, 232, 229, -1, 309.00, 201.00, 10.00, 15, ABpraappaa
231, 233, 230, -1, 279.00, 182.00, 26.00, 19, ABpraaapapa
232, 234, 231, -1, 291.00, 178.00, 24.00, 11, ABpraaapapp
233, 235, 232, -1, 250.00, 187.00, 24.00, 13, ABpraaapaad
234, 236, 233, -1, 233.00, 184.00, 22.00, 13, ABpraaappap
235, 237, 234, -1, 218.00, 177.00, 24.00, 11, ABpraaapppap
236, 238, 235, -1, 309.00, 182.00, 18.00, 13, ABpraaaaapd
237, 239, 236, -1, 263.00, 171.00, 15.00, 17, ABpraaaaaaa
238, 240, 237, -1, 297.00, 194.00, 14.00, 13, ABpraaaaaap
239, 241, 238, -1, 245.00, 177.00, 14.00, 15, ABpraaaapav
241, 243, 240, -1, 254.00, 169.00, 24.00, 11, ABpraaaappa
242, 244, 241, -1, 254.00, 175.00, 27.00, 15, ABpraaaappp
243, 245, 242, -1, 134.00, 233.00, 21.00, 15, ABprappapp
244, 246, 243, -1, 150.00, 217.00, 28.00, 15, ABprappapa
245, 247, 244, -1, 150.00, 225.00, 23.00, 13, ABprappaap
246, 248, 245, -1, 167.00, 219.00, 22.00, 15, ABprappaaa
247, 249, 246, -1, 89.00, 244.00, 17.00, 13, ABprapppaaa
248, 250, 247, -1, 88.00, 261.00, 15.00, 13, ABprapppapp
249, 251, 248, -1, 76.00, 253.00, 14.00, 9, ABprapppapa
250, 252, 249, -1, 73.00, 267.00, 12.00, 15, ABprappppp
251, 253, 250, -1, 113.00, 268.00, 9.00, 17, ABprappppa
252, 254, 251, -1, 203.00, 191.00, 23.00, 13, ABprapaaapa
253, 255, 252, -1, 193.00, 201.00, 25.00, 15, ABprapaaapp
254, 256, 681, -1, 241.00, 180.00, 31.00, 19, ABprapaaaap
255, 257, 254, -1, 178.00, 204.00, 20.00, 17, ABprapaapp
256, 258, 255, -1, 211.00, 211.00, 10.00, 15, ABprapaapa
257, 259, 256, -1, 110.00, 236.00, 15.00, 15, ABprapappa
258, 260, 257, -1, 72.00, 267.00, 17.00, 17, ABprapapppp
259, 261, 258, -1, 112.00, 231.00, 20.00, 15, ABprapapap
260, 262, 259, -1, 105.00, 235.00, 27.00, 17, ABprapapaa
261, 263, 260, -1, 250.00, 196.00, 32.00, 14, MSppppap
262, 264, 261, -1, 231.00, 199.00, 20.00, 11, MSppppaa
263, 265, 262, -1, 296.00, 204.00, 35.00, 17, MSpppppa
264, 266, 263, -1, 247.00, 213.00, 34.00, 13, MSpppppp
265, 267, 264, -1, 284.00, 209.00, 33.00, 15, MSpppaaa
266, 268, 265, -1, 137.00, 256.00, 26.00, 17, MSpppaap
267, 269, 266, -1, 235.00, 227.00, 13.00, 13, ABprpapaaap
268, 270, 267, -1, 130.00, 286.00, 19.00, 13, MSppaapp
269, 271, 268, -1, 256.00, 189.00, 26.00, 11, MSppaapa
270, 272, 269, -1, 271.00, 199.00, 24.00, 11, MSppaaaa
273, 275, 272, -1, 253.00, 190.00, 22.00, 15, MSppapap
274, 276, 273, -1, 192.00, 255.00, 20.00, 15, MSpapappp
275, 277, 274, -1, 208.00, 249.00, 21.00, 11, MSpapapaa
276, 278, 275, -1, 213.00, 230.00, 19.00, 15, MSpapaaap
277, 279, 276, -1, 198.00, 237.00, 24.00, 15, MSpapaapp
278, 280, 277, -1, 171.00, 322.00, 17.00, 15, MSpappaa
279, 281, 278, -1, 170.00, 244.00, 17.00, 13, MSpappppa
280, 282, 279, -1, 162.00, 254.00, 19.00, 13, MSpappppp
281, 283, 280, -1, 235.00, 254.00, 32.00, 13, MSpaaappp
282, 284, 281, -1, 241.00, 273.00, 30.00, 13, MSpaaapaa
283, 285, 282, -1, 218.00, 267.00, 32.00, 15, MSpaaapap
284, 286, 283, -1, 259.00, 232.00, 32.00, 15, MSpaaaapp
285, 287, 284, -1, 268.00, 253.00, 33.00, 19, MSpaaaaaa
286, 288, 285, -1, 246.00, 250.00, 29.00, 11, MSpaaaaap
287, 289, 286, -1, 211.00, 218.00, 24.00, 15, ABaraappppa
288, 290, 287, -1, 213.00, 218.00, 30.00, 15, ABaraapppap
289, 291, 288, -1, 235.00, 256.00, 29.00, 11, MSpaapaap
290, 292, 289, -1, 248.00, 246.00, 32.00, 13, MSpaaappa
291, 293, 290, -1, 230.00, 237.00, 30.00, 13, MSpaapaaa
292, 294, 291, -1, 287.00, 291.00, 32.00, 15, MSapppap
293, 295, 292, -1, 305.00, 260.00, 35.00, 13, MSappppa
295, 297, 293, -1, 135.00, 338.00, 20.00, 13, MSappaap
296, 298, 294, -1, 299.00, 259.00, 33.00, 19, MSappaaa
297, 299, 295, -1, 263.00, 281.00, 30.00, 17, ABaraapaapp
298, 300, 296, -1, 327.00, 243.00, 31.00, 11, MSapappp
299, 301, 297, -1, 146.00, 292.00, 19.00, 17, MSapaapp
300, 302, 298, -1, 303.00, 267.00, 25.00, 13, MSapaaaa
301, 303, 299, -1, 278.00, 240.00, 32.00, 11, MSaaaaapap
302, 304, 300, -1, 275.00, 256.00, 30.00, 13, MSaaapaaa
303, 305, 301, -1, 292.00, 206.00, 28.00, 13, MSaaaaaar
304, 306, 302, -1, 315.00, 246.00, 28.00, 13, MSaaaaaal
305, 307, 303, -1, 251.00, 262.00, 34.00, 13, MSaaaapaa
306, 308, 304, -1, 262.00, 271.00, 33.00, 13, MSaaaapap
307, 309, 305, -1, 229.00, 273.00, 31.00, 13, MSaaaappa
308, 310, 306, -1, 238.00, 290.00, 30.00, 13, MSaaapapa
309, 311, 307, -1, 226.00, 293.00, 28.00, 13, MSaaapapp
310, 312, 308, -1, 211.00, 301.00, 29.00, 11, MSaaappa
311, 313, 309, -1, 219.00, 285.00, 32.00, 13, MSaaappp
312, 314, 310, -1, 205.00, 311.00, 15.00, 11, MSaappppa
313, 315, 311, -1, 188.00, 319.00, 17.00, 15, MSaappppp
314, 316, 312, -1, 235.00, 277.00, 18.00, 11, MSaapaaap
315, 317, 313, -1, 251.00, 274.00, 18.00, 11, MSaapaaaa
316, 318, 314, -1, 217.00, 288.00, 19.00, 13, MSaapappp
317, 319, 315, -1, 240.00, 300.00, 25.00, 13, MSaapappa
318, 320, 316, -1, 232.00, 284.00, 22.00, 15, MSaapapaa
319, 321, 317, -1, 232.00, 292.00, 18.00, 11, MSaapapap
320, 322, 318, -1, 99.00, 318.00, 27.00, 17, Eplpa
321, 323, 319, -1, 106.00, 354.00, 23.00, 13, Cappapa
322, 324, 320, -1, 92.00, 347.00, 21.00, 13, Cappapp
323, 325, 321, -1, 199.00, 325.00, 30.00, 17, Cappaaa
324, 326, 322, -1, 79.00, 342.00, 24.00, 14, Capppap
325, 327, 323, -1, 113.00, 347.00, 31.00, 13, Capppaa
326, 328, 324, -1, 125.00, 357.00, 28.00, 13, Capapap
327, 329, 325, -1, 166.00, 344.00, 30.00, 15, Capapaa
328, 330, 326, -1, 135.00, 323.00, 13.00, 15, Capappp
329, 331, 327, -1, 143.00, 338.00, 17.00, 17, Capappa
330, 332, 328, -1, 198.00, 330.00, 20.00, 13, Capaaap
331, 333, 329, -1, 217.00, 322.00, 18.00, 13, Capaaaa
333, 335, 331, -1, 65.00, 295.00, 15.00, 15, Caappv
334, 336, 332, -1, 102.00, 282.00, 9.00, 9, Caapap
335, 337, 333, -1, 89.00, 360.00, 20.00, 17, Cpappd
336, 338, 334, -1, 69.00, 323.00, 14.00, 15, Cpappv
337, 339, 335, -1, 124.00, 245.00, 24.00, 15, Cppaapp
338, 340, 336, -1, 150.00, 243.00, 24.00, 13, Cppaapa
339, 341, 337, -1, 166.00, 237.00, 21.00, 13, Cppaaap
340, 342, 338, -1, 180.00, 229.00, 19.00, 15, Cppaaaa
341, 343, 339, -1, 153.00, 254.00, 33.00, 15, Cppapaa
342, 344, 340, -1, 111.00, 255.00, 15.00, 13, Cppappp
343, 345, 341, -1, 114.00, 249.00, 19.00, 15, Cppappa
344, 346, 342, -1, 156.00, 273.00, 35.00, 17, Cpppaap
345, 347, 343, -1, 181.00, 237.00, 32.00, 15, Cpppaaa
346, 348, 344, -1, 73.00, 273.00, 24.00, 15, Cpppapp
347, 349, 345, -1, 92.00, 271.00, 32.00, 15, Cpppapa
348, 350, 346, -1, 261.00, 292.00, 15.00, 15, Daapa
349, 351, 347, -1, 245.00, 297.00, 14.00, 15, Daapp
350, 352, 348, -1, 254.00, 307.00, 18.00, 13, Daaaa
351, 353, 349, -1, 249.00, 309.00, 30.00, 13, Daaap
352, 354, 350, -1, 241.00, 295.00, 33.00, 14, Dappaa
353, 355, 351, -1, 206.00, 214.00, 15.00, 15, Dpapp
354, 356, 352, -1, 219.00, 206.00, 16.00, 14, Dpapa
355, 357, 353, -1, 227.00, 206.00, 33.00, 19, Dpaap
356, 358, 354, -1, 213.00, 202.00, 21.00, 13, Dpaaa
357, 359, 355, -1, 193.00, 254.00, 34.00, 13, Dppppa
358, 360, 356, -1, 211.00, 250.00, 34.00, 17, Dpppap
359, 361, 357, -1, 233.00, 228.00, 35.00, 17, Dpppaa
360, 362, 358, -1, 196.00, 212.00, 20.00, 15, Dppaa
361, 363, 359, -1, 199.00, 228.00, 32.00, 15, Dppap
364, 366, 362, -1, 293.00, 313.00, 21.00, 11, ABalppppppaa
365, 367, 363, -1, 287.00, 328.00, 21.00, 11, ABalppppppap
366, 368, 364, -1, 311.00, 308.00, 19.00, 15, ABalpppppppa
368, 370, 366, -1, 324.00, 286.00, 15.00, 15, ABalpppaaaa
369, 371, 367, -1, 322.00, 248.00, 15.00, 19, ABalpppaaap
370, 372, 368, -1, 334.00, 264.00, 17.00, 13, ABalpppaapd
371, 373, 369, -1, 336.00, 249.00, 19.00, 11, ABalpppaapv
372, 374, 370, -1, 305.00, 293.00, 15.00, 13, ABalpppapad
373, 375, 372, -1, 335.00, 268.00, 14.00, 13, ABalpppapav
374, 376, 698, -1, 337.00, 244.00, 16.00, 11, ABalaaapalr
375, 377, 374, -1, 335.00, 253.00, 15.00, 14, ABalppaaapp
376, 378, 375, -1, 289.00, 300.00, 14.00, 13, ABplpaaaaap
377, 379, 376, -1, 292.00, 254.00, 13.00, 11, ABalppapppa
378, 380, 377, -1, 308.00, 275.00, 20.00, 13, ABalppappaa
379, 381, 378, -1, 314.00, 271.00, 23.00, 14, ABalapaappa
380, 382, 379, -1, 276.00, 252.00, 11.00, 13, ABalppapapa
381, 383, 380, -1, 310.00, 239.00, 10.00, 17, ABalppapapp
382, 384, 381, -1, 321.00, 226.00, 10.00, 13, ABplaappaa
383, 385, 382, -1, 312.00, 250.00, 21.00, 13, ABalppapaaa
384, 386, 383, -1, 275.00, 248.00, 14.00, 15, ABalpapapaa
385, 387, 384, -1, 213.00, 277.00, 9.00, 17, ABalpapappa
386, 388, 385, -1, 313.00, 217.00, 13.00, 11, ABalpapaapp
387, 389, 386, -1, 311.00, 234.00, 15.00, 13, ABalppapaap
388, 390, 387, -1, 279.00, 253.00, 19.00, 13, ABalpaaaapa
389, 391, 388, -1, 272.00, 261.00, 18.00, 13, ABalpaaaaap
390, 392, 389, -1, 253.00, 245.00, 21.00, 9, ABalpappaaa
391, 393, 390, -1, 283.00, 282.00, 22.00, 15, ABalpapppaa
392, 394, 391, -1, 258.00, 265.00, 18.00, 13, ABalpapppap
393, 395, 392, -1, 286.00, 272.00, 29.00, 19, ABalpaapapa
394, 396, 393, -1, 255.00, 255.00, 17.00, 13, ABalpaaaapp
395, 397, 394, -1, 284.00, 251.00, 21.00, 13, ABalpaaaaaa
396, 398, 395, -1, 280.00, 273.00, 20.00, 19, ABalpappaap
398, 400, 397, -1, 315.00, 226.00, 22.00, 15, ABalpaapppa
399, 401, 398, -1, 324.00, 225.00, 19.00, 13, ABalpaapppp
400, 402, 399, -1, 304.00, 227.00, 20.00, 14, ABalpaappaa
404, 406, 403, -1, 138.00, 320.00, 29.00, 19, Ealpp
405, 407, 404, -1, 139.00, 296.00, 27.00, 21, Earpp
407, 409, 440, -1, 207.00, 296.00, 21.00, 17, Ealaad
408, 410, 407, -1, 98.00, 292.00, 24.00, 19, Eprpp
409, 411, 408, -1, 226.00, 316.00, 32.00, 17, Dapap
410, 412, 409, -1, 236.00, 315.00, 18.00, 15, Dapaa
411, 413, 410, -1, 229.00, 301.00, 23.00, 15, MSaapaapp
412, 414, 411, -1, 241.00, 302.00, 20.00, 11, MSaapaapa
413, 415, 412, -1, 196.00, 206.00, 31.00, 19, ABarpppapp
414, 416, 413, -1, 273.00, 304.00, 13.00, 15, ABplppaapap
415, 417, 414, -1, 272.00, 299.00, 10.00, 11, ABplppaapaa
416, 418, 415, -1, 324.00, 250.00, 23.00, 11, ABalaaaalar
417, 419, 416, -1, 286.00, 187.00, 33.00, 13, MSppappa
418, 420, 417, -1, 324.00, 178.00, 20.00, 11, ABarpappaa
419, 421, 418, -1, 112.00, 292.00, 35.00, 15, Cppppaa
420, 422, 419, -1, 73.00, 295.00, 29.00, 15, Cppppap
421, 423, 420, -1, 94.00, 274.00, 14.00, 15, Cpppppv
422, 424, 421, -1, 313.00, 189.00, 29.00, 13, ABarpapaapp
423, 425, 422, -1, 121.00, 306.00, 31.00, 17, Eprap
425, 428, 424, -1, 309.00, 223.00, 16.00, 14, ABalpapaapa
427, 430, 426, -1, 228.00, 294.00, 10.00, 15, ABplppapaaa
428, 431, 427, -1, 335.00, 248.00, 24.00, 11, ABalaaaalal
429, 432, 428, -1, 280.00, 204.00, 17.00, 13, ABarappppap
430, 433, 429, -1, 146.00, 255.00, 19.00, 15, MSpappap
431, 434, 430, -1, 217.00, 243.00, 31.00, 13, MSpaapapa
432, 435, 431, -1, 66.00, 299.00, 20.00, 15, Cpppppd
433, 436, 432, -1, 298.00, 301.00, 30.00, 11, ABplapaaaaa
434, 437, 433, -1, 208.00, 273.00, 21.00, 13, MSaappaa
435, 438, 434, -1, 292.00, 311.00, 29.00, 17, ABplapaaaap
436, 439, 435, -1, 319.00, 255.00, 18.00, 11, ABalaaaalpa
437, 440, 436, -1, 332.00, 226.00, 22.00, 11, ABalaaaparr
438, 441, 437, -1, 344.00, 227.00, 20.00, 11, ABalaaaparl
439, 442, 438, -1, 264.00, 286.00, 22.00, 13, ABalpaaappp
440, 443, 439, -1, 275.00, 282.00, 24.00, 17, ABalpaaappa
442, 445, 441, -1, 232.00, 235.00, 15.00, 14, ABprpappapa
443, 446, 442, -1, 139.00, 318.00, 19.00, 25, Z3
444, 447, 443, -1, 153.00, 340.00, 34.00, 17, Cappaap
445, 448, 444, -1, 282.00, 236.00, 19.00, 15, ABarappaapp
446, 449, 445, -1, 204.00, 226.00, 27.00, 15, MSpapappa
447, 450, 446, -1, 217.00, 236.00, 24.00, 13, MSpapaapaa
448, 451, 447, -1, 196.00, 219.00, 22.00, 15, MSpapaapap
449, 452, 448, -1, 282.00, 164.00, 22.00, 13, ABpraapaapp
450, 453, 449, -1, 276.00, 172.00, 29.00, 13, ABalapppppa
451, 454, 450, -1, 276.00, 218.00, 23.00, 13, ABaraaaaapa
452, 455, 451, -1, 297.00, 249.00, 15.00, 13, ABalppapppp
453, 456, 452, -1, 319.00, 193.00, 21.00, 15, ABalaaappll
454, 457, 453, -1, 113.00, 266.00, 35.00, 17, Cppapap
455, 458, 454, -1, 304.00, 291.00, 27.00, 13, ABalppppaad
456, 459, 455, -1, 267.00, 285.00, 34.00, 13, MSappppp
457, 460, 456, -1, 284.00, 285.00, 27.00, 15, ABalpaapapp
458, 461, 457, -1, 116.00, 344.00, 16.00, 17, ABplpppaapa
460, 463, 459, -1, 229.00, 232.00, 19.00, 11, MSpapaaaa
461, 464, 460, -1, 196.00, 226.00, 15.00, 15, MSpapppaa
462, 465, 461, -1, 184.00, 236.00, 16.00, 15, MSpapppap
463, 466, 462, -1, 268.00, 176.00, 22.00, 15, ABprpaapaaa
464, 467, 463, -1, 305.00, 305.00, 15.00, 11, ABalpppppppp
465, 468, 464, -1, 98.00, 310.00, 9.00, 17, ABprpppapp
467, 470, 466, -1, 300.00, 186.00, 22.00, 13, ABalaappppp
468, 471, 467, -1, 340.00, 205.00, 22.00, 11, ABarpaaaaal
469, 472, 468, -1, 92.00, 289.00, 13.00, 13, ABprppppppa
470, 473, 469, -1, 215.00, 191.00, 33.00, 19, ABarpppapa
471, 474, 470, -1, 280.00, 280.00, 16.00, 13, MSappapp
472, 475, 471, -1, 94.00, 232.00, 21.00, 13, ABarpppppp
473, 476, 472, -1, 244.00, 196.00, 15.00, 11, MSpppapa
474, 477, 473, -1, 306.00, 278.00, 31.00, 15, MSapappa
475, 478, 474, -1, 307.00, 199.00, 32.00, 13, MSppappp
476, 479, 475, -1, 105.00, 311.00, 13.00, 13, Cappppd
477, 480, 476, -1, 223.00, 264.00, 28.00, 13, MSaaaappp
478, 481, 477, -1, 108.00, 361.00, 16.00, 11, ABplapppaap
479, 482, 478, -1, 140.00, 264.00, 24.00, 17, Z2
480, 483, 479, -1, 332.00, 261.00, 30.00, 11, ABplaaaaapa
481, 484, 480, -1, 200.00, 241.00, 20.00, 11, MSpapapap
484, 700, 483, -1, 95.00, 319.00, 22.00, 17, Eplppp
486, 489, 485, -1, 154.00, 343.00, 21.00, 15, Capaapp
487, 490, 486, -1, 180.00, 343.00, 23.00, 13, Capaapa
488, 491, 487, -1, 258.00, 179.00, 10.00, 17, ABpraappap
489, 492, 488, -1, 195.00, 293.00, 23.00, 15, Ealpa
491, 494, 490, -1, 236.00, 165.00, 16.00, 13, ABpraaappppp
492, 495, 699, -1, 230.00, 169.00, 22.00, 13, ABpraaapppaa
493, 496, 491, -1, 295.00, 297.00, 19.00, 13, ABalpppppaa
494, 497, 492, -1, 312.00, 286.00, 23.00, 13, ABplpaapaaa
495, 498, 493, -1, 281.00, 190.00, 30.00, 21, MSppaaap
497, 500, 495, -1, 220.00, 262.00, 19.00, 15, ABarapapapp
498, 501, 496, -1, 72.00, 321.00, 17.00, 19, Cappppv
499, 502, 497, -1, 220.00, 303.00, 16.00, 11, MSaapppap
500, 504, 498, -1, 263.00, 321.00, 22.00, 13, ABplapaaapa
501, 505, 499, -1, 244.00, 230.00, 23.00, 13, ABarapapppp
502, 506, 500, -1, 228.00, 299.00, 14.00, 11, MSaapppaa
503, 507, 501, -1, 206.00, 268.00, 11.00, 13, ABarappappa
504, 508, 502, -1, 295.00, 248.00, 22.00, 13, ABaraaaaaaa
505, 509, 503, -1, 178.00, 294.00, 24.00, 13, Ealap
509, 513, 507, -1, 199.00, 288.00, 11.00, 17, ABplpaaaapp
512, 516, 510, -1, 239.00, 234.00, 20.00, 11, ABarapappap
514, 518, 512, -1, 113.00, 302.00, 17.00, 15, ABprpappppp
515, 519, 513, -1, 185.00, 251.00, 26.00, 17, Earaad
516, 520, 514, -1, 272.00, 279.00, 11.00, 17, ABplpaapppa
517, 521, 515, -1, 257.00, 249.00, 10.00, 17, ABalpapapap
518, 522, 516, -1, 254.00, 277.00, 11.00, 17, ABalpapappp
519, 523, 517, -1, 96.00, 297.00, 27.00, 13, Eprpa
521, 525, 519, -1, 318.00, 227.00, 32.00, 11, ABalapapapa
522, 526, 520, -1, 335.00, 199.00, 29.00, 9, ABalapppapp
524, 528, 522, -1, 302.00, 233.00, 12.00, 17, ABalpapaaap
525, 529, 523, -1, 234.00, 208.00, 17.00, 13, MSpppapp
526, 530, 524, -1, 300.00, 292.00, 23.00, 9, ABalppppaav
527, 531, 525, -1, 236.00, 321.00, 24.00, 17, MSapapaa
529, 533, 527, -1, 293.00, 226.00, 29.00, 17, ABaraappaaa
532, 536, 530, -1, 281.00, 305.00, 21.00, 15, ABalpppppap
533, 537, 531, -1, 312.00, 256.00, 12.00, 13, ABalppaappp
534, 538, 532, -1, 272.00, 288.00, 28.00, 11, MSaaapaap
535, 539, 533, -1, 254.00, 161.00, 28.00, 11, ABarpapppp
538, 542, 536, -1, 290.00, 301.00, 12.00, 13, ABplppaaaaa
539, 26, 537, -1, 259.00, 222.00, 19.00, 15, ABarapaaapa
540, 544, 538, -1, 279.00, 225.00, 29.00, 13, ABaraappaap
541, 545, 539, -1, 292.00, 224.00, 25.00, 13, ABaraaaapap
542, 546, 540, -1, 247.00, 211.00, 30.00, 19, ABaraaapapa
543, 547, 541, -1, 186.00, 273.00, 25.00, 19, Earpa
545, 549, 543, -1, 305.00, 240.00, 18.00, 15, ABalpapaaaa
546, 503, 544, -1, 67.00, 262.00, 20.00, 19, Caappd
549, 553, 547, -1, 258.00, 185.00, 33.00, 15, ABarpppaaa
552, 556, 550, -1, 324.00, 262.00, 22.00, 14, ABalapaappp
553, 686, 551, -1, 84.00, 252.00, 25.00, 19, Cpapaa
554, 558, 552, -1, 265.00, 177.00, 32.00, 11, ABalappapap
555, 559, 553, -1, 302.00, 279.00, 9.00, 21, ABplaappap
557, 561, 555, -1, 314.00, 295.00, 25.00, 11, ABalpppapppp
558, 562, 556, -1, 221.00, 274.00, 12.00, 13, ABplppaappa
559, 563, 557, -1, 269.00, 253.00, 35.00, 23, ABarppaapa
562, 566, 560, -1, 111.00, 369.00, 24.00, 17, Cpapap
563, 567, 561, -1, 238.00, 250.00, 12.00, 15, ABplpaaaapa
564, 568, 562, -1, 328.00, 253.00, 11.00, 19, ABplpaaapap
565, 569, 563, -1, 254.00, 281.00, 25.00, 17, ABaraapapaa
566, 681, 564, -1, 315.00, 243.00, 33.00, 19, ABarpaapap
567, 571, 565, -1, 90.00, 249.00, 13.00, 13, ABprpppaapp
568, 572, 566, -1, 136.00, 308.00, 11.00, 15, ABplppppapa
569, 573, 567, -1, 197.00, 247.00, 12.00, 14, ABprpapppap
570, 574, 568, -1, 294.00, 284.00, 20.00, 9, MSapapap
571, 575, 569, -1, 114.00, 321.00, 29.00, 17, Eplap
573, 577, 571, -1, 249.00, 183.00, 35.00, 21, ABarpaappp
574, 578, 572, -1, 271.00, 293.00, 19.00, 13, MSapppaa
576, 581, 574, -1, 298.00, 243.00, 24.00, 15, ABalpaapaaa
580, 585, 577, -1, 239.00, 167.00, 25.00, 15, ABpraapappp
582, 587, 579, -1, 252.00, 327.00, 14.00, 13, ABplaapppp
583, 588, 580, -1, 261.00, 216.00, 31.00, 13, MSpaaaapa
585, 590, 581, -1, 160.00, 322.00, 28.00, 15, Eplaa
586, 591, 582, -1, 319.00, 189.00, 22.00, 11, ABalaaapplr
587, 592, 583, -1, 333.00, 263.00, 24.00, 9, ABalppppapp
588, 593, 584, -1, 246.00, 204.00, 27.00, 13, ABarapaappa
589, 594, 585, -1, 312.00, 166.00, 24.00, 11, ABarpappap
590, 595, 586, -1, 220.00, 310.00, 34.00, 17, Dappap
592, 597, 588, -1, 325.00, 227.00, 26.00, 11, ABalapppaap
593, 598, 589, -1, 350.00, 239.00, 28.00, 11, ABplaaaaaap
595, 600, 591, -1, 185.00, 296.00, 28.00, 17, Earap
596, 601, 592, -1, 325.00, 199.00, 27.00, 13, ABarpapaaaa
597, 602, 593, -1, 265.00, 180.00, 28.00, 13, ABalappapaa
602, 607, 598, -1, 308.00, 271.00, 13.00, 15, ABplpaaappp
603, 608, 599, -1, 270.00, 171.00, 24.00, 11, ABpraaapaav
605, 610, 600, -1, 295.00, 230.00, 36.00, 23, ABarpaappa
607, 696, 602, -1, 308.00, 263.00, 15.00, 11, ABplpaaappa
609, 614, 604, -1, 232.00, 216.00, 23.00, 15, ABarapaappp
611, 617, 606, -1, 308.00, 289.00, 18.00, 11, ABalapaapaa
613, 619, 608, -1, 343.00, 275.00, 21.00, 13, ABalapaapap
615, 621, 610, -1, 274.00, 215.00, 30.00, 13, ABaraappapa
616, 622, 611, -1, 91.00, 339.00, 16.00, 19, ABplapapppp
617, 596, 612, -1, 232.00, 249.00, 21.00, 11, ABarapapaaa
618, 624, 613, -1, 265.00, 220.00, 21.00, 15, ABarapaaaaa
619, 625, 614, -1, 141.00, 367.00, 29.00, 11, Cpaapp
621, 627, 616, -1, 347.00, 256.00, 24.00, 13, ABalapapppp
622, 628, 617, -1, 331.00, 274.00, 26.00, 13, ABalppppapa
628, 634, 623, -1, 186.00, 218.00, 26.00, 15, MSppapaa
629, 635, 624, -1, 102.00, 248.00, 31.00, 17, Caaapp
630, 636, 625, -1, 287.00, 238.00, 9.00, 11, ABarappaaap
639, 645, 633, -1, 201.00, 249.00, 29.00, 19, MSpaapapp
642, 648, 636, -1, 272.00, 196.00, 15.00, 15, ABprpaaappa
644, 650, 638, -1, 237.00, 195.00, 11.00, 11, ABpraapppa
645, 651, 639, -1, 320.00, 243.00, 13.00, 13, ABplpaaapaa
647, 680, 641, -1, 355.00, 209.00, 27.00, 17, ABplaaaapa
648, 654, 642, -1, 198.00, 308.00, 33.00, 11, Dapppa
650, 657, 644, -1, 285.00, 179.00, 13.00, 13, ABpraaaapad
653, 692, 647, -1, 289.00, 270.00, 25.00, 15, ABalpaaapaa
654, 660, 648, -1, 163.00, 296.00, 30.00, 19, Epraa
656, 662, 650, -1, 204.00, 282.00, 30.00, 19, Earaav
657, 663, 651, -1, 90.00, 287.00, 10.00, 15, ABprpppapap
659, 665, 653, -1, 288.00, 222.00, 19.00, 11, ABaraaappap
663, 669, 657, -1, 250.00, 253.00, 19.00, 13, ABalpappppa
664, 670, 658, -1, 279.00, 284.00, 9.00, 19, ABplaapppa
667, 674, 661, -1, 119.00, 364.00, 19.00, 17, ABarppappp
670, 677, 664, -1, 293.00, 235.00, 32.00, 13, MSaaaaapaa
676, 565, 673, -1, 242.00, 161.00, 20.00, 15, ABpraaappppa
677, 682, 682, -1, 218.00, 336.00, 33.00, 15, Cpaaap
679, 623, 672, -1, 231.00, 255.00, 18.50, 14, ABarapapppa
680, 543, 684, -1, 250.00, 224.00, 19.00, 12, ABarapaaaap
681, 684, 680, -1, 178.00, 324.00, 33.00, 15, Dapppp
682, 685, 685, -1, 171.00, 258.00, 33.00, 13, Dppppp
683, 687, 686, -1, 127.00, 246.00, 33.00, 15, Caaapa
684, 688, 687, -1, 115.00, 321.00, 33.00, 15, Cpaapa
685, 689, 688, -1, 253.00, 308.00, 34.00, 15, Cpaaaa
686, 690, 689, -1, 164.00, 233.00, 33.00, 15, Caaaap
687, 615, 690, -1, 232.00, 331.00, 30.91, 11, Caaaaa
688, 691, 691, -1, 263.00, 215.00, 23.86, 17, ABaraaaaapp
689, 693, 692, -1, 261.00, 262.00, 22.16, 16, ABalpappppp
690, 694, 693, -1, 304.00, 174.00, 23.00, 15, ABalappappp
691, 695, 654, -1, 347.00, 256.00, 25.80, 12, ABalapaaapp
692, 697, 695, -1, 77.00, 291.00, 13.00, 13, ABprppppppp
693, 698, 696, -1, 221.00, 226.00, 12.00, 13, ABprpapapap
694, 699, 697, -1, 231.00, 212.00, 13.00, 15, ABprpaapppa
695, 701, 670, -1, 268.00, 238.00, 15.00, 11, ABplpappaaa
696, 702, 676, -1, 215.00, 314.00, 27.00, 13, Ealaav
697, 703, 700, -1, 291.00, 200.00, 12.00, 11, ABprpaaapaa
698, 704, 701, -1, 113.00, 302.00, 10.00, 15, ABplpppapap
699, 705, 702, -1, 272.00, 179.00, 17.00, 13, ABalaappapa
701, 707, 704, -1, 105.00, 288.00, 13.00, 13, Caapaa
702, 708, 705, -1, 260.00, 325.00, 17.00, 16, ABplppaaaap
703, 709, 706, -1, 215.00, 255.00, 15.00, 15, ABplpappaap
704, 710, 707, -1, 223.00, 220.00, 26.00, 13, ABaraapppaa
705, 711, 708, -1, 319.00, 271.00, 19.00, 13, ABalppaaapa
706, 712, 709, -1, 289.00, 254.00, 26.00, 13, ABalpaapaap
708, 714, 711, -1, 299.00, 231.00, 18.00, 13, ABalpaappap
709, 715, 712, -1, 335.00, 239.00, 22.00, 13, ABalapaaapa
710, 716, 713, -1, 285.00, 185.00, 21.00, 13, ABalaappppa
711, 717, 714, -1, 290.00, 186.00, 16.00, 11, ABalaappapp
712, 718, 715, -1, 300.00, 185.00, 17.00, 15, ABalaaapprl
713, 719, 716, -1, 331.00, 226.00, 30.00, 11, ABalapapapp
714, 720, 717, -1, 328.00, 272.00, 30.00, 13, ABalapapppa
715, 721, 718, -1, 298.00, 181.00, 28.00, 13, ABalapppppp
716, 722, 719, -1, 306.00, 260.00, 18.00, 13, ABalppappap
717, 723, 518, -1, 351.00, 278.00, 22.43, 14, ABplaaappa
718, 724, 720, -1, 310.00, 215.00, 31.45, 10, ABalapppapa
720, 726, 722, -1, 274.00, 200.00, 13.00, 13, ABalaapappp
721, 727, 723, -1, 315.00, 232.00, 26.00, 15, ABalapappaa
722, 728, 724, -1, 277.00, 232.00, 18.00, 13, ABarapapapa
