1, 1, 1, -1, 274.00, 217.00, 27.00, 13, ABaraaapaap
2, 2, 2, -1, 234.00, 212.00, 28.00, 13, ABaraaapapp
3, 3, 3, -1, 222.00, 226.00, 21.00, 17, ABaraappppp
4, 4, 4, -1, 253.00, 296.00, 23.00, 13, ABaraapappa
5, 5, 5, -1, 250.00, 283.00, 20.00, 15, ABaraapappp
6, 6, 6, -1, 257.00, 296.00, 28.00, 15, ABaraapapap
7, 7, 7, -1, 296.00, 239.00, 28.00, 13, ABaraapaaaa
8, 8, 8, -1, 297.00, 247.00, 29.00, 15, ABaraapaaap
9, 9, 9, -1, 280.00, 268.00, 32.00, 15, MSaaaaapp
10, 10, 10, -1, 294.00, 257.00, 30.00, 13, ABaraapaapa
11, 11, 11, -1, 303.00, 219.00, 22.00, 11, ABaraaappaa
12, 12, 12, -1, 307.00, 210.00, 19.00, 13, ABaraaapppa
13, 13, 13, -1, 302.00, 200.00, 21.00, 11, ABaraaapppp
14, 14, 14, -1, 286.00, 221.00, 24.00, 13, ABaraaapaaa
15, 15, 15, -1, 233.00, 227.00, 30.00, 15, ABaraappapp
16, 16, 16, -1, 290.00, 263.00, 24.00, 15, ABaraaaaaap
17, 17, 17, -1, 274.00, 254.00, 25.00, 13, ABaraaaapp
18, 18, 18, -1, 297.00, 233.00, 24.00, 11, ABaraaaapaa
19, 19, 19, -1, 210.00, 260.00, 20.00, 11, ABalpappapp
20, 20, 20, -1, 244.00, 209.00, 21.00, 17, ABarapapaap
21, 21, 21, -1, 257.00, 240.00, 14.00, 11, ABprpappaap
22, 22, 22, -1, 244.00, 207.00, 24.00, 15, ABarapappaa
23, 23, 23, -1, 285.00, 225.00, 11.00, 11, ABalaapappa
24, 24, 24, -1, 273.00, 239.00, 20.00, 13, ABarapaaapp
25, 25, 25, -1, 260.00, 211.00, 26.00, 13, ABarapaapap
26, 26, 26, -1, 256.00, 229.00, 27.00, 13, ABarapaapaa
27, 27, 27, -1, 267.00, 220.00, 12.00, 13, ABarapppapa
28, 28, 28, -1, 296.00, 206.00, 11.00, 13, ABarapppapp
29, 29, 29, -1, 278.00, 198.00, 20.00, 13, ABalaapaaal
30, 30, 30, -1, 299.00, 209.00, 13.00, 11, ABarapppaap
31, 31, 31, -1, 256.00, 177.00, 19.00, 11, ABalaapppap
32, 32, 32, -1, 277.00, 210.00, 13.00, 13, ABarapppppa
33, 33, 33, -1, 277.00, 210.00, 15.00, 13, ABarapppppp
34, 34, 34, -1, 291.00, 209.00, 17.00, 13, ABarappaaaa
35, 35, 35, -1, 296.00, 221.00, 14.00, 15, ABarappaapa
36, 36, 36, -1, 246.00, 224.00, 11.00, 17, ABarappapap
37, 37, 37, -1, 265.00, 225.00, 14.00, 13, ABarappapaa
38, 38, 38, -1, 225.00, 216.00, 11.00, 13, ABarappappp
39, 39, 39, -1, 216.00, 234.00, 11.00, 13, ABprpapappa
40, 40, 40, -1, 283.00, 158.00, 24.00, 17, ABarpapppa
43, 43, 43, -1, 349.00, 194.00, 22.00, 13, ABarpapapa
44, 44, 44, -1, 347.00, 184.00, 28.00, 11, ABarpaapaa
45, 45, 45, -1, 349.00, 205.00, 24.00, 15, ABarpaaaaar
46, 46, 46, -1, 345.00, 210.00, 27.00, 11, ABarpaaaapa
47, 47, 47, -1, 349.00, 182.00, 26.00, 13, ABarpaaapp
48, 48, 48, -1, 336.00, 204.00, 25.00, 11, ABarpaaapaa
49, 49, 49, -1, 333.00, 177.00, 26.00, 11, ABarpaaapap
50, 50, 50, -1, 287.00, 327.00, 24.00, 15, ABarppaaap
51, 51, 51, -1, 255.00, 322.00, 27.00, 15, ABarppaapp
52, 52, 52, -1, 172.00, 359.00, 26.00, 15, ABarppappa
53, 53, 53, -1, 240.00, 345.00, 24.00, 17, ABarppapap
54, 54, 54, -1, 129.00, 233.00, 29.00, 15, ABarpppppa
55, 55, 55, -1, 193.00, 190.00, 28.00, 15, ABarppppaa
56, 56, 56, -1, 175.00, 209.00, 29.00, 17, ABarppppap
57, 57, 57, -1, 218.00, 174.00, 29.00, 14, ABarpppaap
58, 58, 58, -1, 311.00, 216.00, 28.00, 11, ABalappppaa
59, 59, 59, -1, 326.00, 198.00, 26.00, 15, ABalappppap
60, 60, 60, -1, 316.00, 228.00, 29.00, 13, ABalapppaaa
61, 61, 61, -1, 340.00, 219.00, 34.00, 17, ABarpapapp
62, 62, 62, -1, 296.00, 175.00, 30.00, 9, ABalappappa
64, 64, 64, -1, 338.00, 228.00, 30.00, 13, ABalapapapp
66, 66, 66, -1, 321.00, 300.00, 27.00, 11, ABalapaaaap
69, 69, 69, -1, 285.00, 181.00, 18.00, 13, ABalaapaapa
70, 70, 70, -1, 308.00, 189.00, 16.00, 11, ABalaappaa
71, 71, 71, -1, 268.00, 184.00, 21.00, 13, ABarappppaa
72, 72, 72, -1, 246.00, 174.00, 16.00, 15, ABalaapppaa
73, 73, 73, -1, 297.00, 203.00, 24.00, 13, ABalaaaarrp
74, 74, 74, -1, 294.00, 193.00, 19.00, 13, ABalaapaapp
75, 75, 75, -1, 316.00, 194.00, 20.00, 13, ABalaaaarra
76, 76, 76, -1, 320.00, 244.00, 23.00, 11, ABalaaaarlp
77, 77, 670, -1, 333.00, 228.00, 19.00, 17, ABalaaaarla
78, 78, 78, -1, 322.00, 245.00, 19.00, 11, ABalaaaalpp
79, 79, 79, -1, 335.00, 188.00, 24.00, 11, ABpraapaaap
80, 714, 80, -1, 288.00, 198.00, 26.00, 13, ABalaapaaar
81, 81, 81, -1, 290.00, 171.00, 16.00, 17, ABpraaaaapv
83, 83, 83, -1, 328.00, 217.00, 32.00, 11, ABalappaapa
85, 85, 85, -1, 115.00, 293.00, 12.00, 14, ABplppppapp
86, 86, 86, -1, 129.00, 308.00, 16.00, 13, ABplppppaaa
87, 87, 87, -1, 118.00, 301.00, 17.00, 11, ABplppppaap
88, 88, 88, -1, 79.00, 308.00, 13.00, 13, ABplppppppp
89, 89, 89, -1, 91.00, 305.00, 12.00, 11, ABplppppppa
90, 90, 90, -1, 115.00, 337.00, 19.00, 17, ABplpppppap
91, 91, 91, -1, 118.00, 318.00, 18.00, 13, ABplpppppaa
92, 92, 92, -1, 115.00, 324.00, 11.00, 13, ABplpppapaa
93, 93, 93, -1, 116.00, 330.00, 15.00, 13, ABplpppaapp
94, 94, 94, -1, 146.00, 302.00, 10.00, 15, ABplpppaaaa
95, 95, 95, -1, 155.00, 314.00, 15.00, 13, ABplpppaaap
96, 96, 96, -1, 153.00, 302.00, 16.00, 13, ABplppapppp
97, 97, 97, -1, 176.00, 290.00, 14.00, 11, ABplppapppa
98, 98, 98, -1, 202.00, 282.00, 14.00, 13, ABplppappap
99, 99, 99, -1, 213.00, 281.00, 12.00, 11, ABplppappaa
100, 100, 100, -1, 193.00, 296.00, 14.00, 13, ABplppapapa
101, 101, 101, -1, 173.00, 300.00, 16.00, 13, ABplppapapp
102, 102, 102, -1, 161.00, 293.00, 13.00, 13, ABplppaappp
104, 104, 104, -1, 195.00, 273.00, 19.00, 13, MSaappap
105, 105, 105, -1, 107.00, 287.00, 15.00, 13, ABplpappppp
106, 106, 106, -1, 126.00, 287.00, 17.00, 11, ABplpappppa
107, 107, 107, -1, 126.00, 299.00, 13.00, 14, ABplpapppaa
108, 108, 108, -1, 119.00, 269.00, 15.00, 13, ABplpapppap
109, 109, 109, -1, 240.00, 267.00, 12.00, 11, ABplpapappa
110, 110, 110, -1, 167.00, 276.00, 14.00, 13, ABplpapappp
111, 111, 111, -1, 239.00, 271.00, 14.00, 13, ABplpapapap
112, 112, 112, -1, 228.00, 282.00, 15.00, 13, ABplpapapaa
113, 113, 113, -1, 268.00, 259.00, 14.00, 15, ABplpapaapa
114, 114, 114, -1, 251.00, 263.00, 13.00, 13, ABplpapaaap
115, 115, 115, -1, 257.00, 263.00, 15.00, 13, ABplpapaaaa
116, 116, 116, -1, 210.00, 291.00, 15.00, 17, ABplppapaap
118, 118, 118, -1, 317.00, 278.00, 16.00, 15, ABplpaaaaaa
119, 119, 119, -1, 312.00, 251.00, 10.00, 15, ABplpaapapp
122, 122, 122, -1, 277.00, 320.00, 18.00, 13, ABplpaappap
123, 123, 123, -1, 274.00, 305.00, 17.00, 13, ABplpaappaa
124, 124, 124, -1, 283.00, 263.00, 11.00, 19, ABplpaapppp
125, 125, 125, -1, 289.00, 313.00, 16.00, 13, ABplpaapaap
127, 127, 127, -1, 351.00, 257.00, 21.00, 13, ABplpaapapa
128, 128, 128, -1, 332.00, 212.00, 22.00, 13, ABplaapaaaa
129, 129, 129, -1, 354.00, 222.00, 23.00, 13, ABplaapaaap
130, 130, 130, -1, 340.00, 262.00, 21.00, 13, ABplaapaapa
131, 131, 690, -1, 333.00, 281.00, 24.00, 11, ABplaapaapp
132, 132, 131, -1, 305.00, 311.00, 23.00, 15, ABplaapapppa
133, 133, 132, -1, 285.00, 314.00, 25.00, 13, ABplaapapppp
134, 134, 133, -1, 281.00, 298.00, 23.00, 11, ABplaapappa
135, 135, 134, -1, 270.00, 310.00, 26.00, 13, ABplaapapap
136, 136, 135, -1, 269.00, 307.00, 22.00, 11, ABplaapapaa
137, 137, 136, -1, 318.00, 263.00, 31.00, 13, MSapaaap
138, 138, 137, -1, 358.00, 236.00, 24.00, 13, ABarpaaaapp
139, 139, 138, -1, 340.00, 224.00, 28.00, 13, ABalapappap
140, 140, 139, -1, 349.00, 210.00, 31.00, 15, ABplaaaapp
143, 143, 143, -1, 335.00, 294.00, 25.00, 15, ABplaaappp
144, 144, 144, -1, 349.00, 237.00, 18.00, 13, ABplaaapaa
145, 145, 145, -1, 127.00, 302.00, 9.00, 17, ABplappppa
146, 146, 146, -1, 84.00, 331.00, 13.00, 15, ABplappppp
147, 147, 147, -1, 119.00, 343.00, 13.00, 11, ABplapppaaa
148, 148, 148, -1, 103.00, 330.00, 14.00, 11, ABplapppapp
149, 149, 149, -1, 96.00, 342.00, 12.00, 11, ABplapppapa
150, 150, 150, -1, 220.00, 338.00, 20.00, 17, ABplappaaa
151, 151, 151, -1, 192.00, 348.00, 21.00, 15, ABplappaap
152, 152, 152, -1, 170.00, 351.00, 20.00, 15, ABplappapp
153, 153, 153, -1, 200.00, 352.00, 25.00, 15, ABplappapa
154, 154, 154, -1, 238.00, 333.00, 17.00, 17, ABplapaapp
155, 155, 155, -1, 244.00, 279.00, 10.00, 15, ABplapaapa
156, 156, 156, -1, 316.00, 289.00, 31.00, 15, ABarppaaaa
157, 157, 157, -1, 253.00, 324.00, 22.00, 13, ABplapaaapp
158, 158, 158, -1, 111.00, 367.00, 18.00, 11, ABplapapppa
159, 159, 159, -1, 145.00, 356.00, 17.00, 15, ABplapapap
160, 160, 160, -1, 133.00, 347.00, 13.00, 15, ABplapappa
161, 161, 161, -1, 141.00, 368.00, 22.00, 19, ABplapapaa
162, 162, 162, -1, 235.00, 229.00, 13.00, 13, ABprpapaaaa
163, 163, 163, -1, 145.00, 294.00, 14.00, 11, ABprpapappp
164, 164, 164, -1, 217.00, 228.00, 15.00, 15, ABprpapapaa
165, 165, 165, -1, 91.00, 303.00, 17.00, 14, Eplppa
166, 166, 166, -1, 96.00, 279.00, 18.00, 13, ABprpappppa
167, 167, 167, -1, 185.00, 287.00, 12.00, 11, ABprpappapp
168, 168, 168, -1, 255.00, 235.00, 16.00, 13, ABprpapppaa
169, 169, 169, -1, 283.00, 230.00, 17.00, 13, ABarapapapa
170, 170, 170, -1, 228.00, 181.00, 15.00, 13, ABprpaaaaap
171, 171, 171, -1, 242.00, 182.00, 19.00, 13, ABpraaappaa
172, 172, 172, -1, 187.00, 268.00, 12.00, 15, ABprpaaaapp
173, 173, 173, -1, 235.00, 240.00, 10.00, 15, ABprpaaaapa
174, 174, 174, -1, 265.00, 190.00, 18.00, 13, ABprpaaaaaa
176, 175, 176, -1, 249.00, 219.00, 14.00, 13, ABprpapaapa
177, 176, 177, -1, 256.00, 195.00, 15.00, 13, ABprpaaappp
178, 177, 178, -1, 283.00, 184.00, 12.00, 15, ABprpaaapap
179, 178, 179, -1, 216.00, 172.00, 18.00, 13, ABprpaapaap
180, 179, 180, -1, 311.00, 171.00, 22.00, 13, ABprpaapapa
181, 180, 181, -1, 285.00, 197.00, 10.00, 14, ABprpaapapp
182, 181, 182, -1, 256.00, 205.00, 11.00, 17, ABprpaapppp
183, 182, 183, -1, 211.00, 179.00, 21.00, 15, ABprpaappap
184, 183, 184, -1, 227.00, 181.00, 19.00, 13, ABprpaappaa
185, 184, 185, -1, 96.00, 257.00, 20.00, 13, ABprpppaapa
186, 185, 186, -1, 140.00, 262.00, 16.00, 13, ABprpppaaap
187, 186, 187, -1, 140.00, 269.00, 12.00, 15, ABprpppaaaa
188, 187, 188, -1, 93.00, 255.00, 12.00, 11, ABprpppapaa
189, 188, 189, -1, 126.00, 260.00, 12.00, 15, ABprppppapa
190, 189, 190, -1, 117.00, 272.00, 12.00, 15, ABprppppapp
191, 190, 191, -1, 124.00, 271.00, 18.00, 13, ABprppppaaa
192, 191, 192, -1, 112.00, 273.00, 18.00, 13, ABprppppaap
193, 192, 193, -1, 127.00, 261.00, 21.00, 15, ABprpppppaa
194, 193, 194, -1, 107.00, 266.00, 21.00, 15, ABprpppppap
195, 194, 195, -1, 216.00, 189.00, 15.00, 11, ABprppaapap
196, 195, 196, -1, 222.00, 192.00, 12.00, 11, ABprppaapaa
197, 196, 197, -1, 209.00, 249.00, 12.00, 15, ABprppaappa
198, 197, 198, -1, 151.00, 279.00, 14.00, 11, ABprppaappp
199, 198, 199, -1, 228.00, 179.00, 13.00, 13, ABprppaaaaa
200, 199, 200, -1, 199.00, 194.00, 18.00, 13, ABprppaaaapp
201, 199, 201, -1, 206.00, 186.00, 17.00, 11, ABprppaaaapa
202, 200, 202, -1, 197.00, 228.00, 11.00, 15, ABprppapaaa
203, 201, 203, -1, 191.00, 262.00, 16.00, 13, ABprppapaap
204, 202, 204, -1, 177.00, 272.00, 17.00, 11, ABprppapapa
205, 203, 205, -1, 157.00, 276.00, 19.00, 13, ABprppapapp
207, 205, 207, -1, 141.00, 278.00, 16.00, 15, ABprppapppp
208, 206, 208, -1, 194.00, 257.00, 14.00, 15, ABprppappaa
209, 207, 209, -1, 190.00, 278.00, 16.00, 13, ABprppappap
210, 208, 210, -1, 319.00, 208.00, 24.00, 13, ABpraapaaaa
211, 209, 211, -1, 321.00, 178.00, 30.00, 15, ABarpapaaap
214, 212, 214, -1, 229.00, 190.00, 28.00, 13, ABpraapapap
215, 213, 215, -1, 219.00, 195.00, 25.00, 11, ABpraapapaa
217, 215, 217, -1, 230.00, 196.00, 25.00, 13, ABpraapappa
218, 216, 218, -1, 189.00, 189.00, 20.00, 15, ABpraapppp
219, 217, 219, -1, 312.00, 200.00, 11.00, 13, ABpraappaa
221, 219, 221, -1, 245.00, 185.00, 24.00, 13, ABpraaapaad
222, 220, 222, -1, 229.00, 185.00, 21.00, 17, ABpraaappap
223, 221, 223, -1, 216.00, 179.00, 24.00, 11, ABpraaapppap
224, 222, 224, -1, 305.00, 182.00, 20.00, 11, ABpraaaaapd
225, 223, 225, -1, 256.00, 171.00, 15.00, 15, ABpraaaaaaa
226, 224, 226, -1, 292.00, 199.00, 14.00, 13, ABprpaaapaa
227, 225, 227, -1, 244.00, 177.00, 15.00, 13, ABpraaaapav
229, 227, 229, -1, 254.00, 172.00, 24.00, 11, ABpraaaappa
230, 228, 230, -1, 253.00, 176.00, 26.00, 11, ABpraaaappp
231, 229, 231, -1, 137.00, 239.00, 20.00, 15, ABprappapp
232, 230, 232, -1, 149.00, 224.00, 30.00, 15, ABprappapa
233, 231, 233, -1, 149.00, 228.00, 24.00, 15, ABprappaap
234, 232, 234, -1, 168.00, 221.00, 23.00, 15, ABprappaaa
235, 233, 235, -1, 90.00, 244.00, 17.00, 13, ABprapppaaa
236, 234, 236, -1, 86.00, 263.00, 16.00, 13, ABprapppapp
237, 235, 237, -1, 72.00, 251.00, 17.00, 11, ABprapppapa
239, 236, 239, -1, 70.00, 267.00, 14.00, 15, ABprappppp
240, 237, 240, -1, 113.00, 268.00, 10.00, 19, ABprappppa
241, 238, 241, -1, 204.00, 195.00, 24.00, 17, ABprapaaapa
242, 239, 242, -1, 192.00, 204.00, 25.00, 13, ABprapaaapp
244, 241, 244, -1, 179.00, 205.00, 20.00, 15, ABprapaapp
245, 242, 245, -1, 213.00, 216.00, 10.00, 15, ABprapaapa
246, 243, 246, -1, 109.00, 237.00, 15.00, 15, ABprapappa
247, 244, 247, -1, 68.00, 267.00, 21.00, 13, ABprapapppp
248, 245, 248, -1, 111.00, 235.00, 21.00, 15, ABprapapap
249, 246, 249, -1, 106.00, 240.00, 28.00, 17, ABprapapaa
250, 247, 250, -1, 253.00, 199.00, 33.00, 13, MSppppap
251, 248, 251, -1, 229.00, 202.00, 20.00, 11, MSppppaa
252, 249, 252, -1, 300.00, 201.00, 34.00, 13, MSpppppa
253, 250, 253, -1, 252.00, 211.00, 34.00, 13, MSpppppp
254, 251, 254, -1, 283.00, 215.00, 34.00, 17, MSpppaaa
255, 252, 255, -1, 138.00, 260.00, 26.00, 13, MSpppaap
256, 253, 256, -1, 241.00, 230.00, 15.00, 15, ABprpapaaap
257, 254, 257, -1, 127.00, 289.00, 20.00, 15, MSppaapp
258, 255, 258, -1, 256.00, 192.00, 26.00, 9, MSppaapa
259, 256, 259, -1, 271.00, 200.00, 26.00, 11, MSppaaaa
260, 257, 260, -1, 255.00, 194.00, 23.00, 11, MSppapap
261, 258, 261, -1, 193.00, 257.00, 21.00, 13, MSpapappp
262, 259, 262, -1, 200.00, 244.00, 20.00, 13, MSpapapaa
263, 260, 263, -1, 209.00, 231.00, 20.00, 15, MSpapaaap
264, 261, 264, -1, 201.00, 240.00, 25.00, 17, MSpapaapp
265, 262, 265, -1, 173.00, 324.00, 17.00, 15, MSpappaa
266, 263, 266, -1, 173.00, 249.00, 17.00, 15, MSpappppa
267, 264, 267, -1, 165.00, 257.00, 19.00, 13, MSpappppp
268, 265, 268, -1, 237.00, 259.00, 34.00, 15, MSpaaappp
269, 266, 269, -1, 243.00, 275.00, 30.00, 13, MSpaaapaa
270, 267, 270, -1, 220.00, 269.00, 32.00, 13, MSpaaapap
271, 268, 271, -1, 256.00, 229.00, 32.00, 17, MSpaaaapp
272, 269, 272, -1, 268.00, 255.00, 35.00, 15, MSpaaaaaa
273, 270, 273, -1, 247.00, 249.00, 29.00, 11, MSpaaaaap
274, 271, 274, -1, 210.00, 218.00, 24.00, 15, ABaraappppa
275, 272, 275, -1, 218.00, 221.00, 29.00, 15, ABaraapppap
276, 273, 276, -1, 236.00, 260.00, 30.00, 11, MSpaapaap
277, 274, 277, -1, 250.00, 247.00, 32.00, 13, MSpaaappa
278, 275, 278, -1, 229.00, 242.00, 30.00, 13, MSpaapaaa
279, 276, 279, -1, 290.00, 294.00, 32.00, 13, MSapppap
280, 277, 280, -1, 316.00, 254.00, 35.00, 17, MSappppa
281, 278, 281, -1, 299.00, 253.00, 34.00, 15, MSappaaa
282, 279, 282, -1, 267.00, 283.00, 31.00, 17, ABaraapaapp
283, 280, 283, -1, 328.00, 244.00, 32.00, 15, MSapappp
284, 281, 284, -1, 146.00, 293.00, 19.00, 15, MSapaapp
285, 282, 285, -1, 306.00, 267.00, 26.00, 13, MSapaaaa
286, 283, 286, -1, 275.00, 243.00, 32.00, 13, MSaaaaapap
287, 284, 287, -1, 272.00, 257.00, 30.00, 11, MSaaapaaa
288, 285, 288, -1, 290.00, 206.00, 29.00, 15, MSaaaaaar
289, 286, 289, -1, 316.00, 248.00, 28.00, 13, MSaaaaaal
290, 287, 290, -1, 253.00, 263.00, 34.00, 13, MSaaaapaa
291, 288, 291, -1, 262.00, 271.00, 32.00, 13, MSaaaapap
292, 289, 292, -1, 233.00, 278.00, 31.00, 11, MSaaaappa
293, 290, 293, -1, 241.00, 291.00, 30.00, 11, MSaaapapa
294, 291, 294, -1, 228.00, 294.00, 28.00, 15, MSaaapapp
295, 292, 295, -1, 213.00, 299.00, 28.00, 11, MSaaappa
296, 293, 296, -1, 221.00, 288.00, 32.00, 13, MSaaappp
297, 294, 297, -1, 204.00, 311.00, 15.00, 13, MSaappppa
298, 295, 298, -1, 189.00, 318.00, 16.00, 13, MSaappppp
299, 296, 299, -1, 238.00, 278.00, 18.00, 15, MSaapaaap
300, 297, 300, -1, 252.00, 270.00, 20.00, 9, MSaapaaaa
301, 298, 301, -1, 218.00, 286.00, 20.00, 13, MSaapappp
302, 299, 302, -1, 246.00, 302.00, 26.00, 11, MSaapappa
303, 300, 303, -1, 230.00, 279.00, 21.00, 13, MSaapapaa
304, 301, 304, -1, 230.00, 290.00, 23.00, 11, MSaapapap
305, 302, 305, -1, 99.00, 317.00, 27.00, 17, Eplpa
306, 303, 306, -1, 102.00, 355.00, 24.00, 13, Cappapa
307, 304, 307, -1, 87.00, 347.00, 22.00, 13, Cappapp
308, 305, 308, -1, 201.00, 328.00, 30.00, 15, Cappaaa
309, 306, 309, -1, 79.00, 343.00, 25.00, 15, Capppap
310, 307, 310, -1, 118.00, 346.00, 33.00, 17, Capppaa
311, 308, 311, -1, 127.00, 358.00, 29.00, 13, Capapap
312, 309, 312, -1, 166.00, 345.00, 31.00, 13, Capapaa
313, 310, 313, -1, 135.00, 323.00, 13.00, 15, Capappp
314, 311, 314, -1, 150.00, 337.00, 15.00, 15, Capappa
315, 312, 315, -1, 199.00, 332.00, 19.00, 13, Capaaap
316, 313, 316, -1, 219.00, 320.00, 17.00, 15, Capaaaa
318, 315, 318, -1, 63.00, 293.00, 15.00, 15, Caappv
319, 316, 319, -1, 103.00, 283.00, 12.00, 9, Caapap
320, 317, 320, -1, 90.00, 358.00, 19.00, 15, Cpappd
321, 318, 321, -1, 70.00, 324.00, 14.00, 15, Cpappv
322, 319, 322, -1, 124.00, 249.00, 24.00, 15, Cppaapp
323, 320, 323, -1, 152.00, 248.00, 23.00, 13, Cppaapa
324, 321, 324, -1, 165.00, 238.00, 21.00, 13, Cppaaap
325, 322, 325, -1, 180.00, 229.00, 19.00, 15, Cppaaaa
326, 323, 326, -1, 156.00, 257.00, 33.00, 15, Cppapaa
327, 324, 327, -1, 109.00, 255.00, 15.00, 13, Cppappp
328, 325, 328, -1, 116.00, 251.00, 19.00, 15, Cppappa
329, 326, 329, -1, 158.00, 278.00, 35.00, 19, Cpppaap
330, 327, 330, -1, 185.00, 241.00, 32.00, 13, Cpppaaa
331, 328, 331, -1, 71.00, 278.00, 26.00, 15, Cpppapp
332, 329, 332, -1, 94.00, 277.00, 33.00, 15, Cpppapa
333, 330, 333, -1, 260.00, 288.00, 14.00, 13, Daapa
334, 331, 334, -1, 245.00, 293.00, 13.00, 15, Daapp
336, 333, 336, -1, 257.00, 305.00, 31.00, 15, Daaap
337, 334, 337, -1, 249.00, 296.00, 34.00, 13, Dappaa
338, 335, 338, -1, 206.00, 212.00, 14.00, 13, Dpapp
339, 336, 339, -1, 221.00, 205.00, 16.00, 14, Dpapa
340, 337, 340, -1, 227.00, 210.00, 33.00, 14, Dpaap
341, 338, 341, -1, 214.00, 204.00, 21.00, 13, Dpaaa
342, 339, 342, -1, 196.00, 258.00, 33.00, 11, Dppppa
343, 340, 343, -1, 214.00, 250.00, 35.00, 13, Dpppap
344, 341, 344, -1, 235.00, 232.00, 35.00, 17, Dpppaa
345, 342, 345, -1, 196.00, 213.00, 20.00, 13, Dppaa
346, 343, 346, -1, 204.00, 229.00, 33.00, 15, Dppap
349, 346, 349, -1, 290.00, 314.00, 21.00, 11, ABalppppppaa
350, 347, 350, -1, 283.00, 329.00, 21.00, 13, ABalppppppap
351, 348, 351, -1, 302.00, 313.00, 20.00, 15, ABalpppppppa
352, 349, 352, -1, 358.00, 258.00, 19.00, 17, ABplaaapap
353, 350, 353, -1, 319.00, 287.00, 14.00, 15, ABalpppaaaa
354, 351, 354, -1, 320.00, 251.00, 15.00, 13, ABalpppaaap
355, 352, 355, -1, 337.00, 259.00, 16.00, 13, ABalpppaapd
356, 353, 356, -1, 334.00, 252.00, 21.00, 11, ABalpppaapv
357, 354, 357, -1, 304.00, 292.00, 15.00, 11, ABalpppapad
358, 356, 358, -1, 334.00, 265.00, 14.00, 15, ABalpppapav
359, 357, 359, -1, 332.00, 249.00, 15.00, 14, ABalppaaapp
360, 358, 360, -1, 287.00, 297.00, 15.00, 15, ABplpaaaaap
361, 359, 361, -1, 296.00, 247.00, 13.00, 11, ABalppapppa
362, 360, 362, -1, 310.00, 277.00, 20.00, 15, ABalppappaa
363, 361, 363, -1, 314.00, 274.00, 22.00, 11, ABalapaappa
364, 362, 364, -1, 280.00, 248.00, 12.00, 11, ABalppapapa
365, 363, 365, -1, 318.00, 235.00, 12.00, 11, ABalppapapp
366, 364, 366, -1, 326.00, 221.00, 11.00, 13, ABplaappaa
367, 365, 367, -1, 315.00, 256.00, 21.00, 15, ABalppapaaa
368, 366, 368, -1, 276.00, 247.00, 14.00, 15, ABalpapapaa
369, 367, 369, -1, 213.00, 277.00, 9.00, 17, ABalpapappa
370, 368, 370, -1, 314.00, 215.00, 13.00, 11, ABalpapaapp
371, 369, 371, -1, 308.00, 234.00, 15.00, 9, ABalppapaap
372, 370, 372, -1, 282.00, 253.00, 19.00, 13, ABalpaaaapa
373, 371, 373, -1, 274.00, 262.00, 18.00, 13, ABalpaaaaap
374, 372, 374, -1, 256.00, 243.00, 21.00, 9, ABalpappaaa
375, 373, 375, -1, 280.00, 280.00, 22.00, 15, ABalpapppaa
376, 374, 376, -1, 261.00, 265.00, 18.00, 13, ABalpapppap
377, 375, 377, -1, 286.00, 273.00, 29.00, 17, ABalpaapapa
378, 376, 378, -1, 258.00, 254.00, 18.00, 13, ABalpaaaapp
379, 377, 379, -1, 289.00, 246.00, 21.00, 13, ABalpaaaaaa
380, 378, 380, -1, 286.00, 268.00, 20.00, 17, ABalpappaap
382, 380, 382, -1, 318.00, 225.00, 24.00, 14, ABalpaapppa
383, 381, 383, -1, 327.00, 227.00, 21.00, 15, ABalpaapppp
384, 382, 384, -1, 312.00, 228.00, 21.00, 13, ABalpaappaa
388, 386, 388, -1, 135.00, 323.00, 28.00, 15, Ealpp
389, 387, 389, -1, 144.00, 300.00, 28.00, 19, Earpp
392, 390, 392, -1, 93.00, 293.00, 23.00, 19, Eprpp
393, 391, 393, -1, 232.00, 317.00, 33.00, 15, Dapap
394, 392, 394, -1, 238.00, 311.00, 18.00, 15, Dapaa
395, 393, 395, -1, 234.00, 302.00, 24.00, 13, MSaapaapp
396, 394, 396, -1, 239.00, 297.00, 20.00, 13, MSaapaapa
397, 395, 397, -1, 197.00, 210.00, 31.00, 17, ABarpppapp
398, 396, 398, -1, 271.00, 304.00, 13.00, 15, ABplppaapap
399, 397, 399, -1, 276.00, 297.00, 10.00, 11, ABplppaapaa
400, 398, 400, -1, 324.00, 257.00, 24.00, 15, ABalaaaalar
402, 400, 402, -1, 322.00, 178.00, 19.00, 13, ABarpappaa
403, 401, 403, -1, 114.00, 298.00, 35.00, 19, Cppppaa
404, 402, 404, -1, 74.00, 297.00, 29.00, 15, Cppppap
405, 403, 405, -1, 93.00, 271.00, 14.00, 15, Cpppppv
406, 404, 406, -1, 305.00, 186.00, 32.00, 17, ABarpapaappp
407, 405, 407, -1, 122.00, 308.00, 32.00, 19, Eprap
408, 406, 408, -1, 116.00, 321.00, 29.00, 21, Eplap
409, 407, 409, -1, 308.00, 221.00, 16.00, 17, ABalpapaapa
411, 409, 411, -1, 229.00, 291.00, 10.00, 15, ABplppapaaa
412, 410, 412, -1, 337.00, 261.00, 26.00, 11, ABalaaaalal
413, 411, 413, -1, 281.00, 201.00, 17.00, 15, ABarappppap
414, 412, 414, -1, 150.00, 258.00, 19.00, 15, MSpappap
415, 413, 415, -1, 216.00, 246.00, 31.00, 19, MSpaapapa
416, 414, 416, -1, 65.00, 301.00, 20.00, 15, Cpppppd
417, 415, 417, -1, 305.00, 303.00, 29.00, 11, ABplapaaaaa
418, 416, 418, -1, 209.00, 269.00, 22.00, 13, MSaappaa
419, 417, 419, -1, 290.00, 312.00, 28.00, 17, ABplapaaaap
420, 418, 420, -1, 325.00, 263.00, 18.00, 13, ABalaaaalpa
421, 419, 421, -1, 332.00, 233.00, 24.00, 11, ABalaaaparr
422, 420, 422, -1, 344.00, 233.00, 22.00, 13, ABalaaaparl
423, 421, 423, -1, 266.00, 286.00, 23.00, 13, ABalpaaappp
424, 422, 424, -1, 273.00, 274.00, 24.00, 17, ABalpaaappa
425, 423, 425, -1, 204.00, 292.00, 19.00, 17, Ealaad
426, 424, 426, -1, 230.00, 232.00, 16.00, 17, ABprpappapa
427, 425, 427, -1, 156.00, 341.00, 34.00, 17, Cappaap
428, 426, 428, -1, 286.00, 232.00, 19.00, 13, ABarappaapp
429, 427, 429, -1, 205.00, 224.00, 27.00, 15, MSpapappa
430, 428, 430, -1, 211.00, 232.00, 23.00, 11, MSpapaapaa
431, 429, 431, -1, 196.00, 221.00, 22.00, 11, MSpapaapap
432, 430, 432, -1, 278.00, 165.00, 22.00, 14, ABpraapaapp
433, 431, 433, -1, 270.00, 172.00, 30.00, 11, ABalapppppa
434, 432, 434, -1, 278.00, 216.00, 22.00, 11, ABaraaaaapa
435, 433, 435, -1, 300.00, 249.00, 15.00, 15, ABalppapppp
436, 434, 436, -1, 315.00, 194.00, 23.00, 13, ABalaaappll
437, 435, 437, -1, 116.00, 271.00, 36.00, 15, Cppapap
438, 436, 438, -1, 298.00, 296.00, 25.00, 13, ABalppppaad
439, 437, 439, -1, 281.00, 278.00, 35.00, 15, MSappppp
440, 438, 440, -1, 287.00, 286.00, 27.00, 15, ABalpaapapp
441, 439, 441, -1, 111.00, 344.00, 16.00, 15, ABplpppaapa
442, 440, 442, -1, 230.00, 234.00, 19.00, 13, MSpapaaaa
443, 441, 443, -1, 195.00, 226.00, 15.00, 15, MSpapppaa
444, 442, 444, -1, 186.00, 239.00, 17.00, 15, MSpapppap
445, 443, 445, -1, 264.00, 181.00, 24.00, 13, ABprpaapaaa
446, 444, 446, -1, 306.00, 304.00, 16.00, 11, ABalpppppppp
447, 445, 447, -1, 94.00, 308.00, 10.00, 13, ABprpppapp
449, 448, 449, -1, 340.00, 206.00, 23.00, 13, ABarpaaaaal
450, 449, 450, -1, 90.00, 286.00, 13.00, 11, ABprppppppa
451, 450, 451, -1, 218.00, 192.00, 34.00, 17, ABarpppapa
452, 451, 452, -1, 281.00, 278.00, 15.00, 13, MSappapp
453, 452, 453, -1, 94.00, 244.00, 23.00, 9, ABarpppppp
454, 453, 454, -1, 247.00, 194.00, 14.00, 9, MSpppapa
455, 454, 455, -1, 304.00, 283.00, 30.00, 13, MSapappa
456, 455, 456, -1, 307.00, 201.00, 32.00, 17, MSppappp
457, 456, 457, -1, 105.00, 312.00, 14.00, 13, Cappppd
458, 457, 458, -1, 224.00, 266.00, 28.00, 13, MSaaaappp
459, 458, 459, -1, 108.00, 362.00, 18.00, 17, ABplapppaap
460, 459, 460, -1, 142.00, 272.00, 21.00, 21, Z2
461, 460, 461, -1, 334.00, 257.00, 31.00, 11, ABplaaaaapa
462, 461, 462, -1, 197.00, 238.00, 23.00, 11, MSpapapap
464, 463, 463, -1, 92.00, 320.00, 23.00, 21, Eplppp
465, 464, 464, -1, 155.00, 341.00, 20.00, 15, Capaapp
466, 465, 465, -1, 181.00, 341.00, 22.00, 13, Capaapa
467, 466, 466, -1, 261.00, 176.00, 12.00, 19, ABpraappap
468, 467, 467, -1, 191.00, 288.00, 23.00, 15, Ealpa
470, 469, 469, -1, 235.00, 165.00, 17.00, 13, ABpraaappppp
471, 470, 470, -1, 296.00, 295.00, 19.00, 13, ABalpppppaa
472, 471, 471, -1, 316.00, 290.00, 22.00, 13, ABplpaapaaa
473, 472, 472, -1, 277.00, 195.00, 30.00, 15, MSppaaap
474, 473, 473, -1, 222.00, 259.00, 19.00, 13, ABarapapapp
475, 474, 474, -1, 72.00, 318.00, 18.00, 15, Cappppv
476, 475, 475, -1, 220.00, 306.00, 15.00, 11, MSaapppap
477, 476, 476, -1, 258.00, 319.00, 20.00, 13, ABplapaaapa
478, 477, 477, -1, 248.00, 231.00, 23.00, 15, ABarapapppp
479, 478, 478, -1, 231.00, 297.00, 15.00, 11, MSaapppaa
480, 479, 479, -1, 209.00, 269.00, 11.00, 13, ABarappappa
481, 480, 480, -1, 298.00, 247.00, 22.00, 13, ABaraaaaaaa
482, 481, 481, -1, 180.00, 298.00, 25.00, 11, Ealap
485, 484, 484, -1, 200.00, 280.00, 11.00, 14, ABplpaaaapp
488, 487, 487, -1, 243.00, 233.00, 19.00, 11, ABarapappap
490, 489, 489, -1, 109.00, 302.00, 18.00, 13, ABprpappppp
491, 491, 490, -1, 268.00, 273.00, 12.00, 15, ABplpaapppa
492, 492, 649, -1, 262.00, 241.00, 11.00, 15, ABalpapapap
493, 493, 491, -1, 258.00, 273.00, 11.00, 15, ABalpapappp
494, 494, 492, -1, 102.00, 301.00, 29.00, 15, Eprpa
495, 495, 493, -1, 353.00, 276.00, 20.00, 13, ABplaaappa
496, 496, 494, -1, 313.00, 230.00, 33.00, 13, ABalapapapa
497, 497, 495, -1, 335.00, 196.00, 29.00, 11, ABalapppapp
498, 498, 496, -1, 304.00, 216.00, 10.00, 13, ABalpapaaap
499, 499, 497, -1, 236.00, 207.00, 17.00, 13, MSpppapp
500, 500, 498, -1, 297.00, 284.00, 23.00, 11, ABalppppaav
501, 501, 499, -1, 233.00, 324.00, 23.00, 15, MSapapaa
503, 503, 501, -1, 295.00, 227.00, 30.00, 15, ABaraappaaa
505, 505, 503, -1, 142.00, 318.00, 20.00, 21, Z3
506, 506, 504, -1, 284.00, 302.00, 21.00, 15, ABalpppppap
507, 507, 505, -1, 303.00, 260.00, 13.00, 11, ABalppaappp
508, 508, 506, -1, 260.00, 164.00, 32.00, 11, ABarpapppp
511, 511, 509, -1, 292.00, 302.00, 12.00, 13, ABplppaaaaa
512, 512, 510, -1, 263.00, 223.00, 20.00, 17, ABarapaaapa
513, 513, 511, -1, 282.00, 224.00, 29.00, 13, ABaraappaap
514, 514, 512, -1, 295.00, 224.00, 26.00, 11, ABaraaaapap
515, 515, 513, -1, 249.00, 212.00, 30.00, 15, ABaraaapapa
516, 516, 514, -1, 186.00, 275.00, 26.00, 15, Earpa
517, 517, 515, -1, 311.00, 239.00, 19.00, 13, ABalpapaaaa
518, 518, 516, -1, 69.00, 261.00, 22.00, 17, Caappd
521, 521, 519, -1, 257.00, 184.00, 32.00, 13, ABarpppaaa
525, 525, 523, -1, 83.00, 257.00, 26.00, 19, Cpapaa
526, 526, 524, -1, 271.00, 179.00, 34.00, 11, ABalappapap
527, 527, 525, -1, 303.00, 277.00, 10.00, 17, ABplaappap
529, 529, 527, -1, 312.00, 298.00, 25.00, 11, ABalpppapppp
530, 530, 528, -1, 224.00, 269.00, 11.00, 13, ABplppaappa
531, 531, 529, -1, 269.00, 233.00, 36.00, 21, ABarppaapa
534, 534, 532, -1, 113.00, 370.00, 24.00, 17, Cpapap
535, 535, 533, -1, 240.00, 248.00, 13.00, 15, ABplpaaaapa
536, 536, 534, -1, 326.00, 248.00, 11.00, 13, ABplpaaapap
537, 537, 535, -1, 256.00, 280.00, 25.00, 15, ABaraapapaa
538, 538, 536, -1, 318.00, 246.00, 31.00, 9, ABarpaapap
539, 539, 537, -1, 89.00, 247.00, 14.00, 13, ABprpppaapp
540, 540, 538, -1, 136.00, 306.00, 12.00, 15, ABplppppapa
541, 541, 539, -1, 196.00, 245.00, 12.00, 13, ABprpapppap
542, 542, 540, -1, 296.00, 282.00, 20.00, 9, MSapapap
544, 544, 542, -1, 247.00, 181.00, 35.00, 17, ABarpaappp
545, 545, 543, -1, 277.00, 288.00, 18.00, 11, MSapppaa
547, 547, 545, -1, 302.00, 242.00, 24.00, 15, ABalpaapaaa
549, 549, 547, -1, 229.00, 175.00, 27.00, 13, ABpraapapppp
551, 551, 549, -1, 253.00, 321.00, 14.00, 11, ABplaapppp
552, 552, 550, -1, 265.00, 221.00, 30.00, 11, MSpaaaapa
553, 553, 551, -1, 158.00, 322.00, 28.00, 15, Eplaa
554, 554, 552, -1, 321.00, 185.00, 23.00, 13, ABalaaapplr
555, 555, 553, -1, 340.00, 272.00, 27.00, 13, ABalaaapall
556, 556, 554, -1, 248.00, 204.00, 28.00, 17, ABarapaappa
557, 557, 555, -1, 305.00, 160.00, 23.00, 14, ABarpappap
558, 558, 556, -1, 226.00, 306.00, 35.00, 17, Dappap
559, 559, 557, -1, 325.00, 224.00, 27.00, 13, ABalapppaap
560, 560, 558, -1, 356.00, 236.00, 28.00, 11, ABplaaaaaap
562, 562, 560, -1, 190.00, 302.00, 28.00, 17, Earap
563, 563, 561, -1, 324.00, 197.00, 28.00, 15, ABarpapaaaa
564, 564, 562, -1, 268.00, 187.00, 28.00, 14, ABalappapaa
569, 569, 567, -1, 311.00, 268.00, 13.00, 17, ABplpaaappp
570, 570, 568, -1, 275.00, 175.00, 24.00, 9, ABpraaapaav
571, 571, 569, -1, 299.00, 241.00, 36.00, 11, ABarpaappa
573, 573, 571, -1, 310.00, 265.00, 16.00, 15, ABplpaaappa
575, 575, 573, -1, 236.00, 220.00, 24.00, 14, ABarapaappp
577, 578, 575, -1, 309.00, 287.00, 18.00, 11, ABalapaapaa
579, 580, 577, -1, 343.00, 273.00, 21.00, 11, ABalapaapap
580, 582, 578, -1, 276.00, 218.00, 31.00, 13, ABaraappapa
581, 583, 579, -1, 88.00, 337.00, 17.00, 15, ABplapapppp
582, 584, 580, -1, 236.00, 252.00, 22.00, 11, ABarapapaaa
583, 585, 581, -1, 270.00, 222.00, 21.00, 15, ABarapaaaaa
585, 587, 583, -1, 349.00, 258.00, 24.00, 13, ABalapapppp
586, 588, 63, -1, 326.00, 277.00, 26.00, 14, ABalppppapa
587, 589, 585, -1, 263.00, 261.00, 22.00, 17, ABalpappppp
588, 590, 587, -1, 309.00, 215.00, 32.00, 13, ABalapppapa
589, 591, 588, -1, 320.00, 278.00, 28.00, 15, ABalapaaaaa
590, 592, 589, -1, 184.00, 221.00, 26.00, 15, MSppapaa
591, 593, 590, -1, 104.00, 253.00, 32.00, 19, Caaapp
592, 594, 591, -1, 287.00, 238.00, 10.00, 15, ABarappaaap
598, 600, 597, -1, 207.00, 258.00, 28.00, 13, MSpaapapp
599, 601, 598, -1, 293.00, 173.00, 22.00, 11, ABpraapaapa
601, 603, 600, -1, 272.00, 195.00, 15.00, 14, ABprpaaappa
603, 605, 602, -1, 238.00, 193.00, 11.00, 9, ABpraapppa
604, 606, 603, -1, 320.00, 239.00, 14.00, 15, ABplpaaapaa
606, 608, 605, -1, 358.00, 206.00, 26.00, 13, ABplaaaapa
608, 611, 607, -1, 280.00, 178.00, 15.00, 15, ABpraaaapad
611, 614, 610, -1, 290.00, 267.00, 25.00, 13, ABalpaaapaa
612, 615, 611, -1, 170.00, 298.00, 29.00, 11, Epraa
614, 617, 613, -1, 206.00, 281.00, 30.00, 19, Earaav
615, 618, 614, -1, 91.00, 287.00, 10.00, 17, ABprpppapap
616, 619, 615, -1, 292.00, 217.00, 20.00, 9, ABaraaappap
617, 620, 616, -1, 352.00, 256.00, 27.00, 11, ABalapaaapp
620, 623, 619, -1, 283.00, 283.00, 10.00, 13, ABplaapppa
623, 626, 622, -1, 118.00, 364.00, 19.00, 23, ABarppappp
624, 627, 623, -1, 341.00, 239.00, 26.00, 15, ABplaaaaapp
625, 628, 624, -1, 283.00, 189.00, 33.00, 17, MSppappa
626, 629, 625, -1, 293.00, 235.00, 32.00, 15, MSaaaaapaa
631, 634, 630, -1, 273.00, 234.00, 15.00, 11, ABplpappaaa
633, 636, 632, -1, 234.00, 257.00, 19.00, 13, ABarapapppa
634, 637, 633, -1, 251.00, 163.00, 23.00, 11, ABpraapapppa
635, 638, 634, -1, 334.00, 292.00, 20.00, 11, ABalpppapppa
636, 639, 635, -1, 219.00, 313.00, 27.00, 19, Ealaav
640, 643, 639, -1, 254.00, 303.00, 18.00, 13, Daaaa
643, 646, 642, -1, 336.00, 246.00, 18.00, 13, ABalaaapalr
644, 647, 643, -1, 251.00, 222.00, 19.00, 11, ABarapaaaap
645, 648, 644, -1, 225.00, 173.00, 23.00, 13, ABpraaapppaa
646, 649, 645, -1, 238.00, 182.00, 31.00, 17, ABprapaaaap
649, 652, 648, -1, 265.00, 337.00, 24.00, 15, ABarppapaa
653, 656, 652, -1, 239.00, 163.00, 21.00, 19, ABpraaappppa
658, 661, 657, -1, 145.00, 367.00, 28.00, 15, Cpaapp
661, 678, 660, -1, 278.00, 180.00, 27.00, 17, ABpraaapapa
662, 689, 661, -1, 220.00, 231.00, 13.00, 13, ABprpapapap
666, 671, 665, -1, 273.00, 287.00, 27.00, 11, MSaaapaap
669, 664, 676, -1, 218.00, 340.00, 33.00, 15, Cpaaap
671, 666, 678, -1, 270.00, 239.00, 18.71, 14, ABalpappapa
672, 667, 679, -1, 183.00, 328.00, 33.00, 15, Dapppp
673, 609, 680, -1, 205.00, 315.00, 32.25, 13, Dapppa
674, 668, 681, -1, 174.00, 261.00, 33.00, 13, Dppppp
675, 669, 682, -1, 130.00, 251.00, 33.00, 15, Caaapa
677, 672, 653, -1, 134.00, 337.00, 18.67, 12, MSappaap
678, 673, 684, -1, 113.00, 323.00, 33.00, 15, Cpaapa
679, 674, 685, -1, 257.00, 313.00, 34.00, 15, Cpaaaa
680, 675, 686, -1, 163.00, 237.00, 33.00, 15, Caaaap
681, 676, 687, -1, 241.00, 333.00, 30.27, 12, Caaaaa
682, 490, 688, -1, 187.00, 253.00, 26.83, 15, Earaad
683, 204, 689, -1, 161.00, 288.00, 16.00, 14, ABprppapppa
684, 677, 175, -1, 251.00, 210.00, 13.00, 14, ABprpapaapp
685, 687, 691, -1, 266.00, 218.00, 24.00, 15, ABaraaaaapp
686, 680, 692, -1, 249.00, 252.00, 19.00, 13, ABalpappppa
687, 681, 693, -1, 296.00, 173.00, 25.00, 15, ABalappappp
690, 684, 695, -1, 75.00, 285.00, 13.00, 13, ABprppppppp
692, 686, 697, -1, 230.00, 214.00, 13.00, 15, ABprpaapppa
693, 688, 698, -1, 277.00, 260.00, 12.00, 11, ABplpapaapp
694, 690, 699, -1, 112.00, 307.00, 10.00, 15, ABplpppapap
695, 691, 700, -1, 268.00, 178.00, 18.00, 13, ABalaappapa
697, 693, 702, -1, 103.00, 286.00, 12.50, 13, Caapaa
698, 694, 703, -1, 296.00, 193.00, 16.00, 13, ABpraaaaaap
699, 695, 704, -1, 257.00, 320.00, 17.00, 16, ABplppaaaap
700, 696, 705, -1, 215.00, 253.00, 15.00, 15, ABplpappaap
701, 697, 706, -1, 225.00, 223.00, 26.00, 13, ABaraapppaa
702, 698, 707, -1, 321.00, 273.00, 18.00, 13, ABalppaaapa
703, 699, 708, -1, 294.00, 254.00, 26.00, 13, ABalpaapaap
705, 701, 710, -1, 302.00, 228.00, 18.00, 13, ABalpaappap
706, 702, 711, -1, 333.00, 249.00, 24.50, 13, ABalapaaapa
707, 524, 713, -1, 323.00, 265.00, 23.00, 15, ABalapaappp
708, 703, 714, -1, 283.00, 185.00, 21.00, 13, ABalaappppa
709, 704, 715, -1, 291.00, 183.00, 16.00, 11, ABalaappapp
710, 705, 716, -1, 300.00, 182.00, 18.00, 15, ABalaaapprl
712, 707, 718, -1, 329.00, 276.00, 30.00, 13, ABalapapppa
713, 708, 719, -1, 297.00, 185.00, 29.00, 13, ABalapppppp
714, 709, 720, -1, 309.00, 259.00, 18.00, 13, ABalppappap
716, 711, 722, -1, 269.00, 200.00, 13.00, 13, ABalaapappp
717, 712, 723, -1, 319.00, 238.00, 26.00, 15, ABalapappaa
718, 713, 724, -1, 284.00, 229.00, 15.00, 13, ABprpappaaa
719, 447, 725, -1, 286.00, 188.00, 23.00, 13, ABalaappppp
720, 715, 726, -1, 318.00, 182.00, 26.50, 13, ABarpapaappa
