1, 1, 1, -1, 270.00, 199.00, 12.00, 39, ABara
2, 2, 2, -1, 220.00, 198.00, 27.00, 37, ABarp
3, 3, 3, -1, 330.00, 187.00, 20.00, 37, ABala
4, 4, 4, -1, 231.00, 311.00, 26.00, 35, ABplp
5, 5, 5, -1, 272.00, 229.00, 30.00, 39, ABpla
7, 7, 7, -1, 142.00, 279.00, 11.00, 37, ABprp
8, 8, 8, -1, 175.00, 200.00, 14.00, 37, ABpra
9, 9, 9, -1, 236.00, 275.00, 14.00, 29, MSp
10, 10, 10, -1, 287.00, 271.00, 15.00, 31, MSa
11, 11, 11, -1, 190.00, 328.00, 17.00, 29, Ea
12, 12, 12, -1, 143.00, 334.00, 21.00, 27, Ep
13, 13, 13, 14, 152.00, 259.00, 24.00, 29, C
14, 14, 15, -1, 93.00, 309.00, 20.00, 31, P3
16, 16, 17, -1, 335.00, 258.00, 21.00, 37, ABalp
