1, 1, 1, -1, 289.00, 194.00, 13.00, 27, ABaraa
2, 2, 2, -1, 242.00, 200.00, 15.00, 29, ABarap
3, 3, 3, -1, 241.00, 178.00, 26.00, 31, ABarpa
4, 4, 4, -1, 202.00, 212.00, 27.00, 29, ABarpp
5, 5, 5, -1, 317.00, 186.00, 25.00, 29, ABalap
6, 6, 6, -1, 355.00, 188.00, 21.00, 29, ABalaa
7, 7, 7, -1, 209.00, 322.00, 26.00, 29, ABplpp
8, 8, 8, -1, 262.00, 316.00, 21.00, 27, ABplpa
9, 9, 9, -1, 292.00, 230.00, 29.00, 27, ABplaa
10, 10, 10, -1, 253.00, 255.00, 30.00, 27, ABplap
12, 12, 12, -1, 158.00, 250.00, 12.00, 27, ABprpa
13, 13, 13, -1, 121.00, 275.00, 14.00, 27, ABprpp
14, 14, 14, -1, 188.00, 191.00, 16.00, 31, ABpraa
15, 15, 15, -1, 136.00, 231.00, 22.00, 29, ABprap
16, 16, 16, -1, 223.00, 268.00, 14.00, 37, MSp
17, 17, 17, -1, 285.00, 260.00, 12.00, 33, MSa
18, 18, 18, -1, 197.00, 315.00, 15.00, 35, Ea
19, 19, 19, -1, 153.00, 337.00, 19.00, 31, Ep
20, 20, 20, -1, 175.00, 264.00, 26.00, 31, Ca
21, 21, 21, -1, 119.00, 286.00, 28.00, 35, Cp
22, 22, 22, -1, 86.00, 310.00, 18.00, 25, D
23, 23, 23, -1, 114.00, 352.00, 18.00, 23, P4
25, 25, 25, -1, 320.00, 277.00, 24.00, 29, ABalpp
26, 26, 26, -1, 351.00, 250.00, 16.00, 29, ABalpa
