1, 1, 1, -1, 297.00, 197.00, 12.00, 31, ABaraa
2, 2, 2, -1, 233.00, 196.00, 13.00, 29, ABarap
3, 3, 3, -1, 253.00, 169.00, 25.00, 31, ABarpa
4, 4, 4, -1, 192.00, 208.00, 27.00, 29, ABarpp
5, 5, 5, -1, 314.00, 181.00, 26.00, 31, ABalap
6, 6, 6, -1, 361.00, 200.00, 18.00, 29, ABalaa
7, 7, 7, -1, 205.00, 324.00, 27.00, 29, ABplpp
8, 8, 8, -1, 270.00, 318.00, 24.00, 31, ABplpa
9, 9, 9, -1, 298.00, 216.00, 30.00, 31, ABplaa
10, 10, 10, -1, 241.00, 253.00, 29.00, 29, ABplap
12, 12, 12, -1, 159.00, 245.00, 10.00, 29, ABprpa
13, 13, 13, -1, 110.00, 278.00, 13.00, 29, ABprpp
14, 14, 14, -1, 187.00, 184.00, 14.00, 29, ABpraa
15, 15, 15, -1, 132.00, 221.00, 21.00, 29, ABprap
16, 16, 16, -1, 228.00, 268.00, 14.00, 35, MSp
17, 17, 17, -1, 291.00, 268.00, 15.00, 37, MSa
18, 18, 18, -1, 199.00, 317.00, 17.00, 35, Ea
19, 19, 19, -1, 152.00, 335.00, 19.00, 33, Ep
20, 20, 20, -1, 180.00, 262.00, 27.00, 33, Ca
21, 21, 21, -1, 113.00, 273.00, 24.00, 33, Cp
22, 22, 22, -1, 84.00, 312.00, 19.00, 31, D
23, 23, 23, -1, 118.00, 358.00, 21.00, 25, P4
25, 25, 25, -1, 315.00, 281.00, 27.00, 31, ABalpp
26, 26, 26, -1, 356.00, 250.00, 17.00, 31, ABalpa
