1, 1, 1, -1, 300.00, 189.00, 14.00, 27, ABaraa
2, 2, 2, 3, 243.00, 196.00, 13.00, 25, ABarap
3, 3, 4, -1, 250.00, 178.00, 27.00, 23, ABarpa
4, 4, 5, -1, 199.00, 202.00, 28.00, 27, ABarpp
5, 5, 6, -1, 317.00, 187.00, 24.00, 27, ABalap
6, 6, 7, -1, 352.00, 201.00, 16.00, 29, ABalaa
7, 7, 8, 9, 210.00, 323.00, 27.00, 25, ABplpp
8, 8, 10, -1, 262.00, 316.00, 24.00, 25, ABplpa
9, 9, 11, -1, 299.00, 242.00, 29.00, 21, ABplaap
10, 9, 12, -1, 305.00, 207.00, 32.00, 21, ABplaaa
11, 10, 13, -1, 244.00, 269.00, 28.00, 23, ABplapp
12, 10, 14, -1, 255.00, 230.00, 30.00, 21, ABplapa
14, 12, 16, -1, 147.00, 234.00, 13.00, 23, ABprpa
15, 13, 17, -1, 98.00, 261.00, 16.00, 27, ABprpp
16, 14, 18, 19, 194.00, 187.00, 17.00, 25, ABpraa
17, 15, 20, 21, 144.00, 218.00, 23.00, 25, ABprap
18, 16, 22, -1, 201.00, 248.00, 10.00, 29, MSpp
19, 17, 23, -1, 253.00, 258.00, 12.00, 31, MSpa
20, 18, 24, -1, 277.00, 304.00, 15.00, 31, MSap
21, 19, 25, -1, 303.00, 255.00, 12.00, 33, MSaa
22, 20, 26, -1, 204.00, 286.00, 18.00, 37, Ea
23, 21, 27, -1, 136.00, 303.00, 21.00, 33, Ep
24, 22, 28, -1, 157.00, 313.00, 30.00, 29, Cap
25, 23, 29, -1, 194.00, 264.00, 29.00, 27, Caa
26, 24, 30, -1, 117.00, 261.00, 30.00, 27, Cpa
27, 25, 31, -1, 82.00, 307.00, 23.00, 29, Cpp
28, 26, 32, -1, 97.00, 340.00, 16.00, 29, D
29, 27, 33, -1, 142.00, 360.00, 19.00, 27, P4
31, 29, 35, 36, 309.00, 285.00, 27.00, 27, ABalpp
32, 30, 37, 38, 352.00, 246.00, 20.00, 25, ABalpa
