1, 1, 1, -1, 278.00, 204.00, 12.00, 27, ABaraap
2, 2, 2, -1, 300.00, 175.00, 15.00, 25, ABaraaa
3, 3, 3, -1, 239.00, 171.00, 16.00, 27, ABarapa
4, 4, 4, -1, 210.00, 202.00, 11.00, 25, ABarapp
5, 5, 5, -1, 240.00, 210.00, 19.00, 27, ABarpap
6, 6, 6, -1, 259.00, 173.00, 25.00, 27, ABarpaa
7, 7, 7, -1, 227.00, 199.00, 26.00, 27, ABarppa
8, 8, 8, -1, 179.00, 221.00, 22.00, 27, ABarppp
9, 9, 9, -1, 287.00, 213.00, 23.00, 27, ABalapp
10, 10, 10, -1, 307.00, 172.00, 26.00, 27, ABalapa
11, 11, 11, -1, 330.00, 210.00, 17.00, 25, ABalaap
12, 12, 12, -1, 346.00, 181.00, 22.00, 27, ABalaaa
13, 13, 13, -1, 206.00, 347.00, 24.00, 25, ABplppp
14, 14, 14, -1, 245.00, 326.00, 29.00, 23, ABplppa
15, 15, 15, -1, 241.00, 331.00, 20.00, 27, ABplpap
16, 16, 16, -1, 286.00, 320.00, 24.00, 25, ABplpaa
17, 17, 17, -1, 305.00, 253.00, 31.00, 23, ABplaap
18, 18, 18, -1, 319.00, 207.00, 31.00, 27, ABplaaa
19, 19, 19, -1, 241.00, 288.00, 28.00, 29, ABplapp
20, 20, 20, -1, 262.00, 235.00, 29.00, 27, ABplapa
21, 21, 21, -1, 113.00, 261.00, 12.00, 25, ABprpap
22, 22, 22, -1, 118.00, 220.00, 14.00, 25, ABprpaa
23, 23, 23, -1, 96.00, 302.00, 14.00, 27, ABprppp
24, 24, 24, -1, 79.00, 258.00, 17.00, 29, ABprppa
25, 25, 25, -1, 159.00, 198.00, 16.00, 29, ABpraap
26, 26, 26, -1, 203.00, 172.00, 22.00, 27, ABpraaa
27, 27, 27, -1, 114.00, 260.00, 21.00, 25, ABprapp
28, 28, 28, -1, 136.00, 211.00, 25.00, 27, ABprapa
29, 29, 29, -1, 158.00, 280.00, 10.00, 27, MSppp
30, 30, 30, -1, 181.00, 229.00, 11.00, 25, MSppa
31, 31, 31, -1, 218.00, 274.00, 10.00, 27, MSpap
32, 32, 32, -1, 255.00, 236.00, 13.00, 25, MSpaa
33, 33, 33, -1, 239.00, 310.00, 12.00, 25, MSapp
34, 34, 34, -1, 283.00, 293.00, 14.00, 27, MSapa
35, 35, 35, -1, 313.00, 229.00, 12.00, 27, MSaaa
36, 36, 36, -1, 286.00, 268.00, 11.00, 25, MSaap
37, 37, 37, -1, 219.00, 290.00, 19.00, 29, Eal
38, 38, 38, -1, 171.00, 312.00, 21.00, 29, Epl
39, 39, 39, -1, 183.00, 326.00, 30.00, 29, Cap
40, 40, 40, -1, 211.00, 238.00, 30.00, 21, Caaa
41, 41, 41, -1, 186.00, 269.00, 29.00, 21, Caap
42, 42, 42, -1, 138.00, 293.00, 29.00, 23, Cpap
43, 43, 43, -1, 140.00, 246.00, 31.00, 21, Cpaa
44, 44, 44, 45, 106.00, 321.00, 28.00, 21, Cpp
45, 45, 46, -1, 152.00, 356.00, 22.00, 27, Da
46, 46, 47, -1, 115.00, 341.00, 16.00, 25, Dp
47, 47, 48, -1, 158.00, 339.00, 15.00, 25, P4
49, 49, 50, -1, 297.00, 281.00, 21.00, 29, ABalppp
50, 50, 51, -1, 346.00, 263.00, 24.00, 25, ABalppa
51, 51, 52, -1, 338.00, 262.00, 16.00, 27, ABalpap
52, 52, 53, -1, 361.00, 226.00, 20.00, 25, ABalpaa
53, 53, 54, -1, 137.00, 293.00, 18.00, 29, Epr
54, 54, 55, -1, 186.00, 258.00, 16.00, 29, Ear
