1 49 57 -1 -58 141 -19 30 "ABplaaaaap"
2 48 56 -1 -80 193 -18 34 "ABplaapaaa"
3 2 61 -1 202 119 -18 38 "Caaaaa"
4 82 4 -1 224 19 -14 34 "Cpaaap"
5 94 86 -1 -96 11 -12 34 "ABpraapaaa"
6 88 87 -1 -64 109 -12 34 "MSaaaapa"
7 107 100 -1 -156 137 -7 38 "ABalapaaap"
8 106 110 -1 96 105 -9 38 "Ealap"
9 96 80 -1 52 -29 -11 34 "ABarpapppa"
10 100 96 -1 194 -23 -9 34 "ABarpppapp"
11 116 7 -1 -110 105 -7 38 "MSaaaaap"
12 12 10 -1 96 47 -5 38 "Earap"
13 121 114 -1 134 97 -5 42 "Eplaa"
14 124 124 -1 -64 21 -4 30 "ABalappppa"
15 14 11 -1 184 109 -4 38 "Eplap"
16 129 129 -1 -20 -23 -2 38 "ABpraapapa"
17 143 178 -1 180 47 0 42 "Eprap"
18 186 148 -1 -170 107 3 30 "ABalaaapar"
19 385 189 -1 302 37 5 30 "ABarpppppp"
20 194 15 -1 130 65 5 38 "Earpp"
21 200 202 -1 -60 75 6 34 "ABaraappap"
22 197 194 -1 64 -51 6 34 "ABpraappap"
23 208 201 -1 80 5 8 34 "Dpaa"
24 202 209 -1 -72 177 9 30 "MSapaaap"
25 219 221 -1 232 29 9 34 "Cpppap"
26 218 244 -1 54 89 11 34 "MSpapaap"
27 240 264 -1 154 243 13 30 "ABplppappa"
28 29 237 -1 158 85 12 42 "Z2"
29 262 249 -1 -66 93 16 38 "ABaraaapap"
30 313 333 -1 -4 9 23 46 "ABprpaaaaa"
31 332 31 -1 46 175 28 42 "ABplpappaa"
32 334 356 -1 78 39 27 30 "ABprpapaap"
33 341 342 -1 100 1 26 30 "ABprppapaa"
34 365 368 -1 204 67 30 30 "ABprppppap"
35 357 377 -1 -14 177 30 34 "ABalpapaap"
36 152 160 -1 -144 39 2 38 "ABalappapa"
37 42 36 -1 -28 167 -23 30 "ABplaaapaa"
38 44 37 -1 -92 123 -22 30 "ABplaaaaaa"
39 45 38 -1 -78 89 -22 30 "ABarpaaaap"
40 41 39 -1 -36 71 -22 30 "ABarpaaapa"
41 43 41 -1 76 125 -22 30 "ABarppaaap"
42 46 40 -1 -40 109 -21 30 "ABplaaaapa"
43 52 47 -1 36 93 -21 38 "ABarpaapap"
44 55 42 -1 122 149 -21 38 "ABarppaaaa"
45 47 45 -1 -2 83 -20 30 "ABarpaapaa"
46 50 46 -1 2 131 -20 34 "ABplaaaapp"
47 51 52 -1 16 173 -20 34 "ABplaaapap"
48 53 48 -1 48 175 -20 30 "ABplaaappa"
49 60 35 -1 144 99 -20 34 "ABarppaapa"
50 62 55 -1 178 165 -20 30 "ABarppaapp"
51 56 51 -1 -108 163 -19 34 "ABplaapaap"
52 63 44 -1 -82 33 -19 34 "ABarpapaaa"
54 54 49 -1 84 171 -19 30 "ABplaaappp"
55 1 53 -1 112 51 -19 38 "ABarpaappp"
56 64 50 -1 144 195 -19 30 "ABarppapaa"
57 66 59 -1 -12 3 -18 30 "ABarpappaa"
58 67 66 -1 20 35 -18 34 "ABarpapapp"
59 59 60 -1 68 67 -18 34 "ABarpaappa"
60 61 1 -1 172 41 -18 34 "Cpaaaa"
61 57 58 -1 -22 47 -17 30 "ABarpapapa"
62 69 67 -1 76 13 -17 30 "ABarpppaaa"
63 65 64 -1 150 3 -17 34 "ABarpppapa"
64 70 3 -1 186 207 -17 30 "ABarppapap"
65 68 65 -1 -114 75 -16 30 "ABarpaaaaa"
66 58 63 -1 -12 191 -16 34 "ABplaapapp"
67 81 68 -1 116 199 -16 34 "ABplapaaap"
68 76 76 -1 130 235 -16 30 "ABplapaapa"
69 72 62 -1 -66 71 -15 30 "ABarpaaapp"
70 73 78 -1 -52 25 -15 30 "ABarpapaap"
71 78 72 -1 -48 169 -15 30 "ABalapappp"
73 77 79 -1 -44 209 -15 34 "ABplaapapa"
74 79 73 -1 24 -13 -15 34 "ABarpappap"
76 380 75 -1 130 -25 -15 34 "ABarpppaap"
77 3 2 -1 234 89 -15 34 "Caaaap"
78 85 412 -1 -134 93 -14 26 "ABalapapaa"
79 71 70 -1 -114 123 -14 30 "ABalapapap"
80 89 88 -1 8 247 -14 30 "ABplaappaa"
81 91 81 -1 48 239 -14 30 "ABplaappap"
82 75 74 -1 78 203 -14 30 "ABplapaaaa"
84 83 77 -1 224 175 -14 30 "ABarppappa"
85 84 69 -1 270 117 -14 38 "Caaapa"
86 90 5 -1 42 171 -13 34 "MSapappp"
87 103 94 -1 -100 163 -12 38 "ABalapappa"
88 101 97 -1 208 219 -12 34 "ABplappapa"
89 93 93 -1 -104 45 -11 30 "ABalapppap"
90 86 83 -1 -10 115 -11 30 "MSaaaapp"
91 97 84 -1 84 247 -11 34 "ABplaapppa"
92 105 89 -1 88 -27 -11 34 "ABarpapppp"
93 98 82 95 98 159 -11 38 "MSapppp"
94 92 98 -1 252 199 -11 34 "ABplapapaa"
97 4 104 -1 16 213 -10 38 "ABalpppppp"
98 99 85 -1 156 239 -10 34 "ABplapaapp"
100 104 105 -1 -66 193 -9 34 "ABalppppap"
101 95 385 -1 -22 9 -9 30 "ABalappppp"
102 9 90 127 168 157 -9 34 "Dapp"
103 5 91 -1 266 41 -9 38 "Cpaapa"
104 118 102 -1 -44 75 -8 30 "MSpaaapa"
105 108 106 -1 -12 167 -8 30 "MSapappa"
106 109 103 -1 -2 73 -8 38 "MSpaaapp"
107 10 6 -1 40 113 -8 38 "Ealaa"
108 8 109 -1 64 179 -8 30 "MSapppap"
109 114 107 -1 304 79 -8 38 "Cpaapp"
110 110 99 -1 -154 93 -7 30 "ABalappaap"
111 115 413 -1 -112 177 -7 38 "ABalapaapp"
112 13 399 -1 -68 125 -7 30 "MSaaapaa"
113 6 400 -1 -54 -15 -7 34 "ABpraapaap"
114 7 112 -1 -28 215 -7 34 "ABalpppppa"
116 113 115 -1 284 175 -7 34 "ABarppappp"
117 117 117 -1 -48 235 -6 34 "ABalpppapp"
118 119 118 -1 -28 135 -6 34 "MSaaapap"
119 382 108 -1 8 -21 -6 38 "ABpraapapp"
120 128 116 -1 -130 13 -5 30 "ABalappapp"
121 130 141 -1 0 249 -5 34 "ABplpaapap"
122 11 9 -1 32 69 -5 38 "Earaa"
123 125 125 -1 50 231 -5 34 "ABplpaappa"
124 133 131 -1 90 199 -5 38 "Daaa"
126 120 133 -1 120 253 -5 34 "ABplaapppp"
128 136 137 -1 232 235 -5 34 "ABplappapp"
129 126 128 -1 246 -5 -5 34 "ABarpppppa"
130 122 119 -1 266 215 -5 34 "ABplapapap"
131 123 111 -1 -126 49 -4 34 "ABalapppaa"
132 138 138 -1 -108 215 -4 30 "ABalpppaap"
133 139 123 -1 -76 75 -4 34 "MSpaaaap"
134 112 113 -1 136 51 -4 38 "Epraa"
135 134 126 -1 136 197 -4 38 "Dapa"
136 144 136 -1 212 177 -4 34 "Cappaa"
139 142 130 -1 90 -35 -3 34 "ABprapaaaa"
140 135 12 -1 222 119 -3 38 "Eplpa"
141 146 8 -1 -128 165 -2 34 "ABalapaapa"
142 147 139 -1 -78 193 -2 30 "ABalppppaa"
143 140 154 -1 -12 187 -2 30 "MSapapap"
145 156 144 -1 66 7 -2 30 "MSppppp"
146 151 121 -1 -170 75 -1 26 "ABalappaaa"
147 154 168 -1 -70 231 -1 30 "ABalpppapa"
148 163 153 -1 -14 107 -1 34 "MSaaapp"
149 149 142 -1 12 29 -1 26 "MSppappp"
150 157 165 -1 74 127 -1 38 "Ealpa"
151 158 166 -1 116 -33 -1 34 "ABprapaaap"
153 16 158 -1 162 1 -1 38 "Dppp"
154 150 146 -1 164 243 -1 34 "ABplappaaa"
155 153 151 -1 -100 113 0 30 "ABaraaaapp"
156 141 157 -1 22 201 0 30 "MSapppaa"
157 145 159 -1 282 213 0 34 "ABplapappa"
158 172 149 -1 -138 119 1 30 "MSaaaaaa"
159 159 150 -1 -126 77 1 30 "MSpaaaaa"
160 182 13 -1 -38 59 1 30 "MSpaapaa"
161 161 163 -1 -34 25 1 30 "MSppappa"
162 162 169 -1 -32 231 1 34 "ABplpaapaa"
163 155 155 -1 -6 149 1 34 "ABaraapapp"
164 165 176 -1 62 261 1 34 "ABplpaappp"
165 17 167 -1 186 -45 1 30 "ABarppppap"
166 15 179 -1 206 67 1 38 "Eprpa"
167 180 14 -1 314 83 1 38 "Cpapap"
168 187 190 -1 -154 157 2 34 "ABalaaapal"
169 166 161 -1 -102 3 2 34 "ABalaapppp"
170 167 152 -1 -48 191 2 26 "MSapapaa"
171 160 162 -1 -44 -17 2 34 "ABpraaapap"
172 148 164 -1 16 -53 2 30 "ABpraappaa"
173 164 156 -1 30 -23 2 34 "ABpraaappp"
174 176 170 -1 50 169 2 34 "MSappaa"
175 170 173 -1 224 -29 2 30 "ABprappapa"
176 179 181 -1 272 1 2 34 "ABprapapaa"
178 173 174 -1 -40 153 3 34 "ABaraapapa"
179 168 200 -1 32 249 3 34 "ABplpaaapp"
180 184 171 -1 106 185 3 34 "Daap"
181 169 172 -1 120 117 3 38 "Ealpp"
182 177 187 -1 200 241 3 38 "ABplappaap"
183 178 180 -1 232 185 3 34 "Cappap"
184 171 182 -1 316 133 3 34 "Cpapaa"
185 18 184 -1 -64 1 4 34 "ABpraaapaa"
186 193 175 -1 4 59 4 34 "MSpaapap"
187 175 193 -1 4 239 4 38 "ABplpaaapa"
188 183 186 -1 26 119 4 34 "MSaapaap"
190 19 196 -1 136 -59 4 30 "ABprapaapa"
191 189 197 -1 156 185 4 34 "Capaaa"
192 191 191 -1 -98 77 5 34 "ABaraappaa"
193 188 192 -1 -58 127 5 34 "ABaraapaap"
194 192 185 -1 -10 -15 5 34 "ABpraaappa"
195 393 417 -1 196 191 5 34 "Capapa"
196 394 188 -1 204 11 5 30 "Cpppaa"
198 195 183 -1 -162 69 6 30 "ABalaaappl"
199 21 30 -1 -128 197 6 34 "ABalppaaap"
200 196 387 -1 -92 117 6 34 "ABaraapaaa"
201 25 204 -1 68 57 6 38 "Earpa"
203 22 216 -1 290 187 6 30 "ABplapappp"
204 199 206 -1 -108 157 7 30 "MSapaaaa"
205 221 198 -1 -138 107 8 34 "ABaraaaapa"
206 23 199 -1 -118 17 8 34 "ABalaapppa"
207 203 219 -1 -34 229 8 34 "ABplpaaaaa"
208 24 227 -1 10 189 8 30 "MSapaapp"
209 210 228 -1 218 233 8 30 "ABplapppaa"
210 201 218 -1 -148 173 9 30 "ABalppaaaa"
211 212 208 -1 -138 37 9 34 "ABalaaappr"
212 213 224 -1 -72 223 9 34 "ABalppaapp"
213 204 17 -1 20 79 9 34 "ABaraapppp"
214 205 211 -1 22 -29 9 34 "ABprpaappa"
215 217 212 -1 34 145 9 30 "MSaapapa"
216 206 213 -1 68 199 9 38 "MSappap"
217 207 214 -1 80 241 9 30 "ABplppaaap"
218 209 18 -1 136 -3 9 38 "Dppa"
219 26 205 -1 242 95 9 42 "Eprpp"
220 211 215 -1 254 175 9 30 "Capppa"
221 222 223 -1 -96 221 10 30 "ABalppaapa"
222 40 210 -1 -28 -33 10 30 "ABpraaaapp"
223 216 243 -1 8 251 10 38 "ABplpaaaap"
224 215 207 -1 8 23 10 30 "MSppapap"
225 224 203 251 46 9 10 38 "MSppppa"
226 232 217 -1 -162 125 11 30 "ABalaaaarl"
227 230 233 -1 -82 1 11 34 "ABpraaaaaa"
228 214 234 -1 -62 -15 11 34 "ABpraaaaap"
229 223 235 -1 -58 41 11 30 "MSppaaap"
230 30 246 -1 120 189 11 30 "MSaappp"
231 226 220 -1 174 -45 11 34 "ABprapaapp"
232 227 238 -1 244 -17 11 30 "ABprappapp"
233 220 19 -1 264 47 11 30 "Cppppa"
234 228 230 -1 282 7 11 34 "ABprapapap"
235 243 222 -1 -120 119 12 38 "ABalpaapaa"
236 233 258 -1 -118 201 12 34 "ABalaaaalp"
237 235 242 -1 -40 21 12 26 "MSppapaa"
238 231 225 -1 -18 81 12 34 "ABaraapppa"
239 236 226 -1 -14 149 12 30 "MSaapaaa"
240 31 255 -1 132 147 12 38 "Z3"
241 27 229 -1 222 133 12 38 "Eplpp"
242 229 239 -1 300 157 12 38 "Caappd"
243 28 240 -1 316 105 12 34 "Cpappd"
244 259 232 -1 -108 85 13 30 "ABaraaapaa"
245 225 253 -1 58 255 13 34 "ABplppaaaa"
246 245 236 -1 78 149 13 30 "MSaapapp"
247 33 254 -1 110 15 13 38 "Dpap"
248 238 247 -1 120 241 13 30 "ABplppapap"
249 32 256 -1 166 29 13 34 "Cppaaa"
250 244 241 -1 -50 139 14 30 "ABalpaapapp"
251 249 260 -1 -30 187 14 30 "MSapaapa"
252 251 261 -1 10 -33 14 34 "ABprpaapap"
253 264 250 -1 22 113 14 30 "MSpapaaa"
254 239 273 -1 130 -41 14 38 "ABpraapppp"
255 246 274 -1 188 243 14 30 "ABplppappp"
256 247 265 -1 204 29 14 34 "Cppapa"
257 256 267 -1 240 213 14 34 "ABplapppap"
258 248 231 -1 -146 73 15 30 "ABalaaaarr"
259 242 248 -1 -120 25 15 30 "ABalaappaa"
260 250 280 -1 -24 225 15 34 "ABalppappa"
261 252 282 -1 54 207 15 30 "ABplpapaap"
262 253 263 -1 90 55 15 30 "MSpppaap"
263 254 20 -1 184 149 15 30 "Capaap"
264 255 266 -1 208 177 15 34 "Capapp"
265 257 268 -1 274 203 15 34 "ABplappppa"
266 261 278 -1 -106 133 16 30 "ABalpaapapa"
267 260 259 -1 -90 51 16 30 "MSppaaaa"
268 273 262 -1 42 155 16 26 "ABalpappppp"
269 265 252 -1 48 -41 16 34 "ABprpaappp"
270 266 284 -1 86 239 16 30 "ABplppapaa"
271 34 21 -1 254 97 16 34 "Cppppp"
272 258 269 -1 296 27 16 34 "ABprapappa"
273 268 257 -1 306 67 16 30 "ABprapappp"
274 234 390 -1 -98 9 17 38 "ABalaappap"
275 278 22 -1 -76 189 17 30 "ABalpaappp"
276 269 305 -1 -64 213 17 30 "ABalppapaa"
277 271 270 -1 -20 -17 17 30 "ABprpaapaa"
278 272 281 -1 -8 39 17 34 "MSppaap"
279 263 288 -1 14 235 17 34 "ABalppappp"
280 280 298 -1 14 205 17 30 "ABplpapaaa"
281 274 271 -1 64 93 17 30 "MSpapapa"
282 275 285 -1 94 101 17 34 "MSpapapp"
283 267 275 -1 206 -21 17 30 "ABprappaap"
284 284 276 -1 -136 117 18 30 "ABaraaaaaa"
285 277 277 -1 -128 45 18 30 "ABalaapaaa"
286 285 293 -1 -118 181 18 30 "ABalpaappa"
287 270 279 -1 -52 -11 18 34 "ABpraaaapa"
288 273 287 -1 8 165 18 30 "ABalpappppa"
289 283 292 -1 238 147 18 34 "Capppp"
290 276 303 -1 280 149 18 34 "Caapa"
291 36 311 -1 -58 159 19 26 "ABalpaaapp"
292 286 286 -1 -24 105 19 34 "ABarapaapp"
293 287 295 -1 -22 151 19 30 "ABalpapppa"
294 392 296 -1 6 -3 19 30 "ABprpaaapa"
295 281 289 -1 40 61 19 30 "MSpppaaa"
296 282 283 -1 94 -45 19 26 "ABprppaaap"
297 289 300 308 124 65 19 34 "MSpappp"
298 294 291 -1 172 -29 19 34 "ABprappaaa"
299 290 301 -1 184 79 19 34 "Cppaap"
300 291 316 -1 200 225 19 30 "ABplpppaap"
301 292 302 -1 228 73 19 34 "Cppapp"
302 312 294 -1 -92 157 20 26 "ABalpaaapa"
303 296 297 -1 6 91 20 34 "ABarapappa"
304 288 306 -1 66 23 20 38 "MSpppap"
305 299 299 -1 84 191 20 30 "ABplpapapa"
306 314 336 -1 138 219 20 34 "ABplppaapp"
307 301 315 -1 144 119 20 34 "MSpappa"
309 303 309 -1 232 11 20 30 "ABprapppaa"
310 375 304 -1 -56 19 21 34 "ABalaapapp"
311 295 312 -1 -44 77 21 34 "ABarapaapa"
312 297 313 -1 36 -29 21 34 "ABprpaaapp"
313 298 326 -1 48 227 21 34 "ABalpapapp"
314 293 307 -1 102 141 21 30 "MSaappa"
315 304 317 -1 252 35 21 30 "ABprapppap"
316 305 323 -1 256 185 21 30 "ABplappppp"
317 397 310 -1 -116 89 22 30 "ABaraaaaap"
318 310 332 -1 -30 211 22 34 "ABalppapap"
319 35 314 -1 48 111 22 38 "ABarapappp"
320 300 320 -1 108 219 22 30 "ABplppaapa"
321 306 318 -1 282 43 22 30 "ABprappppa"
322 307 23 -1 288 121 22 30 "Cpappv"
323 309 319 -1 -82 9 23 26 "ABalaapapa"
324 315 327 -1 150 183 23 30 "ABplppppaa"
325 311 328 -1 180 189 23 30 "ABplppppap"
326 319 329 -1 196 155 23 30 "ABplpppppa"
327 326 331 -1 248 79 23 30 "ABprpppapp"
328 320 344 -1 284 89 23 30 "ABprappppp"
329 316 324 -1 -116 157 24 34 "ABalpaaaaa"
330 395 325 -1 -98 37 24 30 "ABalaapaap"
331 328 345 -1 -94 65 24 30 "ABaraaappa"
332 38 330 -1 220 193 24 34 "ABplpppapa"
333 329 339 -1 -72 105 25 30 "ABarapaaaa"
334 338 346 -1 -56 69 25 34 "ABaraaappp"
335 317 25 -1 10 209 25 34 "ABalpapapa"
336 324 341 -1 42 53 25 34 "ABprpapaaa"
337 39 334 -1 70 -21 25 34 "ABprppaaaa"
338 325 26 -1 118 183 25 30 "ABplpapapp"
339 343 335 -1 130 -19 25 30 "ABprppapap"
340 346 351 -1 192 113 25 26 "ABprpapppp"
341 335 352 -1 198 3 25 30 "ABprppappp"
342 336 343 -1 226 103 25 26 "ABprpppppa"
343 37 337 -1 284 149 25 30 "Caappv"
344 322 338 -1 -102 127 26 30 "ABalpaaaap"
345 323 340 -1 -32 145 26 30 "ABalpappaa"
346 330 347 -1 -16 67 26 34 "ABarappaaa"
347 318 349 -1 34 -5 26 34 "ABprpaaaap"
348 333 24 -1 70 153 26 30 "ABplpappap"
350 352 350 -1 158 3 26 30 "ABprppappa"
351 354 358 -1 220 143 26 34 "ABplpppppp"
352 327 359 -1 248 165 26 26 "ABplpppapp"
353 347 355 -1 -10 105 27 30 "ABarapapaa"
354 331 348 -1 4 153 27 34 "ABalpappap"
355 344 27 -1 148 113 27 30 "ABprpapppa"
356 351 365 -1 156 37 27 30 "ABprppaapp"
357 337 353 -1 256 121 27 30 "ABprpppppp"
358 339 28 -1 -60 33 28 30 "ABarapppaa"
359 340 360 -1 -56 169 28 34 "ABalpapaaa"
360 356 354 -1 -24 13 28 34 "ABarappppa"
361 348 379 -1 26 19 28 34 "ABarappppp"
362 349 29 -1 104 75 28 34 "ABprpapapa"
363 361 362 -1 120 29 28 30 "ABprppaapa"
364 362 363 -1 130 155 28 30 "ABplpapppa"
365 345 366 -1 168 151 28 30 "ABplpapppp"
366 353 367 -1 176 79 28 30 "ABprppppaa"
367 364 357 -1 186 33 28 30 "ABprpppaaa"
368 355 370 -1 -46 119 29 34 "ABarapaaap"
369 342 374 -1 114 121 29 30 "ABprpappap"
370 363 381 -1 140 73 29 30 "ABprpapapp"
371 366 369 -1 226 29 29 30 "ABprpppaap"
372 370 382 -1 248 65 29 34 "ABprpppapa"
373 367 376 -1 -24 47 30 34 "ABarapppap"
374 368 371 -1 18 51 30 34 "ABarappapa"
375 358 372 -1 24 89 30 30 "ABarappaap"
376 359 361 -1 34 123 30 30 "ABarapapap"
377 369 373 -1 74 71 30 34 "ABarappapp"
378 360 380 -1 78 113 30 34 "ABprpappaa"
383 241 389 -1 -148 165 13 34 "ABalaaaala"
384 374 388 -1 92 -43 13 34 "ABpraapppa"
388 127 120 -1 304 127 -5 34 "Caaapp"
389 137 122 -1 -164 131 -2 30 "ABalapaaaa"
403 302 321 -1 166 215 21 34 "ABplpppaaa"
407 396 418 -1 -102 201 4 32 "ABalpppaaa"
408 132 419 -1 146 -54 -5 34 "ABarppppaa"
