1 60 65 -1 172 33 -18 34 "Cpaaaa"
2 77 69 -1 230 87 -17 34 "Caaaap"
3 64 68 -1 184 207 -16 34 "ABarppapap"
4 4 78 -1 224 15 -13 38 "Cpaaap"
5 86 86 -1 40 167 -13 34 "MSapappp"
6 107 7 -1 44 109 -7 42 "Ealaa"
7 11 109 -1 -104 107 -7 38 "MSaaaaap"
8 141 139 -1 -124 177 -4 46 "ABalapaapa"
9 122 407 -1 36 69 -4 42 "Earaa"
10 12 8 -1 98 45 -4 38 "Earap"
11 15 11 -1 186 103 -3 38 "Eplap"
12 140 142 -1 224 115 -1 42 "Eplpa"
13 160 182 -1 -34 55 3 30 "MSpaapaa"
14 167 180 -1 318 81 2 34 "Cpapap"
15 20 191 -1 130 61 5 42 "Earpp"
17 213 220 -1 20 77 9 30 "ABaraapppp"
18 218 212 -1 136 -5 8 34 "Dppa"
19 233 223 -1 264 43 8 30 "Cppppa"
20 263 264 -1 186 147 16 34 "Capaap"
21 271 28 -1 254 91 16 38 "Cppppp"
22 275 270 -1 -72 185 19 30 "ABalpaappp"
23 322 310 -1 290 111 22 26 "Cpappv"
24 348 332 -1 64 149 25 30 "ABplpappap"
25 335 357 -1 16 203 26 34 "ABalpapapa"
26 338 341 -1 116 177 26 30 "ABplpapapp"
27 355 343 -1 144 111 27 34 "ABprpapppa"
28 358 355 -1 -58 29 28 30 "ABarapppaa"
29 362 340 -1 106 67 29 34 "ABprpapapa"
30 199 217 -1 -116 197 6 54 "ABalppaaap"
31 31 350 -1 52 169 27 50 "ABplpappaa"
35 49 386 -1 142 107 -25 30 "ABarppaapa"
36 37 41 -1 -26 175 -22 30 "ABplaaapaa"
37 38 39 -1 -90 127 -21 30 "ABplaaaaaa"
38 39 42 -1 -78 99 -21 30 "ABarpaaaap"
39 40 40 -1 -40 75 -21 30 "ABarpaaapa"
40 42 43 -1 -36 115 -21 30 "ABplaaaapa"
41 41 44 -1 80 131 -21 30 "ABarppaaap"
42 44 51 -1 116 155 -21 34 "ABarppaaaa"
44 52 59 -1 -86 41 -20 30 "ABarpapaaa"
45 45 54 -1 -2 89 -20 30 "ABarpaapaa"
46 46 46 -1 6 135 -20 34 "ABplaaaapp"
47 43 48 -1 38 97 -20 38 "ABarpaapap"
48 48 47 -1 44 175 -20 30 "ABplaaappa"
49 54 49 -1 80 179 -20 34 "ABplaaappp"
50 56 52 -1 142 201 -20 30 "ABarppapaa"
51 51 45 -1 -102 167 -19 34 "ABplaapaap"
52 47 61 -1 16 179 -19 30 "ABplaaapap"
53 55 50 -1 110 57 -19 38 "ABarpaappp"
55 50 57 -1 176 169 -19 30 "ABarppaapp"
56 2 1 -1 -74 199 -18 34 "ABplaapaaa"
57 1 53 -1 -58 143 -18 30 "ABplaaaaap"
58 61 60 -1 -22 47 -18 30 "ABarpapapa"
59 57 63 -1 -20 5 -18 30 "ABarpappaa"
60 59 55 -1 68 65 -18 34 "ABarpaappa"
61 3 58 -1 198 121 -18 34 "Caaaaa"
62 69 66 -1 -60 71 -17 34 "ABarpaaapp"
63 66 67 -1 -14 199 -17 34 "ABplaapapp"
64 63 2 -1 150 1 -17 30 "ABarpppapa"
65 65 62 -1 -112 81 -16 30 "ABarpaaaaa"
66 58 71 -1 20 33 -16 34 "ABarpapapp"
67 62 64 -1 76 9 -16 30 "ABarpppaaa"
68 67 73 -1 112 203 -15 34 "ABplapaaap"
69 85 82 -1 268 117 -15 34 "Caaapa"
70 79 38 -1 -126 113 -14 30 "ABalapapap"
72 71 70 -1 -46 171 -14 30 "ABalapappp"
73 74 79 -1 16 -15 -14 34 "ABarpappap"
74 82 72 -1 78 209 -14 34 "ABplapaaaa"
75 76 3 -1 124 -23 -14 38 "ABarpppaap"
76 68 74 -1 132 241 -14 34 "ABplapaapa"
77 84 75 -1 224 177 -14 30 "ABarppappa"
78 70 76 -1 -56 29 -13 34 "ABarpapaap"
79 73 84 -1 -42 215 -13 38 "ABplaapapa"
80 9 87 -1 46 -23 -13 34 "ABarpapppa"
81 81 90 -1 48 243 -13 38 "ABplaappap"
82 93 80 -1 80 165 -13 30 "MSappppa"
83 90 85 -1 -8 113 -12 34 "MSaaaapp"
84 91 102 -1 86 249 -12 30 "ABplaapppa"
85 98 98 -1 158 239 -12 34 "ABplapaapp"
86 5 94 -1 -100 11 -11 34 "ABpraapaaa"
87 6 83 -1 -60 111 -11 34 "MSaaaapa"
88 80 108 -1 8 251 -11 30 "ABplaappaa"
89 92 91 -1 86 -29 -11 30 "ABarpapppp"
90 102 81 -1 148 159 -11 30 "Dappa"
91 103 5 -1 266 49 -11 38 "Cpaapa"
93 89 89 -1 -100 51 -10 34 "ABalapppap"
94 87 4 -1 -94 165 -10 38 "ABalapappa"
95 93 96 -1 114 149 -10 30 "MSappppp"
96 10 103 -1 192 -25 -10 34 "ABarpppapp"
97 88 93 -1 206 217 -10 34 "ABplappapa"
98 94 99 -1 254 199 -10 34 "ABplapapaa"
99 110 6 -1 -150 101 -9 30 "ABalappaap"
100 7 100 -1 -142 147 -9 34 "ABalapaaap"
102 104 106 -1 -42 75 -9 30 "MSpaaapa"
103 106 111 -1 2 71 -9 38 "MSpaaapp"
104 97 101 -1 18 209 -9 38 "ABalpppppp"
105 100 105 -1 -64 201 -8 34 "ABalppppap"
106 105 107 -1 -10 163 -8 34 "MSapappa"
107 109 114 -1 302 77 -8 38 "Cpaapp"
108 119 116 -1 -2 -23 -7 38 "ABpraapapp"
109 108 112 -1 62 175 -7 26 "MSapppap"
110 8 92 -1 100 97 -7 38 "Ealap"
111 131 119 -1 -128 55 -6 34 "ABalapppaa"
112 114 130 -1 -20 215 -6 34 "ABalpppppa"
113 134 97 -1 138 55 -6 38 "Epraa"
114 13 113 -1 142 99 -6 38 "Eplaa"
115 116 125 -1 286 175 -6 30 "ABarppappp"
116 120 140 -1 -132 17 -5 30 "ABalappapp"
117 117 129 -1 -46 235 -5 30 "ABalpppapp"
118 118 115 -1 -26 135 -5 30 "MSaaapap"
119 130 124 -1 264 215 -5 34 "ABplapapap"
120 388 126 -1 306 131 -5 34 "Caaapp"
121 146 138 -1 -166 83 -4 30 "ABalappaaa"
122 389 127 -1 -158 139 -4 30 "ABalapaaaa"
123 133 10 -1 -70 79 -4 38 "MSpaaaap"
124 14 128 -1 -70 21 -4 30 "ABalappppa"
125 123 131 -1 50 231 -4 34 "ABplpaappa"
126 135 9 -1 138 191 -4 38 "Dapa"
127 102 123 -1 192 155 -4 30 "Dappp"
128 129 137 -1 250 -7 -4 30 "ABarpppppa"
129 16 145 -1 -26 -17 -3 38 "ABpraapapa"
130 139 134 -1 86 -33 -3 34 "ABprapaaaa"
131 124 121 -1 88 199 -3 38 "Daaa"
133 126 122 -1 124 253 -3 34 "ABplaapppp"
136 136 141 -1 214 181 -3 34 "Cappaa"
137 128 136 -1 230 237 -3 34 "ABplappapp"
138 132 153 -1 -102 217 -2 34 "ABalpppaap"
139 142 144 -1 -80 193 -2 30 "ABalppppaa"
141 121 147 -1 8 251 -2 34 "ABplpaapap"
142 149 156 -1 10 27 -2 30 "MSppappp"
144 145 133 -1 66 7 -2 38 "MSppppp"
146 154 135 -1 168 239 -1 34 "ABplappaaa"
148 18 165 -1 -168 105 0 34 "ABalaaapar"
149 158 151 -1 -134 121 0 30 "MSaaaaaa"
150 159 152 -1 -120 75 0 30 "MSpaaaaa"
151 155 154 -1 -100 115 0 30 "ABaraaaapp"
152 170 160 -1 -48 185 0 26 "MSapapaa"
153 148 146 -1 -10 101 0 30 "MSaaapp"
154 143 155 -1 -10 187 0 30 "MSapapap"
155 163 161 -1 0 149 0 30 "ABaraapapp"
156 173 157 -1 26 -21 0 30 "ABpraaappp"
157 156 162 -1 28 199 0 30 "MSapppaa"
158 153 149 -1 160 5 0 38 "Dppp"
159 157 164 -1 286 211 0 34 "ABplapappa"
160 36 169 -1 -146 39 1 34 "ABalappapa"
161 169 188 -1 -108 11 1 38 "ABalaapppp"
162 171 159 -1 -52 -15 1 34 "ABpraaapap"
163 161 166 -1 -38 25 1 30 "MSppappa"
164 172 167 -1 12 -55 1 30 "ABpraappaa"
165 150 14 -1 78 125 1 38 "Ealpa"
166 151 158 -1 108 -35 1 34 "ABprapaaap"
167 165 163 -1 180 -43 1 30 "ABarppppap"
168 147 170 -1 -66 225 2 30 "ABalpppapa"
169 162 183 -1 -28 227 2 30 "ABplpaapaa"
170 174 175 -1 56 171 2 30 "MSappaa"
171 180 176 -1 104 187 2 34 "Daap"
172 181 15 -1 126 115 2 42 "Ealpp"
173 175 168 -1 220 -31 2 30 "ABprappapa"
174 178 171 -1 -34 147 3 34 "ABaraapapa"
175 186 172 -1 4 53 3 30 "MSpaapap"
176 164 174 -1 62 259 3 34 "ABplpaappp"
178 17 393 -1 178 55 3 34 "Eprap"
179 166 16 -1 208 65 3 38 "Eprpa"
180 183 178 -1 234 183 3 34 "Cappap"
181 176 179 -1 274 -3 3 34 "ABprapapaa"
182 184 181 -1 316 129 3 34 "Cpapaa"
183 198 187 -1 -158 65 4 30 "ABalaaappl"
184 185 200 -1 -72 -1 4 34 "ABpraaapaa"
185 194 195 -1 -16 -15 4 34 "ABpraaappa"
186 188 173 -1 30 121 4 30 "MSaapaap"
187 182 186 -1 198 239 4 34 "ABplappaap"
188 196 192 -1 204 7 4 30 "Cpppaa"
189 19 193 -1 304 35 4 30 "ABarpppppp"
190 168 376 -1 -152 161 5 30 "ABalaaapal"
191 192 199 -1 -96 75 5 30 "ABaraappaa"
192 193 194 -1 -60 127 5 34 "ABaraapaap"
193 187 201 -1 0 237 5 34 "ABplpaaapa"
194 22 190 -1 60 -53 5 34 "ABpraappap"
196 190 185 -1 134 -59 5 30 "ABprapaapa"
197 191 177 -1 158 187 5 34 "Capaaa"
198 205 206 -1 -136 105 6 30 "ABaraaaapa"
199 206 378 -1 -112 23 6 38 "ABalaapppa"
200 179 196 -1 28 247 6 34 "ABplpaaapp"
201 23 19 -1 80 1 6 34 "Dpaa"
202 21 18 -1 -56 75 7 34 "ABaraappap"
203 225 184 -1 50 7 7 26 "MSppppap"
204 201 203 -1 68 55 7 38 "Earpa"
205 219 215 -1 244 91 7 38 "Eprpp"
206 204 207 -1 -106 157 8 26 "MSapaaaa"
207 224 210 -1 0 17 8 34 "MSppapap"
208 211 228 -1 -138 39 9 30 "ABalaaappr"
209 24 208 -1 -70 175 9 30 "MSapaaap"
210 222 209 -1 -34 -33 9 34 "ABpraaaapp"
211 214 202 -1 20 -27 9 34 "ABprpaappa"
212 215 211 -1 34 147 9 30 "MSaapapa"
213 216 221 -1 72 203 9 34 "MSappap"
214 217 204 -1 88 245 9 26 "ABplppaaap"
215 220 20 -1 256 173 9 30 "Capppa"
216 203 216 -1 292 189 9 34 "ABplapappp"
217 226 224 -1 -162 127 10 30 "ABalaaaarl"
218 210 205 -1 -148 167 10 26 "ABalppaaaa"
219 207 219 -1 -32 223 10 34 "ABplpaaaaa"
220 231 213 -1 174 -47 10 34 "ABprapaapp"
221 25 222 -1 236 23 10 34 "Cpppap"
222 235 236 -1 -116 117 11 38 "ABalpaapaa"
223 221 218 -1 -94 219 11 30 "ABalppaapa"
224 212 415 -1 -68 219 11 30 "ABalppaapp"
225 238 241 -1 -18 81 11 34 "ABaraapppa"
226 239 377 -1 -6 145 11 34 "MSaapaaa"
227 208 230 -1 18 189 11 30 "MSapaapp"
228 209 214 -1 214 227 11 34 "ABplapppaa"
229 241 23 -1 228 127 11 38 "Eplpp"
230 234 226 -1 280 1 11 30 "ABprapapap"
231 258 227 -1 -150 73 12 30 "ABalaaaarr"
232 244 258 -1 -108 81 12 30 "ABaraaapaa"
233 227 237 -1 -86 1 12 34 "ABpraaaaaa"
234 228 229 -1 -68 -15 12 34 "ABpraaaaap"
235 229 238 -1 -56 41 12 30 "MSppaaap"
236 246 233 -1 84 147 12 30 "MSaapapp"
237 28 234 -1 164 81 12 42 "Z2"
238 232 225 -1 242 -19 12 30 "ABprappapp"
239 242 235 -1 302 149 12 38 "Caappd"
240 243 246 -1 316 97 12 30 "Cpappd"
241 250 239 -1 -50 141 13 30 "ABalpaapapp"
242 237 240 -1 -40 23 13 30 "MSppapaa"
243 223 231 -1 14 245 13 38 "ABplpaaaap"
244 26 232 -1 62 89 13 30 "MSpapaap"
246 230 25 -1 120 181 13 34 "MSaappp"
247 248 244 -1 122 235 13 30 "ABplppapap"
248 259 416 -1 -120 19 14 30 "ABalaappaa"
249 29 26 -1 -64 95 14 38 "ABaraaapap"
250 253 242 -1 28 113 14 30 "MSpapaaa"
251 225 247 -1 28 11 14 30 "MSppppaa"
252 269 248 -1 44 -43 14 34 "ABprpaappp"
253 245 243 -1 60 249 14 30 "ABplppaaaa"
254 247 24 -1 104 9 14 38 "Dpap"
255 240 22 -1 136 141 14 38 "Z3"
256 249 245 -1 164 23 14 34 "Cppaaa"
257 273 256 -1 306 65 14 30 "ABprapappp"
258 236 251 -1 -110 201 15 34 "ABalaaaalp"
259 267 259 -1 -90 55 15 30 "MSppaaaa"
260 251 260 -1 -26 183 15 26 "MSapaapa"
261 252 252 -1 8 -37 15 34 "ABprpaapap"
262 268 281 -1 50 153 15 30 "ABalpappppp"
263 262 254 -1 86 53 15 30 "MSpppaap"
264 27 276 -1 148 237 15 30 "ABplppappa"
265 256 250 -1 204 21 15 30 "Cppapa"
266 264 266 -1 206 173 15 30 "Capapp"
267 257 267 -1 238 205 15 34 "ABplapppap"
268 265 268 -1 276 199 15 30 "ABplappppa"
269 272 255 -1 292 25 15 34 "ABprapappa"
270 277 261 -1 -24 -17 16 30 "ABprpaapaa"
271 281 253 -1 66 89 16 30 "MSpapapa"
273 254 262 -1 128 -45 16 38 "ABpraapppp"
274 255 249 -1 180 241 16 30 "ABplppappp"
275 283 265 -1 206 -25 16 30 "ABprappaap"
276 284 285 -1 -142 115 17 30 "ABaraaaaaa"
277 285 277 -1 -130 49 17 30 "ABalaapaaa"
278 266 269 -1 -110 125 17 26 "ABalpaapapa"
279 287 286 -1 -56 -11 17 34 "ABpraaaapa"
280 260 271 -1 -24 217 17 30 "ABalppappa"
281 278 272 -1 -4 41 17 34 "MSppaap"
282 261 273 -1 54 211 17 30 "ABplpapaap"
283 296 274 -1 86 -53 17 30 "ABprppaaap"
284 270 282 -1 90 241 17 30 "ABplppapaa"
285 282 275 -1 102 95 17 30 "MSpapapp"
286 292 278 -1 -22 101 18 34 "ABarapaapp"
287 288 279 -1 -6 157 18 26 "ABalpappppa"
288 279 295 -1 12 233 18 38 "ABalppappp"
289 295 280 -1 38 61 18 30 "MSpppaaa"
291 298 283 -1 172 -35 18 34 "ABprappaaa"
292 289 284 -1 238 145 18 34 "Capppp"
293 286 29 -1 -114 175 19 30 "ABalpaappa"
294 302 300 -1 -94 151 19 30 "ABalpaaapa"
295 293 30 -1 -26 145 19 30 "ABalpapppa"
296 294 287 -1 2 -3 19 30 "ABprpaaapa"
297 303 288 -1 8 91 19 34 "ABarapappa"
298 280 296 -1 18 195 19 30 "ABplpapaaa"
299 305 304 -1 86 191 19 30 "ABplpapapa"
300 297 299 -1 152 75 19 30 "MSpapppp"
301 299 31 -1 188 77 19 30 "Cppaap"
302 301 291 -1 228 69 19 30 "Cppapp"
303 290 293 -1 282 145 19 34 "Caapa"
304 310 412 -1 -58 17 20 34 "ABalaapapp"
305 276 301 -1 -56 207 20 34 "ABalppapaa"
306 304 297 -1 66 19 20 38 "MSpppap"
307 314 298 -1 102 141 20 30 "MSaappa"
308 297 289 -1 110 49 20 30 "MSpapppa"
309 309 292 -1 238 5 20 30 "ABprapppaa"
310 317 311 -1 -120 87 21 30 "ABaraaaaap"
311 291 294 -1 -66 145 21 30 "ABalpaaapp"
312 311 313 -1 -46 75 21 30 "ABarapaapa"
313 312 302 -1 32 -33 21 34 "ABprpaaapp"
314 319 303 -1 50 111 21 46 "ABarapappp"
315 307 306 -1 146 119 21 34 "MSpappa"
316 300 290 -1 200 223 21 34 "ABplpppaap"
317 315 315 -1 254 35 21 30 "ABprapppap"
318 321 309 -1 284 41 21 30 "ABprappppa"
319 323 -1 -1 -78 11 22 30 "ABalaapapa"
320 320 305 -1 112 215 22 34 "ABplppaapa"
321 403 307 -1 162 221 22 34 "ABplpppaaa"
323 316 308 -1 256 175 22 38 "ABplappppp"
324 329 329 -1 -118 153 23 34 "ABalpaaaaa"
325 330 312 -1 -102 35 23 30 "ABalaapaap"
326 313 314 -1 48 227 23 34 "ABalpapapp"
327 324 333 -1 152 179 23 30 "ABplppppaa"
328 325 33 -1 180 185 23 30 "ABplppppap"
329 326 322 -1 198 151 23 30 "ABplpppppa"
330 332 324 -1 220 189 23 30 "ABplpppapa"
331 327 326 -1 248 77 23 30 "ABprpppapp"
332 318 317 -1 -22 199 24 30 "ABalppapap"
333 30 318 -1 -6 5 24 34 "ABprpaaaaa"
334 337 320 -1 70 -25 24 34 "ABprppaaaa"
335 339 321 -1 130 -25 24 30 "ABprppapap"
336 306 342 -1 134 213 24 34 "ABplppaapp"
337 343 328 -1 288 143 24 34 "Caappv"
338 344 334 -1 -108 123 25 30 "ABalpaaaap"
339 333 336 -1 -76 101 25 30 "ABarapaaaa"
340 345 337 -1 -36 135 25 34 "ABalpappaa"
341 336 319 -1 38 49 25 34 "ABprpapaaa"
342 33 35 -1 102 -5 25 30 "ABprppapaa"
343 342 325 -1 226 103 25 30 "ABprpppppa"
344 328 327 -1 282 81 25 30 "ABprappppp"
345 331 335 -1 -98 67 26 30 "ABaraaappa"
346 334 348 -1 -64 59 26 30 "ABaraaappp"
347 346 330 -1 -12 67 26 30 "ABarappaaa"
348 354 331 -1 4 149 26 38 "ABalpappap"
349 347 339 -1 36 -11 26 34 "ABprpaaaap"
350 350 34 -1 158 1 26 30 "ABprppappa"
351 340 345 -1 190 109 26 26 "ABprpapppp"
352 341 323 -1 204 1 26 30 "ABprppappp"
353 357 354 -1 258 119 26 30 "ABprpppppp"
354 360 356 -1 -24 13 27 34 "ABarappppa"
355 353 338 -1 -10 101 27 30 "ABarapapaa"
356 32 351 -1 76 31 27 30 "ABprpapaap"
357 367 366 -1 190 27 27 30 "ABprpppaaa"
358 351 346 -1 222 139 27 30 "ABplpppppp"
359 352 347 -1 248 161 27 26 "ABplpppapp"
360 359 349 -1 -60 161 28 34 "ABalpapaaa"
361 376 358 -1 34 123 28 30 "ABarapapap"
362 363 352 -1 122 25 28 30 "ABprppaapa"
363 364 360 -1 126 147 28 30 "ABplpapppa"
365 356 344 -1 158 35 28 30 "ABprppaapp"
366 365 365 -1 166 145 28 30 "ABplpapppp"
367 366 353 -1 178 75 28 30 "ABprppppaa"
368 34 361 -1 206 65 28 30 "ABprppppap"
369 371 372 -1 230 29 28 30 "ABprpppaap"
370 368 368 -1 -48 111 29 34 "ABarapaaap"
371 374 370 -1 22 49 29 34 "ABarappapa"
372 375 371 -1 26 87 29 30 "ABarappaap"
373 377 362 -1 76 69 29 34 "ABarappapp"
374 369 359 -1 108 117 29 34 "ABprpappap"
376 373 369 -1 -24 43 30 30 "ABarapppap"
377 35 382 -1 -18 165 30 34 "ABalpapaap"
379 361 36 -1 28 13 30 30 "ABarappppp"
380 378 363 -1 74 105 30 30 "ABprpappaa"
381 370 364 -1 138 71 30 34 "ABprpapapp"
382 372 367 -1 250 65 30 34 "ABprpppapa"
385 101 95 -1 -28 9 -12 30 "ABalappppp"
387 200 198 -1 -96 117 6 34 "ABaraapaaa"
388 384 379 -1 88 -47 11 34 "ABpraapppa"
389 383 380 -1 -148 163 16 34 "ABalaaaala"
390 274 27 -1 -96 11 16 38 "ABalaappap"
399 112 120 -1 -68 125 -7 30 "MSaaapaa"
400 113 110 -1 -54 -15 -7 34 "ABpraapaap"
412 78 37 -1 -134 93 -14 26 "ABalapapaa"
413 111 104 -1 -112 177 -7 38 "ABalapaapp"
417 195 197 -1 196 191 5 34 "Capapa"
418 407 413 -1 -104 199 4 33 "ABalpppaaa"
419 408 118 -1 144 -51 -6 34 "ABarppppaa"
