1 433 63 -1 -66 163 -20 30 "ABalapappp"
2 1 2 -1 32 77 -20 38 "ABarpaapap"
3 59 79 -1 156 23 -19 38 "Cpaaaa"
4 60 1 -1 176 207 -19 34 "ABarppapap"
5 80 90 -1 214 15 -15 38 "Cpaaap"
6 86 99 -1 74 239 -13 30 "ABplaapppa"
7 5 91 -1 -62 29 -12 34 "ABarpapaap"
8 84 98 -1 58 147 -12 30 "MSappppa"
9 91 8 -1 -108 165 -10 42 "ABalapappa"
10 90 104 -1 -112 9 -10 38 "ABpraapaaa"
11 119 132 -1 166 183 -7 30 "Dapap"
12 6 11 -1 146 101 -7 38 "Eplaa"
13 109 117 -1 -146 151 -7 46 "ABalapaaap"
14 12 12 -1 60 99 -6 38 "Ealaa"
15 138 14 -1 100 51 -3 42 "Earap"
16 150 167 -1 -120 111 0 42 "MSaaaaaa"
17 15 16 -1 50 55 -1 42 "Earaa"
18 182 197 -1 0 139 5 46 "ABaraapapp"
19 183 186 -1 38 133 2 30 "MSaapaap"
20 169 171 -1 88 133 2 38 "Ealpa"
21 16 19 -1 132 115 2 42 "Ealpp"
23 171 18 -1 -154 157 3 38 "ABalaaapal"
25 187 21 -1 258 163 4 30 "Capppa"
26 210 221 -1 -106 153 6 30 "MSapaaaa"
27 215 219 -1 302 27 8 30 "ABarpppppp"
28 217 235 -1 96 65 7 38 "Earpa"
29 248 254 -1 10 25 12 30 "MSppapap"
30 23 244 -1 180 169 12 38 "Capaap"
31 312 312 -1 78 205 19 34 "ABplpapapa"
32 303 308 -1 98 227 19 34 "ABplppaapa"
33 337 37 -1 46 61 23 34 "ABprpapaaa"
34 346 363 -1 -16 145 24 42 "ABalpappapa"
35 32 371 -1 -112 121 26 30 "ABalpaaaap"
36 358 370 -1 274 127 26 34 "ABprpppppp"
37 389 45 -1 206 77 29 30 "ABprppppap"
38 392 47 -1 -44 111 30 34 "ABarapaaap"
39 395 397 -1 104 113 31 38 "ABprpappap"
40 131 141 -1 114 187 -6 30 "Dapaa"
42 432 404 -1 10 239 4 34 "ABplpaaapp"
43 41 51 -1 -94 115 -23 34 "ABplaaaaaa"
45 44 52 -1 -46 63 -23 26 "ABarpaaapa"
47 42 54 -1 -88 85 -21 34 "ABarpaaaap"
48 46 53 -1 -40 187 -21 30 "ABplaaapaa"
49 45 65 -1 -36 107 -21 34 "ABplaaaapa"
50 48 58 -1 72 125 -21 30 "ABarppaaap"
51 51 61 -1 166 153 -21 34 "ABarppaapp"
52 52 62 -1 -116 155 -20 34 "ABplaapaap"
53 57 66 -1 -8 71 -20 30 "ABarpaapaa"
54 63 71 -1 -10 183 -20 34 "ABplaaapap"
55 47 55 -1 4 117 -20 34 "ABplaaaapp"
56 53 56 -1 16 169 -20 34 "ABplaaappa"
57 54 57 -1 48 163 -20 34 "ABplaaappp"
58 49 59 -1 100 157 -20 34 "ABarppaaaa"
59 58 60 -1 128 103 -20 38 "ABarppaapa"
60 50 3 -1 140 191 -20 30 "ABarppapaa"
61 55 64 -1 -54 131 -19 30 "ABplaaaaap"
62 56 70 -1 -34 43 -19 34 "ABarpapapa"
63 66 68 -1 190 91 -19 38 "Caaaaa"
64 61 69 -1 -90 25 -18 34 "ABarpapaaa"
65 69 76 -1 -76 65 -18 34 "ABarpaaapp"
66 71 72 -1 12 29 -18 34 "ABarpapapp"
67 68 4 -1 -78 189 -17 38 "ABplaapaaa"
68 64 67 -1 62 61 -17 34 "ABarpaappa"
69 65 73 -1 96 51 -17 34 "ABarpaappp"
70 70 74 -1 118 225 -17 30 "ABplapaapa"
71 3 80 -1 232 77 -17 34 "Caaaap"
72 75 84 -1 238 173 -17 30 "ABarppappa"
74 2 439 -1 -100 123 -16 38 "ABalapapap"
76 73 82 -1 68 187 -16 34 "ABplapaaaa"
77 74 78 -1 126 1 -16 34 "ABarpppapa"
78 67 75 -1 -126 73 -15 34 "ABarpaaaaa"
79 76 81 -1 -126 113 -15 30 "ABalapapaa"
80 72 86 -1 16 211 -15 34 "ABalppppppp"
81 81 87 -1 74 5 -15 30 "ABarpppaaa"
82 77 88 -1 -18 -1 -14 30 "ABarpappaa"
83 78 89 -1 96 203 -14 34 "ABplapaaap"
84 79 83 -1 210 191 -14 30 "ABplappapa"
85 82 7 -1 268 109 -14 34 "Caaapa"
86 92 92 -1 -58 99 -13 38 "MSaaaapa"
87 4 5 -1 -26 195 -13 34 "ABplaapapp"
88 85 94 -1 60 -33 -13 34 "ABarpapppp"
89 83 93 -1 14 149 -12 30 "MSapappp"
90 87 95 -1 110 161 -12 30 "MSappppp"
91 88 6 -1 146 155 -12 34 "Dappa"
92 97 101 -1 156 233 -12 34 "ABplapaapp"
93 102 111 -1 -48 191 -11 38 "ABplaapapa"
94 93 112 -1 -30 71 -11 34 "MSpaaapa"
95 94 107 -1 -2 111 -11 34 "MSaaaapp"
96 96 100 -1 116 -43 -11 38 "ABarpppaap"
97 106 102 -1 178 -23 -11 30 "ABarpppapp"
98 108 122 -1 260 45 -11 38 "Cpaapa"
99 35 103 -1 268 187 -11 30 "ABplapapaa"
100 89 109 -1 -110 53 -10 34 "ABalapppap"
101 110 10 -1 -48 -1 -10 42 "ABalappppp"
102 103 106 -1 -4 243 -10 30 "ABplaappaa"
103 104 119 -1 2 -23 -10 34 "ABarpappap"
105 101 110 -1 -76 191 -9 42 "ABalppppap"
106 111 118 -1 -36 149 -9 30 "MSapappa"
107 105 113 -1 30 -31 -9 34 "ABarpapppa"
108 95 120 -1 42 251 -9 34 "ABplaappap"
109 107 9 -1 210 147 -9 34 "Dappp"
110 400 126 -1 -146 109 -8 26 "ABalappaap"
111 100 105 127 -98 103 -8 38 "MSaaaaap"
112 116 130 -1 30 165 -8 30 "MSapppap"
113 7 121 -1 120 247 -8 34 "ABplaapppp"
114 115 114 -1 222 229 -8 34 "ABplappapp"
115 121 128 -1 -6 189 -7 30 "ABalppppppa"
116 114 129 -1 8 67 -7 38 "MSpaaapp"
117 129 123 -1 32 215 -7 38 "ABplpaappa"
119 112 124 -1 106 103 -7 38 "Ealap"
120 124 133 -1 212 183 -7 34 "Cappaa"
121 113 125 -1 298 69 -7 38 "Cpaapp"
122 122 136 -1 -4 23 -6 30 "MSppappp"
123 9 131 150 68 185 -6 38 "Daaa"
124 118 437 -1 140 57 -6 38 "Epraa"
125 125 134 -1 258 217 -6 34 "ABplapapap"
126 127 145 -1 -108 179 -5 38 "ABalapaapp"
127 128 139 -1 -58 -13 -5 38 "ABpraapaap"
128 39 140 -1 -52 121 -5 34 "MSaaapaa"
129 123 138 -1 76 -29 -5 34 "ABprapaaaa"
130 13 13 -1 170 237 -5 38 "ABplappaaa"
131 135 135 -1 -52 223 -4 34 "ABalpppapp"
132 10 156 -1 -34 197 -4 38 "ABalpppppa"
133 11 137 -1 -10 123 -4 38 "MSaaapap"
134 137 149 -1 32 3 -4 26 "MSpppppa"
135 147 151 -1 86 259 -4 26 "ABplppaaap"
136 141 142 -1 132 5 -4 30 "Dpppa"
137 139 143 -1 150 -53 -4 30 "ABarppppaa"
138 140 152 -1 188 107 -4 34 "Eplap"
139 14 161 -1 296 181 -4 34 "ABarppappp"
141 136 158 -1 -16 -15 -3 38 "ABpraapapp"
142 144 157 -1 -12 247 -3 34 "ABplpaapap"
143 148 165 -1 94 3 -3 30 "MSpppppp"
144 36 153 -1 192 15 -3 30 "Dpppp"
145 8 154 -1 -136 47 -2 34 "ABalapppaa"
146 132 146 -1 -104 59 -2 34 "MSpaaaaa"
147 133 155 -1 -90 13 -2 30 "ABalappppa"
148 134 148 -1 -54 73 -2 38 "MSpaaaap"
149 160 410 -1 22 187 -2 34 "MSapppaa"
151 143 160 -1 242 -13 -2 30 "ABarpppppa"
152 176 415 -1 268 217 -2 30 "ABplapappa"
153 151 162 -1 -114 213 -1 30 "ABalpppaap"
154 152 169 -1 -82 199 -1 34 "ABalppppaa"
155 145 163 -1 18 -41 -1 30 "ABpraaapppp"
156 155 172 -1 92 211 -1 34 "Daap"
157 161 166 -1 96 -41 -1 34 "ABprapaaap"
158 174 181 -1 196 189 -1 34 "Capapa"
160 165 194 -1 -162 107 0 30 "ABalaaapar"
161 149 175 -1 -124 3 0 34 "ABalappapp"
162 158 168 -1 -120 171 0 34 "ABalapaapa"
163 154 170 -1 30 93 0 30 "MSaaappp"
165 157 17 -1 176 65 0 38 "Eprap"
166 162 159 -1 188 -51 0 30 "ABarppppap"
167 430 174 -1 312 75 0 38 "Cpapap"
168 167 183 -1 -36 -5 1 42 "ABpraapapa"
169 181 185 -1 -4 101 1 26 "MSaaappa"
172 18 26 -1 210 65 1 34 "Eprpa"
174 166 182 -1 -52 29 2 30 "MSppappa"
175 159 184 -1 -42 165 2 30 "MSapapaa"
176 180 203 -1 -30 211 2 34 "ABplpaapaa"
177 168 418 -1 36 255 2 34 "ABplpaappp"
178 184 188 -1 48 213 2 26 "MSappapa"
180 186 189 -1 122 -63 2 30 "ABprapaapa"
181 170 180 -1 144 193 2 34 "Capaaa"
182 20 20 -1 230 181 2 34 "Cappap"
184 172 201 -1 -142 31 3 34 "ABalappapa"
186 192 198 -1 36 179 3 30 "MSappaaa"
187 193 187 -1 38 3 3 30 "MSppppap"
188 185 211 -1 86 171 3 30 "MSappaap"
189 163 173 -1 194 239 3 34 "ABplappaap"
190 175 191 -1 222 -39 3 30 "ABprappapa"
191 189 193 -1 312 135 3 38 "Cpapaa"
192 422 177 -1 -94 71 4 34 "ABaraappaa"
193 21 215 -1 -68 109 4 30 "ABaraapaap"
196 199 214 -1 170 -9 4 30 "Dppap"
197 188 218 -1 272 -1 4 34 "ABprapapaa"
198 195 209 -1 -150 59 5 34 "ABalaaappl"
199 190 202 -1 -74 -17 5 34 "ABpraaapap"
200 179 422 -1 -68 225 5 34 "ABalpppapa"
203 194 23 -1 206 9 5 34 "Cpppaa"
206 19 25 -1 -108 195 6 38 "ABalpppaaa"
207 204 224 -1 -24 57 6 30 "MSpaapaa"
208 198 210 -1 2 1 6 30 "ABpraaapppa"
209 206 217 -1 80 3 6 42 "Dpaa"
210 208 213 -1 140 55 6 38 "Earpp"
211 201 24 -1 264 43 6 34 "Cppppa"
212 203 438 -1 -112 3 7 38 "ABalaapppp"
213 211 29 -1 -56 71 7 34 "ABaraappap"
214 214 212 -1 126 -9 7 30 "Dppaa"
215 196 220 -1 -142 161 8 30 "ABalppaaaa"
216 429 226 -1 -138 97 8 30 "ABaraaaapa"
217 216 222 -1 -68 169 8 30 "MSapaaap"
218 191 227 -1 -52 135 8 30 "ABaraapapaa"
219 37 27 -1 -8 241 8 34 "ABplpaaapa"
220 205 233 -1 10 -55 8 30 "ABpraappaa"
221 213 435 -1 64 81 8 30 "MSpapaap"
222 22 28 -1 70 243 8 34 "ABplppaaaa"
223 226 230 -1 226 209 8 30 "ABplapppaa"
224 218 236 -1 290 181 8 34 "ABplapappp"
225 212 232 -1 -28 -1 9 34 "ABpraaappa"
226 231 30 -1 22 -23 9 30 "ABprpaappa"
227 222 216 -1 32 87 9 34 "ABaraapppp"
228 225 229 -1 140 247 9 34 "ABplppapap"
229 219 238 -1 -160 127 10 30 "ABalaaaarl"
230 227 247 -1 -116 191 10 38 "ABalppaaap"
231 228 248 -1 -98 25 10 34 "ABalaapppa"
232 220 425 -1 -86 223 10 30 "ABalppaapa"
233 229 249 -1 -64 7 10 30 "ABpraaapaa"
234 230 223 -1 -28 209 10 34 "ABplpaaaaa"
235 221 250 -1 10 79 10 30 "ABaraapppap"
236 249 234 -1 26 195 10 34 "MSapaapp"
237 233 251 -1 50 -55 10 34 "ABpraappap"
238 232 241 -1 50 151 10 30 "MSaapapa"
239 224 228 -1 104 249 10 30 "ABplppapaa"
240 235 243 -1 170 -49 10 34 "ABprapaapp"
241 236 259 -1 232 17 10 30 "Cpppap"
242 243 237 -1 314 103 10 34 "Cpappd"
243 245 239 -1 -120 125 11 30 "ABalpaapaa"
244 247 262 -1 -44 -33 11 30 "ABpraaaapp"
245 238 240 -1 -30 101 11 26 "ABaraaapapa"
246 223 252 -1 76 197 11 30 "MSappapp"
247 234 256 -1 114 187 11 30 "MSaapppa"
248 274 266 -1 170 7 11 30 "Cppaaa"
249 241 245 -1 226 79 11 38 "Eprpp"
250 239 255 -1 34 253 12 30 "ABplpaaaap"
251 254 265 -1 128 -51 12 34 "ABpraapppp"
252 25 31 -1 136 155 12 38 "Z3"
253 256 258 -1 214 117 12 38 "Eplpp"
254 242 32 -1 300 155 12 34 "Caappd"
255 259 267 -1 -152 77 13 30 "ABalaaaarr"
256 237 246 -1 -148 163 13 30 "ABalaaaala"
257 244 268 -1 -128 37 13 30 "ABalaaappr"
258 246 269 -1 -110 87 13 30 "ABaraaapaa"
259 252 48 -1 -64 219 13 34 "ABalppaapp"
260 261 263 -1 40 7 13 26 "MSppppaa"
261 24 264 -1 80 149 13 38 "MSaapapp"
262 257 277 -1 238 -25 13 30 "ABprappapp"
263 250 260 -1 266 207 13 30 "ABplappppa"
264 258 288 -1 274 -1 13 34 "ABprapapap"
265 267 278 -1 300 61 13 34 "ABprapappp"
266 27 280 -1 -46 139 14 30 "ABalpaapapp"
267 260 271 -1 -34 33 14 26 "MSppapaa"
268 281 294 -1 44 113 14 34 "MSpapaaa"
269 251 270 -1 -96 201 15 38 "ABalaaaalp"
270 277 279 -1 -90 135 15 30 "ABalpaapapa"
271 268 261 -1 -88 59 15 30 "MSppaaaa"
272 271 283 -1 -32 71 15 26 "ABaraapppaa"
273 278 282 -1 -30 175 15 26 "MSapaapa"
274 28 272 -1 -4 -43 15 30 "ABprpaapap"
275 273 273 -1 46 219 15 30 "ABplpapaap"
276 284 298 -1 110 45 15 30 "MSpppaap"
277 285 315 -1 110 99 15 34 "MSpapapp"
278 263 297 -1 114 -1 15 34 "Dpap"
279 264 274 -1 144 231 15 34 "ABplppappa"
280 26 33 -1 158 83 15 38 "Z2"
281 255 257 -1 176 235 15 34 "ABplppappp"
282 266 286 -1 212 -35 15 30 "ABprappaap"
283 265 276 -1 212 169 15 30 "Capapp"
284 289 301 -1 246 149 15 30 "Capppp"
285 291 305 -1 -80 97 16 26 "ABaraaapapp"
286 269 289 -1 -72 -9 16 34 "ABpraaaaap"
287 270 290 -1 -54 53 16 30 "MSppaaap"
288 279 281 -1 -28 209 16 34 "ABalppappa"
289 280 306 -1 -6 97 16 34 "ABarapaapp"
290 272 293 -1 26 47 16 30 "MSppaapp"
291 300 295 -1 48 21 16 26 "MSpppapa"
292 283 284 -1 90 -53 16 30 "ABprppaaap"
293 287 299 -1 152 177 16 34 "MSaapppp"
294 288 275 -1 206 25 16 30 "Cppapa"
295 275 285 -1 212 227 16 34 "ABplpppaap"
296 40 300 -1 240 191 16 30 "ABplapppap"
297 290 302 -1 260 87 16 34 "Cppppp"
298 297 303 -1 -132 123 17 34 "ABaraaaaaa"
300 292 291 -1 -16 -5 17 30 "ABprpaapaa"
301 293 292 -1 2 231 17 38 "ABalppappp"
302 294 307 -1 40 -41 17 34 "ABprpaappp"
303 295 311 -1 62 55 17 26 "MSpppaaa"
304 306 34 -1 182 -33 17 34 "ABprappaaa"
305 29 310 -1 56 149 18 34 "ABalpappppp"
306 301 313 -1 76 9 18 30 "MSpppapp"
307 282 296 -1 82 91 18 34 "MSpapapa"
308 307 316 -1 288 21 18 30 "ABprapappa"
309 308 324 -1 -136 51 19 30 "ABalaapaaa"
310 314 327 -1 -52 147 19 26 "ABalpaaapp"
311 310 318 -1 -14 143 19 34 "ABalpapppa"
312 31 332 -1 12 161 19 30 "ABalpappppa"
313 302 314 -1 102 143 19 30 "MSaappa"
314 318 320 -1 148 131 19 30 "MSpappa"
317 322 323 -1 302 113 19 30 "Cpappv"
318 298 325 -1 -116 161 20 34 "ABalpaappa"
319 309 326 -1 -82 191 20 38 "ABalpaappp"
320 30 49 -1 -74 13 20 30 "ABpraaaaaa"
321 311 319 -1 12 -9 20 34 "ABprpaaapa"
322 316 309 -1 18 197 20 30 "ABplpapaaa"
323 296 35 -1 176 49 20 30 "Cppaap"
324 330 321 -1 252 31 20 30 "ABprapppaa"
325 321 322 -1 276 135 20 34 "Caapa"
326 313 340 -1 -78 129 21 34 "ABalpaaapa"
327 324 329 -1 -48 95 21 34 "ABarapaapa"
328 315 328 -1 -44 -9 21 34 "ABpraaaapa"
329 325 330 -1 -14 53 21 26 "MSppaapa"
330 333 331 -1 2 17 21 34 "ABprpaaaaa"
331 317 333 -1 18 83 21 30 "ABarapappa"
332 326 334 -1 30 115 21 30 "ABarapapppa"
333 327 349 -1 84 99 21 34 "ABarapapppp"
334 338 407 -1 128 39 21 38 "MSpapppa"
335 328 335 -1 132 213 21 30 "ABplppaapp"
336 305 342 -1 150 85 21 38 "MSpapppp"
337 319 336 -1 172 225 21 30 "ABplpppaaa"
338 329 346 -1 196 155 21 30 "ABplpppppa"
339 320 337 -1 218 67 21 30 "Cppapp"
340 323 339 -1 -112 95 22 34 "ABaraaaaap"
341 332 345 -1 -58 197 22 30 "ABalppapaa"
342 334 341 -1 42 229 22 34 "ABalpapapp"
343 356 367 -1 178 189 22 30 "ABplppppap"
344 339 352 -1 212 111 22 30 "ABprpppppa"
345 331 338 -1 292 53 22 30 "ABprappppa"
346 336 344 -1 298 149 22 30 "Caappv"
347 348 358 -1 44 151 23 30 "ABalpappapp"
348 335 348 -1 74 -21 23 34 "ABprppaaaa"
349 354 364 -1 120 187 23 34 "ABplpapapp"
350 350 350 -1 182 115 23 30 "ABprpapppp"
351 351 351 -1 216 199 23 38 "ABplpppapa"
352 340 353 -1 258 55 23 30 "ABprapppap"
353 352 347 -1 266 173 23 30 "ABplpppapp"
354 342 354 -1 -102 39 24 30 "ABalaapaap"
355 345 361 -1 -18 211 24 34 "ABalppapap"
356 347 357 -1 30 -19 24 34 "ABprpaaapp"
357 349 359 -1 154 -25 24 34 "ABprppapap"
358 341 381 -1 -108 75 25 30 "ABaraaappa"
359 360 38 -1 -74 61 25 30 "ABaraaappp"
361 362 362 -1 -16 99 25 34 "ABarapapaa"
362 363 374 -1 68 31 25 30 "ABprpapaap"
363 365 39 -1 114 -19 25 34 "ABprppapaa"
364 368 369 -1 242 95 25 30 "ABprpppapp"
365 359 360 -1 282 85 25 30 "ABprappppp"
366 38 355 -1 -92 151 26 30 "ABalpaaaaa"
367 371 36 -1 -20 25 26 34 "ABarappppa"
368 353 372 -1 24 205 26 38 "ABalpapapa"
369 364 375 -1 80 145 26 26 "ABplpappap"
370 34 386 -1 90 177 26 30 "ABplpappaap"
371 367 368 -1 214 5 26 30 "ABprppappp"
372 357 380 -1 236 143 26 30 "ABplpppppp"
373 369 382 -1 -74 99 27 34 "ABarapaaaa"
374 370 383 -1 -56 163 27 34 "ABalpapaaa"
375 381 388 -1 -44 1 27 30 "ABalaapapp"
376 378 376 -1 98 63 27 34 "ABprpapapa"
377 387 392 -1 122 27 27 30 "ABprppaapa"
378 33 365 -1 128 111 27 34 "ABprpapppa"
379 355 377 -1 150 191 27 30 "ABplppppaa"
380 366 366 -1 164 9 27 30 "ABprppappa"
381 383 42 -1 -14 87 28 50 "ABarappaaa"
382 372 373 -1 30 119 28 38 "ABarapapap"
383 373 387 -1 136 147 28 30 "ABplpapppa"
384 397 44 -1 156 47 28 30 "ABprppaapp"
385 379 40 -1 172 89 28 30 "ABprppppaa"
386 374 378 -1 174 155 28 34 "ABplpapppp"
387 391 46 -1 238 35 28 34 "ABprpppaap"
388 375 41 -1 -52 43 29 34 "ABarapppaa"
389 376 393 -1 -14 165 29 38 "ABalpapaap"
390 382 384 -1 -12 51 29 34 "ABarapppap"
391 377 394 -1 18 17 29 30 "ABarappppp"
392 385 395 -1 36 175 29 26 "ABplpappaaa"
393 394 396 -1 58 -5 29 38 "ABprpaaaap"
394 396 43 -1 132 79 29 30 "ABprpapapp"
395 388 400 -1 194 35 29 30 "ABprpppaaa"
396 384 399 -1 30 57 30 30 "ABarappapa"
402 17 178 -1 2 57 1 38 "MSpaapap"
403 191 204 -1 -16 129 2 26 "ABaraapapap"
404 402 405 -1 86 -49 9 30 "ABpraapppa"
406 253 253 -1 6 145 13 34 "MSaapaaa"
407 299 317 -1 -96 35 20 30 "ABalaappap"
408 413 406 -1 266 181 20 34 "ABplappppp"
410 398 409 -1 74 139 30 30 "ABprpappaa"
411 403 433 -1 242 85 30 38 "ABprpppapa"
416 126 144 -1 -154 135 -5 34 "ABalapaaaa"
424 344 356 -1 -34 137 24 34 "ABalpappaa"
432 173 196 -1 -5 178 2 26 "MSapapap"
433 434 176 -1 -103 109 1 34 "ABaraapaaa"
434 393 398 -1 32 93 30 32 "ABarappaap"
435 435 440 -1 77 51 30 36 "ABarappapp"
437 438 443 -1 313 127 -6 36 "Caaapp"
438 439 444 -1 215 120 2 40 "Eplpa"
439 440 445 -1 -103 4 18 28 "ABalaappaa"
