1 103 83 -1 -14 31 -20 34 "ABarpapapp"
2 6 87 -1 -136 147 -15 34 "ABplaapaap"
3 118 561 -1 62 69 -17 38 "ABarpaappp"
4 134 99 -1 -32 215 -12 34 "ABplaapappp"
5 149 129 -1 -24 21 -10 34 "MSppappp"
6 13 590 -1 62 245 -7 30 "ABplaapppa"
7 16 13 -1 152 69 -5 38 "Epraa"
8 174 10 -1 120 247 -7 34 "ABplaapppp"
9 22 14 -1 166 111 -5 42 "Eplaa"
10 26 181 -1 -128 105 -3 34 "MSaaaaaa"
11 188 15 -1 162 237 -4 34 "ABplappaaa"
12 199 506 -1 196 85 -2 34 "Eprap"
15 220 24 -1 278 1 -1 34 "ABprapapaa"
16 232 511 -1 -132 173 1 34 "ABalapaappa"
17 24 205 -1 122 61 1 42 "Earap"
18 255 227 -1 32 243 3 30 "ABplpaapppp"
19 37 220 -1 68 125 2 26 "MSaapaapp"
20 35 255 -1 228 75 2 42 "Eprpa"
21 39 28 -1 16 137 6 38 "ABaraapapp"
23 263 27 -1 286 181 4 34 "ABplapappp"
24 247 234 -1 -134 53 4 34 "ABalappppaa"
25 40 254 -1 140 251 6 30 "ABplppapaap"
26 38 22 -1 168 57 5 42 "Earpp"
27 269 262 -1 102 261 6 26 "ABplppapaaa"
28 274 34 -1 108 133 6 42 "Ealpa"
29 301 264 -1 186 195 7 38 "Capaap"
30 270 256 -1 218 5 6 38 "Cppapa"
31 285 273 -1 250 199 7 34 "ABplapppaa"
32 294 33 -1 54 223 7 34 "ABplppaaaa"
33 273 252 -1 58 13 7 30 "Dpaaa"
34 300 272 -1 172 -7 9 34 "Cppaaa"
35 50 342 -1 210 83 11 38 "Eprpp"
36 494 288 -1 -32 239 11 42 "ABplpaaapa"
37 304 299 349 -20 -33 12 38 "ABprpaapap"
38 54 332 -1 178 -39 13 34 "ABprappaaa"
39 348 335 -1 292 51 14 34 "ABprapappp"
40 56 318 -1 150 139 16 38 "Z3"
41 382 46 -1 -104 191 18 42 "ABalaaaalp"
43 64 368 -1 206 153 19 38 "ABplpppppa"
44 367 382 -1 270 -1 21 34 "ABprapappa"
45 86 388 -1 72 229 21 34 "ABalpapapp"
46 413 50 -1 80 -9 22 30 "ABprppaaaap"
47 415 426 -1 180 -5 22 34 "ABprppapap"
48 438 419 -1 -100 105 23 30 "ABaraaappa"
49 66 428 -1 -98 137 24 38 "ABalpaappa"
50 87 463 -1 38 17 25 38 "ABprpapaap"
51 429 54 -1 -40 115 26 38 "ABarapaaap"
53 476 482 -1 104 125 30 30 "ABprpappapp"
54 1 1 -1 24 171 -22 38 "ABplaaappp"
55 3 60 -1 6 187 -18 34 "ABplaaappa"
56 152 131 -1 68 203 -9 30 "ABplapaaapa"
59 78 148 -1 -94 181 -4 26 "ABalppppapa"
60 204 177 -1 -4 203 -2 42 "ABalpppppap"
61 292 36 -1 22 57 9 30 "ABaraapppap"
62 350 520 -1 10 13 16 30 "MSppapap"
63 372 374 -1 -42 225 19 46 "ABalppaapp"
64 450 458 -1 -110 71 24 42 "ABalaapaap"
65 500 424 -1 106 21 23 46 "ABprppaapa"
66 495 312 -1 4 233 13 30 "ABplpaaappa"
72 95 71 -1 -60 83 -24 26 "ABarpaaapa"
73 97 75 -1 -26 71 -22 26 "ABarpaapaa"
74 99 78 -1 -96 59 -21 30 "ABarpaaapp"
75 100 66 -1 -88 93 -21 34 "ABarpaaaap"
76 93 70 -1 -92 135 -21 34 "ABplaaaaaa"
77 94 67 -1 -60 163 -21 26 "ABalapapppp"
78 96 68 -1 -34 105 -21 30 "ABplaaaapa"
79 104 76 -1 -2 123 -21 34 "ABplaaaapp"
80 75 84 -1 18 63 -21 38 "ABarpaapap"
81 98 69 -1 52 141 -21 30 "ABarppaaap"
82 2 2 -1 82 179 -21 34 "ABarppaaaa"
83 101 72 -1 -56 55 -20 30 "ABarpapapa"
84 102 74 -1 -42 175 -20 30 "ABplaaapaa"
85 4 85 -1 118 197 -20 34 "ABarppapaa"
87 106 77 -1 140 159 -20 34 "ABarppaapp"
88 107 81 -1 204 175 -20 34 "ABplappapa"
89 114 82 -1 -128 111 -19 26 "ABalapapaa"
90 115 92 -1 -102 157 -19 26 "ABalapapppa"
91 116 93 -1 -72 189 -19 30 "ABplaapaaap"
92 108 73 -1 -52 131 -19 30 "ABplaaaaapp"
93 109 80 -1 94 91 -19 30 "ABarppaapa"
94 110 4 -1 98 -1 -19 34 "ABarpppapa"
95 111 3 -1 162 195 -19 30 "ABarppapap"
96 119 86 -1 190 27 -19 34 "Cpaaap"
97 117 79 -1 42 51 -18 34 "ABarpaappa"
98 112 88 -1 -16 209 -17 34 "ABplaaapap"
99 545 588 -1 156 43 -17 32 "Cpaaaa"
100 76 89 -1 238 189 -17 30 "ABarppappa"
101 123 91 -1 -116 183 -16 30 "ABplaapaaaa"
102 113 94 -1 48 169 -16 38 "ABplapaaaa"
103 7 97 -1 226 91 -16 30 "Cpaapa"
104 122 90 -1 -134 79 -15 34 "ABarpaaaaa"
105 124 100 -1 50 -1 -15 30 "ABarpppaaa"
106 126 109 -1 -112 33 -14 30 "ABarpapaaa"
107 133 98 -1 -46 179 -14 30 "ABplaapappa"
109 127 101 -1 44 127 -14 30 "MSappppa"
110 152 95 -1 82 213 -14 34 "ABplapaaapp"
111 5 5 -1 106 141 -14 30 "MSappppp"
112 143 103 -1 148 235 -14 34 "ABplapaapp"
113 130 6 -1 152 147 -14 38 "Dappa"
115 486 104 -1 -88 203 -13 26 "ABalppppapp"
116 131 113 -1 -78 5 -13 26 "ABalapppppp"
117 8 114 -1 -74 29 -13 30 "ABarpapaapp"
118 138 105 -1 -72 103 -13 26 "MSaaaaapp"
119 132 106 -1 -60 73 -13 34 "MSaaaapaa"
120 10 108 -1 200 139 -13 30 "Dappp"
121 144 110 -1 -100 163 -12 26 "ABalapappap"
122 137 112 -1 -90 141 -12 30 "ABplaaaaapa"
123 151 120 -1 12 67 -12 34 "MSpaaapa"
124 148 9 -1 272 189 -12 34 "ABplapapaa"
125 156 118 -1 -126 183 -11 34 "ABalapaaap"
126 139 119 -1 -56 -11 -11 30 "ABarpappaa"
127 140 107 -1 -34 121 -11 26 "MSaaapaap"
128 157 7 -1 -34 155 -11 30 "MSapappa"
129 141 115 -1 -22 85 -11 30 "MSaaaapap"
130 150 117 -1 4 145 -11 26 "MSapappp"
131 9 116 122 10 107 -11 34 "MSaaaapp"
132 160 8 -1 80 161 -11 30 "Daaap"
133 505 123 -1 82 -39 -11 34 "ABarpppaap"
134 77 125 -1 148 -29 -11 30 "ABarpppapp"
137 146 130 -1 10 213 -10 34 "ABalppppppp"
138 11 121 -1 22 -31 -10 34 "ABarpapppp"
139 158 136 -1 36 151 -10 30 "MSapppap"
140 142 124 -1 90 243 -10 30 "ABplapaapa"
141 512 126 -1 212 175 -10 34 "Cappaa"
142 15 133 -1 -68 223 -9 30 "ABalpppappp"
143 159 146 -1 40 207 -9 30 "ABplpaappap"
144 153 137 -1 158 193 -9 30 "Dapap"
145 161 132 -1 222 237 -9 34 "ABplappapp"
146 166 18 -1 -144 31 -8 30 "ABpraapaaa"
147 12 138 -1 -106 97 -8 38 "MSaaaaapa"
149 167 139 -1 -66 57 -8 32 "MSpaaaaa"
150 170 145 -1 -32 47 -8 34 "MSpaaaapp"
151 179 135 -1 8 183 -8 30 "ABalppppppa"
152 163 140 -1 18 21 -8 30 "MSpppppa"
153 165 141 -1 84 9 -8 26 "MSpppppp"
155 162 159 -1 -26 -29 -7 30 "ABarpappap"
156 164 12 -1 46 -5 -7 34 "ABprapaaaa"
157 19 153 -1 116 193 -7 30 "Dapaa"
158 173 142 -1 118 7 -7 30 "Dpppa"
160 175 154 -1 212 -37 -7 34 "ABprappapa"
161 20 11 -1 -158 109 -6 30 "ABalappaap"
162 177 505 -1 -112 211 -6 26 "ABalapaappp"
163 178 156 -1 -100 45 -6 30 "ABarpapaapa"
165 189 160 -1 -22 115 -6 26 "MSaaapapa"
166 171 150 -1 0 -29 -6 34 "ABarpapppa"
167 191 151 -1 34 131 -6 30 "MSaaapapp"
168 187 178 -1 60 183 -6 30 "Daaaa"
169 21 152 -1 90 111 -6 38 "Ealaa"
170 194 155 -1 -148 67 -5 26 "ABalapppaap"
172 169 158 -1 -56 83 -5 34 "MSpaaaapa"
173 18 149 -1 -42 183 -5 34 "ABplaapapa"
174 184 167 -1 -32 235 -5 30 "ABplpaapapa"
175 190 170 -1 -6 73 -5 34 "MSpaaappa"
176 185 16 -1 36 61 -5 30 "MSpaaappp"
178 25 174 -1 174 -51 -5 30 "ABarppppap"
179 17 17 -1 274 147 -5 34 "Capppa"
180 180 169 -1 2 245 -4 30 "ABplaappaa"
181 186 161 -1 32 249 -4 30 "ABplaappap"
182 79 171 -1 100 -27 -4 30 "ABprapaaapa"
183 206 172 -1 130 -57 -4 30 "ABarppppaa"
185 515 192 -1 -112 -3 -3 30 "ABpraapaapa"
186 182 538 -1 -76 -15 -3 30 "ABpraapaapp"
187 183 168 -1 -22 -7 -3 30 "ABpraapappp"
188 216 184 -1 78 213 -3 30 "Daapa"
189 218 185 -1 86 169 -3 26 "MSappaaa"
190 219 206 -1 152 197 -3 34 "Capaaa"
191 181 173 -1 164 -1 -3 30 "Dpppp"
192 201 164 -1 210 -1 -3 38 "Cpppaa"
193 208 179 -1 216 191 -3 34 "Capapa"
194 27 189 -1 248 229 -3 30 "ABplapapap"
195 23 190 -1 268 37 -3 34 "Cppppa"
196 196 207 -1 -112 25 -2 22 "ABalappppap"
197 210 195 -1 -68 207 -2 30 "ABalppppaav"
199 214 202 -1 34 187 -2 30 "MSapppaa"
202 33 214 -1 252 177 -2 30 "Cappap"
203 28 191 -1 302 99 -2 46 "Cpapap"
204 221 193 -1 -98 83 -1 34 "ABaraappaa"
205 203 208 -1 -68 27 -1 30 "MSppappa"
207 225 203 -1 46 99 -1 30 "MSaaappa"
208 215 210 -1 64 49 -1 26 "MSpppapa"
209 205 204 -1 72 -29 -1 30 "ABprapaaapp"
210 200 582 -1 190 243 -1 34 "ABplappaap"
211 209 175 -1 244 -23 -1 26 "ABarpppppa"
213 233 21 -1 -84 121 0 26 "ABaraapaaap"
214 234 194 -1 -76 161 0 30 "MSapaaap"
215 224 196 -1 -42 185 0 30 "ABalpppppaa"
216 228 19 -1 -40 119 0 32 "ABaraapaapp"
217 223 216 -1 -36 63 0 38 "ABaraappapp"
218 230 199 -1 -8 45 0 30 "MSpaapaa"
219 212 201 -1 2 5 0 38 "ABpraaapppa"
220 236 200 -1 8 125 0 34 "ABaraapapap"
221 237 209 -1 34 15 0 30 "MSppppap"
222 231 219 -1 40 143 0 26 "MSaapaapa"
223 217 211 -1 76 261 0 26 "ABplppaaap"
224 239 212 -1 88 7 0 26 "Dpaap"
226 222 215 -1 -56 -29 1 30 "ABpraapappa"
227 211 542 -1 -52 5 1 38 "ABpraapapap"
228 31 63 -1 160 -23 1 34 "Dppap"
229 32 23 -1 176 139 1 38 "Ealpp"
231 563 235 -1 -120 7 2 30 "ABalappappp"
232 233 229 -1 -114 119 2 26 "ABaraapaaaa"
233 241 223 -1 -104 215 2 30 "ABalpppaap"
234 235 224 -1 -68 85 2 30 "ABaraappapa"
235 243 230 -1 -2 245 2 30 "ABplpaapppa"
236 264 31 -1 -160 39 3 26 "ABalappappa"
237 266 225 -1 -46 233 3 26 "ABalpppapav"
238 249 217 -1 -22 247 3 30 "ABplpaapapp"
239 253 226 -1 -10 171 3 26 "MSapapaa"
240 244 26 -1 16 -29 3 34 "ABpraaapppp"
242 250 247 -1 308 117 3 30 "Cpapaa"
243 251 233 -1 -154 97 4 26 "ABalapppaaa"
244 240 222 -1 -152 135 4 34 "ABalaaapar"
245 252 32 -1 -88 47 4 30 "MSppaaap"
246 242 238 -1 -50 11 4 30 "ABpraapapaa"
249 258 228 -1 104 221 4 30 "Daapp"
250 276 257 -1 -140 177 5 26 "ABalaaapal"
252 265 241 -1 -80 187 5 26 "ABalppppaad"
253 81 243 -1 -40 199 5 30 "ABplpaapaa"
254 267 250 -1 -18 1 5 26 "ABpraaappap"
257 565 29 -1 72 205 5 26 "MSappapp"
262 271 265 -1 242 235 5 34 "ABplapappa"
263 254 251 -1 14 -31 6 30 "ABprpaappap"
264 272 248 -1 -36 83 7 30 "ABaraaapapa"
265 280 249 -1 -24 141 7 30 "ABalpaapapp"
266 256 245 -1 74 139 7 30 "MSaapapa"
267 275 30 -1 152 181 7 30 "MSappaap"
268 278 258 -1 -86 131 8 30 "ABalpaapaap"
269 279 242 -1 -58 133 8 30 "ABalpaapapa"
270 290 287 -1 -54 17 8 26 "ABpraaappaa"
271 291 269 -1 -14 29 8 30 "MSppapaa"
272 281 280 -1 -14 63 8 26 "ABaraapppaa"
273 293 260 -1 18 229 8 30 "ABplpaaappp"
274 283 263 -1 120 -5 8 34 "Dppaa"
275 298 270 -1 124 205 8 30 "MSaapppa"
277 287 276 -1 -120 11 9 26 "ABalaappppp"
278 277 277 -1 -122 165 9 30 "ABalppaaaa"
279 309 296 -1 -114 97 9 26 "ABaraaapaaa"
280 44 278 -1 -110 129 9 26 "ABalpaapaaa"
281 288 266 -1 -100 215 9 30 "ABalpppaaa"
282 303 39 -1 -90 87 9 30 "ABaraaapaap"
283 266 267 -1 -74 215 9 26 "ABalpppapad"
284 311 279 -1 -16 215 9 26 "ABplpaaaaap"
285 45 282 -1 34 91 9 34 "ABaraapppp"
286 296 290 -1 92 -45 9 30 "ABprapaapa"
287 299 271 -1 156 -51 9 30 "ABprapaapp"
288 525 566 -1 258 29 9 30 "Cpppap"
289 328 38 -1 -150 143 10 26 "ABalaaaarl"
290 310 284 -1 -94 -1 10 26 "ABpraaaappa"
291 317 302 -1 12 95 10 30 "ABarapaappp"
292 42 291 -1 118 63 10 38 "Earpa"
293 297 35 -1 120 -51 10 30 "ABpraapppp"
294 302 274 -1 294 17 10 30 "ABarpppppp"
295 48 40 -1 306 109 10 34 "Cpappd"
296 322 307 -1 -152 77 11 34 "ABalaaappl"
297 314 308 -1 -78 27 11 34 "ABpraaapaa"
298 315 286 -1 -66 69 11 26 "ABaraaapapp"
299 289 285 -1 -62 -23 11 30 "ABpraaaappp"
301 306 300 -1 -6 1 11 26 "ABprpaappaa"
302 526 585 -1 10 137 11 30 "MSaapaaaa"
303 295 283 -1 72 31 11 34 "MSpppaaa"
304 43 292 -1 164 239 11 38 "ABplppapap"
305 307 306 -1 210 -39 11 30 "ABprappaap"
306 323 294 -1 -134 33 12 30 "ABalaappppa"
307 308 293 -1 -136 113 12 30 "ABaraaaapa"
308 52 298 -1 -66 173 12 30 "MSapaaaa"
309 331 311 -1 -28 123 12 34 "ABalpaaapp"
310 318 301 -1 10 193 12 22 "MSapaapa"
311 312 313 -1 34 165 12 26 "MSaapaaap"
312 319 314 -1 34 1 12 26 "MSppppaa"
313 324 315 -1 46 139 12 26 "MSaapappa"
314 320 303 -1 60 63 12 26 "MSpapaapa"
315 345 317 -1 88 249 12 30 "ABplpaaaapp"
316 527 327 -1 162 63 12 34 "Z2"
317 46 329 -1 236 -29 12 30 "ABprappapp"
318 327 333 -1 256 223 12 34 "ABplappppa"
319 330 309 -1 -52 201 13 30 "ABplpaaaaaa"
320 316 339 -1 12 -41 13 26 "ABpraappaa"
321 333 316 -1 58 253 13 30 "ABplpaaaapa"
322 325 323 -1 80 -5 13 30 "Dpapa"
323 313 324 -1 86 77 13 30 "MSpapapa"
324 335 304 -1 92 221 13 30 "ABplppaapa"
325 347 305 -1 164 25 13 30 "MSpppaap"
326 326 328 -1 220 125 13 38 "Eplpp"
327 83 334 -1 260 -15 13 34 "ABprapapap"
328 547 319 -1 260 153 13 34 "Capppp"
329 339 337 -1 -94 123 14 30 "ABaraaaaaa"
330 329 310 -1 -58 137 14 38 "ABalpaaapa"
331 55 41 -1 -42 77 14 34 "ABarapaapa"
332 332 338 -1 -10 163 14 34 "ABalpapppa"
333 496 322 340 34 217 14 34 "ABplpapaap"
334 334 325 -1 96 143 14 30 "MSaapappp"
335 346 330 -1 128 231 14 30 "ABplppappa"
336 338 336 -1 -108 37 15 30 "ABalaapppa"
337 341 320 372 -32 21 15 30 "ABprpaapaa"
338 344 -1 -1 58 -45 15 34 "ABprppaaap"
339 57 343 -1 250 191 15 42 "ABplapppap"
340 60 344 -1 268 85 15 38 "Cppppp"
341 59 345 -1 -138 167 16 34 "ABalaaaala"
342 349 346 -1 -98 -1 16 30 "ABpraaaaap"
343 357 347 -1 -84 93 16 34 "ABaraaaaap"
345 343 351 -1 26 33 16 26 "MSppaapa"
346 360 352 -1 50 91 16 26 "MSpapaaap"
347 361 355 -1 120 103 16 26 "MSpapappp"
348 353 326 -1 134 181 16 30 "MSaapppp"
349 337 331 -1 168 231 16 34 "ABplppappp"
350 354 44 -1 200 187 16 38 "Capapp"
351 363 358 -1 256 31 16 30 "ABprapppaa"
352 356 361 -1 -138 107 17 30 "ABalaaaarr"
353 358 363 -1 -68 189 17 30 "ABalppappaa"
354 351 350 -1 22 95 17 30 "MSpapaaaa"
355 359 353 -1 60 21 17 26 "MSpppapp"
356 361 365 -1 74 103 17 22 "MSpapappa"
357 362 354 -1 118 -1 17 30 "Dpapp"
358 355 359 -1 286 185 17 34 "ABplappppp"
359 380 369 -1 304 151 17 30 "Caappv"
360 368 383 -1 312 111 17 30 "Cpappv"
361 369 360 -1 -136 49 18 34 "ABalaaappr"
362 371 362 -1 -70 139 18 38 "ABalpaaaap"
363 365 586 -1 -60 55 18 30 "MSppaaaa"
364 366 371 -1 -56 -9 18 30 "ABpraaaapa"
365 383 364 -1 -36 127 18 26 "ABalpappaaa"
366 85 592 -1 -8 -35 18 30 "ABprpaapppa"
368 61 357 -1 198 21 18 34 "Cppaap"
369 370 370 -1 -118 145 19 26 "ABalpaapppa"
370 374 373 -1 -32 193 19 26 "ABalppappap"
371 384 375 -1 -26 149 19 30 "ABalpappaap"
372 375 47 -1 10 65 19 34 "ABarapappa"
373 62 386 -1 18 -31 19 30 "ABprpaapppp"
374 377 377 -1 32 141 19 34 "ABalpappppp"
375 387 380 -1 72 53 19 30 "MSppaapp"
376 378 389 -1 80 137 19 26 "MSaappaa"
377 388 366 -1 104 205 19 30 "ABplpapapap"
378 389 367 -1 108 145 19 30 "MSaappap"
379 391 381 -1 162 165 19 26 "MSpappaa"
382 381 393 -1 -144 79 20 30 "ABalaapaaa"
383 566 395 -1 -114 19 20 26 "ABalaappaa"
384 385 523 -1 -6 213 20 26 "ABalppapppa"
385 403 376 -1 14 239 20 30 "ABalppapppp"
386 376 397 -1 36 1 20 30 "ABprppaaaaa"
387 405 405 -1 180 109 20 26 "ABprpappppa"
388 379 407 -1 210 213 20 26 "ABplpppaapa"
389 379 400 -1 244 207 20 30 "ABplpppaapp"
390 397 384 -1 -84 37 21 26 "ABarappppaa"
391 398 396 -1 -62 101 21 30 "ABarapaaaa"
392 373 385 -1 -28 89 21 30 "ABarapapaa"
393 401 48 -1 -4 17 21 26 "ABprpaaaaap"
394 386 64 -1 22 189 21 34 "ABplpapaaa"
395 412 416 -1 42 105 21 34 "ABarapapppp"
396 404 387 -1 62 199 21 26 "ABplpapapaa"
397 390 398 -1 150 95 21 26 "MSpappap"
398 392 391 -1 192 219 21 26 "ABplpppaaap"
399 406 399 -1 216 95 21 34 "ABprpppppa"
400 506 49 -1 218 51 21 34 "Cppapp"
401 65 411 -1 -76 191 22 26 "ABalppapaaa"
402 410 403 -1 -52 151 22 30 "ABalpaaaaa"
403 399 412 -1 -46 21 22 26 "ABprpaaaaaa"
404 88 390 -1 128 211 22 34 "ABplppaapp"
405 392 404 -1 158 203 22 26 "ABplpppaaaa"
406 414 524 -1 158 51 22 34 "MSpapppp"
407 407 51 -1 262 61 22 30 "ABprapppap"
408 394 409 -1 274 175 22 30 "ABplpppapp"
409 423 418 -1 288 147 22 30 "ABplppppppp"
410 408 427 -1 296 73 22 30 "ABprappppp"
411 67 420 -1 -74 3 23 34 "ABpraaaaaa"
412 417 421 -1 -18 -13 23 34 "ABprpaaapa"
413 418 522 -1 90 173 23 26 "ABplpappap"
414 420 425 -1 146 -13 23 26 "ABprppapaap"
415 425 440 -1 -40 45 24 26 "ABarappppap"
416 65 52 -1 -34 187 24 26 "ABalppapaap"
417 442 429 -1 22 221 24 30 "ABalppapapp"
418 68 430 -1 32 59 24 34 "ABprpapaaa"
419 426 432 -1 78 85 24 26 "ABprpapppaa"
420 427 548 -1 104 185 24 26 "ABplpapappa"
421 419 433 -1 112 -35 24 30 "ABprppapaaa"
422 432 434 -1 122 105 24 26 "ABprpapppap"
423 421 525 -1 218 131 24 26 "ABprpappppp"
424 422 437 -1 272 23 24 30 "ABprappppa"
425 424 438 -1 292 115 24 30 "ABprpppppp"
426 416 439 -1 -92 167 25 26 "ABalpaapppp"
427 69 452 -1 4 147 25 30 "ABalpappapa"
428 430 415 -1 46 145 25 30 "ABalpappapp"
429 431 443 -1 70 47 25 26 "ABprpapapaa"
430 434 435 -1 124 141 25 26 "ABplpapppaa"
431 445 53 -1 138 157 25 26 "ABplpapappp"
432 454 436 -1 222 187 25 26 "ABplpppapaa"
434 449 457 -1 252 167 25 26 "ABplppppppa"
435 451 441 -1 -18 201 26 26 "ABalppapapa"
436 440 461 -1 0 103 26 30 "ABarapapapa"
437 441 453 -1 26 -19 26 26 "ABprpaaappp"
438 444 444 -1 80 145 26 30 "ABplpappaap"
439 463 454 -1 102 57 26 26 "ABprpapapap"
440 446 445 -1 142 189 26 26 "ABplppppaaa"
441 433 464 -1 146 15 26 34 "ABprppappa"
442 435 448 -1 194 199 26 30 "ABplppppapa"
443 457 459 -1 -62 155 27 30 "ABalpapaaaa"
444 439 450 -1 -20 171 27 30 "ABalpapaaap"
445 452 451 -1 -12 35 27 22 "ABarapppppa"
446 458 460 -1 -4 63 27 22 "ABarapppapp"
447 443 442 -1 48 203 27 30 "ABalpapapap"
448 464 455 -1 122 57 27 26 "ABprpapappa"
449 453 473 -1 154 51 27 34 "ABprppaapp"
450 447 446 -1 166 169 27 26 "ABplppppaap"
451 448 447 -1 180 133 27 30 "ABplpapppp"
452 89 475 492 206 51 27 38 "ABprpppaaa"
453 70 456 -1 230 153 27 30 "ABplpppapap"
454 455 477 -1 -78 83 28 26 "ABaraaapppp"
455 471 478 -1 -38 13 28 30 "ABalaapapp"
456 459 470 -1 -2 -1 28 30 "ABprpaaappa"
457 472 462 -1 14 191 28 30 "ABalpapapaa"
458 460 471 -1 32 117 28 30 "ABarapapapp"
459 474 472 -1 46 161 28 30 "ABplpappaaa"
460 465 484 -1 132 89 28 26 "ABprpapappp"
461 434 474 -1 156 115 28 26 "ABplpapppap"
462 466 465 -1 166 79 28 26 "ABprppppaaa"
463 467 466 -1 196 99 28 26 "ABprppppaap"
464 468 56 -1 202 155 28 26 "ABplppppapp"
465 71 494 -1 252 121 28 34 "ABprpppapap"
466 470 469 -1 -66 51 29 34 "ABarapppaa"
467 458 487 -1 -38 55 29 26 "ABarapppapa"
468 461 481 -1 86 -11 29 30 "ABprpaaaapp"
469 462 483 -1 108 13 29 30 "ABarappappp"
470 481 485 -1 240 79 29 26 "ABprpppapaa"
471 469 476 -1 246 47 29 34 "ABprpppaap"
472 477 480 -1 -22 137 30 38 "ABalpapaap"
473 479 488 -1 16 21 30 26 "ABarapppppp"
474 473 490 -1 52 -5 30 30 "ABprpaaaapa"
475 480 58 -1 88 79 30 30 "ABprpappapa"
477 73 491 -1 200 75 30 26 "ABprppppapa"
478 74 479 -1 -36 91 31 34 "ABarappaaa"
479 531 489 -1 14 91 31 34 "ABarappaap"
480 483 495 -1 20 157 31 30 "ABprpappaaa"
481 484 551 -1 52 67 31 30 "ABarappapap"
482 72 57 -1 62 111 31 30 "ABprpappaap"
483 475 496 -1 64 27 31 30 "ABarappappa"
484 485 493 -1 222 109 31 26 "ABprppppapp"
487 535 111 -1 -94 63 -15 26 "ABalapppapp"
489 489 503 -1 -112 7 -7 34 "ABalapppppa"
492 197 565 -1 50 95 -4 30 "MSaaappp"
494 34 218 -1 6 79 0 26 "MSpaapapa"
495 550 237 -1 -92 -1 5 34 "ABpraaapap"
497 257 253 -1 82 75 7 34 "MSpapaapp"
499 493 514 -1 14 193 8 26 "MSapapap"
500 321 517 -1 80 177 11 30 "MSapaapp"
502 51 43 -1 -116 195 12 26 "ABalppaaap"
504 47 42 -1 302 145 12 30 "Caappd"
505 342 321 -1 -10 69 13 30 "ABarapaappa"
507 402 589 -1 -2 159 19 30 "ABalpappppa"
511 29 188 -1 210 119 0 34 "Eplap"
512 63 45 -1 110 43 20 38 "MSpapppa"
515 121 96 -1 208 61 -16 34 "Caaaap"
521 172 162 -1 84 63 -7 34 "Earaa"
522 195 166 -1 -142 169 -3 34 "ABalapaaaa"
523 198 163 -1 126 113 -3 38 "Ealap"
524 213 183 -1 8 217 -1 30 "ABplpaappaa"
527 284 62 -1 224 127 8 38 "Eplpa"
528 286 275 -1 -132 61 9 34 "ABalappapa"
532 411 422 -1 6 103 22 30 "ABarapapppa"
541 502 55 -1 204 11 28 22 "ABprppappp"
546 229 197 -1 -16 148 1 30 "ABaraapapaa"
549 120 59 -1 118 57 -16 34 "Caaaaa"
555 553 571 -1 288 105 -9 36 "Caaapp"
556 554 572 -1 262 82 -16 36 "Caaapa"
557 393 573 -1 261 130 20 37 "Caapa"
558 555 574 -1 285 86 -12 36 "Cpaapp"
559 556 515 -1 -103 187 8 33 "ABalapaapa"
560 557 575 -1 -141 67 -11 28 "ABalapppapa"
561 136 576 -1 -138 117 -12 27 "ABalapapapa"
562 396 410 -1 -108 89 21 24 "ABaraaapppa"
563 558 560 -1 -104 27 22 34 "ABalaappap"
564 559 577 -1 -132 145 -6 29 "ABalapappaa"
566 561 579 -1 -91 117 -17 26 "ABalapapapp"
567 478 580 -1 13 56 30 27 "ABarappapaa"
568 227 581 -1 -68 127 0 26 "ABaraapaapa"
569 202 583 -1 283 206 -4 34 "ABarppappp"
570 168 584 -1 -58 126 -8 26 "MSaaapaaa"
571 562 587 -1 39 73 1 28 "MSpaapapp"
572 564 144 -1 -74 193 -7 28 "ABalpppappa"
573 49 519 -1 39 -41 13 33 "ABpraappap"
574 82 591 -1 58 -42 8 37 "ABpraapppa"
