1 2 83 -1 -18 81 -21 38 "ABarpaapap"
2 79 1 -1 152 91 -20 42 "Cpaaap"
3 91 100 -1 -74 143 -16 30 "ABplaaaaapp"
4 120 147 -1 -30 239 -12 34 "ABplaaapap"
5 7 13 -1 148 69 -7 42 "Epraa"
6 140 154 -1 154 -3 -10 38 "Dpppp"
7 8 8 -1 314 115 -10 34 "Cpapap"
8 147 160 -1 62 19 -9 30 "MSpppppp"
9 138 11 -1 42 115 -8 30 "MSaaaappp"
11 163 177 -1 -42 -23 -6 38 "ABarpapppa"
12 169 190 -1 106 -35 -6 30 "ABarpppapp"
13 14 198 -1 -30 147 -5 34 "ABaraapaapp"
14 9 12 -1 92 119 -4 46 "Ealaa"
16 632 183 -1 194 117 -5 34 "Ealpp"
17 191 555 -1 6 7 -4 30 "MSppppap"
18 12 19 -1 130 111 -2 34 "Ealap"
19 234 590 -1 126 61 0 42 "Earap"
20 17 224 -1 270 169 0 42 "Cappap"
21 20 215 -1 -118 121 0 34 "MSaaaaaa"
22 225 232 -1 -26 195 1 30 "ABalpppppaa"
23 244 248 -1 14 85 3 30 "MSpaapapa"
24 254 251 -1 194 177 2 30 "MSappaap"
25 25 25 -1 304 133 1 34 "Cpapaa"
26 248 20 -1 -160 75 2 34 "ABalappppaa"
27 27 30 -1 222 77 6 46 "Eprpa"
28 26 31 -1 228 127 7 42 "Eplpa"
29 274 299 -1 46 3 5 34 "Dpaaa"
30 28 72 -1 94 203 6 34 "Daapp"
31 30 573 -1 124 115 8 42 "Ealpa"
32 42 39 -1 312 89 11 38 "Caappd"
33 41 42 -1 198 93 13 42 "Eprpp"
35 37 47 -1 -12 209 13 34 "ABplpaaappa"
36 584 425 -1 42 -23 19 38 "ABpraapppa"
37 475 430 -1 226 35 20 30 "Cppapp"
38 586 58 -1 -16 143 20 34 "ABalpappppa"
39 670 465 -1 26 -15 24 30 "ABpraappap"
40 495 492 -1 146 131 26 26 "ABplpapppaa"
41 497 479 -1 168 159 26 30 "ABplppppaaa"
42 512 513 -1 232 143 26 30 "ABplpppapap"
43 51 69 -1 254 133 29 46 "ABprpppapap"
44 81 87 -1 -68 107 -20 30 "ABplaaaapa"
45 75 99 -1 176 205 -20 38 "ABplappapa"
47 226 235 -1 46 159 0 34 "MSaapaapa"
48 34 301 -1 172 153 10 34 "Z3"
49 300 305 -1 -162 107 8 34 "ABalaaaarrp"
50 64 368 -1 6 39 17 42 "MSppapap"
51 352 386 -1 186 -25 16 34 "ABprappaap"
52 511 493 -1 200 99 23 38 "ABprppppaap"
53 460 444 -1 266 57 21 38 "ABprapppapp"
54 588 67 -1 58 189 25 34 "ABalpapapap"
55 68 79 -1 -94 95 -23 30 "ABarpaaapa"
56 71 88 -1 14 173 -22 30 "ABarppaaap"
59 69 86 -1 -98 75 -20 38 "ABarpapapa"
60 77 81 -1 -64 67 -20 30 "ABarpaapaa"
61 70 82 -1 -42 115 -20 34 "ABplaaaapp"
62 1 84 -1 8 65 -20 34 "ABarpaappa"
63 73 85 -1 60 81 -20 38 "ABarppaapa"
64 80 2 -1 -100 117 -19 26 "ABarpaaaapp"
65 76 94 -1 -72 191 -19 34 "ABplaaapaa"
66 92 101 -1 -32 169 -19 30 "MSapappa"
67 78 96 -1 -20 213 -19 38 "ABplaaappa"
68 3 546 -1 16 217 -19 34 "ABplaaappp"
69 93 90 -1 28 129 -19 34 "MSappppa"
70 83 91 -1 38 173 -19 34 "ABplapaaaap"
71 72 97 -1 56 221 -19 30 "ABarppaaaa"
72 4 92 -1 68 11 -19 34 "ABarpppapa"
73 84 89 -1 98 95 -19 38 "Caaaaa"
74 98 98 -1 180 141 -19 38 "Dappp"
78 82 95 -1 -46 27 -18 34 "ABarpapapp"
79 74 104 -1 88 215 -18 30 "ABarppapaa"
80 97 5 -1 126 153 -18 38 "Dappa"
81 86 106 -1 138 219 -18 34 "ABarppapap"
82 87 107 -1 218 203 -18 30 "ABarppappa"
83 89 93 -1 -130 101 -17 34 "ABarpaaaapa"
84 101 4 -1 34 27 -17 34 "ABarpaappp"
85 96 105 -1 110 191 -17 30 "ABarppaapp"
86 100 113 -1 14 5 -16 30 "ABarpppaaa"
87 94 124 -1 36 197 -16 26 "ABplapaaaaa"
88 95 103 -1 74 139 -16 30 "MSappppp"
89 102 3 -1 218 83 -16 34 "Cpaapa"
90 88 115 -1 -142 153 -15 30 "ABplaapaapp"
91 6 125 -1 -114 195 -15 38 "ABplaapaaaa"
92 90 108 -1 -110 143 -15 46 "ABplaaaaaa"
93 99 102 -1 -22 141 -15 30 "MSapappp"
94 107 130 -1 260 197 -15 34 "ABplapapaa"
95 117 111 -1 -142 105 -14 30 "ABarpaaaaal"
96 103 112 -1 -126 85 -14 26 "ABarpaaappa"
97 104 116 -1 -94 53 -14 26 "ABarpaaappp"
98 105 119 -1 -32 89 -14 30 "MSaaaapaa"
99 570 117 -1 -96 115 -13 26 "ABalapapapp"
100 5 126 -1 -82 171 -13 22 "ABalapapppp"
101 109 141 -1 -48 189 -13 30 "ABplaapappa"
102 121 121 -1 -4 83 -13 34 "MSaaaapap"
103 131 7 -1 38 81 -13 30 "MSpaaapa"
104 111 6 -1 186 175 -13 30 "Cappaaa"
105 119 132 -1 -128 131 -12 22 "ABalapapaa"
106 114 133 -1 -80 203 -12 30 "ABplaapaaap"
107 122 122 -1 8 105 -12 26 "MSaaaappa"
108 116 123 -1 32 151 -12 30 "MSapppap"
109 123 128 -1 70 101 -12 30 "MSaaappp"
110 124 129 -1 76 171 -12 30 "Daaap"
111 139 137 -1 100 7 -12 34 "Dpppa"
112 110 138 -1 152 185 -12 30 "Dapap"
113 112 110 -1 234 141 -12 30 "Cappaap"
114 118 145 -1 -134 191 -11 30 "ABalapaaapp"
115 113 140 -1 -118 167 -11 22 "ABalapapppa"
116 127 9 -1 -56 33 -11 34 "MSppappp"
117 128 127 -1 -48 111 -11 30 "MSaaaaapp"
118 129 142 -1 -18 133 -11 30 "MSaaapaap"
119 132 150 -1 56 203 -11 34 "ABplapaaapa"
120 133 151 -1 82 229 -11 34 "ABplapaaapp"
122 141 143 -1 204 181 -11 26 "Capapaa"
123 135 156 686 -126 43 -10 30 "ABarpapaaa"
124 144 644 -1 -56 71 -10 34 "MSpaaaaa"
125 130 135 -1 -6 31 -10 30 "MSpppppa"
127 117 155 -1 -152 87 -9 30 "ABarpaaaaar"
128 151 645 -1 -120 115 -9 42 "ABalapapapa"
129 152 165 -1 -106 203 -9 26 "ABalppppapp"
130 571 551 -1 -96 65 -9 26 "ABalapppapp"
132 137 149 -1 22 217 -9 26 "ABalppppppa"
134 149 144 -1 210 11 -9 30 "Cpppaap"
135 126 153 -1 -140 151 -8 26 "ABalapappap"
136 143 173 -1 -100 1 -8 30 "ABarpappaa"
137 189 176 -1 -52 25 -8 38 "MSppappa"
138 145 10 -1 -2 -29 -8 34 "ABarpapppp"
139 136 148 -1 10 183 -8 30 "MSapapaa"
140 146 169 -1 26 -5 -8 30 "ABprapaaaaa"
141 134 164 -1 -168 135 -7 30 "ABplaapaapa"
144 154 157 -1 -80 107 -7 30 "MSaaaaapa"
145 164 167 -1 -42 185 -7 26 "ABplaapapaa"
146 190 158 -1 -24 69 -7 30 "MSpaaaapp"
147 155 159 -1 -16 203 -7 30 "ABplaapapap"
148 167 180 -1 48 -41 -7 26 "ABarpppaap"
149 150 152 193 278 135 -7 34 "Capppa"
150 142 171 -1 -154 35 -6 30 "ABpraapaaap"
151 165 199 -1 0 85 -6 30 "MSpaaappa"
152 166 168 -1 4 119 -6 26 "MSaaapapa"
153 175 187 -1 6 243 -6 34 "ABalppppppp"
154 184 170 -1 68 167 -6 30 "MSappaaa"
155 170 201 -1 130 245 -6 30 "ABplapaapp"
156 171 181 -1 132 203 -6 26 "Capaaaa"
157 187 211 -1 176 -47 -6 30 "ABprappapa"
158 178 182 -1 180 203 -6 26 "Capaaap"
159 11 17 -1 218 241 -6 34 "ABplappapp"
160 172 162 -1 248 181 -6 26 "Capapap"
161 179 192 -1 276 211 -6 30 "ABarppappp"
162 158 194 -1 -166 67 -5 30 "ABpraapaaaa"
164 221 196 -1 -94 221 -5 30 "ABalpppaapv"
167 162 175 -1 -66 205 -5 30 "ABalpppappp"
170 156 179 -1 26 151 -5 34 "ABaraapapap"
171 192 188 -1 46 63 -5 34 "MSpaaappp"
172 176 205 -1 46 231 -5 30 "ABplpaappap"
173 183 206 -1 54 193 -5 26 "Daaaa"
174 185 208 -1 102 209 -5 30 "Dapaa"
175 201 202 -1 156 231 -5 30 "ABplappaaa"
176 173 184 -1 -154 185 -4 30 "ABalapaaapa"
177 181 195 -1 -124 167 -4 34 "ABalapaaaa"
178 153 203 -1 -88 43 -4 30 "ABarpapaapp"
180 182 186 -1 6 161 -4 34 "ABaraapapaa"
181 629 238 -1 94 247 -4 30 "ABplaapppp"
183 18 212 -1 174 -13 -4 30 "Cpppaaa"
184 194 214 669 258 41 -4 30 "Cppppa"
185 195 660 -1 -112 193 -3 34 "ABalapaappp"
186 213 218 -1 80 29 -3 26 "MSpppapa"
187 200 209 -1 134 -19 -3 26 "Dppap"
188 203 213 -1 210 75 -3 38 "Eprap"
189 180 18 -1 -146 149 -2 26 "ABalapappaa"
190 205 229 -1 -66 -23 -2 30 "ABarpappap"
191 13 230 -1 -60 245 -2 34 "ABplpaapapa"
192 211 178 -1 10 27 -2 30 "MSpppaaa"
193 209 204 -1 24 53 -2 26 "MSpaapaap"
195 228 600 -1 218 203 -2 34 "Capaap"
197 217 225 -1 298 201 -2 26 "ABplapapppa"
198 230 226 -1 -136 13 -1 30 "ABpraapaapa"
199 638 557 -1 -124 41 -1 26 "ABalapppppa"
200 231 216 -1 -92 119 -1 30 "ABaraapaaap"
201 232 220 -1 -66 135 -1 34 "ABaraapaapa"
202 206 221 -1 -50 207 -1 26 "ABalppppaav"
203 207 231 -1 -36 -5 -1 34 "ABpraapappp"
204 209 217 -1 -10 61 -1 26 "MSpaapaaa"
205 208 233 -1 6 221 -1 34 "ABplpaappaa"
206 210 234 -1 20 -37 -1 26 "ABprapaaaap"
208 212 207 -1 56 9 -1 26 "Dpaap"
211 19 242 -1 220 3 -1 38 "Cppapa"
212 215 241 -1 216 -39 -1 30 "ABarpppppa"
213 216 244 -1 246 235 -1 30 "ABplapapap"
214 220 227 -1 -102 -1 0 34 "ABpraapaapp"
215 222 219 -1 -90 159 0 30 "MSapaaap"
216 223 228 -1 -70 11 0 26 "ABpraapappa"
217 233 236 -1 58 -23 0 30 "ABprapaaapp"
218 214 237 -1 84 -57 0 26 "ABarppppaa"
219 23 210 -1 178 51 0 34 "Earpp"
220 235 250 -1 184 233 0 34 "ABplappaap"
221 21 21 -1 264 -13 0 38 "ABprapapaa"
222 250 559 -1 -80 85 1 30 "ABaraappaap"
225 242 247 -1 -26 53 1 34 "ABaraappapp"
226 22 564 -1 6 -15 1 30 "ABpraaapppa"
227 227 24 -1 130 -55 1 30 "ABarppppap"
228 229 253 -1 -168 129 2 26 "ABalaaaparl"
229 256 26 -1 -102 91 2 26 "ABaraappaaa"
231 238 245 -1 -80 203 2 22 "ABalapaapap"
232 251 262 -1 -34 7 2 34 "ABpraapapap"
233 243 23 -1 -18 151 2 38 "ABalpaapapp"
234 253 264 -1 90 -33 2 26 "ABprapaaapa"
238 237 260 -1 -116 181 3 30 "ABalapaappa"
239 221 268 -1 -104 217 3 26 "ABalpppaapd"
240 241 261 -1 -34 223 3 26 "ABplpaapaap"
241 252 263 -1 18 167 3 30 "ABaraapappa"
242 245 27 -1 22 207 3 30 "MSapppaa"
243 24 71 -1 84 129 3 30 "MSaapaapp"
244 273 571 -1 -56 189 4 30 "ABplpaapaaa"
245 258 282 -1 -32 245 4 26 "ABplpaapapp"
246 265 257 -1 20 127 4 30 "ABaraapappp"
247 268 605 -1 58 149 4 30 "MSaapappa"
248 259 271 -1 64 211 4 30 "Daapa"
249 603 335 -1 82 249 4 30 "ABplapaapa"
250 260 272 -1 124 205 4 30 "MSaapppa"
252 287 285 -1 250 19 4 30 "Cpppapa"
253 279 29 -1 294 63 4 30 "Cpappd"
254 236 259 -1 -148 163 5 30 "ABalaaaparr"
255 271 280 -1 -106 113 5 30 "ABaraapaaaa"
257 272 275 -1 -62 27 5 26 "ABpraapapaa"
258 58 269 -1 -14 191 5 34 "MSapapap"
259 296 279 -1 84 55 5 38 "MSpapaapp"
260 299 284 -1 122 69 5 38 "Earpa"
261 277 265 -1 154 191 5 30 "MSaapppp"
262 269 286 -1 264 203 5 30 "ABplapppaa"
264 288 35 -1 296 175 5 34 "ABplapapppp"
265 289 304 -1 -166 69 6 30 "ABalappappa"
266 281 273 -1 -132 61 6 30 "ABalappapa"
267 282 308 -1 -124 -3 6 30 "ABpraaapapp"
268 283 274 -1 -88 53 6 26 "MSppaaap"
270 295 277 -1 32 53 6 30 "ABaraapppap"
271 286 278 -1 44 93 6 26 "ABaraappppp"
272 297 289 -1 82 157 6 34 "MSaapapa"
273 290 306 -1 -144 137 7 30 "ABalaaaarlp"
274 607 610 -1 -132 27 7 30 "ABpraaapapa"
275 284 293 -1 -88 135 7 30 "ABalpaapaap"
276 636 33 -1 -20 69 7 30 "ABaraaapapa"
277 293 298 -1 12 -11 7 30 "ABprpaappap"
278 29 34 -1 152 -11 7 38 "Cppaaa"
279 310 309 -1 -78 89 8 30 "ABaraaapaap"
280 311 294 -1 -64 235 8 30 "ABalpppapav"
281 669 659 -1 -26 3 8 30 "ABpraaappap"
282 285 283 -1 -14 127 8 30 "ABalpaaapp"
284 316 296 -1 4 59 8 30 "ABaraapppaa"
285 304 312 -1 102 -3 8 34 "Dppaa"
287 307 303 -1 282 5 8 26 "ABarpppppp"
289 312 -1 -1 -48 115 9 22 "ABalpappaaa"
290 313 295 -1 -22 177 9 22 "MSapaapa"
291 303 318 -1 -16 -31 9 34 "ABpraaapppp"
292 315 297 333 0 159 9 30 "ABalpapppa"
293 292 320 -1 0 251 9 30 "ABplpaapppa"
294 294 323 -1 26 247 9 30 "ABplaappap"
296 305 313 -1 188 217 9 26 "ABplppapapp"
298 325 302 -1 212 175 9 30 "ABplpppppaa"
300 278 314 -1 242 233 9 34 "ABplapappa"
301 57 338 -1 -136 205 10 26 "ABalaaapalr"
302 319 315 -1 -122 125 10 30 "ABaraaaapa"
303 309 331 -1 -122 173 10 26 "ABalaaaala"
304 60 73 -1 -106 -1 10 30 "ABpraaaappa"
305 610 316 -1 -94 137 10 30 "ABalpaapaaa"
307 333 317 -1 -54 19 10 34 "ABpraaappaa"
308 32 74 -1 -42 149 10 30 "ABalpaaapa"
309 320 310 -1 -42 207 10 26 "ABplpaaaaap"
311 317 322 -1 14 97 10 30 "ABarapaappp"
312 321 324 -1 32 167 10 26 "MSaapaaaa"
313 337 325 -1 62 191 10 30 "MSappapp"
314 340 326 -1 140 211 10 30 "ABplppapaap"
315 323 327 -1 160 227 10 26 "ABplppapapa"
316 668 689 -1 -128 29 11 34 "ABalaappppp"
317 336 36 -1 58 51 11 34 "MSpapaapa"
318 318 334 -1 56 153 11 30 "MSaapaaap"
319 322 363 -1 124 221 11 30 "ABplppapaaa"
320 326 337 -1 272 189 11 26 "ABplapppapa"
322 39 329 -1 -166 91 12 30 "ABalaaapplr"
323 328 330 -1 -152 167 12 26 "ABalaaaarla"
324 343 348 -1 -96 97 12 30 "ABaraaapaaa"
325 331 574 -1 -86 11 12 30 "ABpraaapaad"
326 578 589 -1 -64 197 12 30 "ABplpaaaaaa"
327 40 341 -1 -52 73 12 30 "ABarapaapa"
328 33 352 -1 -16 67 12 34 "ABarapaappa"
329 345 45 -1 58 9 12 30 "Dpapa"
330 384 52 -1 86 -39 12 34 "ABpraapppp"
331 351 41 -1 168 49 12 38 "Z2"
332 353 37 -1 212 3 12 34 "Cppaap"
333 341 38 -1 268 53 12 30 "Cpppapp"
334 342 345 -1 292 29 12 26 "ABprapapppa"
335 347 347 -1 -158 69 13 26 "ABalaaapprl"
336 359 349 -1 -76 47 13 26 "ABpraaapaav"
337 332 340 -1 -72 137 13 26 "ABaraaaaaap"
338 334 351 -1 -32 243 13 30 "ABplpaaapap"
339 362 342 -1 -14 -7 13 30 "ABprpaappaa"
340 344 360 -1 24 -3 13 30 "MSppppaa"
341 335 361 -1 50 219 13 30 "ABplppaaaap"
343 369 354 -1 106 101 13 26 "MSpapappp"
344 371 383 -1 126 -37 13 30 "ABprapaapp"
345 373 355 -1 186 187 13 26 "MSpappaa"
346 388 43 -1 230 127 13 42 "Eplpp"
347 356 367 -1 -138 93 14 26 "ABalaapaaa"
348 357 357 -1 -104 37 14 26 "ABalaapppaa"
349 380 579 -1 -102 59 14 26 "ABalaapppap"
350 358 358 -1 -90 183 14 26 "ABalppappaa"
351 61 350 -1 -60 171 14 26 "MSapaaaa"
352 361 76 -1 -36 11 14 34 "ABprpaapaap"
353 364 616 -1 28 203 14 30 "ABplppaaaaa"
354 365 343 -1 40 65 14 30 "ABaraappppa"
355 350 371 -1 88 3 14 26 "Dpapp"
356 367 362 -1 98 75 14 30 "MSpapapa"
357 370 375 -1 114 21 14 34 "MSpapppa"
358 376 364 -1 270 145 14 34 "Capppp"
359 44 377 -1 292 69 14 30 "ABprapapppp"
360 378 346 -1 310 135 14 30 "Cpappv"
361 355 366 -1 -140 137 15 26 "ABalpaapppa"
362 348 50 -1 -116 203 15 30 "ABalppaaapa"
363 360 379 -1 -70 -17 15 30 "ABprpaapapa"
364 43 359 -1 -24 135 15 26 "ABalpappaap"
365 394 369 -1 12 149 15 34 "ABalpappppp"
366 396 370 -1 48 29 15 30 "MSpppapp"
367 397 381 -1 62 89 15 26 "MSpapaaap"
368 382 44 -1 74 75 15 30 "MSpapappa"
369 383 617 -1 80 127 15 26 "MSaappaa"
370 385 382 -1 92 177 15 30 "ABplpapapap"
371 386 374 -1 116 185 15 26 "ABplppappaa"
373 374 48 -1 218 -27 15 30 "ABprappapp"
374 375 54 -1 256 217 15 34 "ABplappppa"
375 403 387 -1 270 27 15 34 "ABprapppaa"
376 390 49 -1 272 93 15 30 "Cppppp"
377 412 389 -1 -144 57 16 30 "ABalaaapprr"
378 392 380 -1 -48 137 16 30 "ABalpaaaapp"
379 368 372 -1 98 215 16 30 "ABplppaapap"
380 398 373 -1 106 131 16 26 "MSaappap"
381 387 384 396 176 211 16 34 "ABplppappp"
382 389 53 -1 248 -17 16 30 "ABprapapap"
383 377 55 -1 296 183 16 34 "ABplappppp"
384 583 388 -1 306 133 16 30 "Caappv"
385 404 365 -1 -156 121 17 26 "ABalaaaarra"
386 415 378 -1 -106 15 17 30 "ABpraaaaap"
387 406 399 -1 -90 105 17 22 "ABaraaaaapa"
388 417 400 -1 -80 145 17 26 "ABalpaaaapa"
390 391 390 -1 -60 45 17 30 "ABprpaapaaa"
391 420 51 -1 0 73 17 34 "ABarapappa"
392 363 75 -1 12 231 17 30 "ABplpaapppp"
394 399 376 -1 142 207 17 26 "ABplppappap"
395 423 407 -1 148 151 17 34 "MSapaapp"
396 400 395 -1 152 -17 17 34 "ABprappaaa"
397 409 418 -1 194 45 17 26 "MSpappap"
398 612 398 -1 -142 163 18 30 "ABalaaaalpa"
399 413 410 -1 -120 115 18 34 "ABaraaappaa"
400 393 618 -1 -50 219 18 26 "ABplpaaapaa"
401 47 411 -1 -40 33 18 30 "ABprpaaaaap"
402 419 412 -1 -36 -17 18 30 "ABprpaapapp"
403 426 57 -1 -26 199 18 34 "ABalppapppa"
404 407 392 -1 -18 101 18 26 "ABarapapaap"
405 428 393 -1 24 99 18 30 "ABarapapppp"
406 408 405 -1 68 201 18 22 "ABplppaapaa"
407 432 580 -1 154 33 18 34 "MSpapppp"
408 424 397 -1 212 159 18 26 "ABplpppppap"
409 411 408 -1 224 63 18 26 "ABprpppppaa"
410 442 619 -1 260 203 18 26 "ABplpppaapp"
413 414 421 -1 -110 181 19 26 "ABalaaaalpp"
414 45 401 -1 -72 77 19 26 "MSppaaaa"
415 418 402 -1 -58 185 19 26 "ABalppappap"
417 425 413 -1 -34 81 19 30 "ABarapapaaa"
418 427 438 -1 -14 -5 19 26 "ABprpaapppa"
419 429 424 -1 34 205 19 26 "ABplpapaapp"
420 422 417 -1 120 215 19 30 "ABplpaaaapp"
421 441 429 -1 204 129 19 30 "ABprpappppp"
422 461 448 -1 -122 111 20 34 "ABaraaapppa"
423 448 422 -1 -96 71 20 26 "ABarappppaa"
424 416 435 -1 -86 205 20 30 "ABalppaaapp"
425 435 450 -1 -58 13 20 30 "ABpraaaapav"
426 436 423 -1 -52 149 20 30 "ABalpaaaaa"
427 666 415 -1 8 193 20 34 "ABplpapaapa"
428 430 416 -1 42 183 20 26 "ABplpapaaap"
429 431 406 -1 72 173 20 26 "ABplpapapaa"
430 454 59 -1 112 103 20 30 "ABprpapppap"
431 456 427 -1 162 73 20 30 "MSppaapp"
432 457 428 -1 182 117 20 30 "ABprpappppa"
433 440 443 -1 194 13 20 26 "ABprppapapp"
434 433 419 -1 204 211 20 26 "ABplpppaaap"
435 459 431 -1 224 95 20 26 "ABprpppppap"
437 443 432 -1 264 5 20 34 "ABprapappa"
440 462 449 -1 -114 137 21 26 "ABalpaappaa"
441 463 462 -1 -106 161 21 26 "ABalpaapppp"
442 465 622 -1 -78 119 21 30 "ABarapaaaaa"
443 62 452 -1 22 33 21 30 "ABprppaaaaa"
444 467 439 -1 56 129 21 34 "ABarapapapp"
446 453 440 -1 90 57 21 30 "ABprpapapap"
447 438 426 -1 108 159 21 26 "ABplpapappa"
448 476 582 -1 236 185 21 26 "ABplpppaapa"
449 444 447 -1 298 111 21 30 "ABprppppppp"
450 445 64 -1 298 151 21 30 "ABplppppppp"
451 449 434 -1 -92 35 22 26 "ABpraaaaaaa"
452 450 436 -1 -64 -9 22 30 "ABpraaaapad"
453 477 437 -1 -62 49 22 34 "ABprpaaaaaa"
454 48 451 -1 -2 229 22 38 "ABalppaappp"
455 478 475 -1 8 11 22 22 "ABprpaapppp"
456 466 464 -1 14 177 22 26 "ABplpapaaaa"
457 50 453 -1 44 21 22 26 "ABprppaaaap"
458 468 466 -1 80 -13 22 30 "ABprapaapa"
459 452 455 -1 88 25 22 26 "ABprppaapap"
460 470 457 -1 114 5 22 26 "ABprppapaaa"
461 472 61 -1 126 179 22 26 "ABplppaappa"
462 471 458 -1 126 45 22 26 "ABprppappaa"
463 455 442 -1 148 185 22 30 "ABplppaappp"
464 501 446 -1 298 77 22 30 "ABprappppp"
465 446 409 461 -132 77 23 30 "ABalaapaap"
466 464 471 -1 -86 187 23 30 "ABalppapaaa"
467 627 463 -1 -50 209 23 30 "ABalppaappa"
468 503 62 -1 -42 119 23 30 "ABarapaaap"
469 486 486 -1 -22 31 23 30 "ABprpaaappa"
471 489 488 -1 14 111 23 34 "ABarapapppa"
472 469 63 -1 84 93 23 26 "ABprpapppaa"
474 494 468 -1 126 145 23 30 "ABplpapappp"
475 496 459 -1 144 17 23 26 "ABprppapaap"
476 473 469 -1 174 191 23 30 "ABplpppaaaa"
477 474 623 -1 180 155 23 30 "ABplppppaap"
478 499 483 -1 202 133 23 26 "ABplpappppp"
481 502 624 -1 -84 145 24 26 "ABalpaappap"
482 587 472 -1 -70 63 24 30 "ABarappppap"
483 515 485 -1 -60 165 24 30 "ABalpapaaaa"
484 487 473 -1 -16 151 24 30 "ABalpappapa"
485 492 454 -1 60 45 24 26 "ABprppaapaa"
487 518 490 -1 100 43 24 34 "ABarappappp"
488 529 626 -1 128 77 24 26 "ABprppaappa"
489 509 478 -1 132 99 24 26 "ABprpapappp"
490 498 480 -1 166 123 24 26 "ABplpappppa"
491 510 481 -1 180 89 24 30 "ABprppppaaa"
492 481 482 -1 204 181 24 26 "ABplppppapa"
493 483 627 -1 282 157 24 30 "ABplppppppa"
494 485 78 -1 -66 7 25 30 "ABpraaaaaap"
495 505 487 -1 -4 27 25 30 "ABprpaaappp"
496 488 474 -1 -2 -17 25 26 "ABpraappaa"
497 507 476 -1 32 157 25 26 "ABplpappaaa"
499 508 491 -1 108 79 25 22 "ABprpapappa"
500 519 68 585 184 33 25 30 "ABprppappp"
501 500 504 -1 234 181 25 30 "ABplpppapaa"
502 513 494 -1 258 29 25 34 "ABprappppa"
503 647 484 -1 -104 39 26 30 "ABalaappapp"
504 504 507 -1 -32 -7 26 26 "ABprpaaapap"
505 538 497 -1 -32 57 26 26 "ABarapppppa"
506 506 489 -1 20 131 26 26 "ABarapapapa"
507 619 499 -1 20 55 26 26 "ABprpapaapa"
508 525 683 -1 20 81 26 26 "ABprpapaaaa"
509 527 500 -1 40 47 26 22 "ABprpapaapp"
511 541 652 -1 152 71 26 30 "ABprppaappp"
512 514 495 -1 280 107 26 26 "ABprppppppa"
513 533 505 -1 -104 73 27 26 "ABarapppaaa"
517 522 515 -1 -26 187 27 26 "ABalppapapa"
518 523 498 -1 -20 93 27 26 "ABarappaaap"
519 539 685 -1 -10 67 27 26 "ABarapppppp"
520 524 508 -1 -10 167 27 30 "ABalpapaaap"
522 528 510 -1 114 133 27 34 "ABprpappapp"
523 530 501 -1 146 41 27 26 "ABprppappap"
524 531 521 -1 158 13 27 34 "ABprppapapa"
525 542 512 -1 162 103 27 26 "ABplpapppap"
527 532 503 -1 210 153 27 30 "ABplppppapp"
528 544 522 -1 240 71 27 30 "ABprpppaapa"
529 546 65 -1 -88 103 28 26 "ABaraaapppp"
530 521 514 -1 -58 181 28 30 "ABalppapaap"
531 536 526 -1 -52 93 28 30 "ABarappaaaa"
532 516 517 -1 12 201 28 30 "ABalppapapp"
533 526 519 -1 34 183 28 34 "ABalpapapaa"
534 543 533 -1 214 105 28 30 "ABprppppapp"
535 552 524 -1 -74 71 29 26 "ABarapppaap"
536 535 525 -1 -54 17 29 30 "ABprpaaapaa"
537 547 527 -1 -46 139 29 30 "ABalpapaapa"
539 549 529 -1 -14 121 29 26 "ABarappaapa"
541 566 520 -1 88 105 29 30 "ABprpappapa"
542 551 70 -1 204 49 29 26 "ABprpppaaap"
544 545 523 -1 260 53 29 34 "ABprpppaapp"
545 563 543 -1 -74 39 30 38 "ABalaapappa"
546 548 528 -1 -22 25 30 34 "ABalaapappp"
547 554 534 -1 -6 147 30 26 "ABalpapaapp"
549 557 535 -1 26 107 30 26 "ABarappaapp"
550 565 538 -1 58 77 30 34 "ABarappapap"
551 559 539 -1 76 45 30 30 "ABprpaaaapa"
552 550 531 -1 100 23 30 30 "ABprpaaaapp"
553 560 540 -1 118 37 30 34 "ABarappappa"
554 561 541 -1 166 69 30 38 "ABprpppaaaa"
555 54 532 -1 196 79 30 30 "ABprppppapa"
556 562 542 -1 236 91 30 30 "ABprpppapaa"
557 553 634 -1 -38 73 31 30 "ABarapppapa"
558 564 544 -1 22 63 31 38 "ABarappapaa"
559 558 537 -1 54 133 31 34 "ABprpappaap"
560 106 688 -1 -20 207 -12 30 "ABplaapappp"
564 199 189 -1 48 123 -3 26 "MSaaapapp"
565 219 636 -1 -150 41 -2 26 "ABalappppap"
566 197 197 -1 -54 75 -2 30 "MSpaaaapa"
567 198 558 -1 -12 211 -1 30 "ABalpppppap"
570 247 252 -1 222 75 1 46 "Eplap"
572 625 276 -1 -4 25 3 22 "MSppapaa"
574 653 567 -1 -150 189 6 34 "ABalaaapall"
577 590 288 -1 -100 3 8 34 "ABpraaaappp"
578 291 291 -1 -100 217 8 30 "ABalpppaaaa"
579 665 653 -1 58 253 8 34 "ABplaapppa"
582 579 46 -1 86 143 11 38 "MSaapappp"
585 402 578 -1 268 183 14 30 "ABplapppapp"
587 36 640 -1 -102 139 16 26 "ABaraaaaaaa"
590 421 404 -1 42 73 19 26 "MSpapaaaa"
591 585 445 -1 286 191 19 22 "ABplpppapp"
593 657 441 -1 102 189 20 26 "ABalpapappp"
595 555 684 -1 -4 69 31 30 "ABarapppapp"
597 35 336 -1 226 199 10 38 "Capapp"
600 59 328 -1 192 17 9 26 "MSpppaap"
609 161 172 -1 -126 73 -7 22 "ABalapppapa"
612 193 15 -1 88 53 -4 26 "Earaa"
615 240 256 -1 -58 183 1 26 "ABalppppaad"
616 261 266 -1 -168 107 4 30 "ABalaaappll"
617 263 255 -1 -56 137 4 38 "ABalpaapapa"
632 482 460 -1 270 51 23 26 "ABprapppapa"
635 556 536 -1 26 167 30 38 "ABprpappaaa"
648 329 339 -1 -130 59 11 26 "ABalaappppa"
652 202 16 -1 166 107 -3 30 "Eplaa"
653 301 292 -1 -100 183 8 26 "ABalapaapaa"
654 644 657 -1 76 145 25 40 "ABplpappaap"
655 645 321 -1 6 216 9 30 "ABplpaaappp"
656 646 658 -1 -52 124 -9 26 "MSaaapaaa"
657 218 661 -1 -150 88 -1 26 "ABalapppaap"
658 648 662 -1 -62 77 1 30 "ABaraappapa"
660 649 664 -1 200 33 -19 40 "Caaaap"
661 650 665 -1 249 18 -12 40 "Caaapa"
662 651 666 -1 294 43 -8 34 "Caaapp"
663 85 667 -1 128 39 -20 38 "Cpaaaa"
664 652 668 -1 263 125 -19 34 "Cpaapp"
665 654 670 -1 250 133 19 29 "Caapaa"
666 405 671 -1 -128 46 18 26 "ABalaappapa"
667 160 672 -1 -144 107 -8 34 "ABalappaap"
668 656 673 -1 -148 114 2 26 "ABalapppaaa"
669 493 674 -1 93 207 23 30 "ABalpapappa"
670 658 675 -1 84 222 20 26 "ABplpaaaapa"
671 395 676 -1 53 129 15 33 "ABalpappapp"
672 659 677 -1 -110 188 -7 30 "ABalppppapa"
673 660 575 -1 -65 236 12 30 "ABalpppapad"
674 381 678 -1 -74 216 15 26 "ABalpppaaap"
675 661 679 -1 -62 108 14 23 "ABaraaaaapp"
676 581 391 -1 -48 105 16 30 "ABarapaaaap"
677 662 680 -1 -58 70 7 32 "ABaraaapapp"
678 484 681 -1 -101 116 24 29 "ABaraaappap"
679 663 682 -1 55 79 25 28 "ABprpapaaap"
680 664 687 -1 -157 33 4 26 "ABalappappp"
681 667 66 -1 -4 206 23 32 "ABalppapppp"
682 671 690 -1 74 70 26 30 "ABprpapapaa"
683 672 691 -1 58 71 0 29 "MSpaapapp"
684 673 414 -1 14 55 19 28 "MSppaapa"
685 655 692 -1 265 117 21 29 "Caapap"
