1 4 2 -1 -12 109 -13 66 "ABpla"
4 7 5 -1 54 -9 -8 62 "ABarp"
5 8 4 -1 94 199 -5 62 "ABplp"
6 9 6 -1 318 117 1 62 "P3"
7 1 9 -1 228 179 7 66 "E"
8 10 8 -1 -132 61 8 62 "ABala"
9 12 7 -1 -54 153 15 62 "ABalp"
10 13 12 -1 160 -43 19 58 "ABpra"
11 11 13 -1 -6 -3 20 62 "ABara"
12 2 10 11 80 137 20 62 "MS"
13 14 14 -1 218 69 21 58 "ABprp"
16 6 1 -1 216 63 -7 66 "C"
