1 5 6 -1 -60 181 1 74 "ABalp"
2 1 1 -1 -26 73 -17 70 "ABpla"
4 3 2 -1 108 201 -9 74 "ABplp"
5 4 7 -1 66 -21 -6 74 "ABarp"
6 6 4 -1 158 65 -6 46 "Ca"
7 6 5 -1 228 61 -6 46 "Cp"
8 7 8 -1 306 109 2 58 "P3"
9 8 9 -1 -126 63 6 70 "ABala"
10 9 10 -1 258 173 8 54 "Ep"
11 10 11 -1 156 199 15 58 "Ea"
12 12 12 -1 -4 163 16 62 "MSa"
13 11 13 -1 156 -35 16 70 "ABpra"
14 13 14 -1 120 101 21 62 "MSp"
15 15 15 -1 238 73 21 62 "ABprp"
16 14 16 -1 -30 43 24 70 "ABara"
