1 2 1 -1 -92 91 -18 50 "ABplaaa"
2 5 6 -1 0 77 -15 50 "ABplapa"
3 7 2 -1 126 85 -14 54 "Caa"
4 4 4 -1 -34 215 -13 50 "ABalppa"
5 3 5 -1 -26 147 -12 54 "ABplaap"
6 10 7 -1 74 239 -12 50 "ABplpaa"
7 8 10 -1 146 231 -12 50 "ABplppa"
8 9 3 -1 66 161 -11 54 "ABplapp"
9 12 11 -1 228 195 -11 50 "Cap"
11 6 9 -1 58 15 -10 50 "ABarppa"
12 1 12 -1 244 63 -10 58 "Cpa"
13 13 13 -1 -38 3 -6 50 "ABarpaa"
14 15 14 -1 -126 169 -5 54 "ABalpaa"
15 14 15 -1 -108 51 -5 50 "ABalapa"
16 18 16 -1 188 129 -3 46 "Epl"
17 19 20 -1 -166 95 0 50 "ABalaaa"
18 17 17 -1 162 31 0 50 "ABarppp"
19 16 19 -1 310 119 0 54 "Cpp"
20 21 18 -1 42 231 1 50 "ABalppp"
21 25 22 -1 170 -39 3 50 "ABprapa"
22 22 21 -1 250 5 4 50 "ABprapp"
23 20 23 -1 30 33 5 50 "ABarpap"
24 23 24 -1 90 61 5 50 "Ear"
25 26 27 -1 56 -39 6 54 "ABpraaa"
26 24 25 -1 114 189 6 50 "Eal"
27 27 26 -1 198 229 8 46 "ABplppp"
28 28 29 -1 -44 95 9 50 "ABalapp"
29 36 35 -1 -134 149 10 46 "ABalaap"
30 29 28 -1 -38 207 11 50 "ABalpap"
31 34 32 -1 142 243 11 46 "ABplpap"
32 30 33 -1 220 81 11 46 "Epr"
33 31 30 -1 264 209 11 42 "Da"
34 32 34 -1 298 7 12 46 "ABprppa"
35 33 31 -1 -104 41 14 50 "ABaraaa"
36 35 36 -1 -22 -7 16 50 "ABarapa"
38 37 38 45 52 201 18 50 "MSap"
39 38 39 -1 302 157 18 42 "Dp"
40 40 42 -1 -70 157 19 38 "MSaaa"
41 41 41 -1 196 -33 20 50 "ABprpaa"
42 43 40 -1 130 -11 21 50 "ABpraap"
43 46 44 -1 294 85 22 50 "ABprppp"
44 42 48 -1 0 149 23 42 "MSaap"
45 44 43 -1 30 71 23 38 "MSpaa"
47 47 46 -1 220 161 23 54 "P4"
48 44 53 -1 80 137 24 38 "MSpap"
49 45 50 51 152 85 24 50 "MSpp"
50 48 47 -1 -38 61 26 50 "ABaraap"
51 49 49 -1 70 15 26 50 "ABarapp"
52 50 52 -1 244 47 27 46 "ABprpap"
