1 1 39 -1 136 -27 17 62 "ABpraap"
2 2 5 -1 -100 107 -15 50 "ABplaaa"
3 4 2 -1 86 101 -15 42 "Caaa"
4 7 7 -1 214 41 -14 42 "Cpaa"
5 3 3 -1 4 85 -13 54 "ABplapa"
6 8 6 13 204 197 -13 54 "Cap"
7 5 9 -1 -36 157 -12 58 "ABplaap"
8 6 4 -1 120 233 -12 50 "ABplppa"
10 10 11 -1 152 125 -10 42 "Caap"
11 12 8 -1 232 117 -10 42 "Cpap"
12 16 14 -1 -40 227 -8 54 "ABalppa"
13 14 10 -1 46 245 -8 50 "ABplpaa"
14 15 15 -1 62 27 -8 54 "ABarppa"
15 9 16 -1 64 167 -7 54 "ABplapp"
16 18 18 -1 -124 171 -5 50 "ABalpaa"
17 19 17 -1 -110 53 -5 54 "ABalapa"
18 13 20 -1 -20 11 -4 50 "ABarpaa"
19 21 19 -1 298 133 -2 54 "Cpp"
20 17 21 -1 166 -21 -1 54 "ABprapa"
21 20 22 -1 130 53 1 54 "ABarppp"
22 24 31 -1 64 -33 4 50 "ABpraaa"
23 27 23 -1 120 249 4 54 "ABplpap"
24 22 24 -1 174 165 4 54 "Epl"
25 25 26 -1 196 249 4 50 "ABplppp"
26 29 25 -1 20 213 5 50 "ABalppp"
27 26 30 -1 260 231 5 50 "Da"
28 23 28 -1 -166 97 6 50 "ABalaaa"
29 30 27 -1 -36 83 7 50 "ABalapp"
30 28 33 -1 -100 127 8 50 "ABalaap"
31 31 29 -1 40 45 8 50 "ABarpap"
32 32 32 -1 236 39 9 50 "ABprapp"
33 34 34 -1 -60 201 10 54 "ABalpap"
34 35 35 -1 90 173 11 58 "Eal"
35 33 36 -1 298 23 11 50 "ABprppa"
36 37 37 -1 212 113 13 54 "Epr"
37 38 38 -1 -94 43 15 50 "ABaraaa"
38 36 43 -1 114 87 15 54 "Ear"
39 39 41 -1 220 -31 16 50 "ABprpaa"
40 40 44 -1 -12 -7 17 50 "ABarapa"
41 43 40 -1 308 87 17 50 "ABprppp"
42 41 42 -1 308 157 17 46 "Dp"
43 42 45 -1 6 217 19 50 "MSapa"
44 44 49 -1 -88 147 21 50 "MSaaa"
45 46 50 -1 -40 71 21 50 "ABaraap"
46 45 48 -1 242 183 22 50 "P4"
47 48 47 -1 114 229 23 46 "MSapp"
48 49 51 -1 246 47 23 50 "ABprpap"
49 52 53 -1 30 155 25 46 "MSaap"
50 47 52 -1 30 79 26 50 "MSpaa"
51 50 54 -1 68 9 26 50 "ABarapp"
52 51 56 -1 152 37 27 46 "MSppa"
53 53 55 -1 116 141 28 50 "MSpap"
54 54 57 -1 198 131 28 46 "MSppp"
