1 7 13 -1 226 31 -16 50 "Cpaa"
2 10 17 -1 270 117 -14 46 "Cpap"
3 60 77 -1 -84 153 23 50 "MSaaa"
4 67 84 -1 24 167 27 50 "MSaap"
5 4 8 -1 -30 63 -18 38 "ABplapaa"
6 8 9 -1 -96 135 -17 42 "ABplaapa"
7 3 10 -1 96 113 -16 46 "Caaa"
8 5 1 -1 174 227 -16 42 "Capa"
9 6 15 -1 32 75 -15 42 "ABplapap"
10 11 11 -1 194 153 -15 42 "Caap"
11 9 14 -1 -72 75 -14 38 "ABplaaap"
12 12 20 -1 30 169 -14 38 "ABplappa"
13 15 19 -1 -22 135 -12 38 "ABplaapp"
14 14 21 -1 254 183 -12 46 "Capp"
15 9 29 -1 -132 89 -10 34 "ABplaaaa"
16 22 18 -1 -42 207 -10 38 "ABalppap"
17 18 12 -1 52 -3 -10 38 "ABarppaa"
18 18 16 -1 94 43 -10 34 "ABarppap"
19 13 23 26 116 239 -10 46 "ABplppa"
21 19 22 -1 58 223 -9 42 "ABplpaap"
22 22 25 -1 -82 205 -8 38 "ABalppaa"
23 20 30 -1 -12 3 -8 42 "ABarpaap"
24 16 28 -1 98 167 -8 42 "ABplappp"
25 21 27 -1 180 -15 -8 42 "ABprapap"
26 24 35 -1 310 147 -6 42 "Cppp"
27 28 32 -1 -118 169 -5 38 "ABalpaap"
28 23 33 -1 -2 249 -5 38 "ABplpaaa"
29 27 34 -1 170 81 -3 38 "ABarpppp"
30 27 31 -1 146 51 -2 38 "ABarpppa"
31 1 42 -1 194 161 -2 50 "Epl"
32 31 37 -1 162 253 -1 34 "ABplpppa"
33 25 43 -1 310 61 -1 38 "Cppa"
34 28 39 -1 -162 127 0 38 "ABalpaaa"
35 26 36 -1 -82 23 0 34 "ABalapap"
36 35 38 -1 -22 183 0 38 "ABalpppa"
37 29 41 -1 148 -53 0 38 "ABprapaa"
38 26 47 -1 -124 39 1 34 "ABalapaa"
39 30 44 -1 -6 87 1 34 "ABalappp"
40 32 46 -1 246 63 1 38 "ABprappp"
41 30 40 -1 -48 69 2 34 "ABalappa"
42 31 49 -1 216 239 3 38 "ABplpppp"
43 41 45 -1 88 -17 4 34 "ABpraaap"
45 37 2 -1 226 -7 4 42 "ABprappa"
46 34 3 -1 270 221 4 50 "Da"
47 39 48 -1 58 251 5 38 "ABplpapa"
48 38 50 -1 70 59 6 38 "ABarpapp"
49 43 51 56 -76 125 8 46 "ABalaap"
50 33 60 -1 -38 -19 8 42 "ABarpaaa"
51 45 53 -1 150 13 8 38 "ABpraapp"
52 40 55 -1 -108 193 9 42 "ABalpapa"
53 35 52 -1 38 185 9 38 "ABalpppp"
54 46 57 -1 108 173 9 54 "Eal"
55 36 58 -1 126 247 9 38 "ABplpapp"
56 42 54 67 -136 81 10 46 "ABalaaa"
57 44 59 -1 16 35 11 42 "ABarpapa"
58 47 6 -1 278 7 11 50 "ABprppa"
59 52 65 -1 -58 39 13 38 "ABaraaap"
60 41 61 -1 54 -31 13 38 "ABpraaaa"
61 49 62 -1 -38 197 14 42 "ABalpapp"
62 51 5 -1 214 123 14 58 "Epr"
63 48 64 -1 298 159 14 50 "Dp"
64 56 66 -1 18 225 16 50 "MSapa"
65 50 4 -1 124 97 16 54 "Ear"
66 53 68 70 296 87 16 42 "ABprppp"
67 2 69 -1 120 -43 17 42 "ABpraapa"
68 54 63 76 186 -25 18 46 "ABprpaa"
69 57 73 -1 230 193 20 50 "P4"
70 58 71 -1 4 95 21 38 "ABaraapp"
71 55 78 -1 24 17 21 38 "ABarapap"
72 59 75 -1 132 231 21 50 "MSapp"
74 61 74 85 232 43 22 46 "ABprpap"
75 52 81 -1 -100 65 23 38 "ABaraaaa"
76 63 80 -1 64 -1 23 34 "ABarappa"
77 63 86 -1 110 37 25 34 "ABarappp"
78 65 89 -1 128 151 25 50 "MSpap"
79 55 83 -1 -34 21 26 38 "ABarapaa"
80 62 79 -1 56 93 26 50 "MSpaa"
81 66 87 -1 164 49 26 46 "MSppa"
82 64 82 -1 -54 83 27 38 "ABaraapa"
83 68 88 -1 212 145 29 50 "MSppp"
