1 13 12 -1 238 39 -15 50 "Cpaa"
2 20 4 -1 32 161 -14 46 "ABplappa"
3 1 11 -1 182 225 -15 42 "Capa"
4 15 10 -1 52 85 -12 46 "ABplapap"
5 42 32 -1 184 161 2 58 "Epl"
6 51 49 -1 -48 115 7 38 "ABalaapp"
7 57 50 -1 100 171 10 58 "Eal"
8 69 66 -1 86 -37 18 50 "ABpraapa"
9 87 85 -1 160 59 26 50 "MSppa"
10 89 87 -1 120 139 27 54 "MSpap"
11 8 2 -1 -18 51 -19 42 "ABplapaa"
12 9 3 -1 -110 119 -18 46 "ABplaapa"
13 10 6 -1 108 121 -17 50 "Caaa"
14 16 5 -1 100 51 -16 42 "ABarppap"
15 19 9 -1 -16 127 -15 42 "ABplaapp"
16 17 21 -1 276 131 -15 42 "Cpap"
17 11 7 -1 202 151 -14 42 "Caap"
18 18 8 -1 -38 205 -13 42 "ABalppap"
19 21 18 -1 260 187 -13 42 "Capp"
20 25 15 -1 -104 199 -12 42 "ABalppaa"
21 12 14 -1 50 -7 -12 42 "ABarppaa"
22 26 17 -1 136 235 -12 42 "ABplppap"
23 14 13 -1 -62 63 -11 46 "ABplaaap"
24 23 16 -1 80 251 -11 42 "ABplppaa"
26 28 20 -1 120 175 -9 42 "ABplappp"
27 22 19 -1 58 213 -8 42 "ABplpaap"
28 27 23 -1 194 -7 -8 42 "ABprapap"
29 29 24 -1 -136 83 -7 38 "ABplaaaa"
30 30 25 -1 -2 15 -5 46 "ABarpaap"
31 31 26 -1 134 23 -5 42 "ABarpppa"
32 34 28 -1 194 81 -5 42 "ABarpppp"
33 32 29 -1 -120 167 -3 46 "ABalpaap"
34 38 27 -1 -36 181 -2 42 "ABalpppa"
35 33 30 -1 -12 251 -2 42 "ABplpaaa"
36 35 31 -1 308 177 -2 46 "Cppp"
37 43 33 -1 316 71 -1 46 "Cppa"
38 36 34 -1 -66 9 0 42 "ABalapap"
39 44 35 -1 6 97 0 42 "ABalappp"
40 37 1 -1 158 263 0 46 "ABplpppa"
41 39 40 -1 -170 121 1 42 "ABalpaaa"
42 40 36 -1 -68 71 1 38 "ABalappa"
43 41 38 -1 144 -51 2 42 "ABprapaa"
44 48 39 -1 44 251 3 42 "ABplpapa"
45 45 37 -1 86 -9 3 42 "ABpraaap"
46 47 41 -1 -128 29 4 42 "ABalapaa"
47 46 47 -1 258 75 4 38 "ABprappp"
48 52 42 -1 36 177 5 42 "ABalpppp"
49 53 46 -1 160 21 5 42 "ABpraapp"
50 50 45 -1 74 53 6 42 "ABarpapp"
51 49 43 -1 220 243 6 42 "ABplpppp"
52 2 44 -1 232 -5 6 46 "ABprappa"
53 55 48 -1 -108 201 7 42 "ABalpapa"
54 56 53 -1 -108 127 9 38 "ABalaapa"
55 58 51 -1 128 245 9 46 "ABplpapp"
56 59 55 -1 -10 55 10 42 "ABarpapa"
57 54 58 -1 -128 73 11 38 "ABalaaap"
58 62 54 -1 -26 209 11 42 "ABalpapp"
59 4 56 -1 122 93 11 54 "Ear"
60 3 52 -1 266 217 11 50 "Da"
61 6 57 -1 288 27 11 38 "ABprppap"
62 5 63 -1 202 111 12 54 "Epr"
63 61 59 -1 26 -35 13 42 "ABpraaaa"
64 64 67 -1 284 165 14 50 "Dp"
65 60 62 -1 -34 -11 15 42 "ABarpaaa"
66 63 64 -1 198 -25 15 38 "ABprpaap"
67 68 68 -1 316 115 15 38 "ABprpppp"
68 67 65 -1 -148 129 16 38 "ABalaaaa"
69 65 61 -1 -62 45 16 46 "ABaraaap"
70 66 60 -1 32 229 16 50 "MSapa"
71 73 70 -1 202 189 19 46 "P4"
72 6 72 -1 256 -11 19 38 "ABprppaa"
73 75 71 -1 132 229 21 50 "MSapp"
74 77 74 -1 -58 171 22 46 "MSaaa"
75 71 79 -1 2 103 22 42 "ABaraapp"
76 79 75 -1 52 81 22 50 "MSpaa"
77 74 78 -1 234 61 22 42 "ABprpapp"
78 70 73 -1 292 55 22 42 "ABprpppa"
79 76 77 -1 142 -17 23 38 "ABprpaaa"
80 81 83 -1 -108 99 24 42 "ABaraaaa"
81 80 76 -1 52 -3 24 42 "ABarappa"
82 85 82 -1 194 11 24 38 "ABprpapa"
83 82 88 -1 -58 99 25 42 "ABaraapa"
84 78 80 -1 14 25 25 42 "ABarapap"
85 86 84 -1 100 43 26 42 "ABarappp"
86 83 86 -1 -56 37 27 42 "ABarapaa"
87 84 81 -1 26 179 27 46 "MSaap"
88 88 89 -1 204 129 27 46 "MSppp"
