1 9 1 -1 118 107 -15 50 "Caaa"
2 1 2 -1 182 153 -2 62 "Epl"
3 6 5 -1 -30 47 -17 46 "ABplapaa"
4 11 8 -1 214 139 -17 46 "Caap"
5 12 9 -1 -46 195 -16 46 "ABalppap"
6 7 6 -1 -114 133 -15 46 "ABplaapa"
7 8 7 -1 44 83 -15 46 "ABplapap"
8 14 10 -1 -22 127 -14 46 "ABplaapp"
9 10 19 -1 184 219 -14 46 "Capa"
10 21 11 -1 276 133 -14 46 "Cpap"
11 17 16 -1 -74 47 -13 46 "ABplaaap"
12 18 12 -1 32 209 -13 42 "ABplpaap"
13 23 14 -1 70 241 -13 42 "ABplppaa"
14 13 13 -1 32 151 -12 42 "ABplappa"
15 22 17 -1 44 -1 -12 46 "ABarppaa"
16 15 20 -1 98 53 -12 42 "ABarppap"
17 19 18 -1 140 227 -12 42 "ABplppap"
18 16 15 -1 236 39 -12 50 "Cpaa"
19 20 22 -1 260 193 -11 42 "Capp"
21 26 21 -1 114 175 -9 42 "ABplappp"
22 24 23 -1 -118 193 -8 42 "ABalppaa"
23 27 26 -1 200 -11 -8 46 "ABprapap"
24 28 25 -1 -142 87 -6 42 "ABplaaaa"
25 33 27 -1 -8 3 -5 46 "ABarpaap"
26 29 30 -1 -24 245 -4 42 "ABplpaaa"
27 31 29 -1 132 19 -4 42 "ABarpppa"
28 30 34 -1 -46 175 -3 42 "ABalpppa"
29 40 39 -1 34 245 -3 46 "ABplpapa"
30 32 31 -1 150 259 -3 42 "ABplpppa"
31 35 28 -1 302 177 -2 42 "Cppp"
32 38 33 -1 -66 7 -1 42 "ABalapap"
33 34 32 -1 202 75 -1 46 "ABarpppp"
34 39 38 -1 6 77 0 42 "ABalappp"
35 36 40 -1 -112 155 1 46 "ABalpaap"
36 41 36 -1 132 -47 1 42 "ABprapaa"
37 44 41 -1 26 181 2 42 "ABalpppp"
38 46 46 -1 214 251 2 42 "ABplpppp"
39 43 43 -1 -140 45 3 42 "ABalapaa"
40 47 48 -1 -76 69 3 42 "ABalappa"
41 45 45 -1 86 -19 3 42 "ABpraaap"
42 48 35 -1 106 255 3 46 "ABplpapp"
43 37 42 -1 318 89 3 42 "Cppa"
44 42 37 -1 -172 119 5 42 "ABalpaaa"
45 53 47 -1 240 -15 5 42 "ABprappa"
46 49 50 -1 258 75 5 42 "ABprappp"
47 3 3 -1 88 151 6 58 "Eal"
48 52 49 -1 172 -1 6 46 "ABpraapp"
49 51 44 -1 72 35 7 42 "ABarpapp"
50 54 51 -1 -104 203 8 42 "ABalpapa"
51 2 52 -1 254 223 9 50 "Da"
52 55 59 -1 -20 107 10 42 "ABalaapp"
53 56 54 -1 298 41 10 42 "ABprppap"
54 4 4 -1 118 71 11 54 "Ear"
55 5 57 -1 188 121 11 58 "Epr"
56 57 55 -1 -134 65 12 42 "ABalaaap"
57 59 61 -1 -24 223 12 46 "ABalpapp"
58 61 63 -1 288 169 12 46 "Dp"
59 58 53 -1 -110 115 13 42 "ABalaapa"
60 60 56 -1 -6 39 13 42 "ABarpapa"
61 65 62 -1 48 223 13 46 "MSapa"
62 64 65 -1 -40 -7 14 42 "ABarpaaa"
63 69 60 -1 128 229 14 46 "MSapp"
64 66 67 -1 14 -31 15 42 "ABpraaaa"
65 67 68 -1 96 -45 15 46 "ABpraapa"
66 62 64 -1 218 -33 15 42 "ABprpaap"
67 63 58 -1 -146 151 16 42 "ABalaaaa"
68 68 66 -1 -68 39 16 46 "ABaraaap"
69 70 69 73 -56 159 20 46 "MSaaa"
70 73 72 -1 262 -9 20 42 "ABprppaa"
71 74 71 -1 316 125 20 42 "ABprpppp"
72 76 74 -1 52 81 21 42 "MSpaa"
73 72 76 -1 166 199 21 38 "Z3"
74 72 78 -1 228 179 21 38 "Z2"
75 75 77 -1 242 57 23 42 "ABprpapp"
76 77 79 -1 294 55 23 42 "ABprpppa"
77 78 80 -1 -110 103 24 42 "ABaraaaa"
78 81 81 83 40 167 24 42 "MSaap"
79 82 82 -1 64 -9 25 42 "ABarappa"
80 83 85 -1 134 -13 25 42 "ABprpaaa"
81 87 88 -1 192 9 25 42 "ABprpapa"
82 79 91 -1 -6 107 26 42 "ABaraapp"
83 85 84 -1 110 35 26 42 "ABarappp"
84 84 87 -1 160 69 26 46 "MSppa"
85 90 90 -1 -52 35 27 42 "ABarapaa"
86 88 86 -1 212 115 27 46 "MSppp"
87 89 89 -1 -64 89 28 42 "ABaraapa"
88 80 92 -1 26 29 28 42 "ABarapap"
89 86 75 -1 116 137 28 42 "MSpap"
