1 6 11 -1 -108 135 -17 46 "ABplaapa"
2 5 12 -1 -18 49 -17 46 "ABplapaa"
3 8 10 -1 210 145 -17 42 "Caap"
4 7 13 -1 42 97 -16 46 "ABplapap"
5 14 1 -1 60 235 -15 46 "ABplppaa"
6 1 18 -1 118 111 -15 46 "Caaa"
7 9 15 -1 -54 197 -14 46 "ABalppap"
8 10 16 -1 -20 127 -14 46 "ABplaapp"
9 12 22 -1 18 215 -14 46 "ABplpaap"
10 17 17 -1 50 7 -14 46 "ABarppaa"
11 16 14 -1 -58 53 -13 46 "ABplaaap"
12 18 21 -1 128 237 -13 42 "ABplppap"
13 15 2 -1 230 41 -13 50 "Cpaa"
14 22 25 -1 256 199 -13 46 "Capp"
15 11 19 -1 270 123 -13 46 "Cpap"
16 13 20 -1 34 155 -12 42 "ABplappa"
17 19 24 -1 180 221 -11 42 "Capa"
18 25 28 -1 -128 97 -10 42 "ABplaaaa"
19 21 23 -1 112 181 -10 42 "ABplappp"
21 20 29 -1 96 63 -9 42 "ABarppap"
22 23 27 -1 -124 191 -8 42 "ABalppaa"
23 26 30 -1 190 -9 -8 46 "ABprapap"
24 27 3 -1 2 1 -6 46 "ABarpaap"
25 28 34 -1 298 173 -5 42 "Cppp"
26 29 31 -1 126 23 -4 42 "ABarpppa"
27 33 35 -1 -66 7 -2 42 "ABalapap"
28 34 36 -1 -52 167 -2 42 "ABalpppa"
29 30 37 -1 -42 239 -2 42 "ABplpaaa"
30 31 33 -1 140 261 -2 42 "ABplpppa"
31 35 40 -1 84 257 -1 42 "ABplpapp"
32 36 38 -1 124 -39 -1 42 "ABprapaa"
33 43 32 -1 -136 47 0 42 "ABalapaa"
34 39 43 -1 14 251 0 42 "ABplpapa"
35 2 4 -1 164 165 0 54 "Epl"
36 32 41 -1 194 73 0 46 "ABarpppp"
37 42 48 -1 308 73 0 42 "Cppa"
38 40 42 -1 -120 157 1 46 "ABalpaap"
39 38 39 -1 8 77 1 46 "ABalappp"
40 41 44 -1 22 189 1 42 "ABalpppp"
41 46 5 -1 208 257 3 42 "ABplpppp"
42 48 46 -1 -74 57 4 42 "ABalappa"
43 44 50 -1 68 25 4 42 "ABarpapp"
44 45 47 -1 86 -25 4 42 "ABpraaap"
45 47 49 -1 234 -15 5 42 "ABprappa"
46 50 53 -1 256 65 6 42 "ABprappp"
47 3 6 -1 82 149 7 54 "Eal"
48 49 52 -1 170 -7 7 50 "ABpraapp"
49 52 45 -1 252 223 7 46 "Da"
50 51 55 -1 -104 205 8 42 "ABalpapa"
51 55 51 -1 -136 63 9 42 "ABalaaap"
52 53 56 -1 -110 105 9 42 "ABalaapa"
53 4 7 -1 108 73 9 58 "Ear"
54 57 58 -1 200 127 9 54 "Epr"
55 58 62 -1 -168 123 10 42 "ABalaaaa"
56 59 60 -1 -30 97 10 42 "ABalaapp"
57 54 65 -1 290 33 11 46 "ABprppap"
58 63 61 -1 296 159 11 50 "Dp"
59 56 57 -1 -6 31 12 42 "ABarpapa"
60 65 59 -1 -42 -9 13 42 "ABarpaaa"
61 61 66 -1 -28 213 13 46 "ABalpapp"
62 62 68 -1 32 215 13 38 "MSapaa"
63 62 63 -1 76 223 13 38 "MSapap"
64 68 8 -1 98 -41 15 46 "ABpraapa"
65 64 73 -1 206 -33 15 42 "ABprpaap"
66 67 71 -1 14 -27 16 42 "ABpraaaa"
67 60 64 67 130 227 16 46 "MSapp"
68 69 69 -1 -114 151 17 38 "MSaaaa"
69 66 70 -1 -70 39 17 46 "ABaraaap"
70 74 75 -1 76 99 19 38 "MSpaap"
71 71 79 -1 310 115 19 46 "ABprpppp"
72 74 74 -1 12 81 20 38 "MSpaaa"
73 72 77 -1 250 -9 21 42 "ABprppaa"
74 78 78 -1 266 169 21 46 "Z2"
75 80 80 -1 -124 89 22 42 "ABaraaaa"
76 73 84 -1 -44 175 22 38 "MSaaap"
77 79 83 -1 292 49 22 42 "ABprpppa"
78 81 81 -1 8 175 23 38 "MSaapa"
79 87 86 -1 162 79 23 46 "MSppa"
80 76 76 -1 178 205 23 42 "Z3"
81 75 90 -1 166 157 24 34 "MSpapp"
82 86 87 -1 220 111 24 46 "MSppp"
83 77 82 -1 238 51 24 42 "ABprpapp"
84 82 88 -1 62 -5 25 42 "ABarappa"
85 83 85 -1 82 185 25 38 "MSaapp"
86 75 89 -1 98 129 25 38 "MSpapa"
87 84 91 -1 104 41 25 42 "ABarappp"
88 91 96 -1 -18 117 26 42 "ABaraapp"
89 85 92 -1 124 -7 26 42 "ABprpaaa"
90 89 93 -1 -84 101 27 42 "ABaraapa"
91 90 94 -1 -58 41 27 42 "ABarapaa"
92 88 95 -1 182 9 27 42 "ABprpapa"
93 92 97 -1 24 31 29 42 "ABarapap"
95 37 99 -1 -176 103 -3 46 "ABalpaaa"
