1 14 4 -1 42 49 -17 46 "ABarppaa"
2 24 13 -1 232 47 -10 50 "Cpaa"
3 44 38 -1 -48 153 4 46 "ABalpppa"
4 41 43 -1 20 181 6 42 "ABalpppp"
5 8 41 -1 106 149 4 50 "Eal"
6 10 2 -1 -6 113 -18 42 "ABplapaa"
7 1 5 -1 48 137 -18 46 "ABplapap"
8 12 6 -1 232 143 -18 42 "Caap"
9 11 3 -1 -50 83 -17 46 "ABplaaap"
10 13 7 -1 -92 165 -16 46 "ABplaapa"
11 15 9 -1 144 109 -16 54 "Caaa"
12 2 8 -1 132 213 -13 46 "ABplappp"
13 17 11 -1 -6 171 -12 46 "ABplaapp"
14 21 18 -1 66 185 -12 46 "ABplappa"
15 16 17 -1 40 243 -11 46 "ABplppaa"
16 3 1 -1 284 119 -11 42 "Cpap"
17 22 10 -1 -106 113 -10 42 "ABplaaaa"
18 18 21 -1 184 229 -10 46 "Capa"
19 19 19 -1 252 195 -10 46 "Capp"
20 27 14 -1 -58 33 -9 46 "ABalapap"
21 20 25 -1 -12 233 -9 46 "ABplpaap"
22 23 23 -1 108 249 -9 42 "ABplppap"
24 28 20 -1 -118 63 -8 42 "ABalapaa"
25 26 16 -1 -2 11 -8 46 "ABarpaap"
26 4 12 -1 92 95 -8 42 "ABarppap"
27 29 24 -1 124 -33 -8 42 "ABprapaa"
28 30 26 -1 128 33 -7 42 "ABarpppa"
29 32 22 -1 196 -15 -7 46 "ABprapap"
30 38 28 -1 72 15 -3 46 "ABarpapp"
31 34 29 -1 -164 111 -2 46 "ABalpaaa"
32 33 30 -1 -132 191 -2 42 "ABalppaa"
33 31 32 -1 -76 195 -2 42 "ABalppap"
34 37 27 -1 10 85 -2 46 "ABalappp"
35 5 31 -1 178 159 -2 58 "Epl"
36 36 40 -1 196 257 -1 46 "ABplpppp"
37 35 35 -1 294 165 -1 46 "Cppp"
38 40 33 -1 -62 51 0 42 "ABalappa"
39 6 39 -1 82 -33 0 46 "ABpraaap"
40 39 34 -1 192 57 0 46 "ABarpppp"
41 46 36 -1 -120 73 2 42 "ABalaaap"
42 45 42 -1 -42 237 4 42 "ABplpaaa"
43 43 44 -1 122 261 4 42 "ABplpppa"
44 48 37 -1 -52 -7 5 42 "ABarpaaa"
45 42 47 -1 66 261 5 42 "ABplpapp"
46 54 46 -1 168 -19 5 46 "ABpraapp"
47 52 45 -1 10 23 6 42 "ABarpapa"
48 51 49 -1 304 81 6 42 "Cppa"
49 47 60 -1 8 247 7 42 "ABplpapa"
50 49 52 57 98 75 7 46 "Ear"
51 50 53 -1 224 -7 7 42 "ABprappa"
52 9 54 -1 240 217 7 50 "Da"
53 7 50 -1 -138 149 8 46 "ABalpaap"
54 56 51 -1 -22 73 8 42 "ABalaapp"
55 53 58 -1 96 207 8 38 "MSapap"
56 58 48 -1 258 51 8 42 "ABprappp"
57 57 61 -1 214 105 9 54 "Epr"
58 60 56 -1 12 -29 10 42 "ABpraaaa"
59 59 59 -1 -158 85 11 42 "ABalaaaa"
60 55 55 -1 -90 87 11 42 "ABalaapa"
61 61 63 -1 174 235 12 42 "MSappp"
62 62 67 -1 -116 189 13 46 "ABalpapa"
63 63 62 -1 106 -43 13 54 "ABpraapa"
64 69 65 -1 272 9 14 42 "ABprppap"
65 64 69 -1 296 145 14 50 "Dp"
66 67 66 -1 -56 29 15 46 "ABaraaap"
67 68 68 -1 28 175 15 42 "MSapaa"
68 66 71 -1 -44 199 17 50 "ABalpapp"
69 71 74 -1 114 219 17 38 "MSappa"
70 73 75 -1 170 189 17 42 "Z3"
71 74 70 -1 -118 57 19 42 "ABaraaaa"
72 70 72 -1 -2 93 19 42 "MSpaaa"
73 76 73 -1 74 29 19 42 "ABarappp"
74 78 77 -1 170 -19 19 42 "ABprpaap"
75 75 76 -1 -114 123 21 46 "MSaaaa"
76 72 78 -1 78 117 21 42 "MSpaap"
77 79 82 -1 262 169 21 46 "Z2"
78 77 79 -1 164 95 22 46 "MSppap"
79 81 81 -1 34 -15 23 42 "ABarappa"
80 84 85 -1 216 -11 23 42 "ABprppaa"
81 80 80 -1 282 35 23 42 "ABprpppa"
82 85 83 -1 296 95 23 42 "ABprpppp"
83 88 86 -1 -34 161 24 42 "MSaaap"
84 82 84 -1 92 -17 24 42 "ABprpaaa"
85 83 87 -1 100 59 25 42 "MSppaa"
86 91 98 -1 230 135 25 42 "MSpppp"
87 92 90 -1 -78 83 26 46 "ABaraapa"
88 87 88 -1 -50 29 26 42 "ABarapaa"
89 93 91 -1 -12 103 26 46 "ABaraapp"
90 86 92 -1 18 43 26 42 "ABarapap"
91 89 93 -1 96 209 26 42 "MSaapp"
92 90 94 -1 154 27 26 42 "ABprpapa"
93 97 89 -1 218 51 26 42 "ABprpapp"
94 94 95 -1 6 177 27 42 "MSaapa"
95 95 96 -1 86 131 27 42 "MSpapa"
96 96 99 -1 160 163 27 42 "MSpapp"
97 98 97 -1 180 105 30 42 "MSpppa"
