1 16 5 -1 284 129 -12 46 "Cpap"
2 6 1 -1 -2 127 -18 46 "ABplapaa"
3 9 15 -1 -36 95 -17 46 "ABplaaap"
4 1 16 -1 40 57 -17 46 "ABarppaa"
5 7 13 -1 58 147 -17 46 "ABplapap"
6 8 14 -1 236 149 -17 42 "Caap"
7 10 2 -1 -88 169 -15 46 "ABplaapa"
8 12 22 -1 138 211 -14 42 "ABplappp"
9 11 21 -1 146 109 -14 50 "Caaa"
10 17 19 -1 -98 121 -12 42 "ABplaaaa"
11 13 6 -1 2 179 -11 46 "ABplaapp"
12 26 24 -1 92 95 -11 42 "ABarppap"
13 2 3 -1 236 51 -11 46 "Cpaa"
14 20 20 -1 -56 47 -10 42 "ABalapap"
16 25 17 -1 2 13 -9 50 "ABarpaap"
17 15 26 -1 36 249 -9 42 "ABplppaa"
18 14 4 -1 74 189 -9 46 "ABplappa"
19 19 30 -1 256 197 -9 46 "Capp"
20 24 23 -1 -114 65 -8 42 "ABalapaa"
21 18 29 -1 184 231 -8 46 "Capa"
22 29 7 -1 200 -11 -8 46 "ABprapap"
23 22 34 -1 102 247 -7 46 "ABplppap"
24 27 27 -1 132 -35 -7 46 "ABprapaa"
25 21 31 -1 -16 237 -6 42 "ABplpaap"
26 28 28 -1 128 33 -5 46 "ABarpppa"
27 34 33 -1 10 85 -3 46 "ABalappp"
28 30 32 -1 70 11 -3 46 "ABarpapp"
29 31 35 -1 -158 115 -1 42 "ABalpaaa"
30 32 44 -1 -130 193 -1 42 "ABalppaa"
31 35 8 -1 180 159 -1 58 "Epl"
32 33 39 -1 -76 191 0 42 "ABalppap"
33 38 36 -1 -54 47 0 42 "ABalappa"
34 40 40 -1 192 55 1 46 "ABarpppp"
35 37 43 -1 294 159 1 46 "Cppp"
36 41 38 -1 -116 71 2 46 "ABalaaap"
37 44 41 -1 -50 -9 2 42 "ABarpaaa"
38 3 37 -1 -44 147 2 42 "ABalpppa"
39 39 42 -1 78 -33 3 46 "ABpraaap"
40 36 46 -1 190 257 3 46 "ABplpppp"
41 5 62 63 106 151 4 50 "Eal"
42 42 10 -1 -44 235 5 42 "ABplpaaa"
43 4 48 -1 18 181 5 46 "ABalpppp"
44 43 49 -1 122 255 5 42 "ABplpppa"
45 47 45 -1 10 13 6 42 "ABarpapa"
46 46 58 -1 176 -25 6 46 "ABpraapp"
47 45 61 -1 66 257 7 42 "ABplpapp"
48 56 53 -1 270 39 7 42 "ABprappp"
49 48 56 -1 304 79 7 42 "Cppa"
50 53 50 -1 -146 147 8 42 "ABalpaap"
51 54 51 -1 -20 61 8 42 "ABalaapp"
52 50 52 -1 122 79 8 38 "Earp"
53 51 47 -1 226 -9 8 38 "ABprappa"
54 52 55 71 236 217 9 42 "Da"
55 60 59 -1 -84 71 10 42 "ABalaapa"
56 58 60 -1 12 -33 10 42 "ABpraaaa"
57 50 57 -1 74 71 10 38 "Eara"
58 55 65 -1 92 205 10 42 "MSapap"
59 59 54 -1 -158 77 11 42 "ABalaaaa"
60 49 67 -1 4 241 11 42 "ABplpapa"
61 57 64 -1 216 101 11 54 "Epr"
62 63 11 -1 110 -45 12 50 "ABpraapa"
63 61 66 -1 170 231 12 42 "MSappp"
65 64 68 -1 268 -1 14 42 "ABprppap"
66 66 69 -1 -56 15 15 42 "ABaraaap"
67 62 74 -1 -120 177 16 42 "ABalpapa"
68 67 72 -1 22 161 16 42 "MSapaa"
69 65 73 -1 288 141 16 46 "Dp"
70 71 77 -1 -118 49 18 42 "ABaraaaa"
71 68 80 -1 -50 197 18 46 "ABalpapp"
72 72 78 -1 -10 81 18 42 "MSpaaa"
73 73 70 -1 78 17 18 42 "ABarappp"
74 69 79 -1 112 217 18 38 "MSappa"
75 70 76 -1 164 181 18 42 "Z3"
76 75 75 -1 -112 115 19 42 "MSaaaa"
77 74 83 -1 166 -23 20 42 "ABprpaap"
78 76 87 -1 70 103 21 42 "MSpaap"
79 78 82 -1 158 83 21 42 "MSppap"
80 81 85 -1 286 31 21 42 "ABprpppa"
81 79 81 -1 30 -17 22 42 "ABarappa"
82 77 88 -1 248 161 22 46 "Z2"
83 82 86 -1 302 85 22 42 "ABprpppp"
84 84 89 -1 92 -21 23 42 "ABprpaaa"
85 80 84 -1 214 -17 23 42 "ABprppaa"
86 83 90 -1 -36 149 24 38 "MSaaap"
87 85 91 -1 98 51 25 38 "MSppaa"
88 88 92 -1 -44 21 26 42 "ABarapaa"
89 93 12 -1 220 47 26 46 "ABprpapp"
90 87 95 -1 -82 69 27 46 "ABaraapa"
91 89 96 -1 -14 97 27 46 "ABaraapp"
92 90 93 -1 26 39 27 42 "ABarapap"
93 91 98 -1 92 203 27 42 "MSaapp"
94 92 99 -1 154 23 27 42 "ABprpapa"
95 94 97 -1 0 173 28 42 "MSaapa"
96 95 101 -1 78 123 28 50 "MSpapa"
97 97 100 -1 178 93 28 42 "MSpppa"
98 86 94 -1 232 123 28 42 "MSpppp"
99 96 102 -1 154 155 29 46 "MSpapp"
