1, 1, 1, 1, -1, 8.169223154362266, 1.1152237136465415, 0.5550879418344862, 2.493855, ABpr, 0, 0, 0, 0, , 0, 0, 0, 0, 0, 
4, 1, 4, 4, 8, 23.52, 9.3345, 5.10678, 2.7195, P2, 0, 0, 0, 0, , 0, 0, 0, 0, 0, 
2, 1, 2, 2, -1, -3.396326621924004, 6.2723400447425695, 2.29134144295302, 2.6217449999999998, ABar, 0, 0, 0, 0, , 0, 0, 0, 0, 0, 
5, 1, 5, 5, -1, 3.7051402027027756, -2.5515512387387744, 3.358931869369317, 2.493855, ABpl, 0, 0, 0, 0, , 0, 0, 0, 0, 0, 
3, 1, 3, 3, -1, 7.586466292134783, 11.563242977528011, 3.5423903089887965, 2.365965, MS, 0, 0, 0, 0, , 0, 0, 0, 0, 0, 
6, 1, 6, 6, -1, -7.84378716216213, 1.8444611486486682, 1.7337937500000162, 2.6217449999999998, ABal, 0, 0, 0, 0, , 0, 0, 0, 0, 0, 
7, 1, 7, 7, -1, 9.12055070546747, 11.132153439153553, 3.6327568342151695, 2.365965, E, 0, 0, 0, 0, , 0, 0, 0, 0, 0, 
