2, 1, 2, 2, -1, -2.455655480984378, 6.283011185682098, 1.4474857382550335, 2.6217449999999998, ABar, 0, 0, 0, 0, , 0, 0, 0, 0, 0, 
8, 1, 8, 8, -1, 21.43655344202912, 8.540399003623222, 4.950328460144893, 2.365965, C, 0, 0, 0, 0, , 0, 0, 0, 0, 0, 
1, 1, 1, 1, -1, 7.9496593959729385, 2.2099217002237226, -0.6867952796420252, 2.493855, ABpr, 0, 0, 0, 0, , 0, 0, 0, 0, 0, 
6, 1, 6, 6, -1, -8.813719594594684, -0.04705912162159795, 0.6504187500000231, 2.6217449999999998, ABal, 0, 0, 0, 0, , 0, 0, 0, 0, 0, 
3, 1, 3, 3, -1, 6.050398876404514, 9.221978932584113, 2.825145926966357, 2.365965, MS, 0, 0, 0, 0, , 0, 0, 0, 0, 0, 
7, 1, 7, 7, -1, 9.127138007054873, 8.357391534391764, 3.0063838183421554, 2.365965, E, 0, 0, 0, 0, , 0, 0, 0, 0, 0, 
4, 1, 4, 4, -1, 22.60657587548655, 8.276012645914465, 4.677363657587552, 2.365965, P3, 0, 0, 0, 0, , 0, 0, 0, 0, 0, 
5, 1, 5, 5, -1, 1.5399712837838797, -3.0549634009009523, 3.3390629504503755, 2.493855, ABpl, 0, 0, 0, 0, , 0, 0, 0, 0, 0, 
