7, 1, 7, 7, -1, 9.131529541446474, 6.507550264550486, 2.588801807760146, 2.365965, E, 0, 0, 0, 0, , 0, 0, 0, 0, 0, 
8, 1, 8, 8, -1, 19.436444746377074, 7.778062047101514, 4.80013498188399, 2.365965, C, 0, 0, 0, 0, , 0, 0, 0, 0, 0, 
1, 1, 1, 1, -1, 7.80328355704672, 2.939720357941822, -1.5147174272930248, 2.493855, ABpr, 0, 0, 0, 0, , 0, 0, 0, 0, 0, 
5, 1, 5, 5, -1, 0.09652533783793012, -3.390571509009071, 3.3258170045044144, 2.493855, ABpl, 0, 0, 0, 0, , 0, 0, 0, 0, 0, 
2, 1, 2, 2, -1, -1.8285413870246343, 6.290125279641784, 0.8849152684563757, 2.6217449999999998, ABar, 0, 0, 0, 0, , 0, 0, 0, 0, 0, 
3, 1, 3, 3, -1, 5.0263539325843345, 7.661136235954848, 2.346983005618064, 2.365965, MS, 0, 0, 0, 0, , 0, 0, 0, 0, 0, 
6, 1, 6, 6, -1, -9.460341216216403, -1.308072635135109, -0.0718312499999765, 2.6217449999999998, ABal, 0, 0, 0, 0, , 0, 0, 0, 0, 0, 
4, 1, 4, 4, -1, 21.729688715953635, 7.2598647859922725, 4.2651239688716025, 2.365965, P3, 0, 0, 0, 0, , 0, 0, 0, 0, 0, 
