3, 1, 3, 3, -1, 0.543850551147598, -0.16343230026461586, -1.5629598603048926, 2.0583895500000002, MSp, 0, 0, 0, 0, , 0, 0, 0, 0, 0, 
2, 1, 2, 2, -1, -0.4051052105451354, 5.143146784244042, 2.354020787890315, 1.9843987904999998, ABarpp, 0, 0, 0, 0, , 0, 0, 0, 0, 0, 
18, 1, 18, 18, -1, -4.860145828589081, 3.052413534099794, -4.191659549629789, 1.9843987904999998, ABaraa, 0, 0, 0, 0, , 0, 0, 0, 0, 0, 
11, 1, 11, 11, -1, -10.124365177439234, 1.4485102764446225, -1.5804672721349347, 1.9843987904999998, ABalap, 0, 0, 0, 0, , 0, 0, 0, 0, 0, 
1, 1, 1, 1, -1, 9.181762190305987, -0.1155069188046019, -2.4652475279204342, 1.8875988495, ABprpp, 0, 0, 0, 0, , 0, 0, 0, 0, 0, 
9, 1, 9, 9, -1, -5.595485858215235, 1.3193134784983511, 3.7407959880745416, 1.8875988495, ABplap, 0, 0, 0, 0, , 0, 0, 0, 0, 0, 
16, 1, 16, 16, -1, -6.8513386461355354, 1.3188120005657555, 3.919344945738267, 1.8875988495, ABplaa, 0, 0, 0, 0, , 0, 0, 0, 0, 0, 
23, 1, 23, 23, -1, -5.757531873623259, -6.262224940217657, 0.06407728663560995, 1.9843987904999998, ABalpa, 0, 0, 0, 0, , 0, 0, 0, 0, 0, 
4, 1, 4, 4, -1, 12.456064409858417, -3.130007042801595, -0.1201521395589772, 2.0583895500000002, P4, 0, 0, 0, 0, , 0, 0, 0, 0, 0, 
12, 1, 12, 12, -1, -4.187746961935945, 3.4271850324261157, -4.13934168304852, 1.9843987904999998, ABarap, 0, 0, 0, 0, , 0, 0, 0, 0, 0, 
6, 1, 6, 6, -1, -5.152041018190594, -6.389391844212845, 0.2741250806191062, 1.9843987904999998, ABalpp, 0, 0, 0, 0, , 0, 0, 0, 0, 0, 
19, 1, 19, 19, -1, -10.363519440410794, 1.1135152507032489, -2.1330791414329253, 1.9843987904999998, ABalaa, 0, 0, 0, 0, , 0, 0, 0, 0, 0, 
21, 1, 21, 21, -1, 12.670939410644397, -3.1162108978894003, 0.004521513107766863, 2.0583895500000002, D, 0, 0, 0, 0, , 0, 0, 0, 0, 0, 
7, 1, 7, 7, -1, 8.750623058952053, -1.9559039104786355, 0.6809072274930055, 2.0583895500000002, Ep, 0, 0, 0, 0, , 0, 0, 0, 0, 0, 
17, 1, 17, 17, -1, 8.27728952902523, 0.041210710216739305, -2.698972202982251, 1.8875988495, ABprpa, 0, 0, 0, 0, , 0, 0, 0, 0, 0, 
13, 1, 13, 13, -1, 6.3077664019638044, -2.7187016702029143, 0.08171243677127246, 2.0583895500000002, Ea, 0, 0, 0, 0, , 0, 0, 0, 0, 0, 
22, 1, 22, 22, -1, 2.9283234089834704, 6.083763161436898, -2.1811743318912282, 1.8875988495, ABpraa, 0, 0, 0, 0, , 0, 0, 0, 0, 0, 
5, 1, 5, 5, -1, 1.7614093340393262, -4.8558256741503465, 3.5648690990137784, 1.8875988495, ABplpp, 0, 0, 0, 0, , 0, 0, 0, 0, 0, 
20, 1, 20, 20, -1, 1.1111507541071999, -5.009868584416027, 3.4747241426379496, 1.8875988495, ABplpa, 0, 0, 0, 0, , 0, 0, 0, 0, 0, 
15, 1, 15, 15, -1, 4.690610383216145, 1.4209894217181662, 3.3769951266610203, 2.0583895500000002, Ca, 0, 0, 0, 0, , 0, 0, 0, 0, 0, 
8, 1, 8, 8, -1, 8.166502547554249, 2.5624438349185685, 3.312304972146647, 2.0583895500000002, Cp, 0, 0, 0, 0, , 0, 0, 0, 0, 0, 
10, 1, 10, 10, -1, 3.7339725982006455, 5.898605361172691, -1.909951707370149, 1.8875988495, ABprap, 0, 0, 0, 0, , 0, 0, 0, 0, 0, 
14, 1, 14, 14, -1, -3.9241265420593696, -2.932075665193589, -0.8739535411895992, 2.0583895500000002, MSa, 0, 0, 0, 0, , 0, 0, 0, 0, 0, 
24, 1, 24, 24, -1, -1.0239031789122588, 5.168396843544933, 2.341588238146952, 1.9843987904999998, ABarpa, 0, 0, 0, 0, , 0, 0, 0, 0, 0, 
