9, 1, 9, 9, -1, -3.2433842842301646, 0.9125269632959124, 3.512213657286523, 1.8875988495, ABplap, 0, 0, 0, 0, , 0, 0, 0, 0, 0, 
16, 1, 16, 16, -1, -6.592325052017633, 0.9111896888089908, 3.9883442110564573, 1.8875988495, ABplaa, 0, 0, 0, 0, , 0, 0, 0, 0, 0, 
15, 1, 15, 15, -1, 3.440270690510572, 0.43127938954541123, 3.063118551100244, 2.0583895500000002, Ca, 0, 0, 0, 0, , 0, 0, 0, 0, 0, 
6, 1, 6, 6, -1, -4.645758836369633, -5.964451374509391, 1.2555369726546115, 1.9843987904999998, ABalpp, 0, 0, 0, 0, , 0, 0, 0, 0, 0, 
3, 1, 3, 3, -1, 1.0828233399009692, 0.09710606706069567, -2.338345823348753, 2.0583895500000002, MSp, 0, 0, 0, 0, , 0, 0, 0, 0, 0, 
18, 1, 18, 18, -1, -5.797856449272961, 2.6678260072016906, -3.6641383812563975, 1.9843987904999998, ABaraa, 0, 0, 0, 0, , 0, 0, 0, 0, 0, 
10, 1, 10, 10, -1, 5.075984686084975, 5.711649592121435, -0.9763431983323936, 1.8875988495, ABprap, 0, 0, 0, 0, , 0, 0, 0, 0, 0, 
8, 1, 8, 8, -1, 9.337182272795612, 2.367776677611737, 2.9533705775211327, 2.0583895500000002, Cp, 0, 0, 0, 0, , 0, 0, 0, 0, 0, 
7, 1, 7, 7, -1, 8.533993642179135, -1.5416382655233682, 0.7758431576760831, 2.0583895500000002, Ep, 0, 0, 0, 0, , 0, 0, 0, 0, 0, 
22, 1, 22, 22, -1, 2.1944296105414858, 6.373901110857832, -1.9464216651777257, 1.8875988495, ABpraa, 0, 0, 0, 0, , 0, 0, 0, 0, 0, 
2, 1, 2, 2, -1, 0.42847761459719064, 5.066753449015582, 2.4350544718303233, 1.9843987904999998, ABarpp, 0, 0, 0, 0, , 0, 0, 0, 0, 0, 
23, 1, 23, 23, -1, -7.107499029625069, -5.447429728339174, 0.4015470365319354, 1.9843987904999998, ABalpa, 0, 0, 0, 0, , 0, 0, 0, 0, 0, 
24, 1, 24, 24, -1, -2.3382141282673787, 5.179648342253451, 2.379467617192643, 1.9843987904999998, ABarpa, 0, 0, 0, 0, , 0, 0, 0, 0, 0, 
21, 1, 21, 21, -1, 12.276929211374945, -3.2563161331210337, -0.18574183791216808, 2.0583895500000002, D, 0, 0, 0, 0, , 0, 0, 0, 0, 0, 
5, 1, 5, 5, -1, 3.131710722298988, -4.887209143025523, 3.491394193854502, 1.8875988495, ABplpp, 0, 0, 0, 0, , 0, 0, 0, 0, 0, 
19, 1, 19, 19, -1, -10.465718554499933, 0.5882708360299562, -2.13065842705896, 1.9843987904999998, ABalaa, 0, 0, 0, 0, , 0, 0, 0, 0, 0, 
20, 1, 20, 20, -1, 0.8161557791259735, -5.435752189337458, 3.1703902028576483, 1.8875988495, ABplpa, 0, 0, 0, 0, , 0, 0, 0, 0, 0, 
4, 1, 4, 4, -1, 11.501510730277712, -3.3061022212824325, -0.6356511062312842, 2.0583895500000002, P4, 0, 0, 0, 0, , 0, 0, 0, 0, 0, 
11, 1, 11, 11, -1, -9.645958566395105, 1.736548583224339, -0.23644548778899108, 1.9843987904999998, ABalap, 0, 0, 0, 0, , 0, 0, 0, 0, 0, 
14, 1, 14, 14, 25, -5.910793563732374, -4.236584691233263, -1.2598608312476864, 2.0583895500000002, MSa, 0, 0, 0, 0, , 0, 0, 0, 0, 0, 
17, 1, 17, 17, -1, 7.27181432982268, 1.3014725599078643, -2.8194079650259933, 1.8875988495, ABprpa, 0, 0, 0, 0, , 0, 0, 0, 0, 0, 
12, 1, 12, 12, -1, -3.623289901798989, 3.8798529805123474, -3.494940174440643, 1.9843987904999998, ABarap, 0, 0, 0, 0, , 0, 0, 0, 0, 0, 
13, 1, 13, 13, -1, 4.777436862354546, -2.7146473685053496, -0.14558186621226896, 2.0583895500000002, Ea, 0, 0, 0, 0, , 0, 0, 0, 0, 0, 
1, 1, 1, 1, -1, 10.038436587857936, 0.8221009887837578, -2.1044854295427893, 1.8875988495, ABprpp, 0, 0, 0, 0, , 0, 0, 0, 0, 0, 
