11, 1, 11, 11, -1, -9.030864352195511, 2.1068835490839746, 1.4915825206557887, 1.9843987904999998, ABalap, 0, 0, 0, 0, , 0, 0, 0, 0, 0, 
7, 1, 7, 7, -1, 8.255470106328241, -1.0090110077237389, 0.8979036393400401, 2.0583895500000002, Ep, 0, 0, 0, 0, , 0, 0, 0, 0, 0, 
22, 1, 22, 22, -1, 1.2508518696875055, 6.7469356172561765, -1.6445968079746511, 1.8875988495, ABpraa, 0, 0, 0, 0, , 0, 0, 0, 0, 0, 
17, 1, 17, 17, -1, 5.979060502276544, 2.921809223796453, -2.9742539447965193, 1.8875988495, ABprpa, 0, 0, 0, 0, , 0, 0, 0, 0, 0, 
25, 1, 25, 25, -1, -5.967743748253654, -4.1536965685009335, -1.9134206980086197, 1.7907989085000002, MSaa, 0, 0, 0, 0, , 0, 0, 0, 0, 0, 
2, 1, 2, 2, -1, 1.500226961208772, 4.968533446578991, 2.5392406368960483, 1.9843987904999998, ABarpp, 0, 0, 0, 0, , 0, 0, 0, 0, 0, 
6, 1, 6, 6, -1, -3.9948246025998264, -5.418099342033521, 2.517352262414503, 1.9843987904999998, ABalpp, 0, 0, 0, 0, , 0, 0, 0, 0, 0, 
26, 1, 26, 26, -1, 0.32741128344800224, -0.09685926156583757, -2.611257789955661, 1.7907989085000002, MSpa, 0, 0, 0, 0, , 0, 0, 0, 0, 0, 
24, 1, 24, 24, -1, -4.028042491723965, 5.194114554878688, 2.4281696759656746, 1.9843987904999998, ABarpa, 0, 0, 0, 0, , 0, 0, 0, 0, 0, 
16, 1, 16, 16, -1, -6.259307573866043, 0.38710385940738923, 4.077057552179845, 1.8875988495, ABplaa, 0, 0, 0, 0, , 0, 0, 0, 0, 0, 
19, 1, 19, 19, -1, -10.597117415471683, -0.0870434114071233, -2.127546080006719, 1.9843987904999998, ABalaa, 0, 0, 0, 0, , 0, 0, 0, 0, 0, 
27, 1, 27, 27, -1, 10.277574624944517, 2.186024217732907, 2.7089424116869742, 1.7907989085000002, Cpa, 0, 0, 0, 0, , 0, 0, 0, 0, 0, 
13, 1, 13, 13, -1, 2.8098703114285013, -2.709434694894195, -0.4378173986196765, 2.0583895500000002, Ea, 0, 0, 0, 0, , 0, 0, 0, 0, 0, 
3, 1, 3, 3, -1, 2.1933104267555725, 0.5177326906965409, -2.921371105759887, 1.7907989085000002, MSpp, 0, 0, 0, 0, , 0, 0, 0, 0, 0, 
20, 1, 20, 20, -1, 0.4368765255786824, -5.98331682423644, 2.7791037088544037, 1.8875988495, ABplpa, 0, 0, 0, 0, , 0, 0, 0, 0, 0, 
14, 1, 14, 14, -1, -4.182557200402242, -5.04158898285416, -1.4717926342050978, 1.7907989085000002, MSap, 0, 0, 0, 0, , 0, 0, 0, 0, 0, 
15, 1, 15, 15, -1, 2.472109839357148, -0.7914642593321471, 2.8054356627025125, 1.7907989085000002, Cap, 0, 0, 0, 0, , 0, 0, 0, 0, 0, 
10, 1, 10, 10, -1, 6.801428799079065, 5.471277889055535, 0.2240105990018769, 1.8875988495, ABprap, 0, 0, 0, 0, , 0, 0, 0, 0, 0, 
1, 1, 1, 1, -1, 11.139875098996155, 2.027596869968775, -1.6406484459143886, 1.8875988495, ABprpp, 0, 0, 0, 0, , 0, 0, 0, 0, 0, 
8, 1, 8, 8, -1, 10.624928270515392, 1.8069176706661556, 2.611468783454956, 1.7907989085000002, Cpp, 0, 0, 0, 0, , 0, 0, 0, 0, 0, 
28, 1, 28, 28, -1, 2.1923223559787983, -0.5324912314216207, 2.7801559962016373, 1.7907989085000002, Caa, 0, 0, 0, 0, , 0, 0, 0, 0, 0, 
12, 1, 12, 12, -1, -2.897559395908617, 4.461854628051978, -2.6664239490877097, 1.9843987904999998, ABarap, 0, 0, 0, 0, , 0, 0, 0, 0, 0, 
23, 1, 23, 23, -1, -8.843171087341682, -4.399835884495411, 0.835436714970075, 1.9843987904999998, ABalpa, 0, 0, 0, 0, , 0, 0, 0, 0, 0, 
21, 1, 21, 21, -1, 11.770344669457078, -3.4364514355617053, -0.4303661463663774, 2.0583895500000002, D, 0, 0, 0, 0, , 0, 0, 0, 0, 0, 
4, 1, 4, 4, -1, 10.274227427959662, -3.532510307900652, -1.2984354919527996, 2.0583895500000002, P4, 0, 0, 0, 0, , 0, 0, 0, 0, 0, 
5, 1, 5, 5, -1, 4.893526792918453, -4.927559317293608, 3.396926458649718, 1.8875988495, ABplpp, 0, 0, 0, 0, , 0, 0, 0, 0, 0, 
18, 1, 18, 18, -1, -7.003484390152236, 2.1733563297612717, -2.98589687906195, 1.9843987904999998, ABaraa, 0, 0, 0, 0, , 0, 0, 0, 0, 0, 
9, 1, 9, 9, -1, -0.2192536891064898, 0.38951572946416496, 3.218322089130499, 1.8875988495, ABplap, 0, 0, 0, 0, , 0, 0, 0, 0, 0, 
