31, 1, 31, 31, -1, -3.390055971901581, -2.388369938051283, 4.808479977716417, 1.7245966499999996, ABarapa, 0, 0, 0, 0, , 0, 0, 0, 0, 0, 
32, 1, 32, 32, -1, -8.987472114820529, 2.1496076637580575, 2.514898219662445, 1.7245966499999996, ABalapa, 0, 0, 0, 0, , 0, 0, 0, 0, 0, 
41, 1, 41, 41, -1, -0.19181318093466163, -0.9716150143291511, 7.001290385566441, 1.6133323499999999, ABpraaa, 0, 0, 0, 0, , 0, 0, 0, 0, 0, 
36, 1, 36, 36, -1, -5.6144145154775185, 2.0689824577266096, 5.3714254258441745, 1.7245966499999996, ABarpaa, 0, 0, 0, 0, , 0, 0, 0, 0, 0, 
42, 1, 42, 42, -1, -10.762449908548364, -1.8003535812370663, -0.3636945055678903, 1.7245966499999996, ABalaaa, 0, 0, 0, 0, , 0, 0, 0, 0, 0, 
25, 1, 25, 25, -1, -1.636593030349772, -2.7284279370400273, -0.6976690244544348, 1.7245966499999996, MSpa, 0, 0, 0, 0, , 0, 0, 0, 0, 0, 
4, 1, 4, 4, -1, 8.268091689066319, -2.3644937345791366, -4.154397679556404, 1.9822949999999997, P4, 0, 0, 0, 0, , 0, 0, 0, 0, 0, 
27, 1, 27, 27, -1, 2.646511902137629, 3.135588942433076, 0.024113820722303992, 1.83586095, Caa, 0, 0, 0, 0, , 0, 0, 0, 0, 0, 
24, 1, 24, 24, 47, 11.023391372818947, -0.790813995325157, -3.72310505034221, 1.9822949999999997, D, 0, 0, 0, 0, , 0, 0, 0, 0, 0, 
34, 1, 34, 34, -1, -7.9573600362813846, -2.565631334290852, 2.3371075568445785, 1.7245966499999996, ABaraaa, 0, 0, 0, 0, , 0, 0, 0, 0, 0, 
23, 1, 23, 23, -1, -9.712542763306962, -2.0628410641550166, -0.8189795156551204, 1.7245966499999996, ABalaap, 0, 0, 0, 0, , 0, 0, 0, 0, 0, 
16, 1, 16, 16, -1, -5.608353332171718, 3.613614907734852, -0.9884230245929034, 1.83586095, ABplaap, 0, 0, 0, 0, , 0, 0, 0, 0, 0, 
17, 1, 17, 17, -1, 1.3038855432928986, -1.5084433272536542, 6.723747610133409, 1.6133323499999999, ABpraap, 0, 0, 0, 0, , 0, 0, 0, 0, 0, 
26, 1, 26, 26, -1, -5.78191250222907, -2.97539128191398, -3.8819518227971574, 1.7245966499999996, MSaa, 0, 0, 0, 0, , 0, 0, 0, 0, 0, 
6, 1, 6, 6, -1, -7.327982608331988, 1.6874953836449773, 1.6107470746148365, 1.7245966499999996, ABalapp, 0, 0, 0, 0, , 0, 0, 0, 0, 0, 
2, 1, 2, 2, -1, 2.6570478207909476, 2.2619255566974017, 4.736632758859735, 1.7245966499999996, ABarppp, 0, 0, 0, 0, , 0, 0, 0, 0, 0, 
38, 1, 38, 38, -1, -4.909185300992981, 3.130297236482106, -5.117219965668509, 1.7245966499999996, ABalppa, 0, 0, 0, 0, , 0, 0, 0, 0, 0, 
30, 1, 30, 30, -1, 6.316612342900646, 0.9696819748924996, 5.873368225046887, 1.6133323499999999, ABprapa, 0, 0, 0, 0, , 0, 0, 0, 0, 0, 
15, 1, 15, 15, -1, 5.130134152463707, 3.3618668556055216, -2.2588401822115447, 1.83586095, Cap, 0, 0, 0, 0, , 0, 0, 0, 0, 0, 
35, 1, 35, 35, -1, 1.045789411557028, 2.842916986024547, 4.996285387785787, 1.7245966499999996, ABarppa, 0, 0, 0, 0, , 0, 0, 0, 0, 0, 
45, 1, 45, 45, -1, 0.51687399571488, -0.7114928888441674, -2.678870344555715, 1.83586095, Eal, 0, 0, 0, 0, , 0, 0, 0, 0, 0, 
12, 1, 12, 12, -1, 11.552756725080481, 2.6116475612041317, -0.18804181711813042, 1.83586095, Cpp, 0, 0, 0, 0, , 0, 0, 0, 0, 0, 
10, 1, 10, 10, -1, 4.190179688052671, -3.714836501732782, 1.2107556220674052, 1.7245966499999996, MSpp, 0, 0, 0, 0, , 0, 0, 0, 0, 0, 
7, 1, 7, 7, -1, -3.173449674909033, 2.2104707746210885, -5.281915257438241, 1.7245966499999996, ABalppp, 0, 0, 0, 0, , 0, 0, 0, 0, 0, 
11, 1, 11, 11, -1, 11.983663533310992, -1.399814571656665, 2.0995239317802934, 1.6133323499999999, ABprppp, 0, 0, 0, 0, , 0, 0, 0, 0, 0, 
5, 1, 5, 5, -1, 7.880914165048468, 1.0165199876885966, -0.24030910337245232, 1.83586095, Epr, 0, 0, 0, 0, , 0, 0, 0, 0, 0, 
18, 1, 18, 18, -1, 0.810543556229415, 1.9112276499485543, -6.5738896765897845, 1.7245966499999996, ABplpap, 0, 0, 0, 0, , 0, 0, 0, 0, 0, 
28, 1, 28, 28, -1, 9.351778247722688, 3.2291149217736077, 2.2088025406511402, 1.83586095, Cpa, 0, 0, 0, 0, , 0, 0, 0, 0, 0, 
13, 1, 13, 13, -1, -1.2110389447901384, -1.8722640500107008, -6.236797130755944, 1.7245966499999996, MSap, 0, 0, 0, 0, , 0, 0, 0, 0, 0, 
40, 1, 40, 40, -1, -0.6816363760504389, 2.8205217668497453, -6.317145461581204, 1.7245966499999996, ABplpaa, 0, 0, 0, 0, , 0, 0, 0, 0, 0, 
46, 1, 46, 46, -1, 7.798286138147654, 1.0524380889456533, -0.39687280934333263, 1.83586095, Epl, 0, 0, 0, 0, , 0, 0, 0, 0, 0, 
44, 1, 44, 44, -1, 5.08373099313704, 3.36841362234549, -5.169050982018441, 1.7245966499999996, ABplppa, 0, 0, 0, 0, , 0, 0, 0, 0, 0, 
33, 1, 33, 33, -1, -6.933149463593367, 3.917317306616855, 0.550051451565535, 1.83586095, ABplaaa, 0, 0, 0, 0, , 0, 0, 0, 0, 0, 
22, 1, 22, 22, -1, -9.11835230486768, 0.5011637277924618, -4.239634306441617, 1.7245966499999996, ABalpap, 0, 0, 0, 0, , 0, 0, 0, 0, 0, 
37, 1, 37, 37, -1, -10.195705265222623, 1.1641399962938603, -3.1880130751023152, 1.7245966499999996, ABalpaa, 0, 0, 0, 0, , 0, 0, 0, 0, 0, 
43, 1, 43, 43, -1, 11.75694377442847, -1.2105271911128401, 3.2533975743253203, 1.6133323499999999, ABprppa, 0, 0, 0, 0, , 0, 0, 0, 0, 0, 
20, 1, 20, 20, -1, -4.10396748496163, 1.3314285026404293, 4.335032224745509, 1.7245966499999996, ABarpap, 0, 0, 0, 0, , 0, 0, 0, 0, 0, 
3, 1, 3, 3, -1, 6.259438901768751, 2.802156584019704, -5.342549558748832, 1.7245966499999996, ABplppp, 0, 0, 0, 0, , 0, 0, 0, 0, 0, 
8, 1, 8, 8, -1, 8.15072575444513, 0.7995430372917667, 4.53996310689837, 1.6133323499999999, ABprapp, 0, 0, 0, 0, , 0, 0, 0, 0, 0, 
39, 1, 39, 39, -1, 5.664668758354333, -2.932780821434974, 4.544808012985155, 1.6133323499999999, ABprpaa, 0, 0, 0, 0, , 0, 0, 0, 0, 0, 
21, 1, 21, 21, -1, -6.408927917776904, -3.019818300089271, 1.636197720071017, 1.7245966499999996, ABaraap, 0, 0, 0, 0, , 0, 0, 0, 0, 0, 
1, 1, 1, 1, -1, 0.4361183870127932, 3.08950923974299, -0.9603564679861554, 1.83586095, ABplapp, 0, 0, 0, 0, , 0, 0, 0, 0, 0, 
29, 1, 29, 29, -1, -1.3844521404885866, 3.306243558694657, 0.8533193969016202, 1.83586095, ABplapa, 0, 0, 0, 0, , 0, 0, 0, 0, 0, 
9, 1, 9, 9, -1, -1.432369519989332, -2.6808000523528843, 4.444928547002175, 1.7245966499999996, ABarapp, 0, 0, 0, 0, , 0, 0, 0, 0, 0, 
14, 1, 14, 14, -1, 0.5811977263224629, -0.6662447915769044, -2.3465512710538303, 1.83586095, Ear, 0, 0, 0, 0, , 0, 0, 0, 0, 0, 
19, 1, 19, 19, -1, 6.985716725805931, -3.0459212761705894, 3.2551063523166675, 1.6133323499999999, ABprpap, 0, 0, 0, 0, , 0, 0, 0, 0, 0, 
