5, 1, 5, 5, -1, 7.776950091181268, 0.39683473905483546, 0.6149041398840398, 1.83586095, Epr, 0, 0, 0, 0, , 0, 0, 0, 0, 0, 
17, 1, 17, 17, -1, 2.830088213786358, -1.669112093129221, 6.115256470628624, 1.6133323499999999, ABpraap, 0, 0, 0, 0, , 0, 0, 0, 0, 0, 
42, 1, 42, 42, -1, -10.921961447752588, -1.0651007885291608, 0.11994341161808128, 1.7245966499999996, ABalaaa, 0, 0, 0, 0, , 0, 0, 0, 0, 0, 
3, 1, 3, 3, -1, 6.13582679381133, 1.507932865332311, -6.297136006683701, 1.7245966499999996, ABplppp, 0, 0, 0, 0, , 0, 0, 0, 0, 0, 
22, 1, 22, 22, -1, -7.009129880066128, -0.8790786728395739, -5.525287184338613, 1.7245966499999996, ABalpap, 0, 0, 0, 0, , 0, 0, 0, 0, 0, 
2, 1, 2, 2, -1, 3.3638562859879384, 1.5146501615697343, 4.403553861868585, 1.7245966499999996, ABarppp, 0, 0, 0, 0, , 0, 0, 0, 0, 0, 
43, 1, 43, 43, -1, 11.290373731229037, -0.9571618450890881, 4.163162876551777, 1.6133323499999999, ABprppa, 0, 0, 0, 0, , 0, 0, 0, 0, 0, 
48, 1, 48, 48, -1, -2.077851110147246, -2.710545823167555, 0.4084376988580727, 1.5003990854999996, MSpaa, 0, 0, 0, 0, , 0, 0, 0, 0, 0, 
44, 1, 44, 44, -1, 2.028035592259462, 3.486371270631941, -5.690951492875073, 1.7245966499999996, ABplppa, 0, 0, 0, 0, , 0, 0, 0, 0, 0, 
9, 1, 9, 9, -1, 0.5896141361656567, -3.4123530888252276, 3.918835124106124, 1.7245966499999996, ABarapp, 0, 0, 0, 0, , 0, 0, 0, 0, 0, 
50, 1, 50, 50, -1, 4.483456464929279, -3.588765924348555, 2.2593149113196325, 1.5003990854999996, MSppa, 0, 0, 0, 0, , 0, 0, 0, 0, 0, 
38, 1, 38, 38, -1, -7.553828964131771, 2.674694004979067, -5.248263500586079, 1.7245966499999996, ABalppa, 0, 0, 0, 0, , 0, 0, 0, 0, 0, 
57, 1, 57, 57, -1, 12.643655478946384, 2.5333466680786305, -2.7445859161830284, 1.5971990265, Cppa, 0, 0, 0, 0, , 0, 0, 0, 0, 0, 
20, 1, 20, 20, 58, -2.0432657373003567, -0.8338172721502158, 2.663105513597918, 1.7245966499999996, ABarpap, 0, 0, 0, 0, , 0, 0, 0, 0, 0, 
6, 1, 6, 6, -1, -4.780149477109225, 0.3227651800012496, 0.3125090863387816, 1.7245966499999996, ABalapp, 0, 0, 0, 0, , 0, 0, 0, 0, 0, 
27, 1, 27, 27, -1, 3.8174888168082153, 3.393303223183179, 0.07510468113061555, 1.5971990265, Caap, 0, 0, 0, 0, , 0, 0, 0, 0, 0, 
34, 1, 34, 34, -1, -8.636339720265047, -2.3705819118462634, 3.0552050354852986, 1.7245966499999996, ABaraaa, 0, 0, 0, 0, , 0, 0, 0, 0, 0, 
1, 1, 1, 1, -1, 0.04508417193809025, 3.0206868239170768, -2.937051590143229, 1.83586095, ABplapp, 0, 0, 0, 0, , 0, 0, 0, 0, 0, 
47, 1, 47, 47, -1, 9.409432984080345, -1.0130464707081714, -4.607005258599553, 1.7245966499999996, Da, 0, 0, 0, 0, , 0, 0, 0, 0, 0, 
40, 1, 40, 40, -1, -2.538006573985074, 3.493949716900621, -6.223219059322303, 1.7245966499999996, ABplpaa, 0, 0, 0, 0, , 0, 0, 0, 0, 0, 
54, 1, 54, 54, -1, -4.460916029516316, 3.599470957116019, 1.6166373382517882, 1.5971990265, ABplapaa, 0, 0, 0, 0, , 0, 0, 0, 0, 0, 
11, 1, 11, 11, -1, 12.12089023700496, -1.6505566098488627, -0.0636901795595156, 1.6133323499999999, ABprppp, 0, 0, 0, 0, , 0, 0, 0, 0, 0, 
4, 1, 4, 4, -1, 6.120216274045449, -3.535766246256971, -4.38610451290164, 1.9822949999999997, P4, 0, 0, 0, 0, , 0, 0, 0, 0, 0, 
51, 1, 51, 51, -1, -0.2111200659226235, -2.0357575114903486, -6.105484776192343, 1.5003990854999996, MSapa, 0, 0, 0, 0, , 0, 0, 0, 0, 0, 
21, 1, 21, 21, -1, -4.321881750841879, -3.636101110769704, 1.1022320927414524, 1.7245966499999996, ABaraap, 0, 0, 0, 0, , 0, 0, 0, 0, 0, 
19, 1, 19, 19, -1, 10.005980108781571, -3.0513840940610875, 2.5387640797502704, 1.6133323499999999, ABprpap, 0, 0, 0, 0, , 0, 0, 0, 0, 0, 
52, 1, 52, 52, -1, 3.2848858727673416, 3.4536318588780905, 0.191254545775641, 1.5971990265, Caaa, 0, 0, 0, 0, , 0, 0, 0, 0, 0, 
39, 1, 39, 39, -1, 6.156847850897874, -2.721727196867071, 6.296562727063894, 1.6133323499999999, ABprpaa, 0, 0, 0, 0, , 0, 0, 0, 0, 0, 
25, 1, 25, 25, -1, 0.781006517592203, -3.0885605175990216, -0.7581044999043416, 1.5003990854999996, MSpap, 0, 0, 0, 0, , 0, 0, 0, 0, 0, 
30, 1, 30, 30, -1, 4.199456395861132, 1.3053580453334304, 6.721746363958934, 1.4035991444999998, ABprapap, 0, 0, 0, 0, , 0, 0, 0, 0, 0, 
26, 1, 26, 26, -1, -2.995736267785839, -3.2176540474951314, -3.3734310029941996, 1.5003990854999996, MSaap, 0, 0, 0, 0, , 0, 0, 0, 0, 0, 
33, 1, 33, 33, -1, -8.364915687052807, 3.5683440588964785, 1.2036590353423449, 1.83586095, ABplaaa, 0, 0, 0, 0, , 0, 0, 0, 0, 0, 
41, 1, 41, 41, -1, -1.857268875947755, 0.01324943984335731, 6.985045335897833, 1.6133323499999999, ABpraaa, 0, 0, 0, 0, , 0, 0, 0, 0, 0, 
10, 1, 10, 10, -1, 5.921915214490896, -3.773414387152314, 0.8733421070853489, 1.5003990854999996, MSppp, 0, 0, 0, 0, , 0, 0, 0, 0, 0, 
24, 1, 24, 24, -1, 10.777864197892054, -1.874932836773229, -2.4675801328378157, 1.7245966499999996, Dp, 0, 0, 0, 0, , 0, 0, 0, 0, 0, 
53, 1, 53, 53, -1, -4.792269084623983, 2.8002995817399787, -2.99616256677114, 1.5971990265, ABplaapa, 0, 0, 0, 0, , 0, 0, 0, 0, 0, 
12, 1, 12, 12, -1, 12.65242368706445, 2.5707581899894723, -2.785595037863083, 1.5971990265, Cppp, 0, 0, 0, 0, , 0, 0, 0, 0, 0, 
15, 1, 15, 15, -1, 8.29868873224908, 4.009842692582188, -4.2359462838205655, 1.83586095, Cap, 0, 0, 0, 0, , 0, 0, 0, 0, 0, 
37, 1, 37, 37, -1, -10.35693742629306, 1.1810789879581485, -2.257439391085633, 1.7245966499999996, ABalpaa, 0, 0, 0, 0, , 0, 0, 0, 0, 0, 
28, 1, 28, 28, -1, 8.287160540523068, 3.861195228880657, 2.045193224161208, 1.5971990265, Cpap, 0, 0, 0, 0, , 0, 0, 0, 0, 0, 
45, 1, 45, 45, -1, 0.4155044227585604, -0.33245572941888063, -2.6712811378134993, 1.83586095, Eal, 0, 0, 0, 0, , 0, 0, 0, 0, 0, 
16, 1, 16, 16, -1, -4.653051346275698, 2.7689741681045286, -3.0173055680411376, 1.5971990265, ABplaapp, 0, 0, 0, 0, , 0, 0, 0, 0, 0, 
46, 1, 46, 46, -1, 6.52375834985226, 0.9415926081201347, -1.7596454006742934, 1.83586095, Epl, 0, 0, 0, 0, , 0, 0, 0, 0, 0, 
14, 1, 14, 14, -1, 0.8924709534902128, 0.0030631805063027788, -0.20710385694107566, 1.83586095, Ear, 0, 0, 0, 0, , 0, 0, 0, 0, 0, 
31, 1, 31, 31, -1, -4.8960585011713125, -2.5929287756055457, 4.937549910524408, 1.7245966499999996, ABarapa, 0, 0, 0, 0, , 0, 0, 0, 0, 0, 
18, 1, 18, 18, -1, 2.185645823104722, 0.6154836270923584, -7.035969854604241, 1.7245966499999996, ABplpap, 0, 0, 0, 0, , 0, 0, 0, 0, 0, 
8, 1, 8, 8, 59, 9.082907491182713, 0.8444883501630895, 3.16721253212021, 1.6133323499999999, ABprapp, 0, 0, 0, 0, , 0, 0, 0, 0, 0, 
56, 1, 56, 56, -1, 4.184870484709343, 1.3054154081099898, 6.72484142155349, 1.4035991444999998, ABprapaa, 0, 0, 0, 0, , 0, 0, 0, 0, 0, 
35, 1, 35, 35, -1, -1.643029349317458, 3.3200450163385318, 5.210408312085076, 1.7245966499999996, ABarppa, 0, 0, 0, 0, , 0, 0, 0, 0, 0, 
23, 1, 23, 23, -1, -7.492264773297341, -1.9225598993944648, -1.3673209546668839, 1.7245966499999996, ABalaap, 0, 0, 0, 0, , 0, 0, 0, 0, 0, 
32, 1, 32, 32, -1, -9.522843531172564, 1.6434467237124095, 2.896503888851985, 1.7245966499999996, ABalapa, 0, 0, 0, 0, , 0, 0, 0, 0, 0, 
36, 1, 36, 36, 60, -6.455136442253545, 1.3205069921409889, 5.690310513417545, 1.7245966499999996, ABarpaa, 0, 0, 0, 0, , 0, 0, 0, 0, 0, 
49, 1, 49, 49, -1, -6.167054315468115, -3.1988135059743716, -2.783189069126279, 1.5003990854999996, MSaaa, 0, 0, 0, 0, , 0, 0, 0, 0, 0, 
55, 1, 55, 55, -1, 8.093698597697998, 3.91907541029257, 2.2261048188543944, 1.5971990265, Cpaa, 0, 0, 0, 0, , 0, 0, 0, 0, 0, 
29, 1, 29, 29, -1, -4.309686855407052, 3.572231320518069, 1.5945630917324793, 1.5971990265, ABplapap, 0, 0, 0, 0, , 0, 0, 0, 0, 0, 
7, 1, 7, 7, -1, -2.4133811484216188, -0.04940743976338249, -5.736014941596439, 1.7245966499999996, ABalppp, 0, 0, 0, 0, , 0, 0, 0, 0, 0, 
13, 1, 13, 13, -1, 1.7270673177937308, -2.1109308934292743, -6.239015660391667, 1.5003990854999996, MSapp, 0, 0, 0, 0, , 0, 0, 0, 0, 0, 
