33, 1, 33, 33, -1, -8.124003724625481, 3.5754232320632005, 0.9605965745752669, 1.5971990265, ABplaaap, 0, 0, 0, 0, , 0, 0, 0, 0, 0, 
72, 1, 72, 72, -1, 0.6502964131015926, -3.476902081412259, 3.9914039930515255, 1.5003990854999996, ABarappa, 0, 0, 0, 0, , 0, 0, 0, 0, 0, 
41, 1, 41, 41, -1, -2.2298314777825885, 0.3184122906355066, 6.953935602201519, 1.4035991444999998, ABpraaap, 0, 0, 0, 0, , 0, 0, 0, 0, 0, 
83, 1, 83, 83, -1, 12.160143973566077, -1.7240725466858466, -0.6949614532006562, 1.4035991444999998, ABprpppa, 0, 0, 0, 0, , 0, 0, 0, 0, 0, 
20, 1, 20, 20, -1, -1.80028711712814, -0.2691765978979016, 2.8042794956352353, 1.5003990854999996, ABarpapp, 0, 0, 0, 0, , 0, 0, 0, 0, 0, 
24, 1, 24, 24, -1, 10.709218508312471, -2.200354778544349, -2.0875120884615908, 1.7245966499999996, Dp, 0, 0, 0, 0, , 0, 0, 0, 0, 0, 
22, 1, 22, 22, -1, -6.522535473498573, -1.2804606111764318, -5.725049595764767, 1.5003990854999996, ABalpapp, 0, 0, 0, 0, , 0, 0, 0, 0, 0, 
5, 1, 5, 5, -1, 7.746372422396798, 0.21457437180960995, 0.8664374467241747, 1.83586095, Epr, 0, 0, 0, 0, , 0, 0, 0, 0, 0, 
71, 1, 71, 71, -1, 8.72907470015613, 3.7274145614748706, -4.484360067035995, 1.5971990265, Capa, 0, 0, 0, 0, , 0, 0, 0, 0, 0, 
54, 1, 54, 54, -1, -4.0465115246615895, 3.7178997957776407, 0.8161960811137146, 1.5971990265, ABplapaa, 0, 0, 0, 0, , 0, 0, 0, 0, 0, 
11, 1, 11, 11, -1, 12.160035305366685, -1.7249171628268227, -0.6963240708759577, 1.4035991444999998, ABprpppp, 0, 0, 0, 0, , 0, 0, 0, 0, 0, 
75, 1, 75, 75, -1, -6.645293927458221, -1.2490586661394847, -5.6760226785350705, 1.5003990854999996, ABalpapa, 0, 0, 0, 0, , 0, 0, 0, 0, 0, 
78, 1, 78, 78, -1, -7.023343652486801, -1.8490024720387641, -1.3533007089504734, 1.5003990854999996, ABalaapa, 0, 0, 0, 0, , 0, 0, 0, 0, 0, 
67, 1, 67, 67, -1, -5.155106418751468, -2.743531455078311, 4.770303162353054, 1.5003990854999996, ABarapaa, 0, 0, 0, 0, , 0, 0, 0, 0, 0, 
63, 1, 63, 63, -1, -9.556487712694931, 1.7087972882781721, 2.646772083488558, 1.5003990854999996, ABalapaa, 0, 0, 0, 0, , 0, 0, 0, 0, 0, 
43, 1, 43, 43, -1, 11.153147247935086, -0.8826426256703098, 4.430740906618272, 1.6133323499999999, ABprppa, 0, 0, 0, 0, , 0, 0, 0, 0, 0, 
21, 1, 21, 21, -1, -4.1569787664278905, -3.704754114394239, 1.0465264158125003, 1.5003990854999996, ABaraapp, 0, 0, 0, 0, , 0, 0, 0, 0, 0, 
17, 1, 17, 17, -1, 3.1627602333230542, -1.4941130172347787, 5.993556485231155, 1.4035991444999998, ABpraapp, 0, 0, 0, 0, , 0, 0, 0, 0, 0, 
73, 1, 73, 73, -1, -10.420674449409587, 0.9534019740303239, -1.9941040186110472, 1.5003990854999996, ABalpaaa, 0, 0, 0, 0, , 0, 0, 0, 0, 0, 
19, 1, 19, 19, -1, 10.315799771574254, -3.0739572910063053, 2.506561221049694, 1.4035991444999998, ABprpapp, 0, 0, 0, 0, , 0, 0, 0, 0, 0, 
6, 1, 6, 6, -1, -4.332300716553496, 0.30582202838049066, 0.264194061126503, 1.5003990854999996, ABalappp, 0, 0, 0, 0, , 0, 0, 0, 0, 0, 
51, 1, 51, 51, -1, -0.6392672065774891, -2.130383553758724, -5.888389932666021, 1.5003990854999996, MSapa, 0, 0, 0, 0, , 0, 0, 0, 0, 0, 
61, 1, 61, 61, -1, 0.3176881029962402, 2.8959280512700736, -3.4852535543237453, 1.5971990265, ABplappa, 0, 0, 0, 0, , 0, 0, 0, 0, 0, 
7, 1, 7, 7, -1, -2.361190888847264, -0.3838809552334477, -5.658113033906374, 1.5003990854999996, ABalpppp, 0, 0, 0, 0, , 0, 0, 0, 0, 0, 
37, 1, 37, 37, -1, -10.310697349774498, 1.1094718033951754, -2.1086795933241556, 1.5003990854999996, ABalpaap, 0, 0, 0, 0, , 0, 0, 0, 0, 0, 
46, 1, 46, 46, -1, 6.148897235647732, 0.9089909961126135, -2.1604608687128115, 1.83586095, Epl, 0, 0, 0, 0, , 0, 0, 0, 0, 0, 
76, 1, 76, 76, -1, -2.363184041334792, 0.22621954756774038, 6.944375019124725, 1.4035991444999998, ABpraaaa, 0, 0, 0, 0, , 0, 0, 0, 0, 0, 
18, 1, 18, 18, -1, 2.1648228712645396, 0.11799349942685611, -6.967243952549508, 1.5003990854999996, ABplpapp, 0, 0, 0, 0, , 0, 0, 0, 0, 0, 
25, 1, 25, 25, -1, 1.6499444526985512, -3.2087576488051672, -0.7595279469551384, 1.5003990854999996, MSpap, 0, 0, 0, 0, , 0, 0, 0, 0, 0, 
55, 1, 55, 55, -1, 8.146772069402399, 3.9409583067427905, 2.1651804846418967, 1.5971990265, Cpaa, 0, 0, 0, 0, , 0, 0, 0, 0, 0, 
48, 1, 48, 48, -1, -2.148296842425192, -2.7065322114060777, 0.7903249414334799, 1.5003990854999996, MSpaa, 0, 0, 0, 0, , 0, 0, 0, 0, 0, 
12, 1, 12, 12, -1, 12.574494983510286, 2.172499444836093, -2.5660575074057688, 1.5971990265, Cppp, 0, 0, 0, 0, , 0, 0, 0, 0, 0, 
62, 1, 62, 62, -1, -1.7480134100888538, 3.412304936747794, 4.673310346671653, 1.5003990854999996, ABarppaa, 0, 0, 0, 0, , 0, 0, 0, 0, 0, 
10, 1, 10, 10, -1, 6.3297092003742055, -3.6923484837449183, 0.5808959653534098, 1.5003990854999996, MSppp, 0, 0, 0, 0, , 0, 0, 0, 0, 0, 
30, 1, 30, 30, -1, 4.698943577484114, 1.6908390475095105, 6.366813669009472, 1.4035991444999998, ABprapap, 0, 0, 0, 0, , 0, 0, 0, 0, 0, 
49, 1, 49, 49, -1, -6.341883463424083, -3.2387844227913054, -2.460810930386514, 1.5003990854999996, MSaaa, 0, 0, 0, 0, , 0, 0, 0, 0, 0, 
74, 1, 74, 74, -1, 6.010929540345169, -2.610483283938145, 6.718154304367547, 1.4035991444999998, ABprpaaa, 0, 0, 0, 0, , 0, 0, 0, 0, 0, 
32, 1, 32, 32, -1, -9.252815362445443, 1.811789813266348, 2.632490015252891, 1.5003990854999996, ABalapap, 0, 0, 0, 0, , 0, 0, 0, 0, 0, 
70, 1, 70, 70, -1, -2.589019603141087, -0.3669226945246442, -5.6551290411344395, 1.5003990854999996, ABalpppa, 0, 0, 0, 0, , 0, 0, 0, 0, 0, 
84, 1, 84, 84, -1, 6.055382236037572, 1.129718852749693, -6.545217683453711, 1.5003990854999996, ABplpppa, 0, 0, 0, 0, , 0, 0, 0, 0, 0, 
53, 1, 53, 53, -1, -5.091621599595023, 2.916356268028136, -3.191790084449971, 1.5971990265, ABplaapa, 0, 0, 0, 0, , 0, 0, 0, 0, 0, 
16, 1, 16, 16, -1, -4.278769643432461, 2.733456272285669, -3.315237930574797, 1.5971990265, ABplaapp, 0, 0, 0, 0, , 0, 0, 0, 0, 0, 
13, 1, 13, 13, -1, 2.2428426042734557, -2.2421673489795397, -6.086952091637743, 1.5003990854999996, MSapp, 0, 0, 0, 0, , 0, 0, 0, 0, 0, 
27, 1, 27, 27, -1, 4.938663415568503, 3.32588457209068, -0.4267188706963315, 1.5971990265, Caap, 0, 0, 0, 0, , 0, 0, 0, 0, 0, 
66, 1, 66, 66, -1, -4.701235835389575, -3.6296494849467567, 1.066754497919215, 1.5003990854999996, ABaraapa, 0, 0, 0, 0, , 0, 0, 0, 0, 0, 
81, 1, 81, 81, -1, 2.9395137510135747, -1.505241690654857, 6.0282578780093985, 1.4035991444999998, ABpraapa, 0, 0, 0, 0, , 0, 0, 0, 0, 0, 
1, 1, 1, 1, -1, 0.8213200283291723, 2.803729664367307, -3.3753764784420857, 1.5971990265, ABplappp, 0, 0, 0, 0, , 0, 0, 0, 0, 0, 
79, 1, 79, 79, -1, 10.100002071945186, -3.065508578865878, 2.6087646915591773, 1.4035991444999998, ABprpapa, 0, 0, 0, 0, , 0, 0, 0, 0, 0, 
65, 1, 65, 65, -1, -8.532657068407872, 3.515322512123503, 0.9211888903256401, 1.5971990265, ABplaaaa, 0, 0, 0, 0, , 0, 0, 0, 0, 0, 
15, 1, 15, 15, -1, 8.907101806406938, 3.7851402971011074, -4.485284630144223, 1.5971990265, Capp, 0, 0, 0, 0, , 0, 0, 0, 0, 0, 
68, 1, 68, 68, -1, -4.754710962927623, 0.33249952194019694, 0.24334094821920468, 1.5003990854999996, ABalappa, 0, 0, 0, 0, , 0, 0, 0, 0, 0, 
57, 1, 57, 57, -1, 12.516095408686182, 1.9233245913544406, -2.2929212818763474, 1.5971990265, Cppa, 0, 0, 0, 0, , 0, 0, 0, 0, 0, 
50, 1, 50, 50, -1, 4.254764278440192, -3.4259971612934783, 2.580131072346226, 1.5003990854999996, MSppa, 0, 0, 0, 0, , 0, 0, 0, 0, 0, 
52, 1, 52, 52, -1, 3.7021799287424453, 3.4659426822722588, -0.1570669822913617, 1.5971990265, Caaa, 0, 0, 0, 0, , 0, 0, 0, 0, 0, 
26, 1, 26, 26, -1, -2.100379347907518, -3.263982852339318, -3.2502346192154876, 1.5003990854999996, MSaap, 0, 0, 0, 0, , 0, 0, 0, 0, 0, 
69, 1, 69, 69, -1, -8.846896259962582, -2.351195308295814, 2.996181474253642, 1.5003990854999996, ABaraaaa, 0, 0, 0, 0, , 0, 0, 0, 0, 0, 
38, 1, 38, 38, -1, -8.005014655671786, 2.340195330271705, -5.242244668640792, 1.5003990854999996, ABalppap, 0, 0, 0, 0, , 0, 0, 0, 0, 0, 
77, 1, 77, 77, -1, -10.943922658990283, -0.886646814235556, 0.21290472577649744, 1.5003990854999996, ABalaaaa, 0, 0, 0, 0, , 0, 0, 0, 0, 0, 
42, 1, 42, 42, -1, -10.878547346725334, -0.7874294300617167, 0.32958764212769087, 1.5003990854999996, ABalaaap, 0, 0, 0, 0, , 0, 0, 0, 0, 0, 
85, 1, 85, 85, -1, -3.0887333876396577, 3.526626991637513, -6.204039317185324, 1.5003990854999996, ABplpaaa, 0, 0, 0, 0, , 0, 0, 0, 0, 0, 
23, 1, 23, 23, -1, -6.920929039527239, -1.791639920428339, -1.3188182266142228, 1.5003990854999996, ABalaapp, 0, 0, 0, 0, , 0, 0, 0, 0, 0, 
31, 1, 31, 31, -1, -4.725701846065776, -2.705815987334146, 4.832900421965131, 1.5003990854999996, ABarapap, 0, 0, 0, 0, , 0, 0, 0, 0, 0, 
39, 1, 39, 39, -1, 6.149708331040822, -2.5862562125947552, 6.714694585521049, 1.4035991444999998, ABprpaap, 0, 0, 0, 0, , 0, 0, 0, 0, 0, 
3, 1, 3, 3, -1, 6.117409568821615, 1.0751947641406354, -6.505297243507961, 1.5003990854999996, ABplpppp, 0, 0, 0, 0, , 0, 0, 0, 0, 0, 
40, 1, 40, 40, -1, -3.00288215532501, 3.574424314295517, -6.21770741251044, 1.5003990854999996, ABplpaap, 0, 0, 0, 0, , 0, 0, 0, 0, 0, 
8, 1, 8, 8, -1, 9.396401549390188, 0.8004878635358839, 3.0765121346160362, 1.4035991444999998, ABprappp, 0, 0, 0, 0, , 0, 0, 0, 0, 0, 
4, 1, 4, 4, -1, 5.488488210804016, -3.880258161456334, -4.454253581532591, 1.9822949999999997, P4, 0, 0, 0, 0, , 0, 0, 0, 0, 0, 
9, 1, 9, 9, -1, 0.8289355635117702, -3.349413452380551, 3.965215002557562, 1.5003990854999996, ABarappp, 0, 0, 0, 0, , 0, 0, 0, 0, 0, 
56, 1, 56, 56, -1, 3.955062108742902, 1.6937645491140416, 6.5246616063318665, 1.4035991444999998, ABprapaa, 0, 0, 0, 0, , 0, 0, 0, 0, 0, 
14, 1, 14, 14, -1, 0.984021902657198, 0.1999184664131275, 0.42214538250383676, 1.83586095, Ear, 0, 0, 0, 0, , 0, 0, 0, 0, 0, 
29, 1, 29, 29, -1, -3.1751434262225957, 3.5609476039513566, 0.6890063749786375, 1.5971990265, ABplapap, 0, 0, 0, 0, , 0, 0, 0, 0, 0, 
59, 1, 59, 59, -1, 8.930531881865416, 0.8973905392945898, 3.5721813065260455, 1.4035991444999998, ABprappa, 0, 0, 0, 0, , 0, 0, 0, 0, 0, 
36, 1, 36, 36, -1, -6.108081394517567, 1.606985964398853, 5.248941639597485, 1.5003990854999996, ABarpaap, 0, 0, 0, 0, , 0, 0, 0, 0, 0, 
35, 1, 35, 35, -1, -1.376322945637062, 3.372053902103665, 4.584551220732064, 1.5003990854999996, ABarppap, 0, 0, 0, 0, , 0, 0, 0, 0, 0, 
44, 1, 44, 44, -1, 1.12930165082488, 3.521064696598544, -5.844451643127024, 1.7245966499999996, ABplppa, 0, 0, 0, 0, , 0, 0, 0, 0, 0, 
58, 1, 58, 58, -1, -2.381537793493695, -0.34415467259710286, 2.838448221401954, 1.5003990854999996, ABarpapa, 0, 0, 0, 0, , 0, 0, 0, 0, 0, 
82, 1, 82, 82, -1, 3.4577532970230984, 1.4747020447225794, 4.265907915321094, 1.5003990854999996, ABarpppa, 0, 0, 0, 0, , 0, 0, 0, 0, 0, 
2, 1, 2, 2, -1, 3.6456797431316956, 1.440484566247288, 4.208562575319796, 1.5003990854999996, ABarpppp, 0, 0, 0, 0, , 0, 0, 0, 0, 0, 
34, 1, 34, 34, -1, -8.567492058805028, -2.294388719938414, 3.2521468958495805, 1.5003990854999996, ABaraaap, 0, 0, 0, 0, , 0, 0, 0, 0, 0, 
80, 1, 80, 80, -1, -8.117706340116996, 2.4260582122292154, -5.249809956820437, 1.5003990854999996, ABalppaa, 0, 0, 0, 0, , 0, 0, 0, 0, 0, 
64, 1, 64, 64, -1, 1.6960192132687646, 0.20096681729745192, -7.006414650923999, 1.5003990854999996, ABplpapa, 0, 0, 0, 0, , 0, 0, 0, 0, 0, 
47, 1, 47, 47, -1, 8.926529611207611, -1.0775542754262661, -4.87459365996347, 1.7245966499999996, Da, 0, 0, 0, 0, , 0, 0, 0, 0, 0, 
60, 1, 60, 60, -1, -6.622245750507728, 1.4980230400652355, 5.225977949488774, 1.5003990854999996, ABarpaaa, 0, 0, 0, 0, , 0, 0, 0, 0, 0, 
28, 1, 28, 28, -1, 8.909239726418853, 3.7128422976487805, 1.4521759643805154, 1.5971990265, Cpap, 0, 0, 0, 0, , 0, 0, 0, 0, 0, 
45, 1, 45, 45, -1, 0.3856898424772927, -0.22097421194084801, -2.669049018183436, 1.83586095, Eal, 0, 0, 0, 0, , 0, 0, 0, 0, 0, 
