82, 1, 82, 82, -1, -10.818060843799877, 0.14778037640363012, -0.5400977687043059, 1.5019914445294498, ABalaaaa, 0, 0, 0, 0, , 0, 0, 0, 0, 0, 
77, 1, 77, 77, -1, -1.0978469168730338, 1.9021236885395032, 3.6638447345586105, 1.5019914445294498, ABarppaa, 0, 0, 0, 0, , 0, 0, 0, 0, 0, 
25, 1, 25, 25, -1, 0.7719410762969692, -2.6723135418354036, -3.516419857499668, 1.3554556938436502, MSaapp, 0, 0, 0, 0, , 0, 0, 0, 0, 0, 
24, 1, 24, 24, -1, 10.480408655386606, -0.8681517661765539, -3.246215730128001, 1.7907989085000002, Dp, 0, 0, 0, 0, , 0, 0, 0, 0, 0, 
48, 1, 48, 48, -1, -2.127448893963517, 1.389624100965442, -2.2945872445260327, 1.3554556938436502, MSpaap, 0, 0, 0, 0, , 0, 0, 0, 0, 0, 
16, 1, 16, 16, -1, -2.7883610500198674, -4.520731583788502, 2.580691416313088, 1.42872356918655, ABplaapp, 0, 0, 0, 0, , 0, 0, 0, 0, 0, 
8, 1, 8, 8, -1, 12.375544945401337, -1.9761463698754032, 0.8070946640438366, 1.5579950503950002, Cppp, 0, 0, 0, 0, , 0, 0, 0, 0, 0, 
57, 1, 57, 57, -1, -6.256602459792115, -4.000731213421288, 3.3587449938985197, 1.42872356918655, ABplaapa, 0, 0, 0, 0, , 0, 0, 0, 0, 0, 
32, 1, 32, 32, -1, 8.994857784393645, 4.575011675482835, -0.9018081916854612, 1.42872356918655, ABprppap, 0, 0, 0, 0, , 0, 0, 0, 0, 0, 
46, 1, 46, 46, -1, -5.499254039876355, -1.2719209232388762, -2.4640644471709714, 1.3554556938436502, MSaaap, 0, 0, 0, 0, , 0, 0, 0, 0, 0, 
15, 1, 15, 15, -1, 10.139635134698965, -4.291414305934042, 1.4526962968598152, 1.5579950503950002, Capp, 0, 0, 0, 0, , 0, 0, 0, 0, 0, 
52, 1, 52, 52, -1, 8.40520833610995, 1.8995475159680009, 4.021470721888294, 1.5579950503950002, Cpaa, 0, 0, 0, 0, , 0, 0, 0, 0, 0, 
3, 1, 3, 3, -1, 6.887607863755595, 0.436117515759123, -3.02745403212372, 1.3554556938436502, MSpppp, 0, 0, 0, 0, , 0, 0, 0, 0, 0, 
90, 1, 90, 90, -1, -3.5488442895485686, 2.0038757822838082, -1.8561273419582336, 1.3554556938436502, MSpaaa, 0, 0, 0, 0, , 0, 0, 0, 0, 0, 
71, 1, 71, 71, -1, -5.438136774539634, -6.269255133770991, 0.8303404114719721, 1.42872356918655, ABplpaaa, 0, 0, 0, 0, , 0, 0, 0, 0, 0, 
101, 1, 101, 101, -1, -2.6565151709278, -4.825683414130096, -2.1329357884324427, 1.3554556938436502, MSapaa, 0, 0, 0, 0, , 0, 0, 0, 0, 0, 
44, 1, 44, 44, -1, 1.8219118081707038, -6.172780063083558, 1.891161341888674, 1.42872356918655, ABplppap, 0, 0, 0, 0, , 0, 0, 0, 0, 0, 
56, 1, 56, 56, -1, 8.233918773203598, 5.366186515695419, 1.1203838810366085, 1.42872356918655, ABprappa, 0, 0, 0, 0, , 0, 0, 0, 0, 0, 
40, 1, 40, 40, -1, -4.207345464253522, 3.0550808642778824, 3.1932031304899504, 1.5019914445294498, ABarpaap, 0, 0, 0, 0, , 0, 0, 0, 0, 0, 
76, 1, 76, 76, -1, -10.715038378438305, -1.0255205494099555, -0.6472980888550538, 1.5019914445294498, ABalpaaa, 0, 0, 0, 0, , 0, 0, 0, 0, 0, 
63, 1, 63, 63, -1, -9.308028580879618, -2.581186389996117, -2.2388683363766244, 1.5019914445294498, ABalpapa, 0, 0, 0, 0, , 0, 0, 0, 0, 0, 
84, 1, 84, 84, -1, -8.627455223881219, -4.987373963515715, 0.6869527363186188, 1.5019914445294498, ABalppaa, 0, 0, 0, 0, , 0, 0, 0, 0, 0, 
86, 1, 86, 86, -1, 5.102244484277234, -6.9746144298460155, -0.22985581810421032, 1.42872356918655, ABplpppa, 0, 0, 0, 0, , 0, 0, 0, 0, 0, 
88, 1, 88, 88, -1, -7.546118175369457, -0.7503782565660615, -2.0783415780920955, 1.3554556938436502, MSaaaa, 0, 0, 0, 0, , 0, 0, 0, 0, 0, 
21, 1, 21, 21, -1, 1.3634327480546387, -6.360983951763822, -1.95623966205853, 1.42872356918655, ABplpapp, 0, 0, 0, 0, , 0, 0, 0, 0, 0, 
38, 1, 38, 38, -1, -9.837801219337194, -1.9463815615717188, 0.595146100796722, 1.5019914445294498, ABalpaap, 0, 0, 0, 0, , 0, 0, 0, 0, 0, 
5, 1, 5, 5, -1, 6.316150865667951, -6.192727613824682, -1.2959071846851837, 1.42872356918655, ABplpppp, 0, 0, 0, 0, , 0, 0, 0, 0, 0, 
37, 1, 37, 37, -1, -3.5298784761815845, -6.5731636624991205, 1.8935189351925805, 1.42872356918655, ABplpaap, 0, 0, 0, 0, , 0, 0, 0, 0, 0, 
20, 1, 20, 20, -1, -5.893311121602874, 1.6266035040071707, -0.1267814146575395, 1.5019914445294498, ABalaapp, 0, 0, 0, 0, , 0, 0, 0, 0, 0, 
65, 1, 65, 65, -1, 1.8724114961772962, -5.591823217331274, 2.275364029249373, 1.42872356918655, ABplappa, 0, 0, 0, 0, , 0, 0, 0, 0, 0, 
34, 1, 34, 34, -1, 3.9014066834644914, 6.981445607087413, -0.9667676636781242, 1.42872356918655, ABprpaap, 0, 0, 0, 0, , 0, 0, 0, 0, 0, 
10, 1, 10, 10, -1, 10.67597740984381, 2.7684227154792627, 0.6124312286551704, 1.42872356918655, ABprappp, 0, 0, 0, 0, , 0, 0, 0, 0, 0, 
61, 1, 61, 61, -1, -8.624927968005007, -1.391455269957495, 3.413254180559872, 1.42872356918655, ABplaaaa, 0, 0, 0, 0, , 0, 0, 0, 0, 0, 
33, 1, 33, 33, -1, 1.3333181336101176, -2.903362830757592, 3.5151908817580764, 1.42872356918655, ABplapap, 0, 0, 0, 0, , 0, 0, 0, 0, 0, 
72, 1, 72, 72, -1, 1.174051694012297, 7.048870887743923, -1.4429308207637717, 1.42872356918655, ABprpaaa, 0, 0, 0, 0, , 0, 0, 0, 0, 0, 
30, 1, 30, 30, -1, -5.5366645240040135, -1.0934927686557643, 3.867417923528838, 1.42872356918655, ABplaaap, 0, 0, 0, 0, , 0, 0, 0, 0, 0, 
51, 1, 51, 51, -1, 2.8586702396152797, 3.6822674173905448, -2.337584951149123, 1.3554556938436502, MSppap, 0, 0, 0, 0, , 0, 0, 0, 0, 0, 
74, 1, 74, 74, -1, -1.6640157871184025, -6.616416374903644, -1.4248724819039726, 1.42872356918655, ABplpapa, 0, 0, 0, 0, , 0, 0, 0, 0, 0, 
102, 1, 102, 102, -1, 6.451180311826318, 0.31628996968820505, -3.2016158722360677, 1.3554556938436502, MSpppa, 0, 0, 0, 0, , 0, 0, 0, 0, 0, 
6, 1, 6, 6, -1, -3.1080235342569225, -4.213195562949739, 0.18971344344089822, 1.5019914445294498, ABalpppp, 0, 0, 0, 0, , 0, 0, 0, 0, 0, 
36, 1, 36, 36, -1, -7.283625000000077, -4.8972083333333245, -0.3343333333331936, 1.5019914445294498, ABalppap, 0, 0, 0, 0, , 0, 0, 0, 0, 0, 
59, 1, 59, 59, -1, 12.16065754210948, -0.939266194713855, -0.16873878305598117, 1.5579950503950002, Cppa, 0, 0, 0, 0, , 0, 0, 0, 0, 0, 
92, 1, 92, 92, 120, 5.198327342918511, -4.0422242844392064, -4.146502407341169, 1.7907989085000002, Z2, 0, 0, 0, 0, , 0, 0, 0, 0, 0, 
7, 1, 7, 7, -1, 7.6348222193022846, 1.7617622901564869, -0.4199353141796479, 1.7907989085000002, Epr, 0, 0, 0, 0, , 0, 0, 0, 0, 0, 
11, 1, 11, 11, -1, 4.984866428592645, -4.912648619078711, 1.7055505674509996, 1.42872356918655, ABplappp, 0, 0, 0, 0, , 0, 0, 0, 0, 0, 
67, 1, 67, 67, -1, 8.617720111115696, -4.267674719525271, 0.9623079237507657, 1.5579950503950002, Capa, 0, 0, 0, 0, , 0, 0, 0, 0, 0, 
29, 1, 29, 29, -1, 6.54790770815698, 5.039550282660823, 3.1560517356245965, 1.42872356918655, ABprapap, 0, 0, 0, 0, , 0, 0, 0, 0, 0, 
13, 1, 13, 13, -1, 3.703992771198892, -5.4714361745536015, -2.343080641409402, 1.3554556938436502, MSappp, 0, 0, 0, 0, , 0, 0, 0, 0, 0, 
2, 1, 2, 2, -1, 5.324203522415209, 2.65996303507307, 2.3994271628583985, 1.5019914445294498, ABarpppp, 0, 0, 0, 0, , 0, 0, 0, 0, 0, 
64, 1, 64, 64, -1, -4.766214216360128, 6.3539762834736555, 0.2795683630179194, 1.42872356918655, ABpraaaa, 0, 0, 0, 0, , 0, 0, 0, 0, 0, 
115, 1, 115, 115, 121, 1.2121466023796283, 2.6106338039038177, 0.9250326050411172, 1.5579950503950002, Eara, 0, 0, 0, 0, , 0, 0, 0, 0, 0, 
39, 1, 39, 39, -1, -7.551265501390844, 3.8959775142702733, -1.9737067423833923, 1.5019914445294498, ABaraaap, 0, 0, 0, 0, , 0, 0, 0, 0, 0, 
62, 1, 62, 62, -1, 10.761859223523558, 3.4049589856419864, -1.7431923989552969, 1.42872356918655, ABprpppa, 0, 0, 0, 0, , 0, 0, 0, 0, 0, 
104, 1, 104, 104, -1, 3.33718096308641, -5.309948334989772, -2.608723011045958, 1.3554556938436502, MSappa, 0, 0, 0, 0, , 0, 0, 0, 0, 0, 
28, 1, 28, 28, -1, 11.647813662882921, -1.126489141678047, 3.0497852221114274, 1.5579950503950002, Cpap, 0, 0, 0, 0, , 0, 0, 0, 0, 0, 
18, 1, 18, 18, -1, 3.6246910131751635, 5.962043896426731, 1.389069004375895, 1.42872356918655, ABpraapp, 0, 0, 0, 0, , 0, 0, 0, 0, 0, 
12, 1, 12, 12, -1, 0.3004079891041942, 4.950995913140541, -1.9907614910563534, 1.5019914445294498, ABarappp, 0, 0, 0, 0, , 0, 0, 0, 0, 0, 
54, 1, 54, 54, -1, 0.28099735993614144, 6.482720545401135, 1.222959528569083, 1.42872356918655, ABpraapa, 0, 0, 0, 0, , 0, 0, 0, 0, 0, 
42, 1, 42, 42, -1, -9.967585657074665, 1.6628520147844688, 0.7469817395080656, 1.5019914445294498, ABalaaap, 0, 0, 0, 0, , 0, 0, 0, 0, 0, 
27, 1, 27, 27, -1, 8.767500490589288, -2.1110861947729727, 3.1115898823906973, 1.5579950503950002, Caap, 0, 0, 0, 0, , 0, 0, 0, 0, 0, 
43, 1, 43, 43, -1, 1.1264970849974625, 1.3708841482764103, 3.422994552018595, 1.5019914445294498, ABarppap, 0, 0, 0, 0, , 0, 0, 0, 0, 0, 
26, 1, 26, 26, -1, 3.648372978540185, -0.2363929140187312, -3.5112318799186606, 1.3554556938436502, MSpapp, 0, 0, 0, 0, , 0, 0, 0, 0, 0, 
87, 1, 87, 87, -1, 0.13682363545361168, -6.558027068629538, 1.6066651956324334, 1.42872356918655, ABplppaa, 0, 0, 0, 0, , 0, 0, 0, 0, 0, 
60, 1, 60, 60, -1, -7.158757294319447, 2.9200392481966824, 2.573052265937896, 1.5019914445294498, ABarpaaa, 0, 0, 0, 0, , 0, 0, 0, 0, 0, 
58, 1, 58, 58, -1, 3.032377566098451, 5.787362883909237, 3.1711465065104356, 1.42872356918655, ABprapaa, 0, 0, 0, 0, , 0, 0, 0, 0, 0, 
47, 1, 47, 47, -1, 4.83203922174663, -3.547313733126988, 0.7985241388148002, 1.7907989085000002, Epl, 0, 0, 0, 0, , 0, 0, 0, 0, 0, 
66, 1, 66, 66, -1, 4.207170073604001, 5.125802317639802, -3.2240019900307644, 1.42872356918655, ABprpapa, 0, 0, 0, 0, , 0, 0, 0, 0, 0, 
91, 1, 91, 91, -1, -0.6487553026745466, -2.6650513852856883, -3.3274231093464075, 1.3554556938436502, MSaapa, 0, 0, 0, 0, , 0, 0, 0, 0, 0, 
75, 1, 75, 75, -1, -5.817533934908733, 3.9199920897898126, -3.3862544688536724, 1.5019914445294498, ABarapaa, 0, 0, 0, 0, , 0, 0, 0, 0, 0, 
17, 1, 17, 17, -1, 7.042332061356012, 3.784693783267974, -3.3346999703029834, 1.42872356918655, ABprpapp, 0, 0, 0, 0, , 0, 0, 0, 0, 0, 
45, 1, 45, 45, -1, 0.27281320986047636, -2.6603991223039216, 0.1992920037601801, 1.7907989085000002, Eal, 0, 0, 0, 0, , 0, 0, 0, 0, 0, 
85, 1, 85, 85, -1, -7.715406740574169, 1.0082321185805916, -1.1514949180106093, 1.5019914445294498, ABalaapa, 0, 0, 0, 0, , 0, 0, 0, 0, 0, 
68, 1, 68, 68, -1, -3.939518585769312, 3.7089739948390164, 1.8192054225189693, 1.5019914445294498, ABarpapa, 0, 0, 0, 0, , 0, 0, 0, 0, 0, 
19, 1, 19, 19, -1, -1.0653412389874723, 3.5398914503950683, 2.1898082848672797, 1.5019914445294498, ABarpapp, 0, 0, 0, 0, , 0, 0, 0, 0, 0, 
4, 1, 4, 4, 122, 4.081745913138538, -4.289939597467633, -4.062688955564961, 1.7907989085000002, Z3, 0, 0, 0, 0, , 0, 0, 0, 0, 0, 
69, 1, 69, 69, -1, 6.980964048720978, 5.935673902995235, -1.6670746125602025, 1.42872356918655, ABprppaa, 0, 0, 0, 0, , 0, 0, 0, 0, 0, 
9, 1, 9, 9, -1, -3.589532209882785, 1.032812138859242, 1.334485905685737, 1.5019914445294498, ABalappp, 0, 0, 0, 0, , 0, 0, 0, 0, 0, 
79, 1, 79, 79, -1, -9.612800646866772, 2.0070342515555004, -2.3926745280002346, 1.5019914445294498, ABaraaaa, 0, 0, 0, 0, , 0, 0, 0, 0, 0, 
14, 1, 14, 14, 123, 1.3379599585440176, 2.581524214862719, 0.8662711895159985, 1.5579950503950002, Earp, 0, 0, 0, 0, , 0, 0, 0, 0, 0, 
78, 1, 78, 78, -1, -6.710233581606472, 0.8847368411222525, 1.537997993631606, 1.5019914445294498, ABalappa, 0, 0, 0, 0, , 0, 0, 0, 0, 0, 
81, 1, 81, 81, -1, 2.8458669033221233, 3.4157520776695796, 2.8483911220415687, 1.5019914445294498, ABarpppa, 0, 0, 0, 0, , 0, 0, 0, 0, 0, 
1, 1, 1, 1, -1, 10.60583024786144, 1.4481447022918676, -2.956068830549958, 1.42872356918655, ABprpppp, 0, 0, 0, 0, , 0, 0, 0, 0, 0, 
89, 1, 89, 89, -1, 2.2880483335691624, 0.005473872030384898, -3.4793252683179645, 1.3554556938436502, MSpapa, 0, 0, 0, 0, , 0, 0, 0, 0, 0, 
41, 1, 41, 41, -1, -7.6664928816839595, 1.1476392288032233, 2.880658194022991, 1.5019914445294498, ABalapap, 0, 0, 0, 0, , 0, 0, 0, 0, 0, 
53, 1, 53, 53, -1, 5.132282498301632, -1.3267093232103948, 3.5178173926181926, 1.5579950503950002, Caaa, 0, 0, 0, 0, , 0, 0, 0, 0, 0, 
73, 1, 73, 73, -1, -1.2779139181395054, 5.183061245237584, -3.1110969210820465, 1.5019914445294498, ABarappa, 0, 0, 0, 0, , 0, 0, 0, 0, 0, 
49, 1, 49, 49, -1, -1.899992785357222, -5.03030228365268, -2.0539792708900926, 1.3554556938436502, MSapap, 0, 0, 0, 0, , 0, 0, 0, 0, 0, 
70, 1, 70, 70, -1, -7.149024266247277, 1.076545662132689, -3.3964343138453814, 1.5019914445294498, ABaraapa, 0, 0, 0, 0, , 0, 0, 0, 0, 0, 
31, 1, 31, 31, -1, -2.5128879225796146, 6.515262027179704, 1.831983278360526, 1.42872356918655, ABpraaap, 0, 0, 0, 0, , 0, 0, 0, 0, 0, 
35, 1, 35, 35, -1, -3.3260978407443953, 4.281692506444815, -3.1670747295068638, 1.5019914445294498, ABarapap, 0, 0, 0, 0, , 0, 0, 0, 0, 0, 
22, 1, 22, 22, -1, -6.628094587948902, -3.6543863525018216, -2.9299483330819336, 1.5019914445294498, ABalpapp, 0, 0, 0, 0, , 0, 0, 0, 0, 0, 
23, 1, 23, 23, -1, -4.076309241951764, 0.9621388156770897, -3.8206784746966354, 1.5019914445294498, ABaraapp, 0, 0, 0, 0, , 0, 0, 0, 0, 0, 
100, 1, 100, 100, -1, 2.174030536883642, 3.7212691530083166, -2.547404443879868, 1.3554556938436502, MSppaa, 0, 0, 0, 0, , 0, 0, 0, 0, 0, 
80, 1, 80, 80, -1, -5.424341034519508, -4.182786608659111, 0.36270241286784916, 1.5019914445294498, ABalpppa, 0, 0, 0, 0, , 0, 0, 0, 0, 0, 
55, 1, 55, 55, -1, -2.3887885825853057, -2.3605259012474686, 4.185939935435209, 1.42872356918655, ABplapaa, 0, 0, 0, 0, , 0, 0, 0, 0, 0, 
83, 1, 83, 83, -1, -9.469780250744124, 1.2333454484539783, 2.2679887430711965, 1.5019914445294498, ABalapaa, 0, 0, 0, 0, , 0, 0, 0, 0, 0, 
50, 1, 50, 50, -1, 7.37358088638357, -5.728244589391989, -1.287757056614422, 1.7907989085000002, Da, 0, 0, 0, 0, , 0, 0, 0, 0, 0, 
