20, 1, 20, 20, -1, -5.609671839261235, 2.6400130616799085, 0.43297941628104103, 1.5019914445294498, ABalaapp, 0, 0, 0, 0, , 0, 0, 0, 0, 0, 
115, 1, 115, 115, 163, 0.7706218170851968, 2.478488026620068, 1.079928124894319, 1.5579950503950002, Eara, 0, 0, 0, 0, , 0, 0, 0, 0, 0, 
9, 1, 9, 9, -1, -3.3092242370665, 1.2698701574904552, 1.6528437167936048, 1.5019914445294498, ABalappp, 0, 0, 0, 0, , 0, 0, 0, 0, 0, 
68, 1, 68, 68, -1, -4.461897447816709, 4.002944299670461, 2.5473867863940405, 1.5019914445294498, ABarpapa, 0, 0, 0, 0, , 0, 0, 0, 0, 0, 
1, 1, 1, 1, -1, 10.218192724533814, 1.974485533726152, -3.2658642748154794, 1.42872356918655, ABprpppp, 0, 0, 0, 0, , 0, 0, 0, 0, 0, 
44, 1, 44, 44, -1, 2.2172182097896105, -6.265200949224501, 1.3021908862440943, 1.42872356918655, ABplppap, 0, 0, 0, 0, , 0, 0, 0, 0, 0, 
91, 1, 91, 91, -1, -0.8527191040242469, -2.4885975528842352, -3.3109743712057367, 1.3554556938436502, MSaapa, 0, 0, 0, 0, , 0, 0, 0, 0, 0, 
81, 1, 81, 81, -1, 2.673120141993342, 3.1428512466017358, 3.2546346732248916, 1.5019914445294498, ABarpppa, 0, 0, 0, 0, , 0, 0, 0, 0, 0, 
46, 1, 46, 46, -1, -4.983033108968044, -0.9799867592747047, -2.0815989748549755, 1.3554556938436502, MSaaap, 0, 0, 0, 0, , 0, 0, 0, 0, 0, 
56, 1, 56, 56, -1, 8.031666872367524, 5.888683274532107, 1.1854319215605136, 1.42872356918655, ABprappa, 0, 0, 0, 0, , 0, 0, 0, 0, 0, 
66, 1, 66, 66, -1, 2.665224577526306, 5.800772796714603, -3.2680134063141715, 1.42872356918655, ABprpapa, 0, 0, 0, 0, , 0, 0, 0, 0, 0, 
5, 1, 5, 5, -1, 6.385382804991111, -6.068188964994969, -2.0612871339908634, 1.42872356918655, ABplpppp, 0, 0, 0, 0, , 0, 0, 0, 0, 0, 
89, 1, 89, 89, -1, 1.7515209727258538, 0.4147308583653786, -3.502330032971347, 1.3554556938436502, MSpapa, 0, 0, 0, 0, , 0, 0, 0, 0, 0, 
17, 1, 17, 17, -1, 6.22838821691232, 4.115299731405588, -3.407135974958715, 1.42872356918655, ABprpapp, 0, 0, 0, 0, , 0, 0, 0, 0, 0, 
2, 1, 2, 2, -1, 5.8629409579552085, 2.170089273116276, 2.6767815391566008, 1.5019914445294498, ABarpppp, 0, 0, 0, 0, , 0, 0, 0, 0, 0, 
35, 1, 35, 35, -1, -2.7894511164960067, 4.082165782665877, -3.3261477354142657, 1.5019914445294498, ABarapap, 0, 0, 0, 0, , 0, 0, 0, 0, 0, 
83, 1, 83, 83, -1, -9.423297703402058, 0.6953629296794781, 2.492056188556262, 1.5019914445294498, ABalapaa, 0, 0, 0, 0, , 0, 0, 0, 0, 0, 
62, 1, 62, 62, -1, 10.413337599386992, 4.42186607195519, -1.7489241138516833, 1.42872356918655, ABprpppa, 0, 0, 0, 0, , 0, 0, 0, 0, 0, 
162, 1, 162, 162, 164, 4.451328013832877, -3.9382032819527826, 0.7833601276081985, 1.5579950503950002, Epla, 0, 0, 0, 0, , 0, 0, 0, 0, 0, 
14, 1, 14, 14, 165, 1.5003392828386546, 2.309652410181696, 0.7391119148486307, 1.5579950503950002, Earp, 0, 0, 0, 0, , 0, 0, 0, 0, 0, 
67, 1, 67, 67, -1, 8.671586913024294, -4.2566825363334395, 0.1601892766444066, 1.5579950503950002, Capa, 0, 0, 0, 0, , 0, 0, 0, 0, 0, 
6, 1, 6, 6, -1, -3.348261767128566, -3.7445977814746705, 0.3723567217204388, 1.5019914445294498, ABalpppp, 0, 0, 0, 0, , 0, 0, 0, 0, 0, 
78, 1, 78, 78, -1, -7.32725188180987, 1.0792172981038604, 1.9148736575034844, 1.5019914445294498, ABalappa, 0, 0, 0, 0, , 0, 0, 0, 0, 0, 
16, 1, 16, 16, 166, -2.3479445387479156, -4.851004543454298, 2.5486362226432515, 1.2429895051922986, ABplaappp, 0, 0, 0, 0, , 0, 0, 0, 0, 0, 
45, 1, 45, 45, 167, 0.46325521806121756, -2.6724729541918064, 0.23757801550381297, 1.5579950503950002, Ealp, 0, 0, 0, 0, , 0, 0, 0, 0, 0, 
58, 1, 58, 58, -1, 2.7801631972761855, 5.537848372428504, 3.6340981993487205, 1.42872356918655, ABprapaa, 0, 0, 0, 0, , 0, 0, 0, 0, 0, 
63, 1, 63, 63, -1, -9.957220213323946, -1.7859011759739447, -2.5561357127553404, 1.5019914445294498, ABalpapa, 0, 0, 0, 0, , 0, 0, 0, 0, 0, 
92, 1, 92, 92, 168, 5.617602361102684, -3.7641374012126345, -3.9781215043768383, 1.7907989085000002, Z2, 0, 0, 0, 0, , 0, 0, 0, 0, 0, 
88, 1, 88, 88, -1, -7.959116776336955, -0.22167819095974473, -1.5207686242270513, 1.3554556938436502, MSaaaa, 0, 0, 0, 0, , 0, 0, 0, 0, 0, 
39, 1, 39, 39, -1, -7.201271286076, 4.118867690792223, -1.8638187485901005, 1.5019914445294498, ABaraaap, 0, 0, 0, 0, , 0, 0, 0, 0, 0, 
28, 1, 28, 28, 169, 12.244147303145944, -1.653514025216784, 2.75938683293792, 1.3554556938436502, Cpapp, 0, 0, 0, 0, , 0, 0, 0, 0, 0, 
82, 1, 82, 82, -1, -10.77132753665385, 0.11277511909157495, -0.4431312525541228, 1.5019914445294498, ABalaaaa, 0, 0, 0, 0, , 0, 0, 0, 0, 0, 
147, 1, 147, 147, 170, 8.343475091421112, 1.8240114819075344, 4.061448815157272, 1.3554556938436502, Cpaaa, 0, 0, 0, 0, , 0, 0, 0, 0, 0, 
43, 1, 43, 43, -1, 2.0199434429814915, 0.2532760312087048, 3.4364417614239477, 1.5019914445294498, ABarppap, 0, 0, 0, 0, , 0, 0, 0, 0, 0, 
23, 1, 23, 23, -1, -4.0319323130237255, 0.9301475749157743, -3.8653234588669965, 1.5019914445294498, ABaraapp, 0, 0, 0, 0, , 0, 0, 0, 0, 0, 
26, 1, 26, 26, -1, 3.8373520950147553, 0.04386845309005954, -3.5512535040924145, 1.3554556938436502, MSpapp, 0, 0, 0, 0, , 0, 0, 0, 0, 0, 
42, 1, 42, 42, -1, -9.656227399867205, 2.0992605775390536, 1.244422432802961, 1.5019914445294498, ABalaaap, 0, 0, 0, 0, , 0, 0, 0, 0, 0, 
87, 1, 87, 87, -1, -0.0708836231443261, -6.788309706258107, 0.9158869739318729, 1.42872356918655, ABplppaa, 0, 0, 0, 0, , 0, 0, 0, 0, 0, 
86, 1, 86, 86, -1, 4.786448848886158, -7.098075123542893, -0.6571049374811493, 1.42872356918655, ABplpppa, 0, 0, 0, 0, , 0, 0, 0, 0, 0, 
126, 1, 126, 126, 171, 0.04206343723929179, -2.518109750234496, 0.43278501702588534, 1.5579950503950002, Eala, 0, 0, 0, 0, , 0, 0, 0, 0, 0, 
61, 1, 61, 61, -1, -8.647321894359887, -2.0614157050821915, 3.384791423934989, 1.42872356918655, ABplaaaa, 0, 0, 0, 0, , 0, 0, 0, 0, 0, 
76, 1, 76, 76, -1, -10.80674601109801, -0.7334867083128365, -1.1717079244307658, 1.5019914445294498, ABalpaaa, 0, 0, 0, 0, , 0, 0, 0, 0, 0, 
12, 1, 12, 12, -1, 0.17258077644012024, 5.248344659601638, -1.5810694271757089, 1.5019914445294498, ABarappp, 0, 0, 0, 0, , 0, 0, 0, 0, 0, 
15, 1, 15, 15, -1, 10.591099475424672, -4.2866240466225864, 0.7786907225541391, 1.5579950503950002, Capp, 0, 0, 0, 0, , 0, 0, 0, 0, 0, 
11, 1, 11, 11, -1, 6.261432777071206, -5.383686554675103, 1.3691766101662983, 1.42872356918655, ABplappp, 0, 0, 0, 0, , 0, 0, 0, 0, 0, 
100, 1, 100, 100, -1, 0.8337976934054628, 3.8947986532336767, -2.171961116058876, 1.3554556938436502, MSppaa, 0, 0, 0, 0, , 0, 0, 0, 0, 0, 
29, 1, 29, 29, -1, 7.173356897684971, 4.60334191788645, 3.615234969711909, 1.42872356918655, ABprapap, 0, 0, 0, 0, , 0, 0, 0, 0, 0, 
22, 1, 22, 22, -1, -6.58320259632469, -3.1370522079057195, -3.4262004568086817, 1.5019914445294498, ABalpapp, 0, 0, 0, 0, , 0, 0, 0, 0, 0, 
102, 1, 102, 102, -1, 5.400124688828659, 0.9001092329340711, -2.964002174139373, 1.3554556938436502, MSpppa, 0, 0, 0, 0, , 0, 0, 0, 0, 0, 
24, 1, 24, 24, -1, 10.139760429104607, -0.3613720565807941, -3.219820870920537, 1.5579950503950002, Dpp, 0, 0, 0, 0, , 0, 0, 0, 0, 0, 
71, 1, 71, 71, -1, -6.137715468225748, -6.287031907398522, 0.06431514154027135, 1.42872356918655, ABplpaaa, 0, 0, 0, 0, , 0, 0, 0, 0, 0, 
47, 1, 47, 47, 172, 4.541751882145616, -3.9416804424466134, 0.7553481934518226, 1.5579950503950002, Eplp, 0, 0, 0, 0, , 0, 0, 0, 0, 0, 
77, 1, 77, 77, -1, -0.8475843666587852, 0.9381270048009283, 3.7469353702405943, 1.5019914445294498, ABarppaa, 0, 0, 0, 0, , 0, 0, 0, 0, 0, 
41, 1, 41, 41, -1, -7.058918326682724, 0.5829892605263254, 3.2953574479286436, 1.5019914445294498, ABalapap, 0, 0, 0, 0, , 0, 0, 0, 0, 0, 
34, 1, 34, 34, -1, 3.2510587783801284, 7.087957929269746, -0.4898933639167342, 1.42872356918655, ABprpaap, 0, 0, 0, 0, , 0, 0, 0, 0, 0, 
72, 1, 72, 72, -1, -0.23331070313265767, 7.174098014117731, -1.098222085035331, 1.42872356918655, ABprpaaa, 0, 0, 0, 0, , 0, 0, 0, 0, 0, 
73, 1, 73, 73, -1, -1.841808580233925, 5.544526276852127, -3.0109372860649857, 1.5019914445294498, ABarappa, 0, 0, 0, 0, , 0, 0, 0, 0, 0, 
32, 1, 32, 32, -1, 8.420759484659769, 4.594714591330168, -0.9124031442319955, 1.42872356918655, ABprppap, 0, 0, 0, 0, , 0, 0, 0, 0, 0, 
7, 1, 7, 7, 173, 7.605095728066365, 2.040589536069532, -0.6438809846724635, 1.7907989085000002, Epr, 0, 0, 0, 0, , 0, 0, 0, 0, 0, 
104, 1, 104, 104, -1, 2.762762344391898, -5.017488067063286, -2.552534601273647, 1.3554556938436502, MSappa, 0, 0, 0, 0, , 0, 0, 0, 0, 0, 
36, 1, 36, 36, -1, -7.035595588235507, -4.782767156862661, -1.2159803921567718, 1.5019914445294498, ABalppap, 0, 0, 0, 0, , 0, 0, 0, 0, 0, 
50, 1, 50, 50, -1, 7.032283347611203, -5.685849787411766, -1.2954544463373971, 1.5579950503950002, Dap, 0, 0, 0, 0, , 0, 0, 0, 0, 0, 
38, 1, 38, 38, -1, -9.67847119120485, -1.917869154797484, 0.42628468197351677, 1.5019914445294498, ABalpaap, 0, 0, 0, 0, , 0, 0, 0, 0, 0, 
31, 1, 31, 31, -1, -2.5751411156865016, 6.394022560231599, 2.2413075093958352, 1.42872356918655, ABpraaap, 0, 0, 0, 0, , 0, 0, 0, 0, 0, 
139, 1, 139, 139, -1, 6.813505173120431, -5.737162901215542, -1.359703431495379, 1.5579950503950002, Daa, 0, 0, 0, 0, , 0, 0, 0, 0, 0, 
52, 1, 52, 52, 174, 8.512772416523944, 1.821134321413706, 4.033327415980273, 1.3554556938436502, Cpaap, 0, 0, 0, 0, , 0, 0, 0, 0, 0, 
51, 1, 51, 51, -1, 2.1756915107594077, 3.818355251422844, -1.7607149103066155, 1.3554556938436502, MSppap, 0, 0, 0, 0, , 0, 0, 0, 0, 0, 
84, 1, 84, 84, -1, -8.785962686568046, -4.900209784411153, 0.11426616915438988, 1.5019914445294498, ABalppaa, 0, 0, 0, 0, , 0, 0, 0, 0, 0, 
70, 1, 70, 70, -1, -7.956864139126932, 1.0762851337935468, -3.323415278056997, 1.5019914445294498, ABaraapa, 0, 0, 0, 0, , 0, 0, 0, 0, 0, 
13, 1, 13, 13, -1, 3.503659849163001, -5.343666054624221, -2.015982166285363, 1.3554556938436502, MSappp, 0, 0, 0, 0, , 0, 0, 0, 0, 0, 
25, 1, 25, 25, -1, 1.3168069915354885, -2.4996874932668898, -3.5995887318555915, 1.3554556938436502, MSaapp, 0, 0, 0, 0, , 0, 0, 0, 0, 0, 
40, 1, 40, 40, -1, -3.621379212878478, 2.3684519857441364, 3.6805773473753427, 1.5019914445294498, ABarpaap, 0, 0, 0, 0, , 0, 0, 0, 0, 0, 
37, 1, 37, 37, -1, -3.7058497099523797, -6.674329971448395, 1.4192194796964328, 1.42872356918655, ABplpaap, 0, 0, 0, 0, , 0, 0, 0, 0, 0, 
54, 1, 54, 54, -1, -0.37237963425235426, 6.5886298894686695, 1.917008034027683, 1.42872356918655, ABpraapa, 0, 0, 0, 0, , 0, 0, 0, 0, 0, 
90, 1, 90, 90, -1, -4.1918152773797175, 2.2769909261965626, -1.4310112367403272, 1.3554556938436502, MSpaaa, 0, 0, 0, 0, , 0, 0, 0, 0, 0, 
154, 1, 154, 154, 175, -2.3564494770195203, -4.851432938516027, 2.5512300498037463, 1.2429895051922986, ABplaappa, 0, 0, 0, 0, , 0, 0, 0, 0, 0, 
101, 1, 101, 101, -1, -3.2988382896593005, -4.462223615713255, -1.8496440037391029, 1.3554556938436502, MSapaa, 0, 0, 0, 0, , 0, 0, 0, 0, 0, 
53, 1, 53, 53, 176, 5.6255141075648725, -1.754444339188716, 3.5259241184173233, 1.5579950503950002, Caaa, 0, 0, 0, 0, , 0, 0, 0, 0, 0, 
30, 1, 30, 30, -1, -4.784841988074522, -1.6887550836769698, 3.9528123726621915, 1.42872356918655, ABplaaap, 0, 0, 0, 0, , 0, 0, 0, 0, 0, 
65, 1, 65, 65, -1, 2.3503436495955974, -6.237132610782921, 2.0852002260967653, 1.42872356918655, ABplappa, 0, 0, 0, 0, , 0, 0, 0, 0, 0, 
69, 1, 69, 69, -1, 5.8625701447512455, 6.3231233668188915, -1.8844983275053155, 1.42872356918655, ABprppaa, 0, 0, 0, 0, , 0, 0, 0, 0, 0, 
64, 1, 64, 64, -1, -5.415016553184396, 6.190753542675821, 0.28479326684905076, 1.42872356918655, ABpraaaa, 0, 0, 0, 0, , 0, 0, 0, 0, 0, 
3, 1, 3, 3, -1, 6.254408407498734, 1.1346652805622552, -2.6230896360471183, 1.3554556938436502, MSpppp, 0, 0, 0, 0, , 0, 0, 0, 0, 0, 
60, 1, 60, 60, -1, -7.342167044989001, 2.198207631220433, 2.898765142317394, 1.5019914445294498, ABarpaaa, 0, 0, 0, 0, , 0, 0, 0, 0, 0, 
75, 1, 75, 75, -1, -6.015462963239409, 3.6138215085204566, -3.6099504937331064, 1.5019914445294498, ABarapaa, 0, 0, 0, 0, , 0, 0, 0, 0, 0, 
48, 1, 48, 48, -1, -2.0537499344408583, 1.3530325148016298, -2.09054335909021, 1.3554556938436502, MSpaap, 0, 0, 0, 0, , 0, 0, 0, 0, 0, 
27, 1, 27, 27, -1, 10.106678109693252, -2.7213523508693345, 3.025164026624283, 1.5579950503950002, Caap, 0, 0, 0, 0, , 0, 0, 0, 0, 0, 
59, 1, 59, 59, -1, 11.988651987515087, -0.35205406590764565, -0.9013034982247985, 1.5579950503950002, Cppa, 0, 0, 0, 0, , 0, 0, 0, 0, 0, 
85, 1, 85, 85, -1, -8.014320231615876, 1.8239385690121686, -0.9193511929398035, 1.5019914445294498, ABalaapa, 0, 0, 0, 0, , 0, 0, 0, 0, 0, 
55, 1, 55, 55, -1, -1.900055834556173, -3.3186480682520223, 4.3287995988564285, 1.42872356918655, ABplapaa, 0, 0, 0, 0, , 0, 0, 0, 0, 0, 
8, 1, 8, 8, -1, 12.259475374310249, -1.658837974300008, 0.3285429936732443, 1.5579950503950002, Cppp, 0, 0, 0, 0, , 0, 0, 0, 0, 0, 
80, 1, 80, 80, -1, -6.34252585283386, -3.7052886454405427, 0.5959766090284453, 1.5019914445294498, ABalpppa, 0, 0, 0, 0, , 0, 0, 0, 0, 0, 
19, 1, 19, 19, -1, -0.8184235621192844, 3.7886054608028528, 3.017184466917332, 1.5019914445294498, ABarpapp, 0, 0, 0, 0, , 0, 0, 0, 0, 0, 
74, 1, 74, 74, -1, -2.8138280508263103, -6.472640737061632, -1.917612052154719, 1.42872356918655, ABplpapa, 0, 0, 0, 0, , 0, 0, 0, 0, 0, 
4, 1, 4, 4, 177, 3.861960017617061, -4.153629363987196, -3.846338509453541, 1.7907989085000002, Z3, 0, 0, 0, 0, , 0, 0, 0, 0, 0, 
57, 1, 57, 57, -1, -6.627823339295874, -4.208619397972631, 3.509416658263949, 1.42872356918655, ABplaapa, 0, 0, 0, 0, , 0, 0, 0, 0, 0, 
49, 1, 49, 49, -1, -1.8141125382988612, -4.863801824883246, -1.6946865602201844, 1.3554556938436502, MSapap, 0, 0, 0, 0, , 0, 0, 0, 0, 0, 
18, 1, 18, 18, -1, 3.767958436700785, 5.943900564365353, 2.122693559662735, 1.42872356918655, ABpraapp, 0, 0, 0, 0, , 0, 0, 0, 0, 0, 
132, 1, 132, 132, -1, 9.919718396963285, -0.2864269859641717, -3.303438313773632, 1.5579950503950002, Dpa, 0, 0, 0, 0, , 0, 0, 0, 0, 0, 
33, 1, 33, 33, 178, 2.6854261508598865, -3.9874007803804634, 3.502464424481104, 1.42872356918655, ABplapap, 0, 0, 0, 0, , 0, 0, 0, 0, 0, 
21, 1, 21, 21, -1, 1.0558781911954722, -6.146145197746898, -2.5968093597093747, 1.42872356918655, ABplpapp, 0, 0, 0, 0, , 0, 0, 0, 0, 0, 
79, 1, 79, 79, -1, -9.876155731032567, 1.667924779666444, -2.4074381067870863, 1.5019914445294498, ABaraaaa, 0, 0, 0, 0, , 0, 0, 0, 0, 0, 
148, 1, 148, 148, 179, 12.257361294915578, -1.6127887165748016, 2.8266203720325778, 1.3554556938436502, Cpapa, 0, 0, 0, 0, , 0, 0, 0, 0, 0, 
10, 1, 10, 10, -1, 11.055938164100766, 2.671585058370317, 0.5563779745715803, 1.42872356918655, ABprappp, 0, 0, 0, 0, , 0, 0, 0, 0, 0, 
