392, 1, 392, 392, 824, -5.226165594433481, 4.126814314081983, 3.4777872570745365, 1.3067325567406214, ABarpapaa, 0, 0, 0, 0, , 0, 0, 0, 0, 0, 
86, 1, 86, 86, 825, 4.299994291019238, -7.273032004339495, -1.4275791068399786, 1.2429895051922986, ABplpppap, 0, 0, 0, 0, , 0, 0, 0, 0, 0, 
64, 1, 64, 64, 826, -6.279126288765786, 5.986719504164919, 0.29590446083852806, 1.2429895051922986, ABpraaaap, 0, 0, 0, 0, , 0, 0, 0, 0, 0, 
311, 1, 311, 311, 827, -4.338884022594536, 0.9461791986660989, -3.6004361487104544, 1.3067325567406214, ABaraappa, 0, 0, 0, 0, , 0, 0, 0, 0, 0, 
87, 1, 87, 87, -1, -0.451680263907217, -7.210494541910484, -0.3505397658524415, 1.42872356918655, ABplppaa, 0, 0, 0, 0, , 0, 0, 0, 0, 0, 
7, 1, 7, 7, 828, 8.018861595803962, 1.8674761191052123, -0.16499371729109436, 1.5579950503950002, Eprp, 0, 0, 0, 0, , 0, 0, 0, 0, 0, 
41, 1, 41, 41, 829, -6.018581489175853, -0.43438724675691615, 3.936266749105381, 1.3067325567406214, ABalapapp, 0, 0, 0, 0, , 0, 0, 0, 0, 0, 
400, 1, 400, 400, 830, -9.551084802447832, -1.9113459121999592, -0.03518552002452181, 1.3067325567406214, ABalpaapa, 0, 0, 0, 0, , 0, 0, 0, 0, 0, 
104, 1, 104, 104, -1, 1.709661543451959, -4.4813109091980605, -2.449522516691077, 1.3554556938436502, MSappa, 0, 0, 0, 0, , 0, 0, 0, 0, 0, 
6, 1, 6, 6, 831, -3.545310583420024, -3.484044362249754, 0.7245313382614168, 1.3067325567406214, ABalppppp, 0, 0, 0, 0, , 0, 0, 0, 0, 0, 
20, 1, 20, 20, 832, -5.261377971395663, 4.256933972333257, 1.3684560283965015, 1.3067325567406214, ABalaappp, 0, 0, 0, 0, , 0, 0, 0, 0, 0, 
294, 1, 294, 294, 833, -1.5895149422108523, 6.551110972188048, 2.6040196673801077, 1.2429895051922986, ABpraapaa, 0, 0, 0, 0, , 0, 0, 0, 0, 0, 
264, 1, 264, 264, 834, -1.0921499672269257, -4.30165277287397, 4.297735593293557, 1.2429895051922986, ABplapaaa, 0, 0, 0, 0, , 0, 0, 0, 0, 0, 
66, 1, 66, 66, 835, 1.3532015254244254, 6.124466439913749, -3.3682195302437012, 1.2429895051922986, ABprpapap, 0, 0, 0, 0, , 0, 0, 0, 0, 0, 
496, 1, 496, 496, 836, -0.7451165899181601, 4.1249286882497875, 4.0593796614300475, 1.3067325567406214, ABarpappa, 0, 0, 0, 0, , 0, 0, 0, 0, 0, 
92, 1, 92, 92, 837, 6.3862732277736685, -3.254311448630542, -3.6694231822758208, 1.7907989085000002, Z2, 0, 0, 0, 0, , 0, 0, 0, 0, 0, 
228, 1, 228, 228, 838, 9.029239956812667, 2.7627706324739245, -3.5043881019321095, 1.2429895051922986, ABprppppa, 0, 0, 0, 0, , 0, 0, 0, 0, 0, 
73, 1, 73, 73, 839, -2.3466729295701363, 5.8114810435312325, -3.0006173315637743, 1.3067325567406214, ABarappap, 0, 0, 0, 0, , 0, 0, 0, 0, 0, 
455, 1, 455, 455, 840, -6.8300184410553815, -6.317703721601348, -0.9529480913672819, 1.2429895051922986, ABplpaaaa, 0, 0, 0, 0, , 0, 0, 0, 0, 0, 
15, 1, 15, 15, -1, 11.418784100088468, -4.277841904551584, -0.4569861636729549, 1.5579950503950002, Capp, 0, 0, 0, 0, , 0, 0, 0, 0, 0, 
25, 1, 25, 25, -1, 2.315727836139487, -2.1832064042246144, -3.7520650015081176, 1.3554556938436502, MSaapp, 0, 0, 0, 0, , 0, 0, 0, 0, 0, 
85, 1, 85, 85, -1, -8.562328298525117, 3.319400394803393, -0.49375436364332614, 1.5019914445294498, ABalaapa, 0, 0, 0, 0, , 0, 0, 0, 0, 0, 
43, 1, 43, 43, -1, 3.657928432618878, -1.7956721834154257, 3.4610949786670946, 1.5019914445294498, ABarppap, 0, 0, 0, 0, , 0, 0, 0, 0, 0, 
523, 1, 523, 523, 841, -4.0857001288119035, -6.2820491441149615, -2.6221709567145735, 1.2429895051922986, ABplpapaa, 0, 0, 0, 0, , 0, 0, 0, 0, 0, 
244, 1, 244, 244, 842, -6.672857040184054, -4.577943326195198, 3.5236265772756985, 1.2429895051922986, ABplaapaa, 0, 0, 0, 0, , 0, 0, 0, 0, 0, 
69, 1, 69, 69, 843, 4.25975104512556, 6.742259200301588, -2.2934262899222717, 1.2429895051922986, ABprppaap, 0, 0, 0, 0, , 0, 0, 0, 0, 0, 
61, 1, 61, 61, 844, -7.948758862677062, -2.5122879277627885, 3.473191671017533, 1.2429895051922986, ABplaaaap, 0, 0, 0, 0, , 0, 0, 0, 0, 0, 
47, 1, 47, 47, 845, 6.072373481552181, -3.185132854673305, 0.6916574487186046, 1.5579950503950002, Eplp, 0, 0, 0, 0, , 0, 0, 0, 0, 0, 
9, 1, 9, 9, 846, -3.0029716695803046, 1.7095240555720073, 2.1504361418296334, 1.3067325567406214, ABalapppp, 0, 0, 0, 0, , 0, 0, 0, 0, 0, 
28, 1, 28, 28, 847, 12.372757358081564, -1.092161273993541, 1.142069577234357, 1.3554556938436502, Cpapp, 0, 0, 0, 0, , 0, 0, 0, 0, 0, 
148, 1, 148, 148, 848, 12.52014418935825, -0.6379174468329689, 1.8919821286747525, 1.3554556938436502, Cpapa, 0, 0, 0, 0, , 0, 0, 0, 0, 0, 
63, 1, 63, 63, 849, -9.512757948944039, -1.5447477693510376, -2.9892204712549826, 1.3067325567406214, ABalpapap, 0, 0, 0, 0, , 0, 0, 0, 0, 0, 
80, 1, 80, 80, 850, -7.515481295724213, -3.252950282304097, 0.9412045664373219, 1.3067325567406214, ABalpppap, 0, 0, 0, 0, , 0, 0, 0, 0, 0, 
338, 1, 338, 338, 851, -10.023490459232297, -1.57119015618225, -3.0041217058229814, 1.3067325567406214, ABalpapaa, 0, 0, 0, 0, , 0, 0, 0, 0, 0, 
10, 1, 10, 10, 852, 11.385383207809955, 2.681535255125621, 0.030918405105595185, 1.2429895051922986, ABprapppp, 0, 0, 0, 0, , 0, 0, 0, 0, 0, 
48, 1, 48, 48, -1, -1.9186351753159836, 1.285947940167974, -1.716462902457868, 1.3554556938436502, MSpaap, 0, 0, 0, 0, , 0, 0, 0, 0, 0, 
88, 1, 88, 88, -1, -8.7162808781107, 0.747605262651838, -0.49855154214113684, 1.3554556938436502, MSaaaa, 0, 0, 0, 0, , 0, 0, 0, 0, 0, 
91, 1, 91, 91, -1, -1.2266527398319862, -2.165098860148238, -3.2808183512811735, 1.3554556938436502, MSaapa, 0, 0, 0, 0, , 0, 0, 0, 0, 0, 
728, 1, 728, 728, 853, 8.437972387697858, -6.182166604992266, 0.7538955617067402, 1.2429895051922986, ABplapppa, 0, 0, 0, 0, , 0, 0, 0, 0, 0, 
530, 1, 530, 530, 854, 7.340240485365803, 4.73301328216446, -0.9992955787901708, 1.2429895051922986, ABprppapa, 0, 0, 0, 0, , 0, 0, 0, 0, 0, 
173, 1, 173, 173, 855, 6.650869003211357, 2.239625913344017, 0.04241204402578782, 1.5579950503950002, Epra, 0, 0, 0, 0, , 0, 0, 0, 0, 0, 
84, 1, 84, 84, 856, -9.076559701493897, -4.740408789386123, -0.9356592039800291, 1.5019914445294498, ABalppaa, 0, 0, 0, 0, , 0, 0, 0, 0, 0, 
266, 1, 266, 266, 857, 3.1333173611778604, -6.835384029659021, 1.7258997471008373, 1.2429895051922986, ABplappaa, 0, 0, 0, 0, , 0, 0, 0, 0, 0, 
55, 1, 55, 55, 858, -0.47966601660959807, -4.317862649417107, 4.182271395762833, 1.2429895051922986, ABplapaap, 0, 0, 0, 0, , 0, 0, 0, 0, 0, 
90, 1, 90, 90, -1, -5.370595421736823, 2.7777020233699456, -0.6516317105074987, 1.3554556938436502, MSpaaa, 0, 0, 0, 0, , 0, 0, 0, 0, 0, 
24, 1, 24, 24, -1, 9.100272278827967, 0.6519471618145491, -2.5411585411529805, 1.5579950503950002, Dpp, 0, 0, 0, 0, , 0, 0, 0, 0, 0, 
74, 1, 74, 74, 859, -3.916712474490905, -6.176503465102697, -2.679633919677604, 1.2429895051922986, ABplpapap, 0, 0, 0, 0, , 0, 0, 0, 0, 0, 
132, 1, 132, 132, -1, 8.139272383353623, 0.9792582865483715, -2.9063449242256807, 1.5579950503950002, Dpa, 0, 0, 0, 0, , 0, 0, 0, 0, 0, 
65, 1, 65, 65, 860, 3.5622673611778546, -6.698156869165289, 1.8285131215864436, 1.2429895051922986, ABplappap, 0, 0, 0, 0, , 0, 0, 0, 0, 0, 
281, 1, 281, 281, 861, -3.27676518662587, 1.540952842923044, 3.992303472786384, 1.3067325567406214, ABarpaapa, 0, 0, 0, 0, , 0, 0, 0, 0, 0, 
18, 1, 18, 18, 862, 3.566382285717798, 6.1921838429990546, 2.2137775816443104, 1.2429895051922986, ABpraappp, 0, 0, 0, 0, , 0, 0, 0, 0, 0, 
102, 1, 102, 102, -1, 3.473189379999618, 1.9704445488848255, -2.5283770609620992, 1.3554556938436502, MSpppa, 0, 0, 0, 0, , 0, 0, 0, 0, 0, 
29, 1, 29, 29, 863, 8.255094877967297, 4.1752522293285885, 3.5184318564342574, 1.2429895051922986, ABprapapp, 0, 0, 0, 0, , 0, 0, 0, 0, 0, 
40, 1, 40, 40, 864, -2.4529904952678447, 1.6191489334579774, 4.02903063328008, 1.3067325567406214, ABarpaapp, 0, 0, 0, 0, , 0, 0, 0, 0, 0, 
710, 1, 710, 710, 865, -9.344091698457222, -0.28667377798527083, 2.8950643736385953, 1.3067325567406214, ABalapaaa, 0, 0, 0, 0, , 0, 0, 0, 0, 0, 
16, 1, 16, 16, 866, -1.1050140950294072, -5.596906771721439, 2.322200617468079, 1.2429895051922986, ABplaappp, 0, 0, 0, 0, , 0, 0, 0, 0, 0, 
747, 1, 747, 747, 867, 6.4443095006135716, -5.833208232450093, -3.3593764397484507, 1.2429895051922986, ABplppppa, 0, 0, 0, 0, , 0, 0, 0, 0, 0, 
67, 1, 67, 67, -1, 8.77034271652339, -4.236530200481749, -1.3103615763839203, 1.5579950503950002, Capa, 0, 0, 0, 0, , 0, 0, 0, 0, 0, 
44, 1, 44, 44, -1, 2.941946612757606, -6.434639240482896, 0.22241171756236452, 1.42872356918655, ABplppap, 0, 0, 0, 0, , 0, 0, 0, 0, 0, 
154, 1, 154, 154, 868, -2.049062243177529, -5.644458623573307, 2.6101154322830054, 1.2429895051922986, ABplaappa, 0, 0, 0, 0, , 0, 0, 0, 0, 0, 
79, 1, 79, 79, -1, -10.358973385336524, 1.046224081203174, -2.4345046678963143, 1.5019914445294498, ABaraaaa, 0, 0, 0, 0, , 0, 0, 0, 0, 0, 
31, 1, 31, 31, 869, -2.784080413951905, 6.253564481212191, 2.4578889104448147, 1.2429895051922986, ABpraaapp, 0, 0, 0, 0, , 0, 0, 0, 0, 0, 
46, 1, 46, 46, -1, -4.036628068969474, -0.4447741253403941, -1.3804122756088533, 1.3554556938436502, MSaaap, 0, 0, 0, 0, , 0, 0, 0, 0, 0, 
601, 1, 601, 601, 870, -6.6000835052049975, -4.633599464213457, -2.6279222819333405, 1.3067325567406214, ABalppapa, 0, 0, 0, 0, , 0, 0, 0, 0, 0, 
56, 1, 56, 56, 871, 8.056824908325604, 6.187945682413904, 1.0495384085902413, 1.2429895051922986, ABprappap, 0, 0, 0, 0, , 0, 0, 0, 0, 0, 
473, 1, 473, 473, 872, -0.48832366983184416, 5.493785407725948, -1.2989855120248552, 1.3067325567406214, ABarapppa, 0, 0, 0, 0, , 0, 0, 0, 0, 0, 
70, 1, 70, 70, 873, -8.292318418324502, 0.7157903150018048, -3.0107338612974623, 1.3067325567406214, ABaraapap, 0, 0, 0, 0, , 0, 0, 0, 0, 0, 
286, 1, 286, 286, 874, -8.436293019055277, -2.714452536816349, 3.4096184199886705, 1.2429895051922986, ABplaaaaa, 0, 0, 0, 0, , 0, 0, 0, 0, 0, 
21, 1, 21, 21, 875, 1.3436471399978103, -5.470993703633563, -3.3581919392623396, 1.2429895051922986, ABplpappp, 0, 0, 0, 0, , 0, 0, 0, 0, 0, 
325, 1, 325, 325, 876, 0.7948133951418525, -5.596094526678637, -3.315060663542037, 1.2429895051922986, ABplpappa, 0, 0, 0, 0, , 0, 0, 0, 0, 0, 
242, 1, 242, 242, 877, 4.886754257043278, 4.054230228328974, -3.558410815293631, 1.2429895051922986, ABprpappa, 0, 0, 0, 0, , 0, 0, 0, 0, 0, 
57, 1, 57, 57, 878, -6.0393632130237, -4.5727375648780875, 3.647145095794209, 1.2429895051922986, ABplaapap, 0, 0, 0, 0, , 0, 0, 0, 0, 0, 
26, 1, 26, 26, -1, 4.183813808551467, 0.5576809594561775, -3.6246264817442966, 1.3554556938436502, MSpapp, 0, 0, 0, 0, , 0, 0, 0, 0, 0, 
76, 1, 76, 76, 879, -10.747924307277177, -0.36289766951802654, -2.0543108906100334, 1.3067325567406214, ABalpaaap, 0, 0, 0, 0, , 0, 0, 0, 0, 0, 
89, 1, 89, 89, -1, 0.7678874778464375, 1.1650353333128347, -3.544505434835882, 1.3554556938436502, MSpapa, 0, 0, 0, 0, , 0, 0, 0, 0, 0, 
34, 1, 34, 34, 880, 2.268860086901404, 7.229405157654058, 0.0289649087238011, 1.2429895051922986, ABprpaapp, 0, 0, 0, 0, , 0, 0, 0, 0, 0, 
81, 1, 81, 81, 881, 2.664059744921943, 2.8894626420965763, 3.7643243617126707, 1.3067325567406214, ABarpppap, 0, 0, 0, 0, , 0, 0, 0, 0, 0, 
22, 1, 22, 22, 882, -5.620775180326135, -2.5666677194980636, -3.546126441078437, 1.3067325567406214, ABalpappp, 0, 0, 0, 0, , 0, 0, 0, 0, 0, 
115, 1, 115, 115, 883, -0.03884028928792248, 2.2362207682665267, 1.3639032446251895, 1.5579950503950002, Eara, 0, 0, 0, 0, , 0, 0, 0, 0, 0, 
514, 1, 514, 514, 884, -6.409391720864528, 5.943229997991982, 0.30109767071506616, 1.2429895051922986, ABpraaaaa, 0, 0, 0, 0, , 0, 0, 0, 0, 0, 
663, 1, 663, 663, 885, -10.870349204396604, -0.32741927445629776, -2.092408627235544, 1.3067325567406214, ABalpaaaa, 0, 0, 0, 0, , 0, 0, 0, 0, 0, 
35, 1, 35, 35, 886, -2.124775847554075, 3.604386175299896, -3.4444350164453907, 1.3067325567406214, ABarapapp, 0, 0, 0, 0, , 0, 0, 0, 0, 0, 
577, 1, 577, 577, 887, 4.010546106853944, 6.781299941042364, -2.2094357549428136, 1.2429895051922986, ABprppaaa, 0, 0, 0, 0, , 0, 0, 0, 0, 0, 
233, 1, 233, 233, 888, 7.544496513264088, 6.37534629969813, 0.9064501369853182, 1.2429895051922986, ABprappaa, 0, 0, 0, 0, , 0, 0, 0, 0, 0, 
427, 1, 427, 427, 889, 2.4125592118035923, 5.274395881820331, 4.13953769566079, 1.2429895051922986, ABprapaaa, 0, 0, 0, 0, , 0, 0, 0, 0, 0, 
3, 1, 3, 3, -1, 5.093542737694489, 2.415336182701284, -1.881754909906705, 1.3554556938436502, MSpppp, 0, 0, 0, 0, , 0, 0, 0, 0, 0, 
333, 1, 333, 333, 890, -3.795785782254658, -6.85996331677546, 0.8831746331314104, 1.2429895051922986, ABplpaapa, 0, 0, 0, 0, , 0, 0, 0, 0, 0, 
101, 1, 101, 101, -1, -4.476430674000503, -3.795880651949047, -1.3302757318013816, 1.3554556938436502, MSapaa, 0, 0, 0, 0, , 0, 0, 0, 0, 0, 
430, 1, 430, 430, 891, -3.863086097823278, -3.298969259369136, 0.7426146715947722, 1.3067325567406214, ABalppppa, 0, 0, 0, 0, , 0, 0, 0, 0, 0, 
82, 1, 82, 82, 892, -10.685649806886133, 0.048598814019474794, -0.265359306278787, 1.5019914445294498, ABalaaaa, 0, 0, 0, 0, , 0, 0, 0, 0, 0, 
32, 1, 32, 32, 893, 7.518060855736117, 4.667378508501886, -1.0094036034815241, 1.2429895051922986, ABprppapp, 0, 0, 0, 0, , 0, 0, 0, 0, 0, 
315, 1, 315, 315, 894, 11.146536911513305, 2.9334741440145455, 0.1500609976981817, 1.2429895051922986, ABprapppa, 0, 0, 0, 0, , 0, 0, 0, 0, 0, 
310, 1, 310, 310, 895, -3.3440878213592935, 6.041550489442791, 2.501459280815163, 1.2429895051922986, ABpraaapa, 0, 0, 0, 0, , 0, 0, 0, 0, 0, 
309, 1, 309, 309, 896, -8.735683027378204, 0.7734627429853576, -3.1128803633550697, 1.3067325567406214, ABaraapaa, 0, 0, 0, 0, , 0, 0, 0, 0, 0, 
139, 1, 139, 139, -1, 5.800594325125568, -5.119336257376596, -1.4929895996752705, 1.5579950503950002, Daa, 0, 0, 0, 0, , 0, 0, 0, 0, 0, 
817, 1, 817, 817, 897, -0.38880717694787975, -0.7935240326857014, 3.8985977708726405, 1.3067325567406214, ABarppaaa, 0, 0, 0, 0, , 0, 0, 0, 0, 0, 
23, 1, 23, 23, 898, -3.8650247633352794, 0.9720248776784374, -3.5910139264883116, 1.3067325567406214, ABaraappp, 0, 0, 0, 0, , 0, 0, 0, 0, 0, 
271, 1, 271, 271, 899, 9.50263465339861, 5.207873934318264, -2.017737954755754, 1.2429895051922986, ABprpppaa, 0, 0, 0, 0, , 0, 0, 0, 0, 0, 
51, 1, 51, 51, -1, 0.9235638411903091, 4.067849613815472, -0.7031198354287056, 1.3554556938436502, MSppap, 0, 0, 0, 0, , 0, 0, 0, 0, 0, 
58, 1, 58, 58, 900, 2.6667248496636966, 5.303325922972619, 4.0380160907224285, 1.2429895051922986, ABprapaap, 0, 0, 0, 0, , 0, 0, 0, 0, 0, 
736, 1, 736, 736, 901, -9.177829810462747, 2.765632290982355, 2.071464786423872, 1.3067325567406214, ABalaaapa, 0, 0, 0, 0, , 0, 0, 0, 0, 0, 
75, 1, 75, 75, 902, -6.378332848512317, 3.052508776193304, -4.0200598726787495, 1.5019914445294498, ABarapaa, 0, 0, 0, 0, , 0, 0, 0, 0, 0, 
419, 1, 419, 419, 903, -2.619513053026955, 5.653414994148412, -2.9958230928806153, 1.3067325567406214, ABarappaa, 0, 0, 0, 0, , 0, 0, 0, 0, 0, 
71, 1, 71, 71, 904, -6.61106988138463, -6.411869565222761, -0.9890736057705738, 1.2429895051922986, ABplpaaap, 0, 0, 0, 0, , 0, 0, 0, 0, 0, 
27, 1, 27, 27, 905, 11.810357346521752, -3.3355097106235294, 2.380753532732841, 1.3554556938436502, Caapp, 0, 0, 0, 0, , 0, 0, 0, 0, 0, 
389, 1, 389, 389, 906, -2.356737987471888, 3.4888184798266524, -3.5853366625359566, 1.3067325567406214, ABarapapa, 0, 0, 0, 0, , 0, 0, 0, 0, 0, 
72, 1, 72, 72, 907, -1.7583065843621737, 7.280637860082441, -0.8016265432098729, 1.2429895051922986, ABprpaaap, 0, 0, 0, 0, , 0, 0, 0, 0, 0, 
77, 1, 77, 77, 908, -0.36295388476681023, -0.7931291767186227, 3.8967368655228425, 1.3067325567406214, ABarppaap, 0, 0, 0, 0, , 0, 0, 0, 0, 0, 
38, 1, 38, 38, 909, -9.264437477345233, -2.1719825377143556, -0.09785835953069431, 1.3067325567406214, ABalpaapp, 0, 0, 0, 0, , 0, 0, 0, 0, 0, 
68, 1, 68, 68, 910, -4.894999133528248, 4.054547647415324, 3.437360302342002, 1.3067325567406214, ABarpapap, 0, 0, 0, 0, , 0, 0, 0, 0, 0, 
49, 1, 49, 49, -1, -1.6566654186918663, -4.55855098380595, -1.0359832573253747, 1.3554556938436502, MSapap, 0, 0, 0, 0, , 0, 0, 0, 0, 0, 
36, 1, 36, 36, 911, -6.473357579279076, -4.629557077382197, -2.6162593189703847, 1.3067325567406214, ABalppapp, 0, 0, 0, 0, , 0, 0, 0, 0, 0, 
343, 1, 343, 343, 912, 1.08419782172066, 6.2659571806543815, -3.264482493206576, 1.2429895051922986, ABprpapaa, 0, 0, 0, 0, , 0, 0, 0, 0, 0, 
30, 1, 30, 30, 913, -3.579315150922131, -2.364233634502069, 3.992142288072416, 1.2429895051922986, ABplaaapp, 0, 0, 0, 0, , 0, 0, 0, 0, 0, 
53, 1, 53, 53, 914, 7.503346835160447, -1.918022326096975, 2.9670293962330407, 1.3554556938436502, Caaap, 0, 0, 0, 0, , 0, 0, 0, 0, 0, 
328, 1, 328, 328, 915, 7.935428211300841, 4.373118895995113, 3.808098523100951, 1.2429895051922986, ABprapapa, 0, 0, 0, 0, , 0, 0, 0, 0, 0, 
477, 1, 477, 477, 916, 11.727694795081351, -3.4119780233807613, 2.986262174708162, 1.3554556938436502, Caapa, 0, 0, 0, 0, , 0, 0, 0, 0, 0, 
227, 1, 227, 227, 917, -4.109759595366729, -2.4382007126914633, 4.11065257613845, 1.2429895051922986, ABplaaapa, 0, 0, 0, 0, , 0, 0, 0, 0, 0, 
516, 1, 516, 516, 918, -7.679115452102784, -3.171088142386384, 0.951929257795352, 1.3067325567406214, ABalpppaa, 0, 0, 0, 0, , 0, 0, 0, 0, 0, 
2, 1, 2, 2, -1, 6.850626256445208, 1.2719873761954874, 3.1852645623699716, 1.5019914445294498, ABarpppp, 0, 0, 0, 0, , 0, 0, 0, 0, 0, 
8, 1, 8, 8, -1, 12.046681160643253, -1.0771059157451166, -0.5488017353394972, 1.5579950503950002, Cppp, 0, 0, 0, 0, , 0, 0, 0, 0, 0, 
147, 1, 147, 147, 919, 7.645021854356763, 1.662868318122372, 4.10174816947311, 1.3554556938436502, Cpaaa, 0, 0, 0, 0, , 0, 0, 0, 0, 0, 
17, 1, 17, 17, 920, 5.435056726179275, 3.993016236559403, -3.563045588956213, 1.2429895051922986, ABprpappp, 0, 0, 0, 0, , 0, 0, 0, 0, 0, 
1, 1, 1, 1, 921, 9.530647364220002, 2.23258544728881, -3.644388101932094, 1.2429895051922986, ABprppppp, 0, 0, 0, 0, , 0, 0, 0, 0, 0, 
52, 1, 52, 52, 922, 9.228701895508571, 1.6359541205914956, 3.8386884986910492, 1.3554556938436502, Cpaap, 0, 0, 0, 0, , 0, 0, 0, 0, 0, 
162, 1, 162, 162, 923, 4.594048378671828, -3.128285323809047, 1.14962000015889, 1.5579950503950002, Epla, 0, 0, 0, 0, , 0, 0, 0, 0, 0, 
176, 1, 176, 176, 924, 6.388253007999709, -1.8828198569610832, 3.6373158159859993, 1.3554556938436502, Caaaa, 0, 0, 0, 0, , 0, 0, 0, 0, 0, 
39, 1, 39, 39, 925, -6.8771720797718245, 4.149516485805534, -2.050925308004189, 1.3067325567406214, ABaraaapp, 0, 0, 0, 0, , 0, 0, 0, 0, 0, 
247, 1, 247, 247, 926, -6.1484449334129145, -2.6241708059177804, -3.787237552189682, 1.3067325567406214, ABalpappa, 0, 0, 0, 0, , 0, 0, 0, 0, 0, 
100, 1, 100, 100, -1, -1.623295852971214, 4.212936070313307, -1.4836483483869465, 1.3554556938436502, MSppaa, 0, 0, 0, 0, , 0, 0, 0, 0, 0, 
37, 1, 37, 37, 927, -3.2711650003615484, -6.9135690780920775, 0.8604412997980796, 1.2429895051922986, ABplpaapp, 0, 0, 0, 0, , 0, 0, 0, 0, 0, 
45, 1, 45, 45, 928, 0.9314438850453282, -2.7001326097567153, 0.2551018393096355, 1.5579950503950002, Ealp, 0, 0, 0, 0, , 0, 0, 0, 0, 0, 
83, 1, 83, 83, 929, -9.339507336317313, -0.2928449714009087, 2.894858612321725, 1.3067325567406214, ABalapaap, 0, 0, 0, 0, , 0, 0, 0, 0, 0, 
50, 1, 50, 50, -1, 6.858870145918141, -4.871123985953681, -1.182203811004102, 1.5579950503950002, Dap, 0, 0, 0, 0, , 0, 0, 0, 0, 0, 
59, 1, 59, 59, -1, 11.673308470758702, 0.7245015035704027, -2.2443388093676058, 1.5579950503950002, Cppa, 0, 0, 0, 0, , 0, 0, 0, 0, 0, 
13, 1, 13, 13, -1, 3.136382825430535, -5.109420834753691, -1.4163016285578152, 1.3554556938436502, MSappp, 0, 0, 0, 0, , 0, 0, 0, 0, 0, 
200, 1, 200, 200, 930, 2.8063744667878234, 6.231215941764304, 2.30952819892823, 1.2429895051922986, ABpraappa, 0, 0, 0, 0, , 0, 0, 0, 0, 0, 
688, 1, 688, 688, 931, -5.3080580125478924, 4.254572861222168, 1.3057554111125553, 1.3067325567406214, ABalaappa, 0, 0, 0, 0, , 0, 0, 0, 0, 0, 
126, 1, 126, 126, 932, -0.4933095396122329, -2.177972602146607, 0.9154229960828622, 1.5579950503950002, Eala, 0, 0, 0, 0, , 0, 0, 0, 0, 0, 
499, 1, 499, 499, 933, 1.9180526794940806, 7.1950273798762625, 0.0579019457608389, 1.2429895051922986, ABprpaapa, 0, 0, 0, 0, , 0, 0, 0, 0, 0, 
60, 1, 60, 60, -1, -7.67841825454985, 0.8748496667638576, 3.495905415679807, 1.5019914445294498, ABarpaaa, 0, 0, 0, 0, , 0, 0, 0, 0, 0, 
355, 1, 355, 355, 934, 2.3393513087079083, 2.9757601729607908, 3.7588354728238556, 1.3067325567406214, ABarpppaa, 0, 0, 0, 0, , 0, 0, 0, 0, 0, 
4, 1, 4, 4, 935, 3.4590192091609118, -3.9037272692731757, -3.449696024915853, 1.7907989085000002, Z3, 0, 0, 0, 0, , 0, 0, 0, 0, 0, 
62, 1, 62, 62, 936, 9.997330538172164, 4.831463646252187, -2.123953592615788, 1.2429895051922986, ABprpppap, 0, 0, 0, 0, , 0, 0, 0, 0, 0, 
42, 1, 42, 42, 937, -9.152327958610874, 2.830184760118163, 2.0735440045308815, 1.3067325567406214, ABalaaapp, 0, 0, 0, 0, , 0, 0, 0, 0, 0, 
19, 1, 19, 19, 938, -0.4636135034983949, 4.137501116233409, 3.988900649084303, 1.3067325567406214, ABarpappp, 0, 0, 0, 0, , 0, 0, 0, 0, 0, 
517, 1, 517, 517, 939, -3.282833397975409, 1.610417882732486, 2.209823796150637, 1.3067325567406214, ABalapppa, 0, 0, 0, 0, , 0, 0, 0, 0, 0, 
656, 1, 656, 656, 940, -6.155585192879508, -0.3994277817363396, 3.957610576265857, 1.3067325567406214, ABalapapa, 0, 0, 0, 0, , 0, 0, 0, 0, 0, 
5, 1, 5, 5, 941, 6.513792628185581, -5.780095475248422, -3.374377262793724, 1.2429895051922986, ABplppppp, 0, 0, 0, 0, , 0, 0, 0, 0, 0, 
78, 1, 78, 78, -1, -8.458452098849433, 1.435764802570185, 2.6058123746019284, 1.5019914445294498, ABalappa, 0, 0, 0, 0, , 0, 0, 0, 0, 0, 
178, 1, 178, 178, 942, 4.261323412173745, -4.53257075481705, 3.3652714713082097, 1.2429895051922986, ABplapapa, 0, 0, 0, 0, , 0, 0, 0, 0, 0, 
33, 1, 33, 33, 943, 5.011389255795207, -4.431839890619448, 2.6935969857114848, 1.2429895051922986, ABplapapp, 0, 0, 0, 0, , 0, 0, 0, 0, 0, 
394, 1, 394, 394, 944, -2.105696502057647, 7.157516460905386, -0.8632962962962848, 1.2429895051922986, ABprpaaaa, 0, 0, 0, 0, , 0, 0, 0, 0, 0, 
12, 1, 12, 12, 945, -0.2029070031651761, 5.609711333651834, -1.2666706972100785, 1.3067325567406214, ABarapppp, 0, 0, 0, 0, , 0, 0, 0, 0, 0, 
14, 1, 14, 14, 946, 1.7980347107121557, 1.811220768266487, 0.5059865779584565, 1.5579950503950002, Earp, 0, 0, 0, 0, , 0, 0, 0, 0, 0, 
258, 1, 258, 258, 947, -7.218607264957082, 3.88338994259546, -2.043054937633837, 1.3067325567406214, ABaraaapa, 0, 0, 0, 0, , 0, 0, 0, 0, 0, 
54, 1, 54, 54, 948, -1.1034211150503528, 6.580704387825786, 2.6222591735529086, 1.2429895051922986, ABpraapap, 0, 0, 0, 0, , 0, 0, 0, 0, 0, 
11, 1, 11, 11, 949, 8.478657367121722, -6.155059403346185, 0.733877043188221, 1.2429895051922986, ABplapppp, 0, 0, 0, 0, , 0, 0, 0, 0, 0, 
753, 1, 753, 753, 950, 4.255408900072739, -7.297582415862149, -1.422329106839983, 1.2429895051922986, ABplpppaa, 0, 0, 0, 0, , 0, 0, 0, 0, 0, 
