37, 1, 37, 37, 951, -3.16724451207925, -6.939890693848142, 0.8360724735712292, 1.2429895051922986, ABplpaapp, 0, 0, 0, 0, , 0, 0, 0, 0, 0, 
27, 1, 27, 27, 952, 11.820870673486912, -3.2943913235011553, 2.228812499385698, 1.3554556938436502, Caapp, 0, 0, 0, 0, , 0, 0, 0, 0, 0, 
82, 1, 82, 82, 953, -10.679451909345312, 0.043171677519208355, -0.2508457729814833, 1.3067325567406214, ABalaaaar, 0, 0, 0, 0, , 0, 0, 0, 0, 0, 
2, 1, 2, 2, 954, 6.940415829035208, 1.1903417492026884, 3.2314902917530053, 1.5019914445294498, ABarpppp, 0, 0, 0, 0, , 0, 0, 0, 0, 0, 
264, 1, 264, 264, 955, -1.0237792870523914, -4.346455750972458, 4.278034637914652, 1.2429895051922986, ABplapaaa, 0, 0, 0, 0, , 0, 0, 0, 0, 0, 
514, 1, 514, 514, 956, -6.434505961470974, 5.938033929892566, 0.30483036610916586, 1.2429895051922986, ABpraaaaa, 0, 0, 0, 0, , 0, 0, 0, 0, 0, 
77, 1, 77, 77, 957, -0.23971986025996384, -0.8398866422503021, 3.9025916096408926, 1.3067325567406214, ABarppaap, 0, 0, 0, 0, , 0, 0, 0, 0, 0, 
4, 1, 4, 4, 958, 3.422388226573989, -3.881008897026463, -3.4136376172306084, 1.7907989085000002, Z3, 0, 0, 0, 0, , 0, 0, 0, 0, 0, 
75, 1, 75, 75, 959, -6.373813223756239, 3.0089200946540986, -4.0279116744177115, 1.3067325567406214, ABarapaap, 0, 0, 0, 0, , 0, 0, 0, 0, 0, 
228, 1, 228, 228, 960, 8.896307420788467, 2.8252550912060483, -3.5089586063520546, 1.2429895051922986, ABprppppa, 0, 0, 0, 0, , 0, 0, 0, 0, 0, 
139, 1, 139, 139, -1, 5.708511520762398, -5.063170198845783, -1.5051065240552606, 1.5579950503950002, Daa, 0, 0, 0, 0, , 0, 0, 0, 0, 0, 
710, 1, 710, 710, 961, -9.381434596100677, -0.34435320545054005, 2.874042960583955, 1.3067325567406214, ABalapaaa, 0, 0, 0, 0, , 0, 0, 0, 0, 0, 
33, 1, 33, 33, 962, 5.222798197472551, -4.47181709522603, 2.6198465234413457, 1.2429895051922986, ABplapapp, 0, 0, 0, 0, , 0, 0, 0, 0, 0, 
892, 1, 892, 892, 963, -10.677658082184815, 0.03871180097599847, -0.2505926865617302, 1.3067325567406214, ABalaaaal, 0, 0, 0, 0, , 0, 0, 0, 0, 0, 
104, 1, 104, 104, -1, 1.6139251070028737, -4.432567531210313, -2.440157781729025, 1.3554556938436502, MSappa, 0, 0, 0, 0, , 0, 0, 0, 0, 0, 
338, 1, 338, 338, 964, -9.94173169896539, -1.6487798384131198, -3.034407343244973, 1.3067325567406214, ABalpapaa, 0, 0, 0, 0, , 0, 0, 0, 0, 0, 
67, 1, 67, 67, -1, 8.779320516841489, -4.234698169949777, -1.4440480175683132, 1.5579950503950002, Capa, 0, 0, 0, 0, , 0, 0, 0, 0, 0, 
309, 1, 309, 309, 965, -8.731726780133304, 0.7137460145850212, -3.0855789419997905, 1.3067325567406214, ABaraapaa, 0, 0, 0, 0, , 0, 0, 0, 0, 0, 
315, 1, 315, 315, 966, 11.0898645021617, 3.0043493444654894, 0.08060934755154757, 1.2429895051922986, ABprapppa, 0, 0, 0, 0, , 0, 0, 0, 0, 0, 
311, 1, 311, 311, 967, -4.404753794679904, 0.9549383123403582, -3.54245500812208, 1.3067325567406214, ABaraappa, 0, 0, 0, 0, , 0, 0, 0, 0, 0, 
577, 1, 577, 577, 968, 3.8958452382977384, 6.754737221756785, -2.2190443480096946, 1.2429895051922986, ABprppaaa, 0, 0, 0, 0, , 0, 0, 0, 0, 0, 
70, 1, 70, 70, 969, -8.200855998240055, 0.6446908705520844, -2.963271946115024, 1.3067325567406214, ABaraapap, 0, 0, 0, 0, , 0, 0, 0, 0, 0, 
132, 1, 132, 132, -1, 7.977413654843661, 1.09432058404951, -2.870245525175867, 1.5579950503950002, Dpa, 0, 0, 0, 0, , 0, 0, 0, 0, 0, 
271, 1, 271, 271, 970, 9.40563411674829, 5.2229448263823945, -2.055682123186715, 1.2429895051922986, ABprpppaa, 0, 0, 0, 0, , 0, 0, 0, 0, 0, 
32, 1, 32, 32, 971, 7.490995326660787, 4.687399078092954, -1.0467005951262038, 1.2429895051922986, ABprppapp, 0, 0, 0, 0, , 0, 0, 0, 0, 0, 
173, 1, 173, 173, 972, 6.563117518288577, 2.2573719455146484, 0.10602581081906849, 1.5579950503950002, Epra, 0, 0, 0, 0, , 0, 0, 0, 0, 0, 
68, 1, 68, 68, 973, -4.8659162488540275, 3.9956440536937134, 3.460194198525185, 1.3067325567406214, ABarpapap, 0, 0, 0, 0, , 0, 0, 0, 0, 0, 
817, 1, 817, 817, 974, -0.34721512774967395, -0.8415284117976292, 3.910329058200579, 1.3067325567406214, ABarppaaa, 0, 0, 0, 0, , 0, 0, 0, 0, 0, 
72, 1, 72, 72, 975, -1.7539609053498262, 7.273650205761461, -0.8201080246913556, 1.2429895051922986, ABprpaaap, 0, 0, 0, 0, , 0, 0, 0, 0, 0, 
162, 1, 162, 162, 976, 4.607022957293551, -3.054656418523253, 1.182916352208953, 1.5579950503950002, Epla, 0, 0, 0, 0, , 0, 0, 0, 0, 0, 
17, 1, 17, 17, 977, 5.3980674974656955, 3.9452850773606025, -3.5783808830522923, 1.2429895051922986, ABprpappp, 0, 0, 0, 0, , 0, 0, 0, 0, 0, 
902, 1, 902, 902, 978, -6.395166310175975, 2.9945661851890835, -4.044728135323086, 1.3067325567406214, ABarapaaa, 0, 0, 0, 0, , 0, 0, 0, 0, 0, 
688, 1, 688, 688, 979, -5.414943521821694, 4.251692532150382, 1.2907296863079705, 1.3067325567406214, ABalaappa, 0, 0, 0, 0, , 0, 0, 0, 0, 0, 
747, 1, 747, 747, 980, 6.377388318932817, -5.8047673182587785, -3.3656621477447115, 1.2429895051922986, ABplppppa, 0, 0, 0, 0, , 0, 0, 0, 0, 0, 
115, 1, 115, 115, 981, -0.11242775350366009, 2.2141964720525684, 1.3897191646007232, 1.5579950503950002, Eara, 0, 0, 0, 0, , 0, 0, 0, 0, 0, 
45, 1, 45, 45, 982, 0.9740064911347928, -2.7026471238989798, 0.2566949142010727, 1.5579950503950002, Ealp, 0, 0, 0, 0, , 0, 0, 0, 0, 0, 
663, 1, 663, 663, 983, -10.819616462527762, -0.3604277727572071, -2.1540940586556196, 1.3067325567406214, ABalpaaaa, 0, 0, 0, 0, , 0, 0, 0, 0, 0, 
92, 1, 92, 92, 984, 6.456152397471031, -3.2079636347594427, -3.6413596984484555, 1.7907989085000002, Z2, 0, 0, 0, 0, , 0, 0, 0, 0, 0, 
22, 1, 22, 22, 985, -5.499728609934466, -2.529227483788201, -3.5269164734119123, 1.3067325567406214, ABalpappp, 0, 0, 0, 0, , 0, 0, 0, 0, 0, 
63, 1, 63, 63, 986, -9.344678201022777, -1.617868315779449, -3.0169875901584393, 1.3067325567406214, ABalpapap, 0, 0, 0, 0, , 0, 0, 0, 0, 0, 
86, 1, 86, 86, 987, 4.405940154292245, -7.205515544940582, -1.4768172085475302, 1.2429895051922986, ABplpppap, 0, 0, 0, 0, , 0, 0, 0, 0, 0, 
81, 1, 81, 81, 988, 2.709999467919975, 2.90396206558454, 3.774924699915699, 1.3067325567406214, ABarpppap, 0, 0, 0, 0, , 0, 0, 0, 0, 0, 
59, 1, 59, 59, -1, 11.644640878326303, 0.8223701917047709, -2.366432928562417, 1.5579950503950002, Cppa, 0, 0, 0, 0, , 0, 0, 0, 0, 0, 
15, 1, 15, 15, 989, 11.494028156876086, -4.277043527999675, -0.5693204260572355, 1.5579950503950002, Capp, 0, 0, 0, 0, , 0, 0, 0, 0, 0, 
71, 1, 71, 71, 990, -6.477396270971802, -6.443362331808927, -1.0081905930933674, 1.2429895051922986, ABplpaaap, 0, 0, 0, 0, , 0, 0, 0, 0, 0, 
601, 1, 601, 601, 991, -6.571006017913797, -4.653233039618922, -2.644388319212453, 1.3067325567406214, ABalppapa, 0, 0, 0, 0, , 0, 0, 0, 0, 0, 
90, 1, 90, 90, 992, -5.477757253042014, 2.8232212140220714, -0.5807790263045143, 1.3554556938436502, MSpaaa, 0, 0, 0, 0, , 0, 0, 0, 0, 0, 
753, 1, 753, 753, 993, 4.28492266458032, -7.272152376216359, -1.4625672085475423, 1.2429895051922986, ABplpppaa, 0, 0, 0, 0, , 0, 0, 0, 0, 0, 
178, 1, 178, 178, 994, 4.404337292122726, -4.581733144608825, 3.352767922618319, 1.2429895051922986, ABplapapa, 0, 0, 0, 0, , 0, 0, 0, 0, 0, 
200, 1, 200, 200, 995, 2.68155914240391, 6.267128670841838, 2.2911337299531875, 1.2429895051922986, ABpraappa, 0, 0, 0, 0, , 0, 0, 0, 0, 0, 
73, 1, 73, 73, 996, -2.30444699612716, 5.7698202048367175, -3.0285522246480725, 1.3067325567406214, ABarappap, 0, 0, 0, 0, , 0, 0, 0, 0, 0, 
29, 1, 29, 29, 997, 8.34731439711348, 4.171370399433197, 3.4211403505529345, 1.2429895051922986, ABprapapp, 0, 0, 0, 0, , 0, 0, 0, 0, 0, 
325, 1, 325, 325, 998, 0.7992816443298224, -5.531543351963442, -3.3378726218060324, 1.2429895051922986, ABplpappa, 0, 0, 0, 0, , 0, 0, 0, 0, 0, 
856, 1, 856, 856, 999, -9.095428143235837, -4.7285936289059345, -0.9910700074728591, 1.3067325567406214, ABalppaaa, 0, 0, 0, 0, , 0, 0, 0, 0, 0, 
266, 1, 266, 266, 1000, 3.197975094930569, -6.848863348191092, 1.6924899343511788, 1.2429895051922986, ABplappaa, 0, 0, 0, 0, , 0, 0, 0, 0, 0, 
3, 1, 3, 3, -1, 4.988009494985012, 2.531760810168459, -1.8143608438939514, 1.3554556938436502, MSpppp, 0, 0, 0, 0, , 0, 0, 0, 0, 0, 
499, 1, 499, 499, 1001, 1.7735840270488852, 7.190163243814063, 0.05366965216081601, 1.2429895051922986, ABprpaapa, 0, 0, 0, 0, , 0, 0, 0, 0, 0, 
244, 1, 244, 244, 1002, -6.651830937437312, -4.611051651285726, 3.5145618084246637, 1.2429895051922986, ABplaapaa, 0, 0, 0, 0, , 0, 0, 0, 0, 0, 
61, 1, 61, 61, 1003, -7.843187947775553, -2.509062989192732, 3.489223538477482, 1.2429895051922986, ABplaaaap, 0, 0, 0, 0, , 0, 0, 0, 0, 0, 
57, 1, 57, 57, 1004, -5.935707480647347, -4.605166877622905, 3.6541914380542844, 1.2429895051922986, ABplaapap, 0, 0, 0, 0, , 0, 0, 0, 0, 0, 
294, 1, 294, 294, 1005, -1.7016601222818983, 6.529714319183575, 2.6210297059322887, 1.2429895051922986, ABpraapaa, 0, 0, 0, 0, , 0, 0, 0, 0, 0, 
148, 1, 148, 148, 1006, 12.544033543398493, -0.5492927859473478, 1.8070150156422111, 1.3554556938436502, Cpapa, 0, 0, 0, 0, , 0, 0, 0, 0, 0, 
60, 1, 60, 60, -1, -7.708986546328109, 0.7545443972678093, 3.55019089507639, 1.5019914445294498, ABarpaaa, 0, 0, 0, 0, , 0, 0, 0, 0, 0, 
101, 1, 101, 101, -1, -4.5834845271224465, -3.7353040188795736, -1.2830604343524978, 1.3554556938436502, MSapaa, 0, 0, 0, 0, , 0, 0, 0, 0, 0, 
91, 1, 91, 91, -1, -1.2606467067235962, -2.135689888081329, -3.278076894924395, 1.3554556938436502, MSaapa, 0, 0, 0, 0, , 0, 0, 0, 0, 0, 
79, 1, 79, 79, -1, -10.402865899364157, 0.9897058358883313, -2.4369652643607895, 1.5019914445294498, ABaraaaa, 0, 0, 0, 0, , 0, 0, 0, 0, 0, 
30, 1, 30, 30, 1007, -3.477577005668202, -2.4067391530597853, 3.9903892542611823, 1.2429895051922986, ABplaaapp, 0, 0, 0, 0, , 0, 0, 0, 0, 0, 
24, 1, 24, 24, -1, 9.005773356075546, 0.7440670907595806, -2.4794619657195662, 1.5579950503950002, Dpp, 0, 0, 0, 0, , 0, 0, 0, 0, 0, 
47, 1, 47, 47, 1008, 6.211520899680051, -3.1163558012393677, 0.6858673810155848, 1.5579950503950002, Eplp, 0, 0, 0, 0, , 0, 0, 0, 0, 0, 
477, 1, 477, 477, 1009, 11.714813060318097, -3.3925016115670377, 3.0056915117313934, 1.3554556938436502, Caapa, 0, 0, 0, 0, , 0, 0, 0, 0, 0, 
54, 1, 54, 54, 1010, -1.133640369195469, 6.56429538914228, 2.642343286179157, 1.2429895051922986, ABpraapap, 0, 0, 0, 0, , 0, 0, 0, 0, 0, 
80, 1, 80, 80, 1011, -7.458765499864568, -3.347233549844271, 0.9462035708216314, 1.3067325567406214, ABalpppap, 0, 0, 0, 0, , 0, 0, 0, 0, 0, 
87, 1, 87, 87, -1, -0.48629814034020774, -7.248874981515246, -0.46566946946919907, 1.42872356918655, ABplppaa, 0, 0, 0, 0, , 0, 0, 0, 0, 0, 
38, 1, 38, 38, 1012, -9.212303033016582, -2.2315072801290627, -0.17101530842442467, 1.3067325567406214, ABalpaapp, 0, 0, 0, 0, , 0, 0, 0, 0, 0, 
154, 1, 154, 154, 1013, -2.0211179491918934, -5.716551867669423, 2.615468648872029, 1.2429895051922986, ABplaappa, 0, 0, 0, 0, , 0, 0, 0, 0, 0, 
394, 1, 394, 394, 1014, -2.180005144032963, 7.122652263374507, -0.8957407407407286, 1.2429895051922986, ABprpaaaa, 0, 0, 0, 0, , 0, 0, 0, 0, 0, 
343, 1, 343, 343, 1015, 1.0516885850476738, 6.239306045299457, -3.25664322301468, 1.2429895051922986, ABprpapaa, 0, 0, 0, 0, , 0, 0, 0, 0, 0, 
48, 1, 48, 48, -1, -1.9063520153955404, 1.2798493424740054, -1.6824555882185641, 1.3554556938436502, MSpaap, 0, 0, 0, 0, , 0, 0, 0, 0, 0, 
49, 1, 49, 49, -1, -1.6423520441821395, -4.530800907344378, -0.976101138880392, 1.3554556938436502, MSapap, 0, 0, 0, 0, , 0, 0, 0, 0, 0, 
35, 1, 35, 35, 1016, -2.102061638103177, 3.5477211400605175, -3.434707484487054, 1.3067325567406214, ABarapapp, 0, 0, 0, 0, , 0, 0, 0, 0, 0, 
39, 1, 39, 39, 1017, -6.869648807369703, 4.126187537314883, -2.094781503390927, 1.3067325567406214, ABaraaapp, 0, 0, 0, 0, , 0, 0, 0, 0, 0, 
281, 1, 281, 281, 1018, -3.283589696224292, 1.4882789639695975, 3.990220823175642, 1.3067325567406214, ABarpaapa, 0, 0, 0, 0, , 0, 0, 0, 0, 0, 
36, 1, 36, 36, 1019, -6.36339120309899, -4.646610405874091, -2.6252809118050573, 1.3067325567406214, ABalppapp, 0, 0, 0, 0, , 0, 0, 0, 0, 0, 
44, 1, 44, 44, -1, 3.007831013027424, -6.450042721506386, 0.12424997495493292, 1.42872356918655, ABplppap, 0, 0, 0, 0, , 0, 0, 0, 0, 0, 
100, 1, 100, 100, -1, -1.846667993550908, 4.241857653684174, -1.4210744604167678, 1.3554556938436502, MSppaa, 0, 0, 0, 0, , 0, 0, 0, 0, 0, 
9, 1, 9, 9, 1020, -3.030412739352707, 1.7508364148406599, 2.172758790587462, 1.3067325567406214, ABalapppp, 0, 0, 0, 0, , 0, 0, 0, 0, 0, 
65, 1, 65, 65, 1021, 3.6959250949305624, -6.6895621136233006, 1.8116094816762929, 1.2429895051922986, ABplappap, 0, 0, 0, 0, , 0, 0, 0, 0, 0, 
427, 1, 427, 427, 1022, 2.401265869840027, 5.295726058698174, 4.105354060142043, 1.2429895051922986, ABprapaaa, 0, 0, 0, 0, , 0, 0, 0, 0, 0, 
517, 1, 517, 517, 1023, -3.4102250850317777, 1.6163351802727381, 2.2533563214516814, 1.3067325567406214, ABalapppa, 0, 0, 0, 0, , 0, 0, 0, 0, 0, 
227, 1, 227, 227, 1024, -4.080354783446154, -2.4907926510022786, 4.1250600361544025, 1.2429895051922986, ABplaaapa, 0, 0, 0, 0, , 0, 0, 0, 0, 0, 
19, 1, 19, 19, 1025, -0.4487939247897835, 4.150142680812497, 3.9801221991771554, 1.3067325567406214, ABarpappp, 0, 0, 0, 0, , 0, 0, 0, 0, 0, 
247, 1, 247, 247, 1026, -6.095484782774378, -2.594150323294333, -3.799138695634286, 1.3067325567406214, ABalpappa, 0, 0, 0, 0, , 0, 0, 0, 0, 0, 
728, 1, 728, 728, 1027, 8.441586175670192, -6.177579951068826, 0.6996262651467746, 1.2429895051922986, ABplapppa, 0, 0, 0, 0, , 0, 0, 0, 0, 0, 
736, 1, 736, 736, 1028, -9.24392725543639, 2.6676726025816113, 2.0459474187421853, 1.3067325567406214, ABalaaapa, 0, 0, 0, 0, , 0, 0, 0, 0, 0, 
516, 1, 516, 516, 1029, -7.689646569823373, -3.231729434617909, 0.9613356695870712, 1.3067325567406214, ABalpppaa, 0, 0, 0, 0, , 0, 0, 0, 0, 0, 
46, 1, 46, 46, -1, -3.950591247151422, -0.39611843134636887, -1.3166680302228406, 1.3554556938436502, MSaaap, 0, 0, 0, 0, , 0, 0, 0, 0, 0, 
523, 1, 523, 523, 1030, -3.98901927432222, -6.283257943473598, -2.6357435376530014, 1.2429895051922986, ABplpapaa, 0, 0, 0, 0, , 0, 0, 0, 0, 0, 
50, 1, 50, 50, -1, 6.84310530940059, -4.797058004002946, -1.1719082987010752, 1.5579950503950002, Dap, 0, 0, 0, 0, , 0, 0, 0, 0, 0, 
176, 1, 176, 176, 1031, 6.457107422447881, -1.8922405975309398, 3.6477734810031754, 1.3554556938436502, Caaaa, 0, 0, 0, 0, , 0, 0, 0, 0, 0, 
26, 1, 26, 26, -1, 4.215310327963896, 0.6043911873076427, -3.6312967524399222, 1.3554556938436502, MSpapp, 0, 0, 0, 0, , 0, 0, 0, 0, 0, 
11, 1, 11, 11, 1032, 8.534209426698988, -6.115867811151154, 0.654052191072699, 1.2429895051922986, ABplapppp, 0, 0, 0, 0, , 0, 0, 0, 0, 0, 
64, 1, 64, 64, 1033, -6.248808430606809, 6.00002960890505, 0.29742727968942007, 1.2429895051922986, ABpraaaap, 0, 0, 0, 0, , 0, 0, 0, 0, 0, 
34, 1, 34, 34, 1034, 2.214342051740149, 7.233355836406678, 0.01731286203735856, 1.2429895051922986, ABprpaapp, 0, 0, 0, 0, , 0, 0, 0, 0, 0, 
13, 1, 13, 13, -1, 3.1029940050912197, -5.088125814765461, -1.3617852160371287, 1.3554556938436502, MSappp, 0, 0, 0, 0, , 0, 0, 0, 0, 0, 
76, 1, 76, 76, 1035, -10.61987057775396, -0.41831357522634355, -2.0919345936350493, 1.3067325567406214, ABalpaaap, 0, 0, 0, 0, , 0, 0, 0, 0, 0, 
400, 1, 400, 400, 1036, -9.559086160588258, -1.9161916422689889, -0.09519432077010416, 1.3067325567406214, ABalpaapa, 0, 0, 0, 0, , 0, 0, 0, 0, 0, 
530, 1, 530, 530, 1037, 7.231730511846055, 4.783095580150601, -1.031962940805217, 1.2429895051922986, ABprppapa, 0, 0, 0, 0, , 0, 0, 0, 0, 0, 
85, 1, 85, 85, -1, -8.612147213698684, 3.4553514698753225, -0.45506374279819184, 1.5019914445294498, ABalaapa, 0, 0, 0, 0, , 0, 0, 0, 0, 0, 
1, 1, 1, 1, 1038, 9.469344457825422, 2.219329165280203, -3.668958606352037, 1.2429895051922986, ABprppppp, 0, 0, 0, 0, , 0, 0, 0, 0, 0, 
18, 1, 18, 18, 1039, 3.533875603309185, 6.22335583133587, 2.183753483039642, 1.2429895051922986, ABpraappp, 0, 0, 0, 0, , 0, 0, 0, 0, 0, 
69, 1, 69, 69, 1040, 4.235124250643432, 6.701585369904886, -2.333392907680523, 1.2429895051922986, ABprppaap, 0, 0, 0, 0, , 0, 0, 0, 0, 0, 
333, 1, 333, 333, 1041, -3.7841739359476865, -6.8768528337661365, 0.8628058069045595, 1.2429895051922986, ABplpaapa, 0, 0, 0, 0, , 0, 0, 0, 0, 0, 
28, 1, 28, 28, 1042, 12.38444918125753, -1.0411292057005188, 0.99504073580676, 1.3554556938436502, Cpapp, 0, 0, 0, 0, , 0, 0, 0, 0, 0, 
88, 1, 88, 88, 1043, -8.78511397827195, 0.8357219402528892, -0.4056227164969628, 1.3554556938436502, MSaaaa, 0, 0, 0, 0, , 0, 0, 0, 0, 0, 
55, 1, 55, 55, 1044, -0.32033237347209775, -4.365073034922991, 4.145422292235801, 1.2429895051922986, ABplapaap, 0, 0, 0, 0, , 0, 0, 0, 0, 0, 
233, 1, 233, 233, 1045, 7.4945116103176606, 6.3965203236952135, 0.8615940609137982, 1.2429895051922986, ABprappaa, 0, 0, 0, 0, , 0, 0, 0, 0, 0, 
286, 1, 286, 286, 1046, -8.40277148686981, -2.741104141456178, 3.4162552257202163, 1.2429895051922986, ABplaaaaa, 0, 0, 0, 0, , 0, 0, 0, 0, 0, 
7, 1, 7, 7, 1047, 8.056998999770123, 1.8509752376955855, -0.12046637025090023, 1.5579950503950002, Eprp, 0, 0, 0, 0, , 0, 0, 0, 0, 0, 
89, 1, 89, 89, -1, 0.6784662510392128, 1.2332448310353303, -3.5483395622781124, 1.3554556938436502, MSpapa, 0, 0, 0, 0, , 0, 0, 0, 0, 0, 
43, 1, 43, 43, 1048, 3.8068361589495496, -1.98194020292671, 3.4633361802346534, 1.5019914445294498, ABarppap, 0, 0, 0, 0, , 0, 0, 0, 0, 0, 
355, 1, 355, 355, 1049, 2.306414488496053, 3.0112225594117215, 3.7681024776935685, 1.3067325567406214, ABarpppaa, 0, 0, 0, 0, , 0, 0, 0, 0, 0, 
473, 1, 473, 473, 1050, -0.6233760869792785, 5.463423900032744, -1.3557750219017242, 1.3067325567406214, ABarapppa, 0, 0, 0, 0, , 0, 0, 0, 0, 0, 
58, 1, 58, 58, 1051, 2.7378636064655706, 5.334038815899853, 3.970906529277726, 1.2429895051922986, ABprapaap, 0, 0, 0, 0, , 0, 0, 0, 0, 0, 
42, 1, 42, 42, 1052, -9.185869848028934, 2.8146324791248336, 2.0506809578368665, 1.3067325567406214, ABalaaapp, 0, 0, 0, 0, , 0, 0, 0, 0, 0, 
56, 1, 56, 56, 1053, 8.078494326366767, 6.182909829867739, 1.0246946781977315, 1.2429895051922986, ABprappap, 0, 0, 0, 0, , 0, 0, 0, 0, 0, 
5, 1, 5, 5, 1054, 6.527044286010992, -5.690370610439795, -3.3979716127653004, 1.2429895051922986, ABplppppp, 0, 0, 0, 0, , 0, 0, 0, 0, 0, 
455, 1, 455, 455, 1055, -6.76406088002526, -6.320073031397386, -0.9608922391839028, 1.2429895051922986, ABplpaaaa, 0, 0, 0, 0, , 0, 0, 0, 0, 0, 
23, 1, 23, 23, 1056, -3.84148712801324, 0.9856605345625719, -3.5312550081221743, 1.3067325567406214, ABaraappp, 0, 0, 0, 0, , 0, 0, 0, 0, 0, 
496, 1, 496, 496, 1057, -0.8060377519502927, 4.1341875367794705, 4.069564174485881, 1.3067325567406214, ABarpappa, 0, 0, 0, 0, , 0, 0, 0, 0, 0, 
16, 1, 16, 16, 1058, -0.9920204183277246, -5.66471606520027, 2.301615562452154, 1.2429895051922986, ABplaappp, 0, 0, 0, 0, , 0, 0, 0, 0, 0, 
84, 1, 84, 84, 1059, -9.079070941589741, -4.740834163885363, -1.0001829704358205, 1.3067325567406214, ABalppaap, 0, 0, 0, 0, , 0, 0, 0, 0, 0, 
8, 1, 8, 8, 1060, 12.027336232128071, -1.0242211831492174, -0.6285603470679304, 1.5579950503950002, Cppp, 0, 0, 0, 0, , 0, 0, 0, 0, 0, 
66, 1, 66, 66, 1061, 1.3691614245539194, 6.07232147739835, -3.3790716180765124, 1.2429895051922986, ABprpapap, 0, 0, 0, 0, , 0, 0, 0, 0, 0, 
10, 1, 10, 10, 1062, 11.376007094754716, 2.7025215666876687, -0.062125837633631664, 1.2429895051922986, ABprapppp, 0, 0, 0, 0, , 0, 0, 0, 0, 0, 
258, 1, 258, 258, 1063, -7.2657136221846015, 3.8174807471912167, -2.0856518737613072, 1.3067325567406214, ABaraaapa, 0, 0, 0, 0, , 0, 0, 0, 0, 0, 
242, 1, 242, 242, 1064, 4.772357620922263, 4.015141044438819, -3.573091788402052, 1.2429895051922986, ABprpappa, 0, 0, 0, 0, , 0, 0, 0, 0, 0, 
21, 1, 21, 21, 1065, 1.4491277348647882, -5.383417837560379, -3.3889421691312984, 1.2429895051922986, ABplpappp, 0, 0, 0, 0, , 0, 0, 0, 0, 0, 
62, 1, 62, 62, 1066, 9.971169507694668, 4.792633303748383, -2.1771076375899523, 1.2429895051922986, ABprpppap, 0, 0, 0, 0, , 0, 0, 0, 0, 0, 
430, 1, 430, 430, 1067, -3.9236937951258573, -3.3351924154639616, 0.7828465377060788, 1.3067325567406214, ABalppppa, 0, 0, 0, 0, , 0, 0, 0, 0, 0, 
12, 1, 12, 12, 1068, -0.26184830920149826, 5.610263406205533, -1.3148429231363403, 1.3067325567406214, ABarapppp, 0, 0, 0, 0, , 0, 0, 0, 0, 0, 
52, 1, 52, 52, 1069, 9.293786393598083, 1.6191195568803856, 3.8209940516647607, 1.3554556938436502, Cpaap, 0, 0, 0, 0, , 0, 0, 0, 0, 0, 
53, 1, 53, 53, 1070, 7.677398780472839, -1.930764054321161, 2.9142524933489944, 1.3554556938436502, Caaap, 0, 0, 0, 0, , 0, 0, 0, 0, 0, 
656, 1, 656, 656, 1071, -6.232255344819814, -0.4489378847867071, 3.9438858477470013, 1.3067325567406214, ABalapapa, 0, 0, 0, 0, , 0, 0, 0, 0, 0, 
328, 1, 328, 328, 1072, 7.968450199582892, 4.405879041408337, 3.7644489925282754, 1.2429895051922986, ABprapapa, 0, 0, 0, 0, , 0, 0, 0, 0, 0, 
78, 1, 78, 78, 1073, -8.561288482216666, 1.4681782120671236, 2.6686249852472415, 1.5019914445294498, ABalappa, 0, 0, 0, 0, , 0, 0, 0, 0, 0, 
74, 1, 74, 74, 1074, -3.761760015062968, -6.141317202732966, -2.7130213154308698, 1.2429895051922986, ABplpapap, 0, 0, 0, 0, , 0, 0, 0, 0, 0, 
41, 1, 41, 41, 1075, -5.979473863338422, -0.5134405596838273, 3.9045049835495034, 1.3067325567406214, ABalapapp, 0, 0, 0, 0, , 0, 0, 0, 0, 0, 
6, 1, 6, 6, 1076, -3.5180540831917497, -3.5714403578507414, 0.7597632043727173, 1.3067325567406214, ABalppppp, 0, 0, 0, 0, , 0, 0, 0, 0, 0, 
25, 1, 25, 25, -1, 2.4065388220125867, -2.154435396129862, -3.765926480567438, 1.3554556938436502, MSaapp, 0, 0, 0, 0, , 0, 0, 0, 0, 0, 
392, 1, 392, 392, 1077, -5.270403697413555, 4.083910720360368, 3.5095717705416756, 1.3067325567406214, ABarpapaa, 0, 0, 0, 0, , 0, 0, 0, 0, 0, 
31, 1, 31, 31, 1078, -2.8108967168131684, 6.247545350275157, 2.433535103042375, 1.2429895051922986, ABpraaapp, 0, 0, 0, 0, , 0, 0, 0, 0, 0, 
310, 1, 310, 310, 1079, -3.4680152353316647, 5.9987659264070174, 2.4846610289682753, 1.2429895051922986, ABpraaapa, 0, 0, 0, 0, , 0, 0, 0, 0, 0, 
126, 1, 126, 126, 1080, -0.5419798102350988, -2.147051043229526, 0.9592991759971328, 1.5579950503950002, Eala, 0, 0, 0, 0, , 0, 0, 0, 0, 0, 
20, 1, 20, 20, 1081, -5.335312863385538, 4.255720309928122, 1.3976895628511727, 1.3067325567406214, ABalaappp, 0, 0, 0, 0, , 0, 0, 0, 0, 0, 
40, 1, 40, 40, 1082, -2.3418520419033038, 1.577672585368722, 4.032207242928578, 1.3067325567406214, ABarpaapp, 0, 0, 0, 0, , 0, 0, 0, 0, 0, 
14, 1, 14, 14, 1083, 1.8250979314279285, 1.7659088008196497, 0.4847933655138976, 1.5579950503950002, Earp, 0, 0, 0, 0, , 0, 0, 0, 0, 0, 
83, 1, 83, 83, 1084, -9.342467517911453, -0.396808349483462, 2.872293989390558, 1.3067325567406214, ABalapaap, 0, 0, 0, 0, , 0, 0, 0, 0, 0, 
419, 1, 419, 419, 1085, -2.647546378843245, 5.571050451750167, -3.022523418063671, 1.3067325567406214, ABarappaa, 0, 0, 0, 0, , 0, 0, 0, 0, 0, 
389, 1, 389, 389, 1086, -2.3825176051815085, 3.407992950760115, -3.605065920701083, 1.3067325567406214, ABarapapa, 0, 0, 0, 0, , 0, 0, 0, 0, 0, 
147, 1, 147, 147, 1087, 7.581526105532731, 1.6482189395964482, 4.105411747138186, 1.3554556938436502, Cpaaa, 0, 0, 0, 0, , 0, 0, 0, 0, 0, 
51, 1, 51, 51, -1, 0.8097340530476638, 4.0905309194875485, -0.6069748286216277, 1.3554556938436502, MSppap, 0, 0, 0, 0, , 0, 0, 0, 0, 0, 
102, 1, 102, 102, -1, 3.2980134428333416, 2.067747759425794, -2.4887747779459835, 1.3554556938436502, MSpppa, 0, 0, 0, 0, , 0, 0, 0, 0, 0, 
