325, 1, 325, 325, 2004, 0.8305593886456121, -5.079685128957077, -3.4975563296539987, 1.2429895051922986, ABplpappa, 0, 0, 0, 0, , 0, 0, 0, 0, 0, 
6, 1, 6, 6, 2005, -3.3272585815938296, -4.183212327057708, 1.0063862671518207, 1.3067325567406214, ABalppppp, 0, 0, 0, 0, , 0, 0, 0, 0, 0, 
48, 1, 48, 48, 2006, -1.8203698959524384, 1.2371591586162245, -1.4444043885434374, 1.3554556938436502, MSpaap, 0, 0, 0, 0, , 0, 0, 0, 0, 0, 
70, 1, 70, 70, 2007, -7.560619057648925, 0.1469947594040393, -2.6310385398379545, 1.3067325567406214, ABaraapap, 0, 0, 0, 0, , 0, 0, 0, 0, 0, 
49, 1, 49, 49, -1, -1.542158422614052, -4.336550372113371, -0.556926309765513, 1.3554556938436502, MSapap, 0, 0, 0, 0, , 0, 0, 0, 0, 0, 
281, 1, 281, 281, 2008, -3.3313612634132466, 1.1195618112954724, 3.9756422759004497, 1.3067325567406214, ABarpaapa, 0, 0, 0, 0, , 0, 0, 0, 0, 0, 
65, 1, 65, 65, 2009, 4.631529231199643, -6.629398824829381, 1.6932840023052376, 1.2429895051922986, ABplappap, 0, 0, 0, 0, , 0, 0, 0, 0, 0, 
89, 1, 89, 89, 2010, 0.3966088884231319, 1.422122625863984, -3.444931729362997, 1.1792464536439757, MSpapap, 0, 0, 0, 0, , 0, 0, 0, 0, 0, 
244, 1, 244, 244, 2011, -6.50464821821012, -4.842809926919417, 3.45110842646742, 1.2429895051922986, ABplaapaa, 0, 0, 0, 0, , 0, 0, 0, 0, 0, 
355, 1, 355, 355, 2012, 2.075856747013067, 3.2594592645682363, 3.8329715117815595, 1.3067325567406214, ABarpppaa, 0, 0, 0, 0, , 0, 0, 0, 0, 0, 
1270, 1, 1270, 1270, 2013, 3.109662418821502, -6.592146038453323, -0.24374071996287558, 1.2429895051922986, ABplppapa, 0, 0, 0, 0, , 0, 0, 0, 0, 0, 
147, 1, 147, 147, 2014, 7.137055863764509, 1.5456732899149812, 4.1310567907937195, 1.3554556938436502, Cpaaa, 0, 0, 0, 0, , 0, 0, 0, 0, 0, 
104, 1, 104, 104, -1, 0.9437700518592722, -4.0913638852960785, -2.3746046369946625, 1.3554556938436502, MSappa, 0, 0, 0, 0, , 0, 0, 0, 0, 0, 
394, 1, 394, 394, 2015, -2.7001656378601737, 6.878602880658351, -1.1228518518518356, 1.2429895051922986, ABprpaaaa, 0, 0, 0, 0, , 0, 0, 0, 0, 0, 
68, 1, 68, 68, 2016, -4.662336056134482, 3.583318897642608, 3.620031471807467, 1.3067325567406214, ABarpapap, 0, 0, 0, 0, , 0, 0, 0, 0, 0, 
38, 1, 38, 38, 2017, -8.847361922716026, -2.648180477032013, -0.6831139506805433, 1.3067325567406214, ABalpaapp, 0, 0, 0, 0, , 0, 0, 0, 0, 0, 
286, 1, 286, 286, 2018, -8.168120761571537, -2.9276653739349814, 3.462712865841037, 1.2429895051922986, ABplaaaaa, 0, 0, 0, 0, , 0, 0, 0, 0, 0, 
753, 1, 753, 753, 2019, 4.491519016133383, -7.094142098695824, -1.7442339205004571, 1.2429895051922986, ABplpppaa, 0, 0, 0, 0, , 0, 0, 0, 0, 0, 
154, 1, 154, 154, 2020, -1.8255078912924443, -6.221204576342238, 2.6529411649951937, 1.2429895051922986, ABplaappa, 0, 0, 0, 0, , 0, 0, 0, 0, 0, 
1048, 1, 1048, 1048, 2021, 4.185960582330547, -2.5086890887520163, 3.488347473833929, 1.3067325567406214, ABarppapa, 0, 0, 0, 0, , 0, 0, 0, 0, 0, 
74, 1, 74, 74, 2022, -2.6770927990674074, -5.895013366144851, -2.9467330857037317, 1.2429895051922986, ABplpapap, 0, 0, 0, 0, , 0, 0, 0, 0, 0, 
33, 1, 33, 33, 2023, 6.702660789213963, -4.751657527472109, 2.1035932875503724, 1.2429895051922986, ABplapapp, 0, 0, 0, 0, , 0, 0, 0, 0, 0, 
57, 1, 57, 57, 2024, -5.2101173540128745, -4.832172066836625, 3.7035158338748113, 1.2429895051922986, ABplaapap, 0, 0, 0, 0, , 0, 0, 0, 0, 0, 
162, 1, 162, 162, 2025, 4.69784500764561, -2.539254081522694, 1.415990816559393, 1.5579950503950002, Epla, 0, 0, 0, 0, , 0, 0, 0, 0, 0, 
91, 1, 91, 91, 2026, -1.27655277985656, -1.9872101757113532, -3.158003155199235, 1.1792464536439757, MSaapap, 0, 0, 0, 0, , 0, 0, 0, 0, 0, 
45, 1, 45, 45, 2027, 1.2719447337610024, -2.720248722894831, 0.2678464384411333, 1.5579950503950002, Ealp, 0, 0, 0, 0, , 0, 0, 0, 0, 0, 
747, 1, 747, 747, 2028, 5.908940047167534, -5.605680918919577, -3.4096621037185373, 1.2429895051922986, ABplppppa, 0, 0, 0, 0, , 0, 0, 0, 0, 0, 
66, 1, 66, 66, 2029, 1.4808807184603776, 5.707306739790556, -3.45503623290619, 1.2429895051922986, ABprpapap, 0, 0, 0, 0, , 0, 0, 0, 0, 0, 
7, 1, 7, 7, 2030, 8.323960827533249, 1.7354690678281979, 0.19122505903045856, 1.5579950503950002, Eprp, 0, 0, 0, 0, , 0, 0, 0, 0, 0, 
115, 1, 115, 115, 2031, -0.6275400030138272, 2.0600263985548604, 1.570430604429459, 1.5579950503950002, Eara, 0, 0, 0, 0, , 0, 0, 0, 0, 0, 
176, 1, 176, 176, 2032, 6.939088323585083, -1.9581857815199355, 3.7209771361234085, 1.3554556938436502, Caaaa, 0, 0, 0, 0, , 0, 0, 0, 0, 0, 
856, 1, 856, 856, 2033, -9.113470523925047, -4.686856041124654, -0.7741768498044117, 1.3067325567406214, ABalppaaa, 0, 0, 0, 0, , 0, 0, 0, 0, 0, 
496, 1, 496, 496, 2034, -1.2324858861751955, 4.198999476487251, 4.1408557658767124, 1.3067325567406214, ABarpappa, 0, 0, 0, 0, , 0, 0, 0, 0, 0, 
31, 1, 31, 31, 2035, -2.998610836842012, 6.20541143371592, 2.2630584512252976, 1.2429895051922986, ABpraaapp, 0, 0, 0, 0, , 0, 0, 0, 0, 0, 
710, 1, 710, 710, 2036, -9.642834879604864, -0.7481091977074246, 2.7268930692014717, 1.3067325567406214, ABalapaaa, 0, 0, 0, 0, , 0, 0, 0, 0, 0, 
514, 1, 514, 514, 2037, -6.610305645716091, 5.901661453196657, 0.3309592338678638, 1.2429895051922986, ABpraaaaa, 0, 0, 0, 0, , 0, 0, 0, 0, 0, 
233, 1, 233, 233, 2038, 7.14461728969267, 6.544738491674799, 0.5476015284131583, 1.2429895051922986, ABprappaa, 0, 0, 0, 0, , 0, 0, 0, 0, 0, 
577, 1, 577, 577, 2039, 3.092939158404299, 6.568798186757733, -2.2863044994778616, 1.2429895051922986, ABprppaaa, 0, 0, 0, 0, , 0, 0, 0, 0, 0, 
20, 1, 20, 20, 2040, -5.852857107314665, 4.247224673092176, 1.6023243040338715, 1.3067325567406214, ABalaappp, 0, 0, 0, 0, , 0, 0, 0, 0, 0, 
79, 1, 79, 79, 2041, -10.278511026885466, 0.7446875728284792, -2.2701288921305482, 1.3067325567406214, ABaraaaap, 0, 0, 0, 0, , 0, 0, 0, 0, 0, 
25, 1, 25, 25, -1, 3.042215723124286, -1.9530383394666178, -3.862956833982682, 1.3554556938436502, MSaapp, 0, 0, 0, 0, , 0, 0, 0, 0, 0, 
54, 1, 54, 54, 2042, -1.345175148211283, 6.449432398357739, 2.782932074562897, 1.2429895051922986, ABpraapap, 0, 0, 0, 0, , 0, 0, 0, 0, 0, 
58, 1, 58, 58, 2043, 3.2358349040786885, 5.5490290663904895, 3.5011395991648078, 1.2429895051922986, ABprapaap, 0, 0, 0, 0, , 0, 0, 0, 0, 0, 
101, 1, 101, 101, -1, -5.33286149897605, -3.3112675873932593, -0.9525533522103116, 1.3554556938436502, MSapaa, 0, 0, 0, 0, , 0, 0, 0, 0, 0, 
1663, 1, 1663, 1663, 2044, -3.7291829101397536, -0.24699913623663367, -0.9257932835771404, 1.1792464536439757, MSaaapa, 0, 0, 0, 0, , 0, 0, 0, 0, 0, 
728, 1, 728, 728, 2045, 8.466882691476531, -6.145473373604749, 0.31974118922700434, 1.2429895051922986, ABplapppa, 0, 0, 0, 0, , 0, 0, 0, 0, 0, 
67, 1, 67, 67, -1, 8.842165119068186, -4.2218739562259735, -2.3798531058590644, 1.5579950503950002, Capa, 0, 0, 0, 0, , 0, 0, 0, 0, 0, 
1043, 1, 1043, 1043, 2046, -8.973873147525294, 0.6940297189732713, -0.10139458810554838, 1.1792464536439757, MSaaaaa, 0, 0, 0, 0, , 0, 0, 0, 0, 0, 
1156, 1, 1156, 1156, 2047, -10.489785100959677, 0.9308604123346247, -2.4534128427479245, 1.3067325567406214, ABaraaaaa, 0, 0, 0, 0, , 0, 0, 0, 0, 0, 
102, 1, 102, 102, -1, 2.0717818826694065, 2.7488702332125445, -2.211558796833173, 1.3554556938436502, MSpppa, 0, 0, 0, 0, , 0, 0, 0, 0, 0, 
59, 1, 59, 59, -1, 11.443967731299512, 1.5074510086453483, -3.2210917629260942, 1.5579950503950002, Cppa, 0, 0, 0, 0, , 0, 0, 0, 0, 0, 
271, 1, 271, 271, 2048, 8.726630360196049, 5.3284410708313095, -2.321291302203443, 1.2429895051922986, ABprpppaa, 0, 0, 0, 0, , 0, 0, 0, 0, 0, 
43, 1, 43, 43, 2049, 4.894712845705115, -2.399602668998883, 3.356360642558179, 1.3067325567406214, ABarppapp, 0, 0, 0, 0, , 0, 0, 0, 0, 0, 
23, 1, 23, 23, 2050, -3.676723680758963, 1.0811101327515134, -3.112942579559213, 1.3067325567406214, ABaraappp, 0, 0, 0, 0, , 0, 0, 0, 0, 0, 
80, 1, 80, 80, 2051, -7.0617549288470505, -4.007216422625488, 0.9811966015117983, 1.3067325567406214, ABalpppap, 0, 0, 0, 0, , 0, 0, 0, 0, 0, 
1073, 1, 1073, 1073, 2052, -9.047299414590821, 1.30363009339042, 2.654741685720593, 1.3067325567406214, ABalappaa, 0, 0, 0, 0, , 0, 0, 0, 0, 0, 
78, 1, 78, 78, 2053, -8.845157850804807, 1.571192850592089, 2.752987982016874, 1.3067325567406214, ABalappap, 0, 0, 0, 0, , 0, 0, 0, 0, 0, 
76, 1, 76, 76, 2054, -9.723494471091445, -0.8062249151845442, -2.355300514810161, 1.3067325567406214, ABalpaaap, 0, 0, 0, 0, , 0, 0, 0, 0, 0, 
88, 1, 88, 88, 2055, -8.389995369747217, 0.6269852745288492, 0.26151652300556694, 1.1792464536439757, MSaaaap, 0, 0, 0, 0, , 0, 0, 0, 0, 0, 
15, 1, 15, 15, 2056, 11.310472637410117, -3.87692667979036, -0.907959886569139, 1.3554556938436502, Cappp, 0, 0, 0, 0, , 0, 0, 0, 0, 0, 
242, 1, 242, 242, 2057, 3.971581168075167, 3.741516757207732, -3.675858600160997, 1.2429895051922986, ABprpappa, 0, 0, 0, 0, , 0, 0, 0, 0, 0, 
430, 1, 430, 430, 2058, -4.347947676243912, -3.588754508127741, 1.0644696004852248, 1.3067325567406214, ABalppppa, 0, 0, 0, 0, , 0, 0, 0, 0, 0, 
12, 1, 12, 12, 2059, -0.6744374514557542, 5.6141279140814255, -1.652048504620173, 1.3067325567406214, ABarapppp, 0, 0, 0, 0, , 0, 0, 0, 0, 0, 
81, 1, 81, 81, 2060, 3.031577528906198, 3.0054580300002853, 3.849127067336898, 1.3067325567406214, ABarpppap, 0, 0, 0, 0, , 0, 0, 0, 0, 0, 
954, 1, 954, 954, 2061, 6.757691883640671, 1.8558077645763853, 3.2421555742517483, 1.3067325567406214, ABarppppa, 0, 0, 0, 0, , 0, 0, 0, 0, 0, 
30, 1, 30, 30, 2062, -2.765409988890699, -2.704277782963798, 3.9781180175825464, 1.2429895051922986, ABplaaapp, 0, 0, 0, 0, , 0, 0, 0, 0, 0, 
18, 1, 18, 18, 2063, 3.306328826448895, 6.441559749693579, 1.9735847928069508, 1.2429895051922986, ABpraappp, 0, 0, 0, 0, , 0, 0, 0, 0, 0, 
309, 1, 309, 309, 2064, -8.704033049419, 0.29572891578265514, -2.8944689925128366, 1.3067325567406214, ABaraapaa, 0, 0, 0, 0, , 0, 0, 0, 0, 0, 
1060, 1, 1060, 1060, 2065, 11.496334766149536, -0.23016063846097484, -0.669427375368802, 1.3554556938436502, Cpppa, 0, 0, 0, 0, , 0, 0, 0, 0, 0, 
258, 1, 258, 258, 2066, -7.595458122777241, 3.3561163793615125, -2.3838304266535992, 1.3067325567406214, ABaraaapa, 0, 0, 0, 0, , 0, 0, 0, 0, 0, 
71, 1, 71, 71, 2067, -5.541680998082008, -6.663811697912084, -1.142009504352923, 1.2429895051922986, ABplpaaap, 0, 0, 0, 0, , 0, 0, 0, 0, 0, 
41, 1, 41, 41, 2068, -5.705720482476403, -1.066813750172205, 3.6821726246583593, 1.3067325567406214, ABalapapp, 0, 0, 0, 0, , 0, 0, 0, 0, 0, 
477, 1, 477, 477, 2069, 11.624640916975313, -3.2561667288709724, 3.141696870894012, 1.3554556938436502, Caapa, 0, 0, 0, 0, , 0, 0, 0, 0, 0, 
228, 1, 228, 228, 2070, 7.9657796686190565, 3.262646302330915, -3.5409521372916704, 1.2429895051922986, ABprppppa, 0, 0, 0, 0, , 0, 0, 0, 0, 0, 
27, 1, 27, 27, 2071, 11.894463962243034, -3.0065626136445363, 1.1652252659556992, 1.3554556938436502, Caapp, 0, 0, 0, 0, , 0, 0, 0, 0, 0, 
736, 1, 736, 736, 2072, -9.70660937025189, 1.9819547837764069, 1.867325844970448, 1.3067325567406214, ABalaaapa, 0, 0, 0, 0, , 0, 0, 0, 0, 0, 
338, 1, 338, 338, 2073, -9.369420377097034, -2.191907614029241, -3.2464068051989154, 1.3067325567406214, ABalpapaa, 0, 0, 0, 0, , 0, 0, 0, 0, 0, 
29, 1, 29, 29, 2074, 8.992851031136768, 4.144197590165458, 2.7400998093836746, 1.2429895051922986, ABprapapp, 0, 0, 0, 0, , 0, 0, 0, 0, 0, 
178, 1, 178, 178, 2075, 5.4054344517655935, -4.925869873151249, 3.265243081789085, 1.2429895051922986, ABplapapa, 0, 0, 0, 0, , 0, 0, 0, 0, 0, 
294, 1, 294, 294, 2076, -2.4866763827792204, 6.3799377481522646, 2.7400999757975555, 1.2429895051922986, ABpraapaa, 0, 0, 0, 0, , 0, 0, 0, 0, 0, 
21, 1, 21, 21, 2077, 2.1874918989336574, -4.770386775048091, -3.60419377821401, 1.2429895051922986, ABplpappp, 0, 0, 0, 0, , 0, 0, 0, 0, 0, 
517, 1, 517, 517, 2078, -4.301966894426294, 1.6577562630545033, 2.558083998558992, 1.3067325567406214, ABalapppa, 0, 0, 0, 0, , 0, 0, 0, 0, 0, 
333, 1, 333, 333, 2079, -3.7028910117988865, -6.995079452700875, 0.7202240233166034, 1.2429895051922986, ABplpaapa, 0, 0, 0, 0, , 0, 0, 0, 0, 0, 
77, 1, 77, 77, 2080, 0.6229183112879627, -1.1671889009720577, 3.9435748184672432, 1.3067325567406214, ABarppaap, 0, 0, 0, 0, , 0, 0, 0, 0, 0, 
37, 1, 37, 37, 2081, -2.4398010941031596, -7.124142004140591, 0.6654906899832761, 1.2429895051922986, ABplpaapp, 0, 0, 0, 0, , 0, 0, 0, 0, 0, 
688, 1, 688, 688, 2082, -6.163142086738308, 4.2315302286478795, 1.1855496126758764, 1.3067325567406214, ABalaappa, 0, 0, 0, 0, , 0, 0, 0, 0, 0, 
315, 1, 315, 315, 2083, 10.693157636700459, 3.5004757476220965, -0.40555220347489346, 1.2429895051922986, ABprapppa, 0, 0, 0, 0, , 0, 0, 0, 0, 0, 
1, 1, 1, 1, 2084, 9.04022411306336, 2.126535191219955, -3.8409521372916373, 1.2429895051922986, ABprppppp, 0, 0, 0, 0, , 0, 0, 0, 0, 0, 
126, 1, 126, 126, 2085, -0.88267170459516, -1.9306001308099603, 1.2664324353969867, 1.5579950503950002, Eala, 0, 0, 0, 0, , 0, 0, 0, 0, 0, 
19, 1, 19, 19, 2086, -0.3450568738295038, 4.238633632866112, 3.918673049827123, 1.3067325567406214, ABarpappp, 0, 0, 0, 0, , 0, 0, 0, 0, 0, 
39, 1, 39, 39, 2087, -6.8169859005548545, 3.9628848978802855, -2.4017748710980915, 1.3067325567406214, ABaraaapp, 0, 0, 0, 0, , 0, 0, 0, 0, 0, 
92, 1, 92, 92, 2088, 6.945306585352566, -2.8835289376617474, -3.444915311656899, 1.7907989085000002, Z2, 0, 0, 0, 0, , 0, 0, 0, 0, 0, 
200, 1, 200, 200, 2089, 1.8078518717165162, 6.518517774384576, 2.1623724471278893, 1.2429895051922986, ABpraappa, 0, 0, 0, 0, , 0, 0, 0, 0, 0, 
601, 1, 601, 601, 2090, -6.367463606875395, -4.790668067457172, -2.759650580166241, 1.3067325567406214, ABalppapa, 0, 0, 0, 0, , 0, 0, 0, 0, 0, 
34, 1, 34, 34, 2091, 1.8327158056114043, 7.261010587675018, -0.0642514647677395, 1.2429895051922986, ABprpaapp, 0, 0, 0, 0, , 0, 0, 0, 0, 0, 
60, 1, 60, 60, 2092, -7.650778820756846, 0.25328485574617154, 3.8149504214416035, 1.3067325567406214, ABarpaaap, 0, 0, 0, 0, , 0, 0, 0, 0, 0, 
28, 1, 28, 28, 2093, 12.466291943489288, -0.6839047276493229, -0.034161154186451326, 1.3554556938436502, Cpapp, 0, 0, 0, 0, , 0, 0, 0, 0, 0, 
14, 1, 14, 14, 2094, 2.0145404764383383, 1.4487250286917894, 0.3364408784019919, 1.5579950503950002, Earp, 0, 0, 0, 0, , 0, 0, 0, 0, 0, 
26, 1, 26, 26, -1, 4.435785963850894, 0.9313627822678997, -3.6779886473093018, 1.3554556938436502, MSpapp, 0, 0, 0, 0, , 0, 0, 0, 0, 0, 
82, 1, 82, 82, 2095, -10.847667895367374, 0.059322437899074563, -0.3683755526880244, 1.3067325567406214, ABalaaaar, 0, 0, 0, 0, , 0, 0, 0, 0, 0, 
523, 1, 523, 523, 2096, -3.312253292894435, -6.291719538984052, -2.730751604221997, 1.2429895051922986, ABplpapaa, 0, 0, 0, 0, , 0, 0, 0, 0, 0, 
10, 1, 10, 10, 2097, 11.31037430336804, 2.849425747622004, -0.7134355368082197, 1.2429895051922986, ABprapppp, 0, 0, 0, 0, , 0, 0, 0, 0, 0, 
1459, 1, 1459, 1459, 2098, 0.21538049336140846, 1.407539704053272, -3.4019525112559688, 1.1792464536439757, MSpapaa, 0, 0, 0, 0, , 0, 0, 0, 0, 0, 
389, 1, 389, 389, 2099, -2.562974929148851, 2.842214247294355, -3.7431707278569686, 1.3067325567406214, ABarapapa, 0, 0, 0, 0, , 0, 0, 0, 0, 0, 
817, 1, 817, 817, 2100, -0.05607078336223463, -1.1775590655811483, 3.9924480694961484, 1.3067325567406214, ABarppaaa, 0, 0, 0, 0, , 0, 0, 0, 0, 0, 
247, 1, 247, 247, 2101, -5.7247637283046195, -2.3840069449302015, -3.8824466997465117, 1.3067325567406214, ABalpappa, 0, 0, 0, 0, , 0, 0, 0, 0, 0, 
400, 1, 400, 400, 2102, -9.61509566757124, -1.9501117527521965, -0.5152559259891815, 1.3067325567406214, ABalpaapa, 0, 0, 0, 0, , 0, 0, 0, 0, 0, 
51, 1, 51, 51, -1, 0.012925536049132366, 4.249300059192084, 0.06604021902791841, 1.3554556938436502, MSppap, 0, 0, 0, 0, , 0, 0, 0, 0, 0, 
75, 1, 75, 75, 2103, -6.1124405990784805, 2.7493677844978306, -3.90261021351048, 1.3067325567406214, ABarapaap, 0, 0, 0, 0, , 0, 0, 0, 0, 0, 
8, 1, 8, 8, 2104, 11.745976741457868, -0.665607140518571, -0.9307854000601703, 1.3554556938436502, Cpppp, 0, 0, 0, 0, , 0, 0, 0, 0, 0, 
69, 1, 69, 69, 2105, 4.062736689268538, 6.416868557127969, -2.613159231988283, 1.2429895051922986, ABprppaap, 0, 0, 0, 0, , 0, 0, 0, 0, 0, 
53, 1, 53, 53, 2106, 8.895762397659585, -2.019956151890442, 2.54481417316067, 1.3554556938436502, Caaap, 0, 0, 0, 0, , 0, 0, 0, 0, 0, 
132, 1, 132, 132, -1, 6.844402555274249, 1.8997566665574788, -2.6175497318271708, 1.5579950503950002, Dpa, 0, 0, 0, 0, , 0, 0, 0, 0, 0, 
64, 1, 64, 64, 2107, -6.036583423493971, 6.093200342085973, 0.3080870116456641, 1.2429895051922986, ABpraaaap, 0, 0, 0, 0, , 0, 0, 0, 0, 0, 
1471, 1, 1471, 1471, 2108, -8.82792962167795, 3.824520651656386, -0.5034009081644507, 1.3067325567406214, ABalaapaa, 0, 0, 0, 0, , 0, 0, 0, 0, 0, 
3, 1, 3, 3, -1, 4.249276796018674, 3.346733202438687, -1.3426023818046757, 1.3554556938436502, MSpppp, 0, 0, 0, 0, , 0, 0, 0, 0, 0, 
516, 1, 516, 516, 2109, -7.763364393867497, -3.6562184802385818, 1.0271805521291055, 1.3067325567406214, ABalpppaa, 0, 0, 0, 0, , 0, 0, 0, 0, 0, 
87, 1, 87, 87, 2110, -0.5662309978153796, -7.420277153103354, -1.1939734365264243, 1.2429895051922986, ABplppaap, 0, 0, 0, 0, , 0, 0, 0, 0, 0, 
17, 1, 17, 17, 2111, 5.139142896470637, 3.6111669629689986, -3.685727941724848, 1.2429895051922986, ABprpappp, 0, 0, 0, 0, , 0, 0, 0, 0, 0, 
311, 1, 311, 311, 2112, -4.865842199277475, 1.016252108060161, -3.136587024003458, 1.3067325567406214, ABaraappa, 0, 0, 0, 0, , 0, 0, 0, 0, 0, 
63, 1, 63, 63, 2113, -8.168119965573947, -2.1297121407783277, -3.2113574224826364, 1.3067325567406214, ABalpapap, 0, 0, 0, 0, , 0, 0, 0, 0, 0, 
90, 1, 90, 90, 2114, -5.5227409482484715, 2.6745033927185395, -0.08780683290742564, 1.1792464536439757, MSpaaap, 0, 0, 0, 0, , 0, 0, 0, 0, 0, 
100, 1, 100, 100, -1, -3.4102729776088503, 4.444308737280241, -0.9830572446255187, 1.3554556938436502, MSppaa, 0, 0, 0, 0, , 0, 0, 0, 0, 0, 
1575, 1, 1575, 1575, 2115, -7.849179232279436, 0.2391840327009006, 3.807405565474555, 1.3067325567406214, ABarpaaaa, 0, 0, 0, 0, , 0, 0, 0, 0, 0, 
473, 1, 473, 473, 2116, -1.5687430070112907, 5.250893346180316, -1.7533015910398067, 1.3067325567406214, ABarapppa, 0, 0, 0, 0, , 0, 0, 0, 0, 0, 
36, 1, 36, 36, 2117, -5.593626569838387, -4.765983705317348, -2.6884320616477657, 1.3067325567406214, ABalppapp, 0, 0, 0, 0, , 0, 0, 0, 0, 0, 
32, 1, 32, 32, 2118, 7.3015366231334795, 4.827543065230432, -1.3077795366389617, 1.2429895051922986, ABprppapp, 0, 0, 0, 0, , 0, 0, 0, 0, 0, 
139, 1, 139, 139, -1, 5.063931890220212, -4.67000778913009, -1.5899249947151914, 1.5579950503950002, Daa, 0, 0, 0, 0, , 0, 0, 0, 0, 0, 
427, 1, 427, 427, 2119, 2.3222124760950704, 5.445037296843074, 3.8660686115107055, 1.2429895051922986, ABprapaaa, 0, 0, 0, 0, , 0, 0, 0, 0, 0, 
84, 1, 84, 84, 2120, -8.73553307536524, -4.969676823017756, -0.9847342572118312, 1.3067325567406214, ABalppaap, 0, 0, 0, 0, , 0, 0, 0, 0, 0, 
9, 1, 9, 9, 2121, -3.222500227759525, 2.040022929721215, 2.3290173318922633, 1.3067325567406214, ABalapppp, 0, 0, 0, 0, , 0, 0, 0, 0, 0, 
892, 1, 892, 892, 2122, -10.594738265737215, -0.5695201546935196, -0.33269036750284026, 1.3067325567406214, ABalaaaal, 0, 0, 0, 0, , 0, 0, 0, 0, 0, 
992, 1, 992, 992, 2123, -6.034955145779269, 2.7394457795497518, -0.331567326734594, 1.1792464536439757, MSpaaaa, 0, 0, 0, 0, , 0, 0, 0, 0, 0, 
55, 1, 55, 55, 2124, 0.7950031284904057, -4.695545733464185, 3.887478567546574, 1.2429895051922986, ABplapaap, 0, 0, 0, 0, , 0, 0, 0, 0, 0, 
85, 1, 85, 85, 2125, -8.636697111389793, 3.9969971948662297, -0.43180502339078175, 1.3067325567406214, ABalaapap, 0, 0, 0, 0, , 0, 0, 0, 0, 0, 
4, 1, 4, 4, 2126, 3.1659713484655305, -3.7219802912994733, -3.161228763433898, 1.7907989085000002, Z3, 0, 0, 0, 0, , 0, 0, 0, 0, 0, 
1751, 1, 1751, 1751, 2127, -0.6756877879388347, -7.436808017300854, -1.145953683440019, 1.2429895051922986, ABplppaaa, 0, 0, 0, 0, , 0, 0, 0, 0, 0, 
83, 1, 83, 83, 2128, -9.363188789070437, -1.124551996061355, 2.714341628872388, 1.3067325567406214, ABalapaap, 0, 0, 0, 0, , 0, 0, 0, 0, 0, 
24, 1, 24, 24, -1, 8.344280896808593, 1.3889065933748004, -2.0475859376856667, 1.5579950503950002, Dpp, 0, 0, 0, 0, , 0, 0, 0, 0, 0, 
2, 1, 2, 2, 2129, 7.411644970060424, 1.6884731966751256, 3.1762308828936487, 1.3067325567406214, ABarppppp, 0, 0, 0, 0, , 0, 0, 0, 0, 0, 
455, 1, 455, 455, 2130, -6.302357952814413, -6.336658199969649, -1.0165012739002353, 1.2429895051922986, ABplpaaaa, 0, 0, 0, 0, , 0, 0, 0, 0, 0, 
530, 1, 530, 530, 2131, 6.472160697207818, 5.1336716660535835, -1.2606344749105418, 1.2429895051922986, ABprppapa, 0, 0, 0, 0, , 0, 0, 0, 0, 0, 
62, 1, 62, 62, 2132, 9.788042294352195, 4.520820906221756, -2.549185952409101, 1.2429895051922986, ABprpppap, 0, 0, 0, 0, , 0, 0, 0, 0, 0, 
40, 1, 40, 40, 2133, -1.5638828683515693, 1.2873381487439335, 4.054443510468069, 1.3067325567406214, ABarpaapp, 0, 0, 0, 0, , 0, 0, 0, 0, 0, 
11, 1, 11, 11, 2134, 8.923073843739852, -5.841526665785934, 0.09527822626403101, 1.2429895051922986, ABplapppp, 0, 0, 0, 0, , 0, 0, 0, 0, 0, 
419, 1, 419, 419, 2135, -2.843779659557276, 4.994498654962448, -3.2094256943450596, 1.3067325567406214, ABarappaa, 0, 0, 0, 0, , 0, 0, 0, 0, 0, 
72, 1, 72, 72, 2136, -1.7235411522633937, 7.2247366255146, -0.9494783950617341, 1.2429895051922986, ABprpaaap, 0, 0, 0, 0, , 0, 0, 0, 0, 0, 
42, 1, 42, 42, 2137, -9.420663073955359, 2.705766512171527, 1.8906396309787619, 1.3067325567406214, ABalaaapp, 0, 0, 0, 0, , 0, 0, 0, 0, 0, 
13, 1, 13, 13, -1, 2.869272262716014, -4.939060674847851, -0.9801703283923231, 1.3554556938436502, MSappp, 0, 0, 0, 0, , 0, 0, 0, 0, 0, 
902, 1, 902, 902, 2138, -6.414052944757261, 2.546618813304492, -4.1401427237987525, 1.3067325567406214, ABarapaaa, 0, 0, 0, 0, , 0, 0, 0, 0, 0, 
47, 1, 47, 47, 2139, 7.185552826575138, -2.6349164272018077, 0.645336907094446, 1.5579950503950002, Eplp, 0, 0, 0, 0, , 0, 0, 0, 0, 0, 
16, 1, 16, 16, 2140, -0.2010646814159472, -6.1393811195520875, 2.1575201773406807, 1.2429895051922986, ABplaappp, 0, 0, 0, 0, , 0, 0, 0, 0, 0, 
52, 1, 52, 52, 2141, 9.749377880224664, 1.5012776109026154, 3.697132922480741, 1.3554556938436502, Cpaap, 0, 0, 0, 0, , 0, 0, 0, 0, 0, 
663, 1, 663, 663, 2142, -10.464487269445868, -0.5914872608635633, -2.5858920785961477, 1.3067325567406214, ABalpaaaa, 0, 0, 0, 0, , 0, 0, 0, 0, 0, 
656, 1, 656, 656, 2143, -6.768946408401954, -0.7955086061392798, 3.847812748115011, 1.3067325567406214, ABalapapa, 0, 0, 0, 0, , 0, 0, 0, 0, 0, 
989, 1, 989, 989, 2144, 10.976505970743668, -4.253335939049851, -0.5211987754580291, 1.3554556938436502, Cappa, 0, 0, 0, 0, , 0, 0, 0, 0, 0, 
46, 1, 46, 46, 2145, -3.4999335274237264, -0.21120901277984722, -0.8907414317252915, 1.1792464536439757, MSaaapp, 0, 0, 0, 0, , 0, 0, 0, 0, 0, 
5, 1, 5, 5, 2146, 6.619805890788865, -5.062296556779407, -3.5631320625663343, 1.2429895051922986, ABplppppp, 0, 0, 0, 0, , 0, 0, 0, 0, 0, 
50, 1, 50, 50, -1, 6.732751453777732, -4.278596130347801, -1.0998397125798873, 1.5579950503950002, Dap, 0, 0, 0, 0, , 0, 0, 0, 0, 0, 
310, 1, 310, 310, 2147, -4.335507133138263, 5.699273985156601, 2.36707326604006, 1.2429895051922986, ABpraaapa, 0, 0, 0, 0, , 0, 0, 0, 0, 0, 
499, 1, 499, 499, 2148, 0.7623034599325169, 7.156114291378668, 0.024043596960655778, 1.2429895051922986, ABprpaapa, 0, 0, 0, 0, , 0, 0, 0, 0, 0, 
44, 1, 44, 44, 2149, 3.5241216780807907, -6.4935978903051685, -0.30252590514806393, 1.2429895051922986, ABplppapp, 0, 0, 0, 0, , 0, 0, 0, 0, 0, 
328, 1, 328, 328, 2150, 8.199604117557252, 4.635200059300907, 3.4589022785195445, 1.2429895051922986, ABprapapa, 0, 0, 0, 0, , 0, 0, 0, 0, 0, 
264, 1, 264, 264, 2151, -0.545184525830607, -4.660076597661876, 4.140127950262316, 1.2429895051922986, ABplapaaa, 0, 0, 0, 0, , 0, 0, 0, 0, 0, 
1565, 1, 1565, 1565, 2152, -1.486454220185762, -1.9989593526660832, -3.07796879305927, 1.1792464536439757, MSaapaa, 0, 0, 0, 0, , 0, 0, 0, 0, 0, 
86, 1, 86, 86, 2153, 5.147561197203294, -6.73290032914819, -1.8214839205003914, 1.2429895051922986, ABplpppap, 0, 0, 0, 0, , 0, 0, 0, 0, 0, 
56, 1, 56, 56, 2154, 8.230180252654913, 6.147658862044587, 0.8507885654501632, 1.2429895051922986, ABprappap, 0, 0, 0, 0, , 0, 0, 0, 0, 0, 
227, 1, 227, 227, 2155, -3.8745211000020165, -2.858936219177986, 4.225912256266072, 1.2429895051922986, ABplaaapa, 0, 0, 0, 0, , 0, 0, 0, 0, 0, 
35, 1, 35, 35, 2156, -1.9430621719469239, 3.1510658933848696, -3.3666147607786967, 1.3067325567406214, ABarapapp, 0, 0, 0, 0, , 0, 0, 0, 0, 0, 
73, 1, 73, 73, 2157, -2.008865462026325, 5.478194333975113, -3.22409647623816, 1.3067325567406214, ABarappap, 0, 0, 0, 0, , 0, 0, 0, 0, 0, 
148, 1, 148, 148, 2158, 12.711259021680194, 0.07107984025198306, 1.2122452244144217, 1.3554556938436502, Cpapa, 0, 0, 0, 0, , 0, 0, 0, 0, 0, 
392, 1, 392, 392, 2159, -5.580070418274075, 3.7835855643091985, 3.732063364811649, 1.3067325567406214, ABarpapaa, 0, 0, 0, 0, , 0, 0, 0, 0, 0, 
61, 1, 61, 61, 2160, -7.104191543464987, -2.486488419202335, 3.601446610697126, 1.2429895051922986, ABplaaaap, 0, 0, 0, 0, , 0, 0, 0, 0, 0, 
173, 1, 173, 173, 2161, 5.948857123829116, 2.3815941707090675, 0.551322178372028, 1.5579950503950002, Epra, 0, 0, 0, 0, , 0, 0, 0, 0, 0, 
343, 1, 343, 343, 2162, 0.8241239283368064, 6.052748097814983, -3.201768331671407, 1.2429895051922986, ABprpapaa, 0, 0, 0, 0, , 0, 0, 0, 0, 0, 
22, 1, 22, 22, 2163, -4.652402617192778, -2.267145833819164, -3.3924466997462392, 1.3067325567406214, ABalpappp, 0, 0, 0, 0, , 0, 0, 0, 0, 0, 
266, 1, 266, 266, 2164, 3.6505792311995306, -6.943218577915584, 1.4586212451035694, 1.2429895051922986, ABplappaa, 0, 0, 0, 0, , 0, 0, 0, 0, 0, 
