67, 1, 67, 67, 3556, 8.74894461219859, -4.0116891608011365, -2.815941596885798, 1.3554556938436502, Capap, 0, 0, 0, 0, , 0, 0, 0, 0, 0, 
58, 1, 58, 58, 3557, 3.8760837152955543, 5.825445102735594, 2.8971535461624844, 1.2429895051922986, ABprapaap, 0, 0, 0, 0, , 0, 0, 0, 0, 0, 
47, 1, 47, 47, 3558, 8.437879589725965, -2.0159229462963735, 0.5932262977672677, 1.5579950503950002, Eplp, 0, 0, 0, 0, , 0, 0, 0, 0, 0, 
817, 1, 817, 817, 3559, 0.3182576594216149, -1.6095984775885583, 4.098029655447372, 1.3067325567406214, ABarppaaa, 0, 0, 0, 0, , 0, 0, 0, 0, 0, 
55, 1, 55, 55, 3560, 2.2290059167279406, -5.120439203017147, 3.5558366358032822, 1.2429895051922986, ABplapaap, 0, 0, 0, 0, , 0, 0, 0, 0, 0, 
258, 1, 258, 258, 3561, -8.01941533782492, 2.7629336207233215, -2.767202851800832, 1.3067325567406214, ABaraaapa, 0, 0, 0, 0, , 0, 0, 0, 0, 0, 
20, 1, 20, 20, 3562, -6.518271135223542, 4.23630171144596, 1.8654261141259127, 1.3067325567406214, ABalaappp, 0, 0, 0, 0, , 0, 0, 0, 0, 0, 
53, 1, 53, 53, 3563, 10.462229905471116, -2.134631705907996, 2.069822047204253, 1.3554556938436502, Caaap, 0, 0, 0, 0, , 0, 0, 0, 0, 0, 
71, 1, 71, 71, 3564, -4.338618504366558, -6.947246597187571, -1.314062390258066, 1.2429895051922986, ABplpaaap, 0, 0, 0, 0, , 0, 0, 0, 0, 0, 
70, 1, 70, 70, 3565, -6.7374572768889, -0.4929002406434528, -2.2038813031960083, 1.3067325567406214, ABaraapap, 0, 0, 0, 0, , 0, 0, 0, 0, 0, 
514, 1, 514, 514, 3566, -6.836333811174098, 5.854896840301916, 0.36455349241476115, 1.2429895051922986, ABpraaaaa, 0, 0, 0, 0, , 0, 0, 0, 0, 0, 
1565, 1, 1565, 1565, 3567, -1.7557455223179816, -1.94283405260403, -2.5075098200463373, 1.1792464536439757, MSaapaa, 0, 0, 0, 0, , 0, 0, 0, 0, 0, 
86, 1, 86, 86, 3568, 6.1010739666603575, -6.125252194557973, -2.264626835868356, 1.2429895051922986, ABplpppap, 0, 0, 0, 0, , 0, 0, 0, 0, 0, 
52, 1, 52, 52, 3569, 10.335138363030268, 1.349766537502625, 3.5378828992441442, 1.3554556938436502, Cpaap, 0, 0, 0, 0, , 0, 0, 0, 0, 0, 
1060, 1, 1060, 1060, 3570, 10.736978459263524, 0.872893475228566, -0.6217223958534492, 1.3554556938436502, Cpppa, 0, 0, 0, 0, , 0, 0, 0, 0, 0, 
310, 1, 310, 310, 3571, -5.450853858889603, 5.314212917834638, 2.2158889994180693, 1.2429895051922986, ABpraaapa, 0, 0, 0, 0, , 0, 0, 0, 0, 0, 
294, 1, 294, 294, 3572, -3.4959830034186345, 6.187367871112008, 2.8931903227671842, 1.2429895051922986, ABpraapaa, 0, 0, 0, 0, , 0, 0, 0, 0, 0, 
200, 1, 200, 200, 3573, 0.6845139522612786, 6.841732336082383, 1.996822226352506, 1.2429895051922986, ABpraappa, 0, 0, 0, 0, , 0, 0, 0, 0, 0, 
11, 1, 11, 11, 3574, 9.423042379935248, -5.488802336030651, -0.6231454427756851, 1.2429895051922986, ABplapppp, 0, 0, 0, 0, , 0, 0, 0, 0, 0, 
496, 1, 496, 496, 3575, -1.780776344464329, 4.282329113254398, 4.2325163833792105, 1.3067325567406214, ABarpappa, 0, 0, 0, 0, , 0, 0, 0, 0, 0, 
28, 1, 28, 28, 3576, 12.571518352072978, -0.22461611301208206, -1.3574207270348544, 1.3554556938436502, Cpapp, 0, 0, 0, 0, , 0, 0, 0, 0, 0, 
2619, 1, 2619, 2619, 3577, -6.091832463497059, -3.1152196611121985, -0.6930635390921029, 1.1792464536439757, MSapaaa, 0, 0, 0, 0, , 0, 0, 0, 0, 0, 
66, 1, 66, 66, 3578, 1.6245198106258238, 5.238002077151964, -3.55270502340149, 1.2429895051922986, ABprpapap, 0, 0, 0, 0, , 0, 0, 0, 0, 0, 
32, 1, 32, 32, 3579, 7.0579468614555125, 5.007728191550046, -1.643452461441079, 1.2429895051922986, ABprppapp, 0, 0, 0, 0, , 0, 0, 0, 0, 0, 
23, 1, 23, 23, 3580, -3.464884962860607, 1.2038310447087237, -2.575112314263977, 1.3067325567406214, ABaraappp, 0, 0, 0, 0, , 0, 0, 0, 0, 0, 
1751, 1, 1751, 1751, 3581, -0.6207722243814319, -7.223331686797937, -1.3124183989767995, 1.2429895051922986, ABplppaaa, 0, 0, 0, 0, , 0, 0, 0, 0, 0, 
728, 1, 728, 728, 3582, 8.499406783227538, -6.1041934882937925, -0.16868247981271237, 1.2429895051922986, ABplapppa, 0, 0, 0, 0, , 0, 0, 0, 0, 0, 
10, 1, 10, 10, 3583, 11.225989285870885, 3.038302551680435, -1.5508337214612773, 1.2429895051922986, ABprapppp, 0, 0, 0, 0, , 0, 0, 0, 0, 0, 
126, 1, 126, 126, 3584, -1.320704140200953, -1.652306100556233, 1.6613180546253623, 1.5579950503950002, Eala, 0, 0, 0, 0, , 0, 0, 0, 0, 0, 
56, 1, 56, 56, 3585, 8.425205015025385, 6.102336189129105, 0.6271949919175754, 1.2429895051922986, ABprappap, 0, 0, 0, 0, , 0, 0, 0, 0, 0, 
2934, 1, 2934, 2934, 3586, -1.768933697508789, -4.237982814077989, -0.1926194502114552, 1.1792464536439757, MSapapa, 0, 0, 0, 0, , 0, 0, 0, 0, 0, 
62, 1, 62, 62, 3587, 9.55259302005473, 4.171347823687521, -3.027572357176578, 1.2429895051922986, ABprpppap, 0, 0, 0, 0, , 0, 0, 0, 0, 0, 
5, 1, 5, 5, 3588, 6.73907081121756, -4.254772773501766, -3.775481212310521, 1.2429895051922986, ABplppppp, 0, 0, 0, 0, , 0, 0, 0, 0, 0, 
1459, 1, 1459, 1459, 3589, -0.11911146669885056, 1.1459563602330323, -2.9362350096607024, 1.1792464536439757, MSpapaa, 0, 0, 0, 0, , 0, 0, 0, 0, 0, 
419, 1, 419, 419, 3590, -3.0960795919038873, 4.253217773378238, -3.4497286209925595, 1.3067325567406214, ABarappaa, 0, 0, 0, 0, , 0, 0, 0, 0, 0, 
856, 1, 856, 856, 3591, -9.136667870525459, -4.633193428263007, -0.4953142185164079, 1.3067325567406214, ABalppaaa, 0, 0, 0, 0, , 0, 0, 0, 0, 0, 
44, 1, 44, 44, 3592, 4.220393523942855, -6.511724472580988, -0.6978134920855378, 1.2429895051922986, ABplppapp, 0, 0, 0, 0, , 0, 0, 0, 0, 0, 
25, 1, 25, 25, 3593, 3.3382265947933365, -2.1512562755658644, -3.664610262023615, 1.1792464536439757, MSaappp, 0, 0, 0, 0, , 0, 0, 0, 0, 0, 
688, 1, 688, 688, 3594, -7.125111670202525, 4.205607267001805, 1.0503180894346127, 1.3067325567406214, ABalaappa, 0, 0, 0, 0, , 0, 0, 0, 0, 0, 
65, 1, 65, 65, 3595, 5.834448834974253, -6.552046024951484, 1.5411512431138807, 1.2429895051922986, ABplappap, 0, 0, 0, 0, , 0, 0, 0, 0, 0, 
38, 1, 38, 38, 3596, -8.378151923758168, -3.1839031587643776, -1.3415264907241435, 1.3067325567406214, ABalpaapp, 0, 0, 0, 0, , 0, 0, 0, 0, 0, 
87, 1, 87, 87, 3597, 0.2464623435197875, -7.092356378156201, -1.692882596507549, 1.2429895051922986, ABplppaap, 0, 0, 0, 0, , 0, 0, 0, 0, 0, 
902, 1, 902, 902, 3598, -6.438335760647485, 1.9706864780242963, -4.262818623267466, 1.3067325567406214, ABarapaaa, 0, 0, 0, 0, , 0, 0, 0, 0, 0, 
389, 1, 389, 389, 3599, -2.794991488535434, 2.1147844856955205, -3.920734051343107, 1.3067325567406214, ABarapapa, 0, 0, 0, 0, , 0, 0, 0, 0, 0, 
338, 1, 338, 338, 3600, -8.633591534694864, -2.890214754107188, -3.518977541996841, 1.3067325567406214, ABalpapaa, 0, 0, 0, 0, , 0, 0, 0, 0, 0, 
392, 1, 392, 392, 3601, -5.978213345094743, 3.397453220814904, 4.018123986015885, 1.3067325567406214, ABarpapaa, 0, 0, 0, 0, , 0, 0, 0, 0, 0, 
7, 1, 7, 7, 3602, 8.667197463228696, 1.5869611351415567, 0.5919711823921988, 1.5579950503950002, Eprp, 0, 0, 0, 0, , 0, 0, 0, 0, 0, 
1663, 1, 1663, 1663, 3603, -4.273176414328272, -0.47188060784271885, -0.5436392056828127, 1.1792464536439757, MSaaapa, 0, 0, 0, 0, , 0, 0, 0, 0, 0, 
162, 1, 162, 162, 3604, 4.814616215241116, -1.8765939339505693, 1.715657985009959, 1.5579950503950002, Epla, 0, 0, 0, 0, , 0, 0, 0, 0, 0, 
48, 1, 48, 48, 3605, -1.7312533315048986, 1.2665462310714897, -1.3358145885926922, 1.1792464536439757, MSpaapp, 0, 0, 0, 0, , 0, 0, 0, 0, 0, 
16, 1, 16, 16, 3606, 0.8158784088991895, -6.749664760861567, 1.9722546821973577, 1.2429895051922986, ABplaappp, 0, 0, 0, 0, , 0, 0, 0, 0, 0, 
90, 1, 90, 90, 3607, -5.4496483103163476, 2.3965189855115336, 0.5454581645574362, 1.1792464536439757, MSpaaap, 0, 0, 0, 0, , 0, 0, 0, 0, 0, 
473, 1, 473, 473, 3608, -2.7842147613381396, 4.97763977694148, -2.264407179931689, 1.3067325567406214, ABarapppa, 0, 0, 0, 0, , 0, 0, 0, 0, 0, 
311, 1, 311, 311, 3609, -5.4586701480457815, 1.0950841311284347, -2.614756758708087, 1.3067325567406214, ABaraappa, 0, 0, 0, 0, , 0, 0, 0, 0, 0, 
333, 1, 333, 333, 3610, -3.5983843950361436, -7.147085105616966, 0.5369045872749455, 1.2429895051922986, ABplpaapa, 0, 0, 0, 0, , 0, 0, 0, 0, 0, 
34, 1, 34, 34, 3611, 1.3420534891602285, 7.296566696448598, -0.16911988494572552, 1.2429895051922986, ABprpaapp, 0, 0, 0, 0, , 0, 0, 0, 0, 0, 
1270, 1, 1270, 1270, 3612, 3.0288231535724, -6.795050398506931, -0.5288060846781243, 1.2429895051922986, ABplppapa, 0, 0, 0, 0, , 0, 0, 0, 0, 0, 
15, 1, 15, 15, 3613, 10.996603217829895, -3.3192368084799906, -1.294270048709441, 1.3554556938436502, Cappp, 0, 0, 0, 0, , 0, 0, 0, 0, 0, 
73, 1, 73, 73, 3614, -1.628832061039537, 5.103246785724478, -3.4755105139968436, 1.3067325567406214, ABarappap, 0, 0, 0, 0, , 0, 0, 0, 0, 0, 
400, 1, 400, 400, 3615, -9.687107890835073, -1.9937233233734635, -1.0553351326994465, 1.3067325567406214, ABalpaapa, 0, 0, 0, 0, , 0, 0, 0, 0, 0, 
2623, 1, 2623, 2623, 3616, -4.671668880518873, 4.387403556930257, -0.7634283673948542, 1.1792464536439757, MSppaaa, 0, 0, 0, 0, , 0, 0, 0, 0, 0, 
430, 1, 430, 430, 3617, -4.893416951967126, -3.9147629129811716, 1.426556395486984, 1.3067325567406214, ABalppppa, 0, 0, 0, 0, , 0, 0, 0, 0, 0, 
266, 1, 266, 266, 3618, 4.232498834974005, -7.064532444704216, 1.157932930356643, 1.2429895051922986, ABplappaa, 0, 0, 0, 0, , 0, 0, 0, 0, 0, 
954, 1, 954, 954, 3619, 6.476057950126666, 2.7826193065531775, 3.2378537941255536, 1.3067325567406214, ABarppppa, 0, 0, 0, 0, , 0, 0, 0, 0, 0, 
30, 1, 30, 30, 3620, -1.8497666816053382, -3.086827449983243, 3.962340713281443, 1.2429895051922986, ABplaaapp, 0, 0, 0, 0, , 0, 0, 0, 0, 0, 
1, 1, 1, 1, 3621, 8.488497955512138, 2.0072286531424934, -4.062086677071056, 1.2429895051922986, ABprppppp, 0, 0, 0, 0, , 0, 0, 0, 0, 0, 
85, 1, 85, 85, 3622, -8.349527202561625, 4.2902779954009755, -0.6453156471904815, 1.3067325567406214, ABalaapap, 0, 0, 0, 0, , 0, 0, 0, 0, 0, 
27, 1, 27, 27, 3623, 11.989083904929476, -2.636497129543169, -0.20224403416860057, 1.3554556938436502, Caapp, 0, 0, 0, 0, , 0, 0, 0, 0, 0, 
1048, 1, 1048, 1048, 3624, 4.573619436050666, -3.0690142552924216, 3.5219075342670556, 1.3067325567406214, ABarppapa, 0, 0, 0, 0, , 0, 0, 0, 0, 0, 
81, 1, 81, 81, 3625, 3.4450350358884845, 3.135952841391958, 3.9445301111641538, 1.3067325567406214, ABarpppap, 0, 0, 0, 0, , 0, 0, 0, 0, 0, 
154, 1, 154, 154, 3626, -1.574009245421724, -6.870043773207286, 2.7011201142964056, 1.2429895051922986, ABplaappa, 0, 0, 0, 0, , 0, 0, 0, 0, 0, 
3128, 1, 3128, 3128, 3627, 0.8335174823238387, 3.3548160145079784, -1.9128703365824151, 1.1792464536439757, MSpppaa, 0, 0, 0, 0, , 0, 0, 0, 0, 0, 
83, 1, 83, 83, 3628, -9.3898304234177, -2.060222398804357, 2.511260022491884, 1.3067325567406214, ABalapaap, 0, 0, 0, 0, , 0, 0, 0, 0, 0, 
147, 1, 147, 147, 3629, 6.565594124348223, 1.4138288831816666, 4.164028989779405, 1.3554556938436502, Cpaaa, 0, 0, 0, 0, , 0, 0, 0, 0, 0, 
54, 1, 54, 54, 3630, -1.6171484355173296, 6.301751410206186, 2.963689088199134, 1.2429895051922986, ABpraapap, 0, 0, 0, 0, , 0, 0, 0, 0, 0, 
132, 1, 132, 132, -1, 5.387673998685005, 2.9353173440677245, -2.292655140378847, 1.5579950503950002, Dpa, 0, 0, 0, 0, , 0, 0, 0, 0, 0, 
2, 1, 2, 2, 3631, 8.008455480990863, 2.3905069608740717, 3.083373547211798, 1.3067325567406214, ABarppppp, 0, 0, 0, 0, , 0, 0, 0, 0, 0, 
736, 1, 736, 736, 3632, -10.301486375014676, 1.100317588169832, 1.6376695358353879, 1.3067325567406214, ABalaaapa, 0, 0, 0, 0, , 0, 0, 0, 0, 0, 
355, 1, 355, 355, 3633, 1.7794253651063703, 3.5786207426266126, 3.9163745556089764, 1.3067325567406214, ABarpppaa, 0, 0, 0, 0, , 0, 0, 0, 0, 0, 
427, 1, 427, 427, 3634, 2.2205723984229833, 5.63700888874366, 3.5584158918417383, 1.2429895051922986, ABprapaaa, 0, 0, 0, 0, , 0, 0, 0, 0, 0, 
89, 1, 89, 89, 3635, 0.5854502616961973, 1.2026503931548915, -3.1033253388789355, 1.1792464536439757, MSpapap, 0, 0, 0, 0, , 0, 0, 0, 0, 0, 
26, 1, 26, 26, 3636, 4.462530987587166, 1.219564571699466, -3.479371928961243, 1.1792464536439757, MSpappp, 0, 0, 0, 0, , 0, 0, 0, 0, 0, 
530, 1, 530, 530, 3637, 5.495570935530085, 5.584412347928847, -1.5546407330459593, 1.2429895051922986, ABprppapa, 0, 0, 0, 0, , 0, 0, 0, 0, 0, 
228, 1, 228, 228, 3638, 6.769386844400781, 3.8250064309200296, -3.5820866770711763, 1.2429895051922986, ABprppppa, 0, 0, 0, 0, , 0, 0, 0, 0, 0, 
49, 1, 49, 49, 3639, -1.565998718084896, -4.155395159757062, 0.02194104361570411, 1.1792464536439757, MSapapp, 0, 0, 0, 0, , 0, 0, 0, 0, 0, 
36, 1, 36, 36, 3640, -4.603929184217611, -4.919463661744393, -2.7696263971598194, 1.3067325567406214, ABalppapp, 0, 0, 0, 0, , 0, 0, 0, 0, 0, 
343, 1, 343, 343, 3641, 0.5315407982799903, 5.81288787962066, -3.131214899944342, 1.2429895051922986, ABprpapaa, 0, 0, 0, 0, , 0, 0, 0, 0, 0, 
24, 1, 24, 24, -1, 7.493790592036797, 2.217985953880083, -1.4923167587849386, 1.5579950503950002, Dpp, 0, 0, 0, 0, , 0, 0, 0, 0, 0, 
51, 1, 51, 51, 3642, -0.7310801410958155, 4.3361590583301, 0.6489406110622904, 1.1792464536439757, MSppapp, 0, 0, 0, 0, , 0, 0, 0, 0, 0, 
315, 1, 315, 315, 3643, 10.183105952536007, 4.138352551680539, -1.0306170547946025, 1.2429895051922986, ABprapppa, 0, 0, 0, 0, , 0, 0, 0, 0, 0, 
75, 1, 75, 75, 3644, -5.776390081635649, 2.4156576714397717, -3.7415083352012357, 1.3067325567406214, ABarapaap, 0, 0, 0, 0, , 0, 0, 0, 0, 0, 
517, 1, 517, 517, 3645, -5.448492077933371, 1.7110119409167728, 2.949876726268391, 1.3067325567406214, ABalapppa, 0, 0, 0, 0, , 0, 0, 0, 0, 0, 
64, 1, 64, 64, 3646, -5.7637227000631786, 6.21299128474716, 0.32179238130369214, 1.2429895051922986, ABpraaaap, 0, 0, 0, 0, , 0, 0, 0, 0, 0, 
139, 1, 139, 139, -1, 4.235186650951688, -4.164513262352771, -1.6989773141351026, 1.5579950503950002, Daa, 0, 0, 0, 0, , 0, 0, 0, 0, 0, 
176, 1, 176, 176, 3647, 7.558778053618629, -2.0429724466486445, 3.815096121277994, 1.3554556938436502, Caaaa, 0, 0, 0, 0, , 0, 0, 0, 0, 0, 
72, 1, 72, 72, 3648, -1.6844300411522661, 7.161847736625779, -1.115811728395078, 1.2429895051922986, ABprpaaap, 0, 0, 0, 0, , 0, 0, 0, 0, 0, 
80, 1, 80, 80, 3649, -6.551312766110242, -4.855765830487053, 1.0261876409705843, 1.3067325567406214, ABalpppap, 0, 0, 0, 0, , 0, 0, 0, 0, 0, 
2006, 1, 2006, 2006, 3650, -2.536845512574909, 1.4147295644048647, -1.0111456585515033, 1.1792464536439757, MSpaapa, 0, 0, 0, 0, , 0, 0, 0, 0, 0, 
60, 1, 60, 60, 3651, -7.100161341534767, 0.20465971271645067, 3.9539187928542856, 1.3067325567406214, ABarpaaap, 0, 0, 0, 0, , 0, 0, 0, 0, 0, 
577, 1, 577, 577, 3652, 2.060631341398448, 6.329733713187523, -2.3727818370797906, 1.2429895051922986, ABprppaaa, 0, 0, 0, 0, , 0, 0, 0, 0, 0, 
37, 1, 37, 37, 3653, -1.5045166995625359, -7.3610365459451685, 0.44617125394162954, 1.2429895051922986, ABplpaapp, 0, 0, 0, 0, , 0, 0, 0, 0, 0, 
29, 1, 29, 29, 3654, 9.822826703452423, 4.109261121106936, 1.864476256451769, 1.2429895051922986, ABprapapp, 0, 0, 0, 0, , 0, 0, 0, 0, 0, 
247, 1, 247, 247, 3655, -5.248122372557788, -2.113822601319175, -3.989556990747945, 1.3067325567406214, ABalpappa, 0, 0, 0, 0, , 0, 0, 0, 0, 0, 
309, 1, 309, 309, 3656, -8.668426824214894, -0.24172163982039874, -2.6487562003153244, 1.3067325567406214, ABaraapaa, 0, 0, 0, 0, , 0, 0, 0, 0, 0, 
22, 1, 22, 22, 3657, -3.5629834836678476, -1.9301837124304022, -3.219556990747517, 1.3067325567406214, ABalpappp, 0, 0, 0, 0, , 0, 0, 0, 0, 0, 
233, 1, 233, 233, 3658, 6.694753163174825, 6.735304707648552, 0.14389684376945205, 1.2429895051922986, ABprappaa, 0, 0, 0, 0, , 0, 0, 0, 0, 0, 
57, 1, 57, 57, 3659, -4.277215762625696, -5.12403588153998, 3.766932914215489, 1.2429895051922986, ABplaapap, 0, 0, 0, 0, , 0, 0, 0, 0, 0, 
2639, 1, 2639, 2639, 3660, -0.9616134744291484, 4.346959058329883, 0.35287394439561537, 1.1792464536439757, MSppapa, 0, 0, 0, 0, , 0, 0, 0, 0, 0, 
173, 1, 173, 173, 3661, 5.1590937595240955, 2.5413084602447493, 1.123846079511569, 1.5579950503950002, Epra, 0, 0, 0, 0, , 0, 0, 0, 0, 0, 
656, 1, 656, 656, 3662, -7.458977775864705, -1.2410995335926198, 3.7242901914453093, 1.3067325567406214, ABalapapa, 0, 0, 0, 0, , 0, 0, 0, 0, 0, 
1043, 1, 1043, 1043, 3663, -9.174696003440252, 0.4034955824013474, 0.24028819823801537, 1.1792464536439757, MSaaaaa, 0, 0, 0, 0, , 0, 0, 0, 0, 0, 
77, 1, 77, 77, 3664, 1.7320245318495804, -1.588006090757172, 3.996267515529694, 1.3067325567406214, ABarppaap, 0, 0, 0, 0, , 0, 0, 0, 0, 0, 
74, 1, 74, 74, 3665, -1.2825206642159106, -5.578337004817274, -3.2472196474831256, 1.2429895051922986, ABplpapap, 0, 0, 0, 0, , 0, 0, 0, 0, 0, 
663, 1, 663, 663, 3666, -10.007892592626291, -0.8885637455717175, -3.1410609613768266, 1.3067325567406214, ABalpaaaa, 0, 0, 0, 0, , 0, 0, 0, 0, 0, 
19, 1, 19, 19, 3667, -0.21168066545200126, 4.352407714077902, 3.8396670006627955, 1.3067325567406214, ABarpappp, 0, 0, 0, 0, , 0, 0, 0, 0, 0, 
892, 1, 892, 892, 3668, -10.48812707316173, -1.3515326691257303, -0.43824452871283887, 1.3067325567406214, ABalaaaal, 0, 0, 0, 0, , 0, 0, 0, 0, 0, 
41, 1, 41, 41, 3669, -5.353751849939522, -1.7782935665144048, 3.3963167346554597, 1.3067325567406214, ABalapapp, 0, 0, 0, 0, , 0, 0, 0, 0, 0, 
12, 1, 12, 12, 3670, -1.2049092057826718, 5.619096567064716, -2.085598537956529, 1.3067325567406214, ABarapppp, 0, 0, 0, 0, , 0, 0, 0, 0, 0, 
992, 1, 992, 992, 3671, -6.715529174513713, 2.557016927898208, -0.05696899593639989, 1.1792464536439757, MSpaaaa, 0, 0, 0, 0, , 0, 0, 0, 0, 0, 
516, 1, 516, 516, 3672, -7.858144453352799, -4.2019901103223924, 1.1118382582545783, 1.3067325567406214, ABalpppaa, 0, 0, 0, 0, , 0, 0, 0, 0, 0, 
753, 1, 753, 753, 3673, 4.757142896701607, -6.865271741883707, -2.1063768358684554, 1.2429895051922986, ABplpppaa, 0, 0, 0, 0, , 0, 0, 0, 0, 0, 
115, 1, 115, 115, 3674, -1.2898271809554744, 1.8618077326292357, 1.802773884209262, 1.5579950503950002, Eara, 0, 0, 0, 0, , 0, 0, 0, 0, 0, 
78, 1, 78, 78, 3675, -9.136097511108435, 1.6826041476684537, 2.8011164374374093, 1.3067325567406214, ABalappap, 0, 0, 0, 0, , 0, 0, 0, 0, 0, 
40, 1, 40, 40, 3676, -0.5636367880707942, 0.914051015940648, 4.0830329973045565, 1.3067325567406214, ABarpaapp, 0, 0, 0, 0, , 0, 0, 0, 0, 0, 
45, 1, 45, 45, 3677, 1.6550081885661239, -2.742879350175211, 0.2821841124640684, 1.5579950503950002, Ealp, 0, 0, 0, 0, , 0, 0, 0, 0, 0, 
84, 1, 84, 84, 3678, -8.293841533076595, -5.263903099045119, -0.9648716259238455, 1.3067325567406214, ABalppaap, 0, 0, 0, 0, , 0, 0, 0, 0, 0, 
989, 1, 989, 989, 3679, 10.196636551163751, -4.220868289962027, -0.3678422709316661, 1.3554556938436502, Cappa, 0, 0, 0, 0, , 0, 0, 0, 0, 0, 
35, 1, 35, 35, 3680, -1.738634286888961, 2.641080576230465, -3.279066973153666, 1.3067325567406214, ABarapapp, 0, 0, 0, 0, , 0, 0, 0, 0, 0, 
46, 1, 46, 46, 3681, -3.250371476056646, -0.31220159549704146, -0.38725402049766816, 1.1792464536439757, MSaaapp, 0, 0, 0, 0, , 0, 0, 0, 0, 0, 
394, 1, 394, 394, 3682, -3.3689434156380162, 6.564825102880436, -1.41485185185183, 1.2429895051922986, ABprpaaaa, 0, 0, 0, 0, , 0, 0, 0, 0, 0, 
18, 1, 18, 18, 3683, 3.013768684771379, 6.722107644724919, 1.7033679053648145, 1.2429895051922986, ABpraappp, 0, 0, 0, 0, , 0, 0, 0, 0, 0, 
1073, 1, 1073, 1073, 3684, -9.63246129711668, 1.0255969460223069, 2.559870141141151, 1.3067325567406214, ABalappaa, 0, 0, 0, 0, , 0, 0, 0, 0, 0, 
1575, 1, 1575, 1575, 3685, -7.900450641946112, 0.14778111189340548, 3.923485047998438, 1.3067325567406214, ABarpaaaa, 0, 0, 0, 0, , 0, 0, 0, 0, 0, 
33, 1, 33, 33, 3686, 8.605341264310217, -5.111452368931354, 1.439839127119121, 1.2429895051922986, ABplapapp, 0, 0, 0, 0, , 0, 0, 0, 0, 0, 
21, 1, 21, 21, 3687, 3.1368172527365785, -3.982203980389429, -3.8809458470346394, 1.2429895051922986, ABplpappp, 0, 0, 0, 0, , 0, 0, 0, 0, 0, 
88, 1, 88, 88, 3688, -7.756707114550634, 0.24067336017916924, 1.121643753793559, 1.1792464536439757, MSaaaap, 0, 0, 0, 0, , 0, 0, 0, 0, 0, 
148, 1, 148, 148, 3689, 12.92626320804238, 0.8687017882225602, 0.44754120712155177, 1.3554556938436502, Cpapa, 0, 0, 0, 0, , 0, 0, 0, 0, 0, 
242, 1, 242, 242, 3690, 2.9420114429862747, 3.3897141021963346, -3.807987358136784, 1.2429895051922986, ABprpappa, 0, 0, 0, 0, , 0, 0, 0, 0, 0, 
271, 1, 271, 271, 3691, 7.853625530343087, 5.464079099408486, -2.6627888180820936, 1.2429895051922986, ABprpppaa, 0, 0, 0, 0, , 0, 0, 0, 0, 0, 
39, 1, 39, 39, 3692, -6.749276448935763, 3.7529243614641894, -2.7964806295787317, 1.3067325567406214, ABaraaapp, 0, 0, 0, 0, , 0, 0, 0, 0, 0, 
9, 1, 9, 9, 3693, -3.4694698557111483, 2.411834163138969, 2.529921170712722, 1.3067325567406214, ABalapppp, 0, 0, 0, 0, , 0, 0, 0, 0, 0, 
8, 1, 8, 8, 3694, 11.355953767904731, -0.20677524905123731, -1.2697470872114993, 1.3554556938436502, Cpppp, 0, 0, 0, 0, , 0, 0, 0, 0, 0, 
747, 1, 747, 747, 3695, 5.306649412040742, -5.349712691197747, -3.4662334756848847, 1.2429895051922986, ABplppppa, 0, 0, 0, 0, , 0, 0, 0, 0, 0, 
17, 1, 17, 17, 3696, 4.806239838048419, 3.1815865301797936, -3.823745588589562, 1.2429895051922986, ABprpappp, 0, 0, 0, 0, , 0, 0, 0, 0, 0, 
31, 1, 31, 31, 3697, -3.239957562593382, 6.151239255282615, 2.043874184603341, 1.2429895051922986, ABpraaapp, 0, 0, 0, 0, , 0, 0, 0, 0, 0, 
499, 1, 499, 499, 3698, -0.5379144120742195, 7.112337066818875, -0.014047045439550236, 1.2429895051922986, ABprpaapa, 0, 0, 0, 0, , 0, 0, 0, 0, 0, 
455, 1, 455, 455, 3699, -5.708739903543323, -6.357981988133987, -1.0879986042497634, 1.2429895051922986, ABplpaaaa, 0, 0, 0, 0, , 0, 0, 0, 0, 0, 
14, 1, 14, 14, 3700, 2.258109462880294, 1.0409173216702547, 0.145701966400962, 1.5579950503950002, Earp, 0, 0, 0, 0, , 0, 0, 0, 0, 0, 
3, 1, 3, 3, -1, 3.29947761163356, 4.394554849643266, -0.7360557876898928, 1.3554556938436502, MSpppp, 0, 0, 0, 0, , 0, 0, 0, 0, 0, 
325, 1, 325, 325, 3701, 0.8707736313373416, -4.4987245565203215, -3.7028639540299553, 1.2429895051922986, ABplpappa, 0, 0, 0, 0, , 0, 0, 0, 0, 0, 
178, 1, 178, 178, 3702, 6.692559371306423, -5.368331381277222, 3.15271114358007, 1.2429895051922986, ABplapapa, 0, 0, 0, 0, , 0, 0, 0, 0, 0, 
1471, 1, 1471, 1471, 3703, -8.974648601738874, 3.726468118857872, -0.87935597640858, 1.3067325567406214, ABalaapaa, 0, 0, 0, 0, , 0, 0, 0, 0, 0, 
76, 1, 76, 76, 3704, -8.571010905382497, -1.3049680665593673, -2.6939138420353044, 1.3067325567406214, ABalpaaap, 0, 0, 0, 0, , 0, 0, 0, 0, 0, 
6, 1, 6, 6, 3705, -3.081950079539361, -4.969776287466834, 1.323473062153525, 1.3067325567406214, ABalppppp, 0, 0, 0, 0, , 0, 0, 0, 0, 0, 
2333, 1, 2333, 2333, 3706, 2.847230504258213, -1.8800904319444443, -3.931505117990634, 1.1792464536439757, MSaappa, 0, 0, 0, 0, , 0, 0, 0, 0, 0, 
328, 1, 328, 328, 3707, 8.496802012095715, 4.930041368019925, 3.066056503365462, 1.2429895051922986, ABprapapa, 0, 0, 0, 0, , 0, 0, 0, 0, 0, 
61, 1, 61, 61, 3708, -6.1540533093514025, -2.457463972071825, 3.745733417836668, 1.2429895051922986, ABplaaaap, 0, 0, 0, 0, , 0, 0, 0, 0, 0, 
227, 1, 227, 227, 3709, -3.609877792716604, -3.332263663975324, 4.355579396409646, 1.2429895051922986, ABplaaapa, 0, 0, 0, 0, , 0, 0, 0, 0, 0, 
92, 1, 92, 92, 3710, 7.574219112628826, -2.4663986128218536, -3.192343957210612, 1.7907989085000002, Z2, 0, 0, 0, 0, , 0, 0, 0, 0, 0, 
50, 1, 50, 50, -1, 6.590867925119772, -3.6120022927913262, -1.0071801018526458, 1.5579950503950002, Dap, 0, 0, 0, 0, , 0, 0, 0, 0, 0, 
281, 1, 281, 281, 3711, -3.392781849799045, 0.6454969007144544, 3.9568984294037737, 1.3067325567406214, ABarpaapa, 0, 0, 0, 0, , 0, 0, 0, 0, 0, 
477, 1, 477, 477, 3712, 11.50870530410602, -3.08087902254746, 3.3165609041030932, 1.3554556938436502, Caapa, 0, 0, 0, 0, , 0, 0, 0, 0, 0, 
100, 1, 100, 100, 3713, -4.186106534839836, 4.452382569275813, -0.8259277501109014, 1.1792464536439757, MSppaap, 0, 0, 0, 0, , 0, 0, 0, 0, 0, 
264, 1, 264, 264, 3714, 0.07015159574023459, -5.0633034005482696, 3.96281935185222, 1.2429895051922986, ABplapaaa, 0, 0, 0, 0, , 0, 0, 0, 0, 0, 
523, 1, 523, 523, 3715, -2.442125602487283, -6.302598733211778, -2.8529048326678486, 1.2429895051922986, ABplpapaa, 0, 0, 0, 0, , 0, 0, 0, 0, 0, 
4, 1, 4, 4, 3716, 2.8362925051832266, -3.517514941079058, -2.8367030942666984, 1.7907989085000002, Z3, 0, 0, 0, 0, , 0, 0, 0, 0, 0, 
63, 1, 63, 63, 3717, -6.655402234282594, -2.787797058634029, -3.461261492613747, 1.3067325567406214, ABalpapap, 0, 0, 0, 0, , 0, 0, 0, 0, 0, 
82, 1, 82, 82, 3718, -11.063945591681454, 0.08008770124461366, -0.5194852694535811, 1.3067325567406214, ABalaaaar, 0, 0, 0, 0, , 0, 0, 0, 0, 0, 
68, 1, 68, 68, 3719, -4.400590094066494, 3.0531865541483296, 3.8255365374561148, 1.3067325567406214, ABarpapap, 0, 0, 0, 0, , 0, 0, 0, 0, 0, 
13, 1, 13, 13, -1, 2.568772879662178, -4.747405494953781, -0.4895226157061445, 1.3554556938436502, MSappp, 0, 0, 0, 0, , 0, 0, 0, 0, 0, 
1156, 1, 1156, 1156, 3720, -10.503480117711993, 1.0050886358186852, -2.4742141009709466, 1.3067325567406214, ABaraaaaa, 0, 0, 0, 0, , 0, 0, 0, 0, 0, 
79, 1, 79, 79, 3721, -9.926539376970878, 0.4966935740903602, -1.973707928131199, 1.3067325567406214, ABaraaaap, 0, 0, 0, 0, , 0, 0, 0, 0, 0, 
91, 1, 91, 91, 3722, -0.9126218597666056, -1.8956404312048631, -2.8289886266308897, 1.1792464536439757, MSaapap, 0, 0, 0, 0, , 0, 0, 0, 0, 0, 
43, 1, 43, 43, 3723, 6.300260588314316, -2.8032611688725546, 3.2003651474357073, 1.3067325567406214, ABarppapp, 0, 0, 0, 0, , 0, 0, 0, 0, 0, 
710, 1, 710, 710, 3724, -9.978920958395962, -1.2672240448948784, 2.5377003517097076, 1.3067325567406214, ABalapaaa, 0, 0, 0, 0, , 0, 0, 0, 0, 0, 
104, 1, 104, 104, -1, 0.08214212381744401, -3.652673483406539, -2.290322022336196, 1.3554556938436502, MSappa, 0, 0, 0, 0, , 0, 0, 0, 0, 0, 
244, 1, 244, 244, 3725, -6.315413293489444, -5.140784852734162, 3.369525506808107, 1.2429895051922986, ABplaapaa, 0, 0, 0, 0, , 0, 0, 0, 0, 0, 
101, 1, 101, 101, 3726, -5.395096661027931, -3.2022715129640664, -0.8125993415612598, 1.1792464536439757, MSapaap, 0, 0, 0, 0, , 0, 0, 0, 0, 0, 
286, 1, 286, 286, 3727, -7.866426971902541, -3.167529815693443, 3.522444117424949, 1.2429895051922986, ABplaaaaa, 0, 0, 0, 0, , 0, 0, 0, 0, 0, 
102, 1, 102, 102, 3728, 1.028613778620138, 3.3371616935202777, -1.9587715711503053, 1.1792464536439757, MSpppap, 0, 0, 0, 0, , 0, 0, 0, 0, 0, 
601, 1, 601, 601, 3729, -6.1057662212545925, -4.967370246106352, -2.907844915678254, 1.3067325567406214, ABalppapa, 0, 0, 0, 0, , 0, 0, 0, 0, 0, 
69, 1, 69, 69, 3730, 3.8410955389293893, 6.050804083557646, -2.9728587918125453, 1.2429895051922986, ABprppaap, 0, 0, 0, 0, , 0, 0, 0, 0, 0, 
59, 1, 59, 59, 3731, 10.767767653379824, 1.7993275988806234, -3.2093303014808603, 1.3554556938436502, Cppap, 0, 0, 0, 0, , 0, 0, 0, 0, 0, 
42, 1, 42, 42, 3732, -9.722540078717904, 2.5657959832315616, 1.6848722107326273, 1.3067325567406214, ABalaaapp, 0, 0, 0, 0, , 0, 0, 0, 0, 0, 
2289, 1, 2289, 2289, 3733, 10.241367653379829, 1.8892831544361928, -3.2374191903697414, 1.3554556938436502, Cppaa, 0, 0, 0, 0, , 0, 0, 0, 0, 0, 
2800, 1, 2800, 2800, 3734, 8.388473418783038, -4.0494010949575046, -2.8235794569681527, 1.3554556938436502, Capaa, 0, 0, 0, 0, , 0, 0, 0, 0, 0, 
2451, 1, 2451, 2451, 3735, 4.188409999932834, 1.151489263057491, -3.7512595832822266, 1.1792464536439757, MSpappa, 0, 0, 0, 0, , 0, 0, 0, 0, 0, 
