81, 1, 81, 81, 3736, 3.4909747588865163, 3.1504522648799216, 3.955130449367182, 1.3067325567406214, ABarpppap, 0, 0, 0, 0, , 0, 0, 0, 0, 0, 
48, 1, 48, 48, 3737, -1.7214288952750614, 1.270115830513389, -1.3244622680286835, 1.1792464536439757, MSpaapp, 0, 0, 0, 0, , 0, 0, 0, 0, 0, 
6, 1, 6, 6, 3738, -3.0546935793110865, -5.057172283067848, 1.3587049282648254, 1.3067325567406214, ABalppppp, 0, 0, 0, 0, , 0, 0, 0, 0, 0, 
688, 1, 688, 688, 3739, -7.231997179476327, 4.202726937930019, 1.0352923646300278, 1.3067325567406214, ABalaappa, 0, 0, 0, 0, , 0, 0, 0, 0, 0, 
89, 1, 89, 89, 3740, 0.6064326365043157, 1.178264589520548, -3.0653690732695953, 1.1792464536439757, MSpapap, 0, 0, 0, 0, , 0, 0, 0, 0, 0, 
1043, 1, 1043, 1043, 3741, -9.197009654097469, 0.3712140116711359, 0.27825295227618874, 1.1792464536439757, MSaaaaa, 0, 0, 0, 0, , 0, 0, 0, 0, 0, 
86, 1, 86, 86, 3742, 6.2070198299333645, -6.05773573515906, -2.3138649375759077, 1.2429895051922986, ABplpppap, 0, 0, 0, 0, , 0, 0, 0, 0, 0, 
82, 1, 82, 82, 3743, -11.087976446827463, 0.08239495272745127, -0.5362752379830903, 1.3067325567406214, ABalaaaar, 0, 0, 0, 0, , 0, 0, 0, 0, 0, 
41, 1, 41, 41, 3744, -5.314644224102091, -1.857346879441316, 3.364554969099582, 1.3067325567406214, ABalapapp, 0, 0, 0, 0, , 0, 0, 0, 0, 0, 
76, 1, 76, 76, 3745, -8.44295717585928, -1.360383972267681, -2.7315375450603203, 1.3067325567406214, ABalpaaap, 0, 0, 0, 0, , 0, 0, 0, 0, 0, 
286, 1, 286, 286, 3746, -7.832905439717127, -3.194181420333272, 3.529080923156495, 1.2429895051922986, ABplaaaaa, 0, 0, 0, 0, , 0, 0, 0, 0, 0, 
57, 1, 57, 57, 3747, -4.173560030249343, -5.156465194284797, 3.773979256475564, 1.2429895051922986, ABplaapap, 0, 0, 0, 0, , 0, 0, 0, 0, 0, 
66, 1, 66, 66, 3748, 1.6404797097553179, 5.185857114636565, -3.563557111234301, 1.2429895051922986, ABprpapap, 0, 0, 0, 0, , 0, 0, 0, 0, 0, 
176, 1, 176, 176, 3749, 7.627632468066801, -2.052393187218501, 3.82555378629517, 1.3554556938436502, Caaaa, 0, 0, 0, 0, , 0, 0, 0, 0, 0, 
58, 1, 58, 58, 3750, 3.9472224720974283, 5.856157995662827, 2.830043984717782, 1.2429895051922986, ABprapaap, 0, 0, 0, 0, , 0, 0, 0, 0, 0, 
90, 1, 90, 90, 3751, -5.441526906101667, 2.3656318291551997, 0.615820942053532, 1.1792464536439757, MSpaaap, 0, 0, 0, 0, , 0, 0, 0, 0, 0, 
455, 1, 455, 455, 3752, -5.642782342513202, -6.360351297930024, -1.0959427520663776, 1.2429895051922986, ABplpaaaa, 0, 0, 0, 0, , 0, 0, 0, 0, 0, 
753, 1, 753, 753, 3753, 4.786656661209188, -6.8398417022379165, -2.1466149375760013, 1.2429895051922986, ABplpppaa, 0, 0, 0, 0, , 0, 0, 0, 0, 0, 
52, 1, 52, 52, 3754, 10.40022286111978, 1.332931973791515, 3.5201884522178557, 1.3554556938436502, Cpaap, 0, 0, 0, 0, , 0, 0, 0, 0, 0, 
1459, 1, 1459, 1459, 3755, -0.15627724003887977, 1.1168915442530056, -2.8844886205945617, 1.1792464536439757, MSpapaa, 0, 0, 0, 0, , 0, 0, 0, 0, 0, 
294, 1, 294, 294, 3756, -3.6081281834896806, 6.1659712181075355, 2.910200361319365, 1.2429895051922986, ABpraapaa, 0, 0, 0, 0, , 0, 0, 0, 0, 0, 
70, 1, 70, 70, 3757, -6.645994856804453, -0.5639996850931732, -2.15641938801357, 1.3067325567406214, ABaraapap, 0, 0, 0, 0, , 0, 0, 0, 0, 0, 
4, 1, 4, 4, 3758, 2.799661522596304, -3.4947965688323452, -2.800644686581454, 1.7907989085000002, Z3, 0, 0, 0, 0, , 0, 0, 0, 0, 0, 
40, 1, 40, 40, 3759, -0.45249833470626133, 0.8725746678513991, 4.086209606953055, 1.3067325567406214, ABarpaapp, 0, 0, 0, 0, , 0, 0, 0, 0, 0, 
200, 1, 200, 200, 3760, 0.5596986278773586, 6.877645065159917, 1.9784277573774633, 1.2429895051922986, ABpraappa, 0, 0, 0, 0, , 0, 0, 0, 0, 0, 
7, 1, 7, 7, 3761, 8.705334867194857, 1.5704602537319299, 0.6364985294323896, 1.5579950503950002, Eprp, 0, 0, 0, 0, , 0, 0, 0, 0, 0, 
61, 1, 61, 61, 3762, -6.048482394449893, -2.4542390335017683, 3.761765285296617, 1.2429895051922986, ABplaaaap, 0, 0, 0, 0, , 0, 0, 0, 0, 0, 
817, 1, 817, 817, 3763, 0.3598497086198207, -1.6576028567004928, 4.109760942775284, 1.3067325567406214, ABarppaaa, 0, 0, 0, 0, , 0, 0, 0, 0, 0, 
56, 1, 56, 56, 3764, 8.446874433066549, 6.09730033658294, 0.6023512615250657, 1.2429895051922986, ABprappap, 0, 0, 0, 0, , 0, 0, 0, 0, 0, 
710, 1, 710, 710, 3765, -10.016263856039417, -1.3249034723601543, 2.516678938655067, 1.3067325567406214, ABalapaaa, 0, 0, 0, 0, , 0, 0, 0, 0, 0, 
78, 1, 78, 78, 3766, -9.16842414003106, 1.6949831806769386, 2.8064640435952466, 1.3067325567406214, ABalappap, 0, 0, 0, 0, , 0, 0, 0, 0, 0, 
1060, 1, 1060, 1060, 3767, 10.65260553627619, 0.9954550434162905, -0.6164218425739656, 1.3554556938436502, Cpppa, 0, 0, 0, 0, , 0, 0, 0, 0, 0, 
530, 1, 530, 530, 3768, 5.387060962010337, 5.634494645914987, -1.5873080950610057, 1.2429895051922986, ABprppapa, 0, 0, 0, 0, , 0, 0, 0, 0, 0, 
989, 1, 989, 989, 3769, 10.109984393432649, -4.217260773396713, -0.3508026593176258, 1.3554556938436502, Cappa, 0, 0, 0, 0, , 0, 0, 0, 0, 0, 
115, 1, 115, 115, 3770, -1.363414645171213, 1.8397834364152774, 1.8285898041847957, 1.5579950503950002, Eara, 0, 0, 0, 0, , 0, 0, 0, 0, 0, 
328, 1, 328, 328, 3771, 8.529824000377767, 4.962801513433149, 3.022406972792786, 1.2429895051922986, ABprapapa, 0, 0, 0, 0, , 0, 0, 0, 0, 0, 
1073, 1, 1073, 1073, 3772, -9.697479284063999, 0.9947043740925178, 2.5493288584101017, 1.3067325567406214, ABalappaa, 0, 0, 0, 0, , 0, 0, 0, 0, 0, 
32, 1, 32, 32, 3773, 7.030881332380183, 5.0277487611411145, -1.6807494530857587, 1.2429895051922986, ABprppapp, 0, 0, 0, 0, , 0, 0, 0, 0, 0, 
21, 1, 21, 21, 3774, 3.2422978476035698, -3.8946281143162182, -3.911696076903598, 1.2429895051922986, ABplpappp, 0, 0, 0, 0, , 0, 0, 0, 0, 0, 
47, 1, 47, 47, 3775, 8.577027007853834, -1.9471458928624363, 0.5874362300642478, 1.5579950503950002, Eplp, 0, 0, 0, 0, , 0, 0, 0, 0, 0, 
333, 1, 333, 333, 3776, -3.586772548729172, -7.163974622607643, 0.5165357610480946, 1.2429895051922986, ABplpaapa, 0, 0, 0, 0, , 0, 0, 0, 0, 0, 
55, 1, 55, 55, 3777, 2.3883395598654342, -5.167649588523032, 3.51898753227625, 1.2429895051922986, ABplapaap, 0, 0, 0, 0, , 0, 0, 0, 0, 0, 
3, 1, 3, 3, -1, 3.1939443689241096, 4.510979477110442, -0.6686617216771391, 1.3554556938436502, MSpppp, 0, 0, 0, 0, , 0, 0, 0, 0, 0, 
67, 1, 67, 67, 3778, 8.72191812774445, -3.9697819880683873, -2.790919869870301, 1.3554556938436502, Capap, 0, 0, 0, 0, , 0, 0, 0, 0, 0, 
59, 1, 59, 59, 3779, 10.681017873999078, 1.8153988421574863, -3.1771732353703195, 1.3554556938436502, Cppap, 0, 0, 0, 0, , 0, 0, 0, 0, 0, 
2289, 1, 2289, 2289, 3780, 10.081506762887972, 1.9178482248735513, -3.2091633588271007, 1.3554556938436502, Cppaa, 0, 0, 0, 0, , 0, 0, 0, 0, 0, 
43, 1, 43, 43, 3781, 6.4564325597153385, -2.8481121133029625, 3.1830323146443216, 1.3067325567406214, ABarppapp, 0, 0, 0, 0, , 0, 0, 0, 0, 0, 
311, 1, 311, 311, 3782, -5.524539920131149, 1.1038432448026874, -2.5567756181197123, 1.3067325567406214, ABaraappa, 0, 0, 0, 0, , 0, 0, 0, 0, 0, 
1, 1, 1, 1, 3783, 8.427195049117557, 1.9939723711338804, -4.086657181490972, 1.2429895051922986, ABprppppp, 0, 0, 0, 0, , 0, 0, 0, 0, 0, 
499, 1, 499, 499, 3784, -0.682383064519415, 7.107472930756676, -0.018279339039573125, 1.2429895051922986, ABprpaapa, 0, 0, 0, 0, , 0, 0, 0, 0, 0, 
2451, 1, 2451, 2451, 3785, 4.140675976266171, 1.168309107345734, -3.759905749457299, 1.1792464536439757, MSpappa, 0, 0, 0, 0, , 0, 0, 0, 0, 0, 
281, 1, 281, 281, 3786, -3.3996063593974672, 0.592823021761008, 3.954815779793032, 1.3067325567406214, ABarpaapa, 0, 0, 0, 0, , 0, 0, 0, 0, 0, 
80, 1, 80, 80, 3787, -6.494596970250597, -4.950049098027227, 1.031186645354894, 1.3067325567406214, ABalpppap, 0, 0, 0, 0, , 0, 0, 0, 0, 0, 
315, 1, 315, 315, 3788, 10.126433543184401, 4.209227752131456, -1.1000687049412305, 1.2429895051922986, ABprapppa, 0, 0, 0, 0, , 0, 0, 0, 0, 0, 
77, 1, 77, 77, 3789, 1.8552585563564268, -1.6347635562888514, 4.002122259647744, 1.3067325567406214, ABarppaap, 0, 0, 0, 0, , 0, 0, 0, 0, 0, 
36, 1, 36, 36, 3790, -4.493962808037525, -4.936516990236287, -2.778647989994492, 1.3067325567406214, ABalppapp, 0, 0, 0, 0, , 0, 0, 0, 0, 0, 
9, 1, 9, 9, 3791, -3.496910925483551, 2.453146522407608, 2.552243819470551, 1.3067325567406214, ABalapppp, 0, 0, 0, 0, , 0, 0, 0, 0, 0, 
1575, 1, 1575, 1575, 3792, -7.906147465242409, 0.1376252318036838, 3.9363827682788695, 1.3067325567406214, ABarpaaaa, 0, 0, 0, 0, , 0, 0, 0, 0, 0, 
91, 1, 91, 91, 3793, -0.8721850908677218, -1.8854660151485865, -2.7924314567899624, 1.1792464536439757, MSaapap, 0, 0, 0, 0, , 0, 0, 0, 0, 0, 
17, 1, 17, 17, 3794, 4.769250609334839, 3.133855370980993, -3.8390808826856415, 1.2429895051922986, ABprpappp, 0, 0, 0, 0, , 0, 0, 0, 0, 0, 
68, 1, 68, 68, 3795, -4.3715072093922736, 2.994282960426743, 3.848370433639298, 1.3067325567406214, ABarpapap, 0, 0, 0, 0, , 0, 0, 0, 0, 0, 
394, 1, 394, 394, 3796, -3.443252057613332, 6.529960905349556, -1.4472962962962739, 1.2429895051922986, ABprpaaaa, 0, 0, 0, 0, , 0, 0, 0, 0, 0, 
84, 1, 84, 84, 3797, -8.244764695044523, -5.2965949074926035, -0.962664666891847, 1.3067325567406214, ABalppaap, 0, 0, 0, 0, , 0, 0, 0, 0, 0, 
71, 1, 71, 71, 3798, -4.20494489395373, -6.9787393637737365, -1.3331793775808596, 1.2429895051922986, ABplpaaap, 0, 0, 0, 0, , 0, 0, 0, 0, 0, 
902, 1, 902, 902, 3799, -6.441033851301954, 1.9066939963264842, -4.27644927876399, 1.3067325567406214, ABarapaaa, 0, 0, 0, 0, , 0, 0, 0, 0, 0, 
227, 1, 227, 227, 3800, -3.5804729807960025, -3.384855602286139, 4.369986856425599, 1.2429895051922986, ABplaaapa, 0, 0, 0, 0, , 0, 0, 0, 0, 0, 
11, 1, 11, 11, 3801, 9.478594439512515, -5.44961074383562, -0.7029702948912071, 1.2429895051922986, ABplapppp, 0, 0, 0, 0, , 0, 0, 0, 0, 0, 
79, 1, 79, 79, 3802, -9.887431415869257, 0.469138685341677, -1.940772265464617, 1.3067325567406214, ABaraaaap, 0, 0, 0, 0, , 0, 0, 0, 0, 0, 
1156, 1, 1156, 1156, 3803, -10.505001786240028, 1.0133362162058093, -2.4765253518846158, 1.3067325567406214, ABaraaaaa, 0, 0, 0, 0, , 0, 0, 0, 0, 0, 
736, 1, 736, 736, 3804, -10.367583819988319, 1.0023578997691014, 1.6121521681537145, 1.3067325567406214, ABalaaapa, 0, 0, 0, 0, , 0, 0, 0, 0, 0, 
309, 1, 309, 309, 3805, -8.664470576969993, -0.30143836822073844, -2.6214547789600453, 1.3067325567406214, ABaraapaa, 0, 0, 0, 0, , 0, 0, 0, 0, 0, 
264, 1, 264, 264, 3806, 0.13852227591477223, -5.108106378646758, 3.9431183964733414, 1.2429895051922986, ABplapaaa, 0, 0, 0, 0, , 0, 0, 0, 0, 0, 
126, 1, 126, 126, 3807, -1.3693744108238188, -1.6213845416391521, 1.7051942345396263, 1.5579950503950002, Eala, 0, 0, 0, 0, , 0, 0, 0, 0, 0, 
42, 1, 42, 42, 3808, -9.756081968135964, 2.550243702238232, 1.6620091640386123, 1.3067325567406214, ABalaaapp, 0, 0, 0, 0, , 0, 0, 0, 0, 0, 
419, 1, 419, 419, 3809, -3.1241129177201774, 4.170853230979993, -3.476428946175615, 1.3067325567406214, ABarappaa, 0, 0, 0, 0, , 0, 0, 0, 0, 0, 
104, 1, 104, 104, 3810, -0.013594312631647985, -3.6039301054188178, -2.2809572873741444, 1.3554556938436502, MSappa, 0, 0, 0, 0, , 0, 0, 0, 0, 0, 
427, 1, 427, 427, 3811, 2.209279056459418, 5.658339065621503, 3.524232256322964, 1.2429895051922986, ABprapaaa, 0, 0, 0, 0, , 0, 0, 0, 0, 0, 
62, 1, 62, 62, 3812, 9.526431989577233, 4.132517481183717, -3.080726402150742, 1.2429895051922986, ABprpppap, 0, 0, 0, 0, , 0, 0, 0, 0, 0, 
2333, 1, 2333, 2333, 3813, 2.788810420098295, -1.8787382688615692, -3.9370808436063283, 1.1792464536439757, MSaappa, 0, 0, 0, 0, , 0, 0, 0, 0, 0, 
44, 1, 44, 44, 3814, 4.297757062371973, -6.513738537278301, -0.7417343350785904, 1.2429895051922986, ABplppapp, 0, 0, 0, 0, , 0, 0, 0, 0, 0, 
1751, 1, 1751, 1751, 3815, -0.614670495097276, -7.199612094519835, -1.3309144784808862, 1.2429895051922986, ABplppaaa, 0, 0, 0, 0, , 0, 0, 0, 0, 0, 
992, 1, 992, 992, 3816, -6.791148511039762, 2.536747055492481, -0.026458070292156015, 1.1792464536439757, MSpaaaa, 0, 0, 0, 0, , 0, 0, 0, 0, 0, 
64, 1, 64, 64, 3817, -5.733404841904202, 6.226301389487292, 0.32331520015458415, 1.2429895051922986, ABpraaaap, 0, 0, 0, 0, , 0, 0, 0, 0, 0, 
10, 1, 10, 10, 3818, 11.216613172815645, 3.059288863242483, -1.643877964200506, 1.2429895051922986, ABprapppp, 0, 0, 0, 0, , 0, 0, 0, 0, 0, 
51, 1, 51, 51, 3819, -0.7929724447682994, 4.337123187722423, 0.6927884569009752, 1.1792464536439757, MSppapp, 0, 0, 0, 0, , 0, 0, 0, 0, 0, 
73, 1, 73, 73, 3820, -1.5866061275965606, 5.061585947029963, -3.503445407081142, 1.3067325567406214, ABarappap, 0, 0, 0, 0, , 0, 0, 0, 0, 0, 
12, 1, 12, 12, 3821, -1.263850511818996, 5.619648639618415, -2.133770763882791, 1.3067325567406214, ABarapppp, 0, 0, 0, 0, , 0, 0, 0, 0, 0, 
100, 1, 100, 100, 3822, -4.169766887461029, 4.432329314133626, -0.8421957062605218, 1.1792464536439757, MSppaap, 0, 0, 0, 0, , 0, 0, 0, 0, 0, 
473, 1, 473, 473, 3823, -2.9192671784855673, 4.947278269248276, -2.321196689808571, 1.3067325567406214, ABarapppa, 0, 0, 0, 0, , 0, 0, 0, 0, 0, 
63, 1, 63, 63, 3824, -6.487322486361332, -2.8609176050624403, -3.489028611517204, 1.3067325567406214, ABalpapap, 0, 0, 0, 0, , 0, 0, 0, 0, 0, 
18, 1, 18, 18, 3825, 2.981262002362766, 6.753279633061735, 1.6733438067601327, 1.2429895051922986, ABpraappp, 0, 0, 0, 0, , 0, 0, 0, 0, 0, 
154, 1, 154, 154, 3826, -1.5460649514360885, -6.942137017303402, 2.706473330885429, 1.2429895051922986, ABplaappa, 0, 0, 0, 0, , 0, 0, 0, 0, 0, 
663, 1, 663, 663, 3827, -9.95715985075745, -0.9215722438726235, -3.202746392796902, 1.3067325567406214, ABalpaaaa, 0, 0, 0, 0, , 0, 0, 0, 0, 0, 
26, 1, 26, 26, 3828, 4.455710544167418, 1.2465449098148693, -3.447437848222736, 1.1792464536439757, MSpappp, 0, 0, 0, 0, , 0, 0, 0, 0, 0, 
1270, 1, 1270, 1270, 3829, 3.0198410129891666, -6.817595327401777, -0.5604800140909297, 1.2429895051922986, ABplppapa, 0, 0, 0, 0, , 0, 0, 0, 0, 0, 
92, 1, 92, 92, 3830, 7.644098282326188, -2.4200507989507543, -3.1642804733832466, 1.7907989085000002, Z2, 0, 0, 0, 0, , 0, 0, 0, 0, 0, 
1663, 1, 1663, 1663, 3831, -4.333620137015899, -0.4968674380211728, -0.5011776414723318, 1.1792464536439757, MSaaapa, 0, 0, 0, 0, , 0, 0, 0, 0, 0, 
178, 1, 178, 178, 3832, 6.835573251255404, -5.4174937710689965, 3.1402075948901795, 1.2429895051922986, ABplapapa, 0, 0, 0, 0, , 0, 0, 0, 0, 0, 
656, 1, 656, 656, 3833, -7.535647927805011, -1.290609636642994, 3.7105654629264535, 1.3067325567406214, ABalapapa, 0, 0, 0, 0, , 0, 0, 0, 0, 0, 
517, 1, 517, 517, 3834, -5.575883764989713, 1.716929238457025, 2.9934092515694353, 1.3067325567406214, ABalapppa, 0, 0, 0, 0, , 0, 0, 0, 0, 0, 
514, 1, 514, 514, 3835, -6.861448051780544, 5.8497007722025005, 0.36828618780886085, 1.2429895051922986, ABpraaaaa, 0, 0, 0, 0, , 0, 0, 0, 0, 0, 
85, 1, 85, 85, 3836, -8.31761943491405, 4.322864751015947, -0.6690390498348926, 1.3067325567406214, ABalaapap, 0, 0, 0, 0, , 0, 0, 0, 0, 0, 
954, 1, 954, 954, 3837, 6.444765290847332, 2.885598366772823, 3.2373758185559764, 1.3067325567406214, ABarppppa, 0, 0, 0, 0, , 0, 0, 0, 0, 0, 
72, 1, 72, 72, 3838, -1.6800843621399186, 7.154860082304799, -1.1342932098765606, 1.2429895051922986, ABprpaaap, 0, 0, 0, 0, , 0, 0, 0, 0, 0, 
87, 1, 87, 87, 3839, 0.33676160366813956, -7.055920736495406, -1.7483169476165628, 1.2429895051922986, ABplppaap, 0, 0, 0, 0, , 0, 0, 0, 0, 0, 
101, 1, 101, 101, 3840, -5.328833299525718, -3.22557826897076, -0.8201885953413957, 1.1792464536439757, MSapaap, 0, 0, 0, 0, , 0, 0, 0, 0, 0, 
53, 1, 53, 53, 3841, 10.636281850783508, -2.1473734341321684, 2.0170451443202064, 1.3554556938436502, Caaap, 0, 0, 0, 0, , 0, 0, 0, 0, 0, 
49, 1, 49, 49, 3842, -1.592214723944652, -4.145856271560404, 0.09242359233759959, 1.1792464536439757, MSapapp, 0, 0, 0, 0, , 0, 0, 0, 0, 0, 
69, 1, 69, 69, 3843, 3.8164687444472616, 6.010130253160944, -3.0128254095707967, 1.2429895051922986, ABprppaap, 0, 0, 0, 0, , 0, 0, 0, 0, 0, 
856, 1, 856, 856, 3844, -9.13924535348106, -4.627230915722824, -0.4643294817066297, 1.3067325567406214, ABalppaaa, 0, 0, 0, 0, , 0, 0, 0, 0, 0, 
45, 1, 45, 45, 3845, 1.6975707946555818, -2.7453938643174753, 0.2837771873555056, 1.5579950503950002, Ealp, 0, 0, 0, 0, , 0, 0, 0, 0, 0, 
338, 1, 338, 338, 3846, -8.551832774427956, -2.967804436338071, -3.549263179418833, 1.3067325567406214, ABalpapaa, 0, 0, 0, 0, , 0, 0, 0, 0, 0, 
2623, 1, 2623, 2623, 3847, -4.749613183757355, 4.354733017837477, -0.7675605210753392, 1.1792464536439757, MSppaaa, 0, 0, 0, 0, , 0, 0, 0, 0, 0, 
31, 1, 31, 31, 3848, -3.2667738654546454, 6.145220124345581, 2.019520377200901, 1.2429895051922986, ABpraaapp, 0, 0, 0, 0, , 0, 0, 0, 0, 0, 
2006, 1, 2006, 2006, 3849, -2.6194408294314977, 1.435299163846769, -0.9625464244072487, 1.1792464536439757, MSpaapa, 0, 0, 0, 0, , 0, 0, 0, 0, 0, 
2639, 1, 2639, 2639, 3850, -1.0661971361263236, 4.349923187722165, 0.34189462974047025, 1.1792464536439757, MSppapa, 0, 0, 0, 0, , 0, 0, 0, 0, 0, 
258, 1, 258, 258, 3851, -8.06652169505244, 2.697024425319078, -2.809799787928302, 1.3067325567406214, ABaraaapa, 0, 0, 0, 0, , 0, 0, 0, 0, 0, 
132, 1, 132, 132, -1, 5.225815270175089, 3.050379641568863, -2.2565557413290334, 1.5579950503950002, Dpa, 0, 0, 0, 0, , 0, 0, 0, 0, 0, 
523, 1, 523, 523, 3852, -2.3454447479975995, -6.303807532570414, -2.8664774136062765, 1.2429895051922986, ABplpapaa, 0, 0, 0, 0, , 0, 0, 0, 0, 0, 
38, 1, 38, 38, 3853, -8.326017479429517, -3.2434279011790847, -1.414683439617877, 1.3067325567406214, ABalpaapp, 0, 0, 0, 0, , 0, 0, 0, 0, 0, 
233, 1, 233, 233, 3854, 6.644768260228398, 6.756478731645636, 0.09904076769792874, 1.2429895051922986, ABprappaa, 0, 0, 0, 0, , 0, 0, 0, 0, 0, 
173, 1, 173, 173, 3855, 5.0713422746013155, 2.5590544924153806, 1.1874598463048514, 1.5579950503950002, Epra, 0, 0, 0, 0, , 0, 0, 0, 0, 0, 
355, 1, 355, 355, 3856, 1.746488544894515, 3.6140831290775433, 3.9256415604786894, 1.3067325567406214, ABarpppaa, 0, 0, 0, 0, , 0, 0, 0, 0, 0, 
242, 1, 242, 242, 3857, 2.8276148068652867, 3.3506249183061794, -3.8226683312452048, 1.2429895051922986, ABprpappa, 0, 0, 0, 0, , 0, 0, 0, 0, 0, 
8, 1, 8, 8, 3858, 11.312617881954383, -0.15579392777709064, -1.3074094968949803, 1.3554556938436502, Cpppp, 0, 0, 0, 0, , 0, 0, 0, 0, 0, 
35, 1, 35, 35, 3859, -1.7159200774380763, 2.584415540991087, -3.269339441195329, 1.3067325567406214, ABarapapp, 0, 0, 0, 0, , 0, 0, 0, 0, 0, 
392, 1, 392, 392, 3860, -6.0224514480748175, 3.354549627093316, 4.0499084994829975, 1.3067325567406214, ABarpapaa, 0, 0, 0, 0, , 0, 0, 0, 0, 0, 
13, 1, 13, 13, -1, 2.5353840593228627, -4.726110474965551, -0.435006203185458, 1.3554556938436502, MSappp, 0, 0, 0, 0, , 0, 0, 0, 0, 0, 
147, 1, 147, 147, 3861, 6.5020983755241915, 1.3991795046557427, 4.167692567444481, 1.3554556938436502, Cpaaa, 0, 0, 0, 0, , 0, 0, 0, 0, 0, 
244, 1, 244, 244, 3862, -6.294387190742702, -5.17389317782469, 3.360460737957072, 1.2429895051922986, ABplaapaa, 0, 0, 0, 0, , 0, 0, 0, 0, 0, 
65, 1, 65, 65, 3863, 5.968106568726988, -6.543451269409496, 1.52424760320373, 1.2429895051922986, ABplappap, 0, 0, 0, 0, , 0, 0, 0, 0, 0, 
430, 1, 430, 430, 3864, -4.954024649269705, -3.9509860690759973, 1.4667882615982906, 1.3067325567406214, ABalppppa, 0, 0, 0, 0, , 0, 0, 0, 0, 0, 
46, 1, 46, 46, 3865, -3.2226423592380815, -0.3234229935767297, -0.3313109748057074, 1.1792464536439757, MSaaapp, 0, 0, 0, 0, , 0, 0, 0, 0, 0, 
389, 1, 389, 389, 3866, -2.8207711062450542, 2.0339589566289833, -3.9404633095082335, 1.3067325567406214, ABarapapa, 0, 0, 0, 0, , 0, 0, 0, 0, 0, 
2, 1, 2, 2, 3867, 8.074767759983134, 2.4685107124517383, 3.07305606546937, 1.3067325567406214, ABarppppp, 0, 0, 0, 0, , 0, 0, 0, 0, 0, 
325, 1, 325, 325, 3868, 0.8752418805253116, -4.4341733818051265, -3.7256759122939505, 1.2429895051922986, ABplpappa, 0, 0, 0, 0, , 0, 0, 0, 0, 0, 
496, 1, 496, 496, 3869, -1.841697506496455, 4.291587961784081, 4.242700896435044, 1.3067325567406214, ABarpappa, 0, 0, 0, 0, , 0, 0, 0, 0, 0, 
23, 1, 23, 23, 3870, -3.4413473275385673, 1.2174667015928582, -2.5153533958978396, 1.3067325567406214, ABaraappp, 0, 0, 0, 0, , 0, 0, 0, 0, 0, 
16, 1, 16, 16, 3871, 0.9288720856008721, -6.817474054340398, 1.9516696271814329, 1.2429895051922986, ABplaappp, 0, 0, 0, 0, , 0, 0, 0, 0, 0, 
247, 1, 247, 247, 3872, -5.195162221919251, -2.083802118695728, -4.001458134192548, 1.3067325567406214, ABalpappa, 0, 0, 0, 0, , 0, 0, 0, 0, 0, 
24, 1, 24, 24, -1, 7.399291669284375, 2.3101058828251144, -1.4306201833515244, 1.5579950503950002, Dpp, 0, 0, 0, 0, , 0, 0, 0, 0, 0, 
601, 1, 601, 601, 3873, -6.076688733963392, -4.987003821511816, -2.9243109529573665, 1.3067325567406214, ABalppapa, 0, 0, 0, 0, , 0, 0, 0, 0, 0, 
271, 1, 271, 271, 3874, 7.756624993692713, 5.4791499914726165, -2.7007329865130547, 1.2429895051922986, ABprpppaa, 0, 0, 0, 0, , 0, 0, 0, 0, 0, 
15, 1, 15, 15, 3875, 10.961728837876537, -3.257271267223283, -1.3371934000583634, 1.3554556938436502, Cappp, 0, 0, 0, 0, , 0, 0, 0, 0, 0, 
25, 1, 25, 25, 3876, 3.3521892266828224, -2.1898794211249735, -3.630840308626972, 1.1792464536439757, MSaappp, 0, 0, 0, 0, , 0, 0, 0, 0, 0, 
516, 1, 516, 516, 3877, -7.868675571073388, -4.262631402553944, 1.1212446700462975, 1.3067325567406214, ABalpppaa, 0, 0, 0, 0, , 0, 0, 0, 0, 0, 
83, 1, 83, 83, 3878, -9.392790605011841, -2.1641857768869004, 2.488695399560717, 1.3067325567406214, ABalapaap, 0, 0, 0, 0, , 0, 0, 0, 0, 0, 
1471, 1, 1471, 1471, 3879, -8.990950710634532, 3.7155733929913706, -0.9211287617690388, 1.3067325567406214, ABalaapaa, 0, 0, 0, 0, , 0, 0, 0, 0, 0, 
20, 1, 20, 20, 3880, -6.592206027213417, 4.235088049040825, 1.894659648580584, 1.3067325567406214, ABalaappp, 0, 0, 0, 0, , 0, 0, 0, 0, 0, 
577, 1, 577, 577, 3881, 1.9459304728422424, 6.3031709939019445, -2.3823904301466716, 1.2429895051922986, ABprppaaa, 0, 0, 0, 0, , 0, 0, 0, 0, 0, 
30, 1, 30, 30, 3882, -1.7480285363514092, -3.129332968540959, 3.9605876794702093, 1.2429895051922986, ABplaaapp, 0, 0, 0, 0, , 0, 0, 0, 0, 0, 
343, 1, 343, 343, 3883, 0.4990315616070108, 5.786236744265735, -3.123375629752446, 1.2429895051922986, ABprpapaa, 0, 0, 0, 0, , 0, 0, 0, 0, 0, 
19, 1, 19, 19, 3884, -0.19686108674338987, 4.36504927865699, 3.830888550755648, 1.3067325567406214, ABarpappp, 0, 0, 0, 0, , 0, 0, 0, 0, 0, 
102, 1, 102, 102, 3885, 1.0585975839335962, 3.3239120446147243, -1.959028257927339, 1.1792464536439757, MSpppap, 0, 0, 0, 0, , 0, 0, 0, 0, 0, 
29, 1, 29, 29, 3886, 9.915046222598606, 4.105379291211545, 1.767184750570446, 1.2429895051922986, ABprapapp, 0, 0, 0, 0, , 0, 0, 0, 0, 0, 
2934, 1, 2934, 2934, 3887, -1.8490262465784282, -4.25036985180724, -0.17909986445252202, 1.1792464536439757, MSapapa, 0, 0, 0, 0, , 0, 0, 0, 0, 0, 
14, 1, 14, 14, 3888, 2.2851726835960666, 0.9956053542234182, 0.12450875395640237, 1.5579950503950002, Earp, 0, 0, 0, 0, , 0, 0, 0, 0, 0, 
747, 1, 747, 747, 3889, 5.2397282303599875, -5.321271777006433, -3.4725191836811455, 1.2429895051922986, ABplppppa, 0, 0, 0, 0, , 0, 0, 0, 0, 0, 
892, 1, 892, 892, 3890, -10.476281385097787, -1.4384229485070834, -0.44997276884728316, 1.3067325567406214, ABalaaaal, 0, 0, 0, 0, , 0, 0, 0, 0, 0, 
60, 1, 60, 60, 3891, -7.038981621621202, 0.19925691904648157, 3.9693597230112503, 1.3067325567406214, ABarpaaap, 0, 0, 0, 0, , 0, 0, 0, 0, 0, 
2800, 1, 2800, 2800, 3892, 8.286866687415335, -4.015296391360556, -2.800137976866246, 1.3554556938436502, Capaa, 0, 0, 0, 0, , 0, 0, 0, 0, 0, 
2619, 1, 2619, 2619, 3893, -6.159556756315832, -3.121785676378148, -0.6776651385512471, 1.1792464536439757, MSapaaa, 0, 0, 0, 0, , 0, 0, 0, 0, 0, 
162, 1, 162, 162, 3894, 4.827590793862838, -1.8029650286647885, 1.7489543370600218, 1.5579950503950002, Epla, 0, 0, 0, 0, , 0, 0, 0, 0, 0, 
266, 1, 266, 266, 3895, 4.297156568726741, -7.078011763236287, 1.1245231176069845, 1.2429895051922986, ABplappaa, 0, 0, 0, 0, , 0, 0, 0, 0, 0, 
33, 1, 33, 33, 3896, 8.816750205987615, -5.1514295735379365, 1.366088664848982, 1.2429895051922986, ABplapapp, 0, 0, 0, 0, , 0, 0, 0, 0, 0, 
1048, 1, 1048, 1048, 3897, 4.616692642019568, -3.1312726071302444, 3.5256364298707363, 1.3067325567406214, ABarppapa, 0, 0, 0, 0, , 0, 0, 0, 0, 0, 
400, 1, 400, 400, 3898, -9.695109248975498, -1.9985690534424931, -1.1153439334450255, 1.3067325567406214, ABalpaapa, 0, 0, 0, 0, , 0, 0, 0, 0, 0, 
22, 1, 22, 22, 3899, -3.4419369132762045, -1.8927434767205398, -3.200347023080992, 1.3067325567406214, ABalpappp, 0, 0, 0, 0, , 0, 0, 0, 0, 0, 
75, 1, 75, 75, 3900, -5.739051135253112, 2.3785787699888763, -3.7236081265002086, 1.3067325567406214, ABarapaap, 0, 0, 0, 0, , 0, 0, 0, 0, 0, 
310, 1, 310, 310, 3901, -5.574781272861975, 5.271428354798864, 2.1990907475711814, 1.2429895051922986, ABpraaapa, 0, 0, 0, 0, , 0, 0, 0, 0, 0, 
728, 1, 728, 728, 3902, 8.503020571199873, -6.099606834370353, -0.2229517763726813, 1.2429895051922986, ABplapppa, 0, 0, 0, 0, , 0, 0, 0, 0, 0, 
3128, 1, 3128, 3128, 3903, 0.7884642506002546, 3.348356489059233, -1.8954727023717988, 1.1792464536439757, MSpppaa, 0, 0, 0, 0, , 0, 0, 0, 0, 0, 
54, 1, 54, 54, 3904, -1.6473676896624458, 6.28534241152268, 2.9837732008253823, 1.2429895051922986, ABpraapap, 0, 0, 0, 0, , 0, 0, 0, 0, 0, 
37, 1, 37, 37, 3905, -1.4005962112802506, -7.387358161701233, 0.42180242771478244, 1.2429895051922986, ABplpaapp, 0, 0, 0, 0, , 0, 0, 0, 0, 0, 
27, 1, 27, 27, 3906, 11.999597231894636, -2.595378742420795, -0.3541850675157466, 1.3554556938436502, Caapp, 0, 0, 0, 0, , 0, 0, 0, 0, 0, 
28, 1, 28, 28, 3907, 12.583210175248944, -0.17358404471905664, -1.504449568462451, 1.3554556938436502, Cpapp, 0, 0, 0, 0, , 0, 0, 0, 0, 0, 
228, 1, 228, 228, 3908, 6.636454308376528, 3.8874908896521534, -3.5866571814911214, 1.2429895051922986, ABprppppa, 0, 0, 0, 0, , 0, 0, 0, 0, 0, 
34, 1, 34, 34, 3909, 1.2875354539989867, 7.300517375201218, -0.1807719316321689, 1.2429895051922986, ABprpaapp, 0, 0, 0, 0, , 0, 0, 0, 0, 0, 
477, 1, 477, 477, 3910, 11.495823569342765, -3.061402610733736, 3.3359902411263245, 1.3554556938436502, Caapa, 0, 0, 0, 0, , 0, 0, 0, 0, 0, 
5, 1, 5, 5, 3911, 6.75232246904297, -4.165047908693139, -3.799075562282097, 1.2429895051922986, ABplppppp, 0, 0, 0, 0, , 0, 0, 0, 0, 0, 
1565, 1, 1565, 1565, 3912, -1.7856667781104505, -1.9365979081526907, -2.444125489711567, 1.1792464536439757, MSaapaa, 0, 0, 0, 0, , 0, 0, 0, 0, 0, 
148, 1, 148, 148, 3913, 12.950152562082623, 0.9573264491081813, 0.36257409408901375, 1.3554556938436502, Cpapa, 0, 0, 0, 0, , 0, 0, 0, 0, 0, 
39, 1, 39, 39, 3914, -6.741753176533642, 3.729595412973512, -2.8403368249654695, 1.3067325567406214, ABaraaapp, 0, 0, 0, 0, , 0, 0, 0, 0, 0, 
50, 1, 50, 50, -1, 6.575103088602221, -3.537936310840618, -0.9968845895496169, 1.5579950503950002, Dap, 0, 0, 0, 0, , 0, 0, 0, 0, 0, 
139, 1, 139, 139, -1, 4.143103846588518, -4.108347203821958, -1.7110942385150927, 1.5579950503950002, Daa, 0, 0, 0, 0, , 0, 0, 0, 0, 0, 
74, 1, 74, 74, 3915, -1.12756820478796, -5.543150742447543, -3.2806070432363916, 1.2429895051922986, ABplpapap, 0, 0, 0, 0, , 0, 0, 0, 0, 0, 
88, 1, 88, 88, 3916, -7.686341752862125, 0.19774981414031428, 1.217213446103335, 1.1792464536439757, MSaaaap, 0, 0, 0, 0, , 0, 0, 0, 0, 0, 
