4, 1, 4, 4, 7353, 1.0236561548277514, -2.6115035106814, -1.6335107831112508, 1.7907989085000002, Z3, 0, 0, 0, 0, , 0, 0, 0, 0, 0, 
39, 1, 39, 39, 7354, -6.612984993632134, 3.3301187361728752, -3.5910494171979845, 1.3067325567406214, ABaraaapp, 0, 0, 0, 0, , 0, 0, 0, 0, 0, 
1117, 1, 1117, 1117, 7355, -9.334393309465316, 3.4869211906228617, -1.8014464249184732, 1.3067325567406214, ABalaapaa, 0, 0, 0, 0, , 0, 0, 0, 0, 0, 
100, 1, 100, 100, 7356, -3.8497110996014405, 4.006316168537835, -1.1818863953025538, 1.1792464536439757, MSppaap, 0, 0, 0, 0, , 0, 0, 0, 0, 0, 
19, 1, 19, 19, 7357, -8.002042159690554, 4.228218691213402, 2.4630656177504453, 1.3067325567406214, ABalaappp, 0, 0, 0, 0, , 0, 0, 0, 0, 0, 
6, 1, 6, 6, 7358, 7.06723828865916, -2.039316731195971, -4.372023474119672, 1.2429895051922986, ABplppppp, 0, 0, 0, 0, , 0, 0, 0, 0, 0, 
77, 1, 77, 77, 7359, -0.9346511135762724, 4.4132039188724335, -3.941696266825355, 1.3067325567406214, ABarappap, 0, 0, 0, 0, , 0, 0, 0, 0, 0, 
73, 1, 73, 73, 7360, 4.325356431606022, 3.4135474513833493, 4.148155457746379, 1.3067325567406214, ABarpppap, 0, 0, 0, 0, , 0, 0, 0, 0, 0, 
283, 1, 283, 283, 7361, -7.181075837012793, -3.707110322463553, 3.6583275310223637, 1.2429895051922986, ABplaaaaa, 0, 0, 0, 0, , 0, 0, 0, 0, 0, 
1407, 1, 1407, 1407, 7362, -0.8732486127737589, 0.4974344940248836, -1.8315643319152415, 1.1792464536439757, MSpapaa, 0, 0, 0, 0, , 0, 0, 0, 0, 0, 
1436, 1, 1436, 1436, 7363, -8.030733029403576, 2.2120042094345664, 0.4764594129673512, 1.1792464536439757, MSpaaaa, 0, 0, 0, 0, , 0, 0, 0, 0, 0, 
56, 1, 56, 56, 7364, 5.143426109586754, -5.977408147138225, 2.8797375624165173, 1.2429895051922986, ABplapaap, 0, 0, 0, 0, , 0, 0, 0, 0, 0, 
74, 1, 74, 74, 7365, 9.125623850395879, 2.088451858293826, -2.5787433118192324, 1.3554556938436502, Cppap, 0, 0, 0, 0, , 0, 0, 0, 0, 0, 
40, 1, 40, 40, 7366, 11.614940001597557, 4.031871106086361, -0.02086673508995151, 1.2429895051922986, ABprapapp, 0, 0, 0, 0, , 0, 0, 0, 0, 0, 
83, 1, 83, 83, 7367, 9.147507902419704, 3.5740693279278313, -3.8488121429319944, 1.2429895051922986, ABprpppap, 0, 0, 0, 0, , 0, 0, 0, 0, 0, 
67, 1, 67, 67, 7368, -1.4904959868674386, -7.619183494103649, -1.7258150244707224, 1.2429895051922986, ABplpaaap, 0, 0, 0, 0, , 0, 0, 0, 0, 0, 
375, 1, 375, 375, 7369, -0.12213060296663503, 5.267758338747258, -2.9716061947430887, 1.2429895051922986, ABprpapaa, 0, 0, 0, 0, , 0, 0, 0, 0, 0, 
13, 1, 13, 13, 7370, 2.0350004459416233, -4.264329600259416, 1.1504926739549812, 1.1792464536439757, MSapppp, 0, 0, 0, 0, , 0, 0, 0, 0, 0, 
223, 1, 223, 223, 7371, -5.892758102079009, -5.84604664223695, 3.186946184613701, 1.2429895051922986, ABplaapaa, 0, 0, 0, 0, , 0, 0, 0, 0, 0, 
10, 1, 10, 10, 7372, -2.364064401413938, 5.629881511751193, -3.0330854825620674, 1.3067325567406214, ABarapppp, 0, 0, 0, 0, , 0, 0, 0, 0, 0, 
21, 1, 21, 21, 7373, 5.579739696031592, -1.9392763786524485, -4.617047005418495, 1.2429895051922986, ABplpappp, 0, 0, 0, 0, , 0, 0, 0, 0, 0, 
3, 1, 3, 3, 7374, 1.895468132040662, 4.569852670216697, 0.8278304608585576, 1.1792464536439757, MSppppp, 0, 0, 0, 0, , 0, 0, 0, 0, 0, 
2522, 1, 2522, 2522, 7375, 7.2113312578033035, 2.4155818994461393, -2.6808906369220846, 1.3554556938436502, Cppaa, 0, 0, 0, 0, , 0, 0, 0, 0, 0, 
132, 1, 132, 132, 7376, 3.114798236912864, 3.009399254570141, 2.5592787462553503, 1.5579950503950002, Epra, 0, 0, 0, 0, , 0, 0, 0, 0, 0, 
655, 1, 655, 655, 7377, -8.611847897651753, -1.2488906426598365, -2.1872973935540485, 1.3067325567406214, ABaraapaa, 0, 0, 0, 0, , 0, 0, 0, 0, 0, 
747, 1, 747, 747, 7378, -5.518017295772784, -5.363921404476163, -3.240602665688766, 1.3067325567406214, ABalppapa, 0, 0, 0, 0, , 0, 0, 0, 0, 0, 
4034, 1, 4034, 4034, 7379, 0.6376473595217762, -4.868161699024584, 0.1444679825969532, 1.1792464536439757, MSapppa, 0, 0, 0, 0, , 0, 0, 0, 0, 0, 
692, 1, 692, 692, 7380, -9.272288455986548, 4.163968691214008, 0.7568711733061222, 1.3067325567406214, ABalaappa, 0, 0, 0, 0, , 0, 0, 0, 0, 0, 
81, 1, 81, 81, 7381, 8.678971559794517, 6.070403108089, 0.32649031654819377, 1.2429895051922986, ABprappap, 0, 0, 0, 0, , 0, 0, 0, 0, 0, 
43, 1, 43, 43, 7382, 6.581185909870029, 5.367437053652326, -2.3139885609698463, 1.2429895051922986, ABprppapp, 0, 0, 0, 0, , 0, 0, 0, 0, 0, 
117, 1, 117, 117, 7383, -2.976150264306931, 1.3735624914931621, 2.3969713323435933, 1.5579950503950002, Eara, 0, 0, 0, 0, , 0, 0, 0, 0, 0, 
222, 1, 222, 222, 7384, -3.549135629541921, -0.5151353905595971, 3.906454820362388, 1.3067325567406214, ABarpaapa, 0, 0, 0, 0, , 0, 0, 0, 0, 0, 
403, 1, 403, 403, 7385, -8.872830672644955, 1.5687158555150242, -3.538958059173022, 1.3067325567406214, ABaraaapa, 0, 0, 0, 0, , 0, 0, 0, 0, 0, 
70, 1, 70, 70, 7386, 4.337372578397301, -2.5736827007154135, 4.119852859209008, 1.3067325567406214, ABarppaap, 0, 0, 0, 0, , 0, 0, 0, 0, 0, 
1239, 1, 1239, 1239, 7387, -7.228043435434053, 5.773766401202274, 0.422497500770422, 1.2429895051922986, ABpraaaaa, 0, 0, 0, 0, , 0, 0, 0, 0, 0, 
378, 1, 378, 378, 7388, -8.284414368146738, 1.8452013925912232, 3.9230600887658054, 1.3067325567406214, ABalapppa, 0, 0, 0, 0, , 0, 0, 0, 0, 0, 
44, 1, 44, 44, 7389, -3.6750712593283454, 6.053964908059235, 1.6470686517126145, 1.2429895051922986, ABpraaapp, 0, 0, 0, 0, , 0, 0, 0, 0, 0, 
41, 1, 41, 41, 7390, -1.265806411448826, 1.447969646174458, -3.071720237178995, 1.3067325567406214, ABarapapp, 0, 0, 0, 0, , 0, 0, 0, 0, 0, 
866, 1, 866, 866, 7391, -9.07612153551098, -1.4840110959502177, -4.30386009252567, 1.3067325567406214, ABalpaaaa, 0, 0, 0, 0, , 0, 0, 0, 0, 0, 
532, 1, 532, 532, 7392, -5.440221808821108, 4.380457643438866, -3.381367375566065, 1.3067325567406214, ABarapppa, 0, 0, 0, 0, , 0, 0, 0, 0, 0, 
71, 1, 71, 71, 7393, 8.689077912941476, -4.475051861735812, -3.4750251786511464, 1.2429895051922986, ABplpppap, 0, 0, 0, 0, , 0, 0, 0, 0, 0, 
2333, 1, 2333, 2333, 7394, -6.440948342399711, 3.659551147961173, -0.8483540907758167, 1.1792464536439757, MSppaaa, 0, 0, 0, 0, , 0, 0, 0, 0, 0, 
65, 1, 65, 65, 7395, 5.384112647148356, 6.475393896720221, 1.4764158984910867, 1.2429895051922986, ABprapaap, 0, 0, 0, 0, , 0, 0, 0, 0, 0, 
330, 1, 330, 330, 7396, -3.1502707282024174, 4.490582262817601, 4.461886358723562, 1.3067325567406214, ABarpappa, 0, 0, 0, 0, , 0, 0, 0, 0, 0, 
352, 1, 352, 352, 7397, -9.339178810085798, -2.4766129223264146, 3.394512804619382, 1.3067325567406214, ABalapapa, 0, 0, 0, 0, , 0, 0, 0, 0, 0, 
366, 1, 366, 366, 7398, -1.4738469523789033, 7.462901581519737, 1.6834058125081697, 1.2429895051922986, ABpraappa, 0, 0, 0, 0, , 0, 0, 0, 0, 0, 
8, 1, 8, 8, 7399, 10.580316132886924, 0.7100106943190899, -1.9516107976430435, 1.3554556938436502, Cpppp, 0, 0, 0, 0, , 0, 0, 0, 0, 0, 
76, 1, 76, 76, 7400, -2.1286372023245024, 6.023498802646228, 3.3033502471863363, 1.2429895051922986, ABpraapap, 0, 0, 0, 0, , 0, 0, 0, 0, 0, 
856, 1, 856, 856, 7401, -3.5810832123419707, 2.8800310793672566, -3.8951942092118816, 1.3067325567406214, ABarappaa, 0, 0, 0, 0, , 0, 0, 0, 0, 0, 
384, 1, 384, 384, 7402, 1.318433516993994, -5.8761766656572005, 3.600817192045789, 1.2429895051922986, ABplapaaa, 0, 0, 0, 0, , 0, 0, 0, 0, 0, 
211, 1, 211, 211, 7403, 0.3289855612793998, 2.523258579858487, -4.141933243200328, 1.2429895051922986, ABprpappa, 0, 0, 0, 0, , 0, 0, 0, 0, 0, 
5646, 1, 5646, 5646, 7404, 6.10035130426932, -3.039298198781494, -0.6439095521835256, 1.3554556938436502, Dapa, 0, 0, 0, 0, , 0, 0, 0, 0, 0, 
18, 1, 18, 18, 7405, -0.9690594349857253, -1.138658316041067, -2.797837488591022, 1.3067325567406214, ABalpappp, 0, 0, 0, 0, , 0, 0, 0, 0, 0, 
2982, 1, 2982, 2982, 7406, -7.497396487001174, -3.151861781926299, -0.34211219512192675, 1.1792464536439757, MSapaaa, 0, 0, 0, 0, , 0, 0, 0, 0, 0, 
475, 1, 475, 475, 7407, -6.501795659820459, 0.4588505066267009, -4.584583038101949, 1.3067325567406214, ABarapaaa, 0, 0, 0, 0, , 0, 0, 0, 0, 0, 
5345, 1, 5345, 5345, 7408, 5.645011351025016, 3.6681685746885844, -0.42685730411573664, 1.3554556938436502, Dppa, 0, 0, 0, 0, , 0, 0, 0, 0, 0, 
394, 1, 394, 394, 7409, 11.228579274500957, -2.6665197507546785, 3.726474245642255, 1.3554556938436502, Caapa, 0, 0, 0, 0, , 0, 0, 0, 0, 0, 
1107, 1, 1107, 1107, 7410, 5.87809291734201, 4.77701072169104, 3.234731308446877, 1.3067325567406214, ABarppppa, 0, 0, 0, 0, , 0, 0, 0, 0, 0, 
62, 1, 62, 62, 7411, -1.6048411845162938, 7.005666758685813, -1.5291821434077728, 1.2429895051922986, ABprpaaap, 0, 0, 0, 0, , 0, 0, 0, 0, 0, 
59, 1, 59, 59, 7412, -3.9964931209627848, -2.3865671125866026, 4.0735892594177905, 1.2429895051922986, ABplaaaap, 0, 0, 0, 0, , 0, 0, 0, 0, 0, 
221, 1, 221, 221, 7413, -4.1135172539155604, -1.4813272460823264, -4.234652303405405, 1.3067325567406214, ABalpappa, 0, 0, 0, 0, , 0, 0, 0, 0, 0, 
20, 1, 20, 20, 7414, 2.7452155395550464, -7.9058757107765665, 1.6192329310779634, 1.2429895051922986, ABplaappp, 0, 0, 0, 0, , 0, 0, 0, 0, 0, 
5, 1, 5, 5, 7415, -2.5141105206217467, -6.790484204771434, 2.0574014949505854, 1.3067325567406214, ABalppppp, 0, 0, 0, 0, , 0, 0, 0, 0, 0, 
601, 1, 601, 601, 7416, 5.584874671884991, -4.534130945381266, 3.610649943918165, 1.3067325567406214, ABarppapa, 0, 0, 0, 0, , 0, 0, 0, 0, 0, 
36, 1, 36, 36, 7417, -4.374241773049233, -3.7435242391987575, 2.621024533013947, 1.3067325567406214, ABalapapp, 0, 0, 0, 0, , 0, 0, 0, 0, 0, 
27, 1, 27, 27, 7418, 12.201813842398591, -1.7662135779148165, -3.402533161765218, 1.3554556938436502, Caapp, 0, 0, 0, 0, , 0, 0, 0, 0, 0, 
55, 1, 55, 55, 7419, 11.43561613190639, 1.064688220603674, 3.2390286494699563, 1.3554556938436502, Cpaap, 0, 0, 0, 0, , 0, 0, 0, 0, 0, 
229, 1, 229, 229, 7420, -1.1061040077700621, -8.099867274562715, 2.7938043302553734, 1.2429895051922986, ABplaappa, 0, 0, 0, 0, , 0, 0, 0, 0, 0, 
404, 1, 404, 404, 7421, 1.9782930998235206, 6.087731345279554, 2.8368054046640463, 1.2429895051922986, ABprapaaa, 0, 0, 0, 0, , 0, 0, 0, 0, 0, 
1260, 1, 1260, 1260, 7422, -10.921352504770818, 0.4282835449722162, 2.365525972752298, 1.3067325567406214, ABalappaa, 0, 0, 0, 0, , 0, 0, 0, 0, 0, 
51, 1, 51, 51, 7423, -2.1432441241802054, 4.355576036956393, 1.6485150049742758, 1.1792464536439757, MSppapp, 0, 0, 0, 0, , 0, 0, 0, 0, 0, 
2, 1, 2, 2, 7424, 9.310533246559027, 3.898712367781595, 2.888708674702565, 1.3067325567406214, ABarppppp, 0, 0, 0, 0, , 0, 0, 0, 0, 0, 
75, 1, 75, 75, 7425, -5.470216325758521, -6.665155403547455, 1.1252680895419243, 1.3067325567406214, ABalpppap, 0, 0, 0, 0, , 0, 0, 0, 0, 0, 
58, 1, 58, 58, 7426, -2.1193383489914894, -5.815038411785289, 3.9226869253543946, 1.2429895051922986, ABplaapap, 0, 0, 0, 0, , 0, 0, 0, 0, 0, 
87, 1, 87, 87, 7427, -11.517062033584812, 0.12318433918045156, -0.8350743593269125, 1.3067325567406214, ABalaaaar, 0, 0, 0, 0, , 0, 0, 0, 0, 0, 
135, 1, 135, 135, 7428, -2.3685837960339127, -0.9836774101106855, 2.6071391587131396, 1.5579950503950002, Eala, 0, 0, 0, 0, , 0, 0, 0, 0, 0, 
24, 1, 24, 24, 7429, -2.98526033204938, 1.4811743959931267, -1.3585353358836258, 1.3067325567406214, ABaraappp, 0, 0, 0, 0, , 0, 0, 0, 0, 0, 
45, 1, 45, 45, 7430, 2.582320313555225, -2.798141641465931, 0.3125759928076593, 1.5579950503950002, Ealp, 0, 0, 0, 0, , 0, 0, 0, 0, 0, 
14, 1, 14, 14, 7431, 2.8733320416290953, 0.02016066500917925, -0.3350427468041515, 1.5579950503950002, Earp, 0, 0, 0, 0, , 0, 0, 0, 0, 0, 
338, 1, 338, 338, 7432, -6.799976381432076, 1.2731085523715737, -1.434387187735831, 1.3067325567406214, ABaraappa, 0, 0, 0, 0, , 0, 0, 0, 0, 0, 
452, 1, 452, 452, 7433, -4.305226439543649, -6.40861847352734, -1.2613973289972626, 1.2429895051922986, ABplpaaaa, 0, 0, 0, 0, , 0, 0, 0, 0, 0, 
32, 1, 32, 32, 7434, 1.89288906181566, 0.0014440333088488343, 4.149081980855346, 1.3067325567406214, ABarpaapp, 0, 0, 0, 0, , 0, 0, 0, 0, 0, 
2064, 1, 2064, 2064, 7435, -3.746644061420546, -4.56522441092958, 0.09181293389418008, 1.1792464536439757, MSapapa, 0, 0, 0, 0, , 0, 0, 0, 0, 0, 
243, 1, 243, 243, 7436, 13.305035374536798, 2.301934702646732, -0.9192806900292606, 1.3554556938436502, Cpapa, 0, 0, 0, 0, , 0, 0, 0, 0, 0, 
933, 1, 933, 933, 7437, 6.070754275845746, 7.0244426142613, -0.40195906616789884, 1.2429895051922986, ABprappaa, 0, 0, 0, 0, , 0, 0, 0, 0, 0, 
108, 1, 108, 108, 7438, -4.317422824449769, -3.549175362173286, -0.8876858576733508, 1.1792464536439757, MSapaap, 0, 0, 0, 0, , 0, 0, 0, 0, 0, 
1149, 1, 1149, 1149, 7439, -10.263774790787556, -2.992782739008758, -0.6582513140593581, 1.3067325567406214, ABalaaaal, 0, 0, 0, 0, , 0, 0, 0, 0, 0, 
54, 1, 54, 54, 7440, -5.711639918616334, 0.08466647137109017, 4.303104555594313, 1.3067325567406214, ABarpaaap, 0, 0, 0, 0, , 0, 0, 0, 0, 0, 
72, 1, 72, 72, 7441, -9.786417525346915, 1.930529429745664, 2.917135232011471, 1.3067325567406214, ABalappap, 0, 0, 0, 0, , 0, 0, 0, 0, 0, 
252, 1, 252, 252, 7442, -3.008395570199424, -4.412909512245813, 4.6520235290955965, 1.2429895051922986, ABplaaapa, 0, 0, 0, 0, , 0, 0, 0, 0, 0, 
113, 1, 113, 113, 7443, 0.5685537176080215, -3.4395946652393965, -2.1198681893517723, 1.1792464536439757, MSappap, 0, 0, 0, 0, , 0, 0, 0, 0, 0, 
48, 1, 48, 48, 7444, 6.407321263116917, -3.063430709069718, -0.35088774148392887, 1.3554556938436502, Dapp, 0, 0, 0, 0, , 0, 0, 0, 0, 0, 
1137, 1, 1137, 1137, 7445, -0.47743236820834556, -6.655479510940532, -1.7543932151046806, 1.2429895051922986, ABplppaaa, 0, 0, 0, 0, , 0, 0, 0, 0, 0, 
35, 1, 35, 35, 7446, 0.65227207495438, -7.908384319431566, -0.06333794505077815, 1.2429895051922986, ABplpaapp, 0, 0, 0, 0, , 0, 0, 0, 0, 0, 
3918, 1, 3918, 3918, 7447, -0.49843393671295466, -3.7169214142104634, -1.4378064609566148, 1.1792464536439757, MSappaa, 0, 0, 0, 0, , 0, 0, 0, 0, 0, 
11, 1, 11, 11, 7448, 11.095966328166607, 3.341541499470915, -2.9039870073148975, 1.2429895051922986, ABprapppp, 0, 0, 0, 0, , 0, 0, 0, 0, 0, 
552, 1, 552, 552, 7449, 2.788918203840151, -7.397395062232908, -1.3751413545123063, 1.2429895051922986, ABplppapa, 0, 0, 0, 0, , 0, 0, 0, 0, 0, 
29, 1, 29, 29, 7450, -7.236146217704512, -4.487302930854514, -2.943983175929788, 1.3067325567406214, ABalpaapp, 0, 0, 0, 0, , 0, 0, 0, 0, 0, 
22, 1, 22, 22, 7451, 2.452347286303965, 7.261262075345576, 1.1887588989280822, 1.2429895051922986, ABpraappp, 0, 0, 0, 0, , 0, 0, 0, 0, 0, 
213, 1, 213, 213, 7452, 9.32546236893043, -6.258632155257596, 2.9200041949471975, 1.2429895051922986, ABplapapa, 0, 0, 0, 0, , 0, 0, 0, 0, 0, 
64, 1, 64, 64, 7453, -4.893641338831902, 1.5398793132114124, -3.3180933261670016, 1.3067325567406214, ABarapaap, 0, 0, 0, 0, , 0, 0, 0, 0, 0, 
79, 1, 79, 79, 7454, -7.495338105513946, -5.797263120995544, -0.9925194892993381, 1.3067325567406214, ABalppaap, 0, 0, 0, 0, , 0, 0, 0, 0, 0, 
30, 1, 30, 30, 7455, 12.51267224547276, -5.830602525627645, 0.06589802210760247, 1.2429895051922986, ABplapapp, 0, 0, 0, 0, , 0, 0, 0, 0, 0, 
17, 1, 17, 17, 7456, 3.9374608699208338, 2.120398497554876, -4.172435506575304, 1.2429895051922986, ABprpappp, 0, 0, 0, 0, , 0, 0, 0, 0, 0, 
6838, 1, 6838, 6838, 7457, 2.685182233648848, -3.261265797786284, -1.806531901237016, 1.3554556938436502, Daaa, 0, 0, 0, 0, , 0, 0, 0, 0, 0, 
78, 1, 78, 78, 7458, 2.4063330638905067, -6.219954819583305, -3.019529017573647, 1.2429895051922986, ABplppaap, 0, 0, 0, 0, , 0, 0, 0, 0, 0, 
2157, 1, 2157, 2157, 7459, 5.9562128044592555, -3.240025939624921, -2.098433547398689, 1.3554556938436502, Capaa, 0, 0, 0, 0, , 0, 0, 0, 0, 0, 
1, 1, 1, 1, 7460, 7.511648427129927, 1.7961296873577397, -4.45364947789163, 1.2429895051922986, ABprppppp, 0, 0, 0, 0, , 0, 0, 0, 0, 0, 
101, 1, 101, 101, 7461, -5.320324387428621, 1.8683581188990606, 1.7663310179056417, 1.1792464536439757, MSpaaap, 0, 0, 0, 0, , 0, 0, 0, 0, 0, 
239, 1, 239, 239, 7462, -6.804394475454449, -4.625894376146941, -4.197300521204055, 1.3067325567406214, ABalpapaa, 0, 0, 0, 0, , 0, 0, 0, 0, 0, 
28, 1, 28, 28, 7463, 12.753910271657345, 0.6033760606713033, -3.723436451346136, 1.3554556938436502, Cpapp, 0, 0, 0, 0, , 0, 0, 0, 0, 0, 
173, 1, 173, 173, 7464, 2.797221122537726, -3.2139657977862606, -1.904980666669101, 1.3554556938436502, Daap, 0, 0, 0, 0, , 0, 0, 0, 0, 0, 
365, 1, 365, 365, 7465, 5.475108159855289, -6.244785812352365, -3.0965751786511353, 1.2429895051922986, ABplpppaa, 0, 0, 0, 0, , 0, 0, 0, 0, 0, 
12, 1, 12, 12, 7466, -4.078159224114161, 3.3347435736609934, 3.0304777842388155, 1.3067325567406214, ABalapppp, 0, 0, 0, 0, , 0, 0, 0, 0, 0, 
42, 1, 42, 42, 7467, 10.008921379703674, -3.8532111922952277, 2.786785334864481, 1.3067325567406214, ABarppapp, 0, 0, 0, 0, , 0, 0, 0, 0, 0, 
6431, 1, 6431, 6431, 7468, 3.0732373797945205, 4.526857770669826, -1.6236685408430627, 1.3554556938436502, Dpaa, 0, 0, 0, 0, , 0, 0, 0, 0, 0, 
38, 1, 38, 38, 7469, -10.324616283566504, 2.2936088761712394, 1.2811386373584246, 1.3067325567406214, ABalaaapp, 0, 0, 0, 0, , 0, 0, 0, 0, 0, 
1039, 1, 1039, 1039, 7470, 8.469209550393003, -4.149715611364712, -0.024210743445296067, 1.3554556938436502, Cappa, 0, 0, 0, 0, , 0, 0, 0, 0, 0, 
2564, 1, 2564, 2564, 7471, -3.889359655998346, 1.7491408295830289, -0.19495736120696566, 1.1792464536439757, MSpaapa, 0, 0, 0, 0, , 0, 0, 0, 0, 0, 
387, 1, 387, 387, 7472, -3.3453833661807595, 0.41188713588646414, -4.334925586973511, 1.3067325567406214, ABarapapa, 0, 0, 0, 0, , 0, 0, 0, 0, 0, 
308, 1, 308, 308, 7473, -9.862076258854199, -2.0996527250933217, -2.369847373460735, 1.3067325567406214, ABalpaapa, 0, 0, 0, 0, , 0, 0, 0, 0, 0, 
88, 1, 88, 88, 7474, 9.9353724668836, -0.6344254964976407, -2.302446953324262, 1.7907989085000002, Z2, 0, 0, 0, 0, , 0, 0, 0, 0, 0, 
34, 1, 34, 34, 7475, -2.3822247031807007, -5.26389383246008, -2.952006369392645, 1.3067325567406214, ABalppapp, 0, 0, 0, 0, , 0, 0, 0, 0, 0, 
290, 1, 290, 290, 7476, -0.19796496952828818, -6.328102458895741, -3.181242835711596, 1.2429895051922986, ABplpapaa, 0, 0, 0, 0, , 0, 0, 0, 0, 0, 
7, 1, 7, 7, 7477, 9.546125291708368, 1.2598159212370186, 1.584204545342134, 1.5579950503950002, Eprp, 0, 0, 0, 0, , 0, 0, 0, 0, 0, 
420, 1, 420, 420, 7478, -10.900773376684361, -2.6986087063494404, 2.021202900079189, 1.3067325567406214, ABalapaaa, 0, 0, 0, 0, , 0, 0, 0, 0, 0, 
2183, 1, 2183, 2183, 7479, -5.344022170141687, -0.9195084772605889, 0.15928758858296943, 1.1792464536439757, MSaaapa, 0, 0, 0, 0, , 0, 0, 0, 0, 0, 
2481, 1, 2481, 2481, 7480, 3.2116217485493914, 1.4705639024124033, -3.9229022194482837, 1.1792464536439757, MSpappa, 0, 0, 0, 0, , 0, 0, 0, 0, 0, 
105, 1, 105, 105, 7481, -0.04625177056423346, -1.7017323734180918, -2.0660163696703417, 1.1792464536439757, MSaapap, 0, 0, 0, 0, , 0, 0, 0, 0, 0, 
217, 1, 217, 217, 7482, 5.493065720385463, 1.1656801959117462, 4.226125357289279, 1.3554556938436502, Cpaaa, 0, 0, 0, 0, , 0, 0, 0, 0, 0, 
242, 1, 242, 242, 7483, 0.9651590375956804, -2.9911210288576067, -4.254400297599372, 1.2429895051922986, ABplpappa, 0, 0, 0, 0, , 0, 0, 0, 0, 0, 
622, 1, 622, 622, 7484, 4.651238550588049, 4.820709934270918, -3.654982811224557, 1.2429895051922986, ABprppppa, 0, 0, 0, 0, , 0, 0, 0, 0, 0, 
1052, 1, 1052, 1052, 7485, -11.495531098378448, -0.6703108769151028, 1.185671559169457, 1.3067325567406214, ABalaaapa, 0, 0, 0, 0, , 0, 0, 0, 0, 0, 
287, 1, 287, 287, 7486, -5.068253118673069, 5.7781696393455935, -2.1440179458767905, 1.2429895051922986, ABprpaaaa, 0, 0, 0, 0, , 0, 0, 0, 0, 0, 
606, 1, 606, 606, 7487, -5.396116214670181, 5.824574522811659, 3.1807459261989415, 1.2429895051922986, ABpraapaa, 0, 0, 0, 0, , 0, 0, 0, 0, 0, 
49, 1, 49, 49, 7488, -2.809053034338842, -0.5237523044210672, 0.5468801811755785, 1.1792464536439757, MSaaapp, 0, 0, 0, 0, , 0, 0, 0, 0, 0, 
82, 1, 82, 82, 7489, -7.644637136628154, 5.010947116549432, -1.1688155607208257, 1.3067325567406214, ABalaapap, 0, 0, 0, 0, , 0, 0, 0, 0, 0, 
1552, 1, 1552, 1552, 7490, -10.531317974476053, 1.1537968403465197, -2.5161865202570413, 1.3067325567406214, ABaraaaaa, 0, 0, 0, 0, , 0, 0, 0, 0, 0, 
84, 1, 84, 84, 7491, -9.21762661645051, -0.003816328377790784, -1.376536314495151, 1.3067325567406214, ABaraaaap, 0, 0, 0, 0, , 0, 0, 0, 0, 0, 
4307, 1, 4307, 4307, 7492, 1.0071965271022523, 4.9256139870892355, -0.2038567819398041, 1.1792464536439757, MSppppa, 0, 0, 0, 0, , 0, 0, 0, 0, 0, 
61, 1, 61, 61, 7493, 8.299863428729733, -6.386358789445168, 1.230719728318939, 1.2429895051922986, ABplappap, 0, 0, 0, 0, , 0, 0, 0, 0, 0, 
47, 1, 47, 47, 7494, -1.5634625366569679, 1.321307496249575, -1.1323380196431745, 1.1792464536439757, MSpaapp, 0, 0, 0, 0, , 0, 0, 0, 0, 0, 
50, 1, 50, 50, 7495, -2.2201420038074526, -3.943989843028805, 1.7057635511781863, 1.1792464536439757, MSapapp, 0, 0, 0, 0, , 0, 0, 0, 0, 0, 
53, 1, 53, 53, 7496, -2.894053734712408, -4.4234425242951865, -4.083211632315453, 1.3067325567406214, ABalpapap, 0, 0, 0, 0, , 0, 0, 0, 0, 0, 
31, 1, 31, 31, 7497, 0.0785723764375656, 7.389258227814029, -0.42834823124624016, 1.2429895051922986, ABprpaapp, 0, 0, 0, 0, , 0, 0, 0, 0, 0, 
650, 1, 650, 650, 7498, -7.462404592662294, 4.620113056206303, 1.9417353183791823, 1.2429895051922986, ABpraaapa, 0, 0, 0, 0, , 0, 0, 0, 0, 0, 
63, 1, 63, 63, 7499, 2.3281091045453666, -4.75037653296872, -4.0402150579336995, 1.2429895051922986, ABplpapap, 0, 0, 0, 0, , 0, 0, 0, 0, 0, 
26, 1, 26, 26, 7500, 3.6190537901644064, -2.7569662597356697, -3.1281747103206383, 1.1792464536439757, MSaappp, 0, 0, 0, 0, , 0, 0, 0, 0, 0, 
99, 1, 99, 99, 7501, 1.0708378069793065, 0.6538694734487518, -2.2926141261534254, 1.1792464536439757, MSpapap, 0, 0, 0, 0, , 0, 0, 0, 0, 0, 
60, 1, 60, 60, 7502, 1.9563875040291532, 4.174498050682251, -3.7731539313692837, 1.2429895051922986, ABprpapap, 0, 0, 0, 0, , 0, 0, 0, 0, 0, 
607, 1, 607, 607, 7503, 6.354070042338012, 5.699574677723386, -3.2490360112449634, 1.2429895051922986, ABprpppaa, 0, 0, 0, 0, , 0, 0, 0, 0, 0, 
16, 1, 16, 16, 7504, 0.1217292717974389, 4.636715596151892, 3.642686358723902, 1.3067325567406214, ABarpappp, 0, 0, 0, 0, , 0, 0, 0, 0, 0, 
329, 1, 329, 329, 7505, -3.3585384188723473, -7.498559628075488, 0.11046205494921833, 1.2429895051922986, ABplpaapa, 0, 0, 0, 0, , 0, 0, 0, 0, 0, 
68, 1, 68, 68, 7506, 8.096665890878501, -3.0160950754274527, -2.0530804609794036, 1.3554556938436502, Capap, 0, 0, 0, 0, , 0, 0, 0, 0, 0, 
3145, 1, 3145, 3145, 7507, -0.06567557252301284, 3.2156588042533416, -1.5630669343837102, 1.1792464536439757, MSpppaa, 0, 0, 0, 0, , 0, 0, 0, 0, 0, 
1496, 1, 1496, 1496, 7508, -9.19648707670499, -4.524247483136775, -0.04477134115115344, 1.3067325567406214, ABalppaaa, 0, 0, 0, 0, , 0, 0, 0, 0, 0, 
429, 1, 429, 429, 7509, 9.140483211472878, 5.563505673988719, 2.22136783281149, 1.2429895051922986, ABprapapa, 0, 0, 0, 0, , 0, 0, 0, 0, 0, 
1020, 1, 1020, 1020, 7510, 0.20975309247347323, 5.9102373098005, -2.5295273256739033, 1.2429895051922986, ABprppaaa, 0, 0, 0, 0, , 0, 0, 0, 0, 0, 
313, 1, 313, 313, 7511, -3.867261368418513, 7.0025816846062945, -0.10286839585530769, 1.2429895051922986, ABprpaapa, 0, 0, 0, 0, , 0, 0, 0, 0, 0, 
413, 1, 413, 413, 7512, 5.4225634287298945, -7.306847678333421, 0.5424123209114668, 1.2429895051922986, ABplappaa, 0, 0, 0, 0, , 0, 0, 0, 0, 0, 
9, 1, 9, 9, 7513, 10.604673631680363, -4.649484444518461, -2.327335846083114, 1.2429895051922986, ABplapppp, 0, 0, 0, 0, , 0, 0, 0, 0, 0, 
1426, 1, 1426, 1426, 7514, 9.22951366374929, 3.066193821891057, -0.5374132667789652, 1.3554556938436502, Cpppa, 0, 0, 0, 0, , 0, 0, 0, 0, 0, 
672, 1, 672, 672, 7515, -8.071551099421413, -5.363771658690939, 1.2957612994185537, 1.3067325567406214, ABalpppaa, 0, 0, 0, 0, , 0, 0, 0, 0, 0, 
37, 1, 37, 37, 7516, 6.287357298490605, -6.565552881162898, -1.871345469738689, 1.2429895051922986, ABplppapp, 0, 0, 0, 0, , 0, 0, 0, 0, 0, 
889, 1, 889, 889, 7517, 9.365710155324539, 5.166643351322052, -2.0408913283026635, 1.2429895051922986, ABprapppa, 0, 0, 0, 0, , 0, 0, 0, 0, 0, 
3201, 1, 3201, 3201, 7518, 1.9602832140328434, -1.8408654366902018, -4.029846521020638, 1.1792464536439757, MSaappa, 0, 0, 0, 0, , 0, 0, 0, 0, 0, 
228, 1, 228, 228, 7519, 8.718796106106616, -2.1679745146722516, 3.9973624755560633, 1.3554556938436502, Caaaa, 0, 0, 0, 0, , 0, 0, 0, 0, 0, 
112, 1, 112, 112, 7520, 1.6514219583411915, 3.060278145817329, -1.9670566463180743, 1.1792464536439757, MSpppap, 0, 0, 0, 0, , 0, 0, 0, 0, 0, 
1816, 1, 1816, 1816, 7521, -9.525039354211579, -0.09118101843267924, 0.8350702137788123, 1.1792464536439757, MSaaaaa, 0, 0, 0, 0, , 0, 0, 0, 0, 0, 
52, 1, 52, 52, 7522, 13.466711332443326, -2.317861757470385, 1.1433756442808876, 1.3554556938436502, Caaap, 0, 0, 0, 0, , 0, 0, 0, 0, 0, 
46, 1, 46, 46, 7523, 11.036973176876737, -0.7286632955748719, 0.48571015487745184, 1.5579950503950002, Eplp, 0, 0, 0, 0, , 0, 0, 0, 0, 0, 
1505, 1, 1505, 1505, 7524, -2.361030782909987, -1.8313015092205331, -1.1834027894229058, 1.1792464536439757, MSaapaa, 0, 0, 0, 0, , 0, 0, 0, 0, 0, 
69, 1, 69, 69, 7525, -9.462429755288023, -4.634820640505947, 1.956645286910042, 1.3067325567406214, ABalapaap, 0, 0, 0, 0, , 0, 0, 0, 0, 0, 
15, 1, 15, 15, 7526, 10.300416957802984, -2.0857868047801427, -2.144900866902117, 1.3554556938436502, Cappp, 0, 0, 0, 0, , 0, 0, 0, 0, 0, 
57, 1, 57, 57, 7527, -3.705530113720021, 1.591590037505549, 4.451311278932975, 1.3067325567406214, ABarpapap, 0, 0, 0, 0, , 0, 0, 0, 0, 0, 
102, 1, 102, 102, 7528, -6.6705257739642, -0.4189538579388117, 2.6093023125443318, 1.1792464536439757, MSaaaap, 0, 0, 0, 0, , 0, 0, 0, 0, 0, 
348, 1, 348, 348, 7529, 3.65722018166374, -4.645927430783967, -3.6358292354362547, 1.2429895051922986, ABplppppa, 0, 0, 0, 0, , 0, 0, 0, 0, 0, 
214, 1, 214, 214, 7530, -7.128398220716844, 2.3385233708388, 4.869155929137743, 1.3067325567406214, ABarpapaa, 0, 0, 0, 0, , 0, 0, 0, 0, 0, 
641, 1, 641, 641, 7531, 8.57129029834727, -6.004267777851282, -1.3268358460830354, 1.2429895051922986, ABplapppa, 0, 0, 0, 0, , 0, 0, 0, 0, 0, 
23, 1, 23, 23, 7532, 6.251634807815077, 3.339856229009574, -0.30490915596759693, 1.3554556938436502, Dppp, 0, 0, 0, 0, , 0, 0, 0, 0, 0, 
435, 1, 435, 435, 7533, -6.156081508275785, -4.6693700072404205, 2.2646514949503747, 1.3067325567406214, ABalppppa, 0, 0, 0, 0, , 0, 0, 0, 0, 0, 
80, 1, 80, 80, 7534, -5.204940901768036, -1.6920577208492122, -1.4023821672168149, 1.3067325567406214, ABaraapap, 0, 0, 0, 0, , 0, 0, 0, 0, 0, 
85, 1, 85, 85, 7535, 3.4314024751896532, 5.4055299023926455, -3.615332675468584, 1.2429895051922986, ABprppaap, 0, 0, 0, 0, , 0, 0, 0, 0, 0, 
1143, 1, 1143, 1143, 7536, -8.028912140838306, -0.08002797307333587, 4.214982333372874, 1.3067325567406214, ABarpaaaa, 0, 0, 0, 0, , 0, 0, 0, 0, 0, 
2043, 1, 2043, 2043, 7537, -3.3528326015462864, 4.412242703623431, 0.09507879098244595, 1.1792464536439757, MSppapa, 0, 0, 0, 0, , 0, 0, 0, 0, 0, 
66, 1, 66, 66, 7538, -6.2126676260479226, -2.313832083604548, -3.4127740842953007, 1.3067325567406214, ABalpaaap, 0, 0, 0, 0, , 0, 0, 0, 0, 0, 
33, 1, 33, 33, 7539, 0.24298776313455858, -3.9595249443452007, 3.925609331564618, 1.2429895051922986, ABplaaapp, 0, 0, 0, 0, , 0, 0, 0, 0, 0, 
164, 1, 164, 164, 7540, 5.06363984354395, -0.4989646654379493, 2.336157643461911, 1.5579950503950002, Epla, 0, 0, 0, 0, , 0, 0, 0, 0, 0, 
542, 1, 542, 542, 7541, 1.1479463493019622, 4.258005476075059, 4.094444346634916, 1.3067325567406214, ABarpppaa, 0, 0, 0, 0, , 0, 0, 0, 0, 0, 
741, 1, 741, 741, 7542, 1.1968779281915145, -2.621647309768911, 4.345903888016336, 1.3067325567406214, ABarppaaa, 0, 0, 0, 0, , 0, 0, 0, 0, 0, 
25, 1, 25, 25, 7543, 4.311515164187294, 1.7437118447992306, -2.831969914921551, 1.1792464536439757, MSpappp, 0, 0, 0, 0, , 0, 0, 0, 0, 0, 
768, 1, 768, 768, 7544, 3.5541673913523697, 6.48473129233386, -2.141920659735496, 1.2429895051922986, ABprppapa, 0, 0, 0, 0, , 0, 0, 0, 0, 0, 
86, 1, 86, 86, 7545, -5.295310925146332, 6.419014960874496, 0.34544647196379735, 1.2429895051922986, ABpraaaap, 0, 0, 0, 0, , 0, 0, 0, 0, 0, 
169, 1, 169, 169, 7546, 3.324337174033157, 4.35292670071101, -1.7971775943410357, 1.3554556938436502, Dpap, 0, 0, 0, 0, , 0, 0, 0, 0, 0, 
