329, 1, 329, 329, 9293, -3.2468042455600084, -7.66994819781979, -0.10492080962977346, 1.2429895051922986, ABplpaapa, 0, 0, 0, 0, , 0, 0, 0, 0, 0, 
1436, 1, 1436, 1436, 9294, -8.773684222759455, 2.003597394556485, 0.7728207904664838, 1.1792464536439757, MSpaaaa, 0, 0, 0, 0, , 0, 0, 0, 0, 0, 
132, 1, 132, 132, 9295, 2.2975914569243754, 3.2224117039766433, 3.1110505770461097, 1.5579950503950002, Epra, 0, 0, 0, 0, , 0, 0, 0, 0, 0, 
14, 1, 14, 14, 9296, 3.141433584094089, -0.422218381550158, -0.5442693452704056, 1.5579950503950002, Earp, 0, 0, 0, 0, , 0, 0, 0, 0, 0, 
655, 1, 655, 655, 9297, -8.507499614760544, -1.846397178873391, -1.9205055198017738, 1.3067325567406214, ABaraapaa, 0, 0, 0, 0, , 0, 0, 0, 0, 0, 
65, 1, 65, 65, 9298, 6.065083836726373, 6.755727325948151, 0.8570187371558601, 1.2429895051922986, ABprapaap, 0, 0, 0, 0, , 0, 0, 0, 0, 0, 
75, 1, 75, 75, 9299, -4.844254899565499, -7.638611897784113, 1.1595721838065831, 1.3067325567406214, ABalpppap, 0, 0, 0, 0, , 0, 0, 0, 0, 0, 
85, 1, 85, 85, 9300, 3.218228231831315, 4.987156869167196, -4.008643924478659, 1.2429895051922986, ABprppaap, 0, 0, 0, 0, , 0, 0, 0, 0, 0, 
2522, 1, 2522, 2522, 9301, 5.609470076566618, 2.7123815040239636, -2.4123989231234493, 1.3554556938436502, Cppaa, 0, 0, 0, 0, , 0, 0, 0, 0, 0, 
221, 1, 221, 221, 9302, -3.584808609778328, -1.2003781189542657, -4.336093306464805, 1.3067325567406214, ABalpappa, 0, 0, 0, 0, , 0, 0, 0, 0, 0, 
30, 1, 30, 30, 9303, 14.574430024937318, -6.188147649608075, -0.6711544006669714, 1.2429895051922986, ABplapapp, 0, 0, 0, 0, , 0, 0, 0, 0, 0, 
1407, 1, 1407, 1407, 9304, -1.298840198471261, 0.24776304021596407, -1.3163789565639956, 1.1792464536439757, MSpapaa, 0, 0, 0, 0, , 0, 0, 0, 0, 0, 
283, 1, 283, 283, 9305, -6.844794315426414, -3.9601111939863323, 3.7254289662186455, 1.2429895051922986, ABplaaaaa, 0, 0, 0, 0, , 0, 0, 0, 0, 0, 
222, 1, 222, 222, 9306, -3.6265953269544284, -1.0310562022037117, 3.8779722529585676, 1.3067325567406214, ABarpaapa, 0, 0, 0, 0, , 0, 0, 0, 0, 0, 
452, 1, 452, 452, 9307, -3.679224310257327, -6.433166662839041, -1.3776222883470381, 1.2429895051922986, ABplpaaaa, 0, 0, 0, 0, , 0, 0, 0, 0, 0, 
53, 1, 53, 53, 9308, -1.214999015365013, -5.15248944991016, -4.36177753297241, 1.3067325567406214, ABalpapap, 0, 0, 0, 0, , 0, 0, 0, 0, 0, 
54, 1, 54, 54, 9309, -5.101144331238266, 0.026262246805098394, 4.45933608449219, 1.3067325567406214, ABarpaaap, 0, 0, 0, 0, , 0, 0, 0, 0, 0, 
70, 1, 70, 70, 9310, 5.574884487918717, -3.057210402114891, 4.179592895884934, 1.3067325567406214, ABarppaap, 0, 0, 0, 0, , 0, 0, 0, 0, 0, 
9, 1, 9, 9, 9311, 11.19968376737588, -4.27182189253458, -3.1359592084306853, 1.2429895051922986, ABplapppp, 0, 0, 0, 0, , 0, 0, 0, 0, 0, 
69, 1, 69, 69, 9312, -9.48815291993382, -5.724725444300309, 1.7514849387362257, 1.3067325567406214, ABalapaap, 0, 0, 0, 0, , 0, 0, 0, 0, 0, 
35, 1, 35, 35, 9313, 1.6870926680197018, -8.17409387683009, -0.3187208096297694, 1.2429895051922986, ABplpaapp, 0, 0, 0, 0, , 0, 0, 0, 0, 0, 
56, 1, 56, 56, 9314, 6.710691332726212, -6.399396193190893, 2.5038508683285716, 1.2429895051922986, ABplapaap, 0, 0, 0, 0, , 0, 0, 0, 0, 0, 
243, 1, 243, 243, 9315, 13.531445426926323, 3.2017952776930505, -1.7664992452519273, 1.3554556938436502, Cpapa, 0, 0, 0, 0, , 0, 0, 0, 0, 0, 
58, 1, 58, 58, 9316, -1.1193480567179557, -6.158661144271648, 4.008210006684802, 1.2429895051922986, ABplaapap, 0, 0, 0, 0, , 0, 0, 0, 0, 0, 
135, 1, 135, 135, 9317, -2.84971481135286, -0.675248184101997, 3.0419854886938156, 1.5579950503950002, Eala, 0, 0, 0, 0, , 0, 0, 0, 0, 0, 
40, 1, 40, 40, 9318, 12.560632321580695, 3.9770334606016773, -0.9775339280893315, 1.2429895051922986, ABprapapp, 0, 0, 0, 0, , 0, 0, 0, 0, 0, 
49, 1, 49, 49, 9319, -2.5026249200077832, -0.6197077900201313, 1.1278332184729942, 1.1792464536439757, MSaaapp, 0, 0, 0, 0, , 0, 0, 0, 0, 0, 
223, 1, 223, 223, 9320, -5.719064106101856, -6.196459498179878, 3.111358154833008, 1.2429895051922986, ABplaapaa, 0, 0, 0, 0, , 0, 0, 0, 0, 0, 
1039, 1, 1039, 1039, 9321, 7.605814322351295, -4.112282602212602, 0.13788810742216473, 1.3554556938436502, Cappa, 0, 0, 0, 0, , 0, 0, 0, 0, 0, 
1052, 1, 1052, 1052, 9322, -12.17377132253999, -1.6733015896024934, 0.9040431198253178, 1.3067325567406214, ABalaaapa, 0, 0, 0, 0, , 0, 0, 0, 0, 0, 
26, 1, 26, 26, 9323, 3.727080070639444, -3.1530991925875256, -2.785705680754144, 1.1792464536439757, MSaappp, 0, 0, 0, 0, , 0, 0, 0, 0, 0, 
1143, 1, 1143, 1143, 9324, -8.087181985559388, -0.18596306183686162, 4.345781763505685, 1.3067325567406214, ABarpaaaa, 0, 0, 0, 0, , 0, 0, 0, 0, 0, 
6431, 1, 6431, 6431, 9325, 3.105739753273014, 4.399429290369353, -1.3236212200635342, 1.3554556938436502, Dpaa, 0, 0, 0, 0, , 0, 0, 0, 0, 0, 
2333, 1, 2333, 2333, 9326, -7.1984784250625715, 3.3314708806411653, -0.8953291810888784, 1.1792464536439757, MSppaaa, 0, 0, 0, 0, , 0, 0, 0, 0, 0, 
66, 1, 66, 66, 9327, -4.919876397066451, -2.90710491936069, -3.7177526872903326, 1.3067325567406214, ABalpaaap, 0, 0, 0, 0, , 0, 0, 0, 0, 0, 
394, 1, 394, 394, 9328, 11.020209042672532, -2.434881121248553, 3.9262401151179316, 1.3554556938436502, Caapa, 0, 0, 0, 0, , 0, 0, 0, 0, 0, 
28, 1, 28, 28, 9329, 12.858345015405162, 1.1273107097916313, -5.191272290519362, 1.3554556938436502, Cpapp, 0, 0, 0, 0, , 0, 0, 0, 0, 0, 
607, 1, 607, 607, 9330, 5.392475895419114, 5.825437074074936, -3.6283859058222268, 1.2429895051922986, ABprpppaa, 0, 0, 0, 0, , 0, 0, 0, 0, 0, 
164, 1, 164, 164, 9331, 5.193558551034744, 0.19027227315907796, 2.6444787832752055, 1.5579950503950002, Epla, 0, 0, 0, 0, , 0, 0, 0, 0, 0, 
101, 1, 101, 101, 9332, -5.225868173377202, 1.5537784645146435, 2.4612109139233054, 1.1792464536439757, MSpaaap, 0, 0, 0, 0, , 0, 0, 0, 0, 0, 
86, 1, 86, 86, 9333, -4.988545969265154, 6.553012071749369, 0.36063024954281714, 1.2429895051922986, ABpraaaap, 0, 0, 0, 0, , 0, 0, 0, 0, 0, 
84, 1, 84, 84, 9334, -8.826247086102263, -0.2783269466907385, -1.0471040926641346, 1.3067325567406214, ABaraaaap, 0, 0, 0, 0, , 0, 0, 0, 0, 0, 
366, 1, 366, 366, 9335, -2.717356554242827, 7.821433949646333, 1.523106529762135, 1.2429895051922986, ABpraappa, 0, 0, 0, 0, , 0, 0, 0, 0, 0, 
22, 1, 22, 22, 9336, 2.131924104193047, 7.5723870360644545, 0.9121633198857886, 1.2429895051922986, ABpraappp, 0, 0, 0, 0, , 0, 0, 0, 0, 0, 
435, 1, 435, 435, 9337, -6.762202648028921, -5.031159557137183, 2.6662461786404954, 1.3067325567406214, ABalppppa, 0, 0, 0, 0, , 0, 0, 0, 0, 0, 
67, 1, 67, 67, 9338, -0.18733336375388643, -7.934966251316628, -1.9537683788822922, 1.2429895051922986, ABplpaaap, 0, 0, 0, 0, , 0, 0, 0, 0, 0, 
19, 1, 19, 19, 9339, -8.765928520254768, 4.132225402936217, 2.708882962619971, 1.3067325567406214, ABalaappp, 0, 0, 0, 0, , 0, 0, 0, 0, 0, 
429, 1, 429, 429, 9340, 9.494200222813626, 5.875087781590612, 1.8011203928985768, 1.2429895051922986, ABprapapa, 0, 0, 0, 0, , 0, 0, 0, 0, 0, 
25, 1, 25, 25, 9341, 4.253119694772098, 2.0285011876637773, -2.514733747292553, 1.1792464536439757, MSpappp, 0, 0, 0, 0, , 0, 0, 0, 0, 0, 
552, 1, 552, 552, 9342, 2.739840508091462, -7.634432402261131, -1.7599540618956815, 1.2429895051922986, ABplppapa, 0, 0, 0, 0, , 0, 0, 0, 0, 0, 
866, 1, 866, 866, 9343, -8.556540183072189, -1.8532098576322835, -4.849455979471297, 1.3067325567406214, ABalpaaaa, 0, 0, 0, 0, , 0, 0, 0, 0, 0, 
57, 1, 57, 57, 9344, -3.47431196879385, 1.0362100442534459, 4.762326824376613, 1.3067325567406214, ABarpapap, 0, 0, 0, 0, , 0, 0, 0, 0, 0, 
252, 1, 252, 252, 9345, -2.725014829073741, -4.9306836970690515, 4.794773032680257, 1.2429895051922986, ABplaaapa, 0, 0, 0, 0, , 0, 0, 0, 0, 0, 
50, 1, 50, 50, 9346, -2.4739978910889593, -3.8297516158820484, 2.449793509113916, 1.1792464536439757, MSapapp, 0, 0, 0, 0, , 0, 0, 0, 0, 0, 
3145, 1, 3145, 3145, 9347, -0.5245163071362405, 3.1556821887829942, -1.3873430359633556, 1.1792464536439757, MSpppaa, 0, 0, 0, 0, , 0, 0, 0, 0, 0, 
37, 1, 37, 37, 9348, 7.101736392865433, -6.5972815792157995, -2.3786273129245363, 1.2429895051922986, ABplppapp, 0, 0, 0, 0, , 0, 0, 0, 0, 0, 
62, 1, 62, 62, 9349, -1.6142973671100527, 6.941044377609117, -1.7009240587130185, 1.2429895051922986, ABprpaaap, 0, 0, 0, 0, , 0, 0, 0, 0, 0, 
384, 1, 384, 384, 9350, 1.9760691105037251, -6.274090637635903, 3.3964119794393826, 1.2429895051922986, ABplapaaa, 0, 0, 0, 0, , 0, 0, 0, 0, 0, 
74, 1, 74, 74, 9351, 8.254873780270298, 2.2603131912666927, -2.2712392523415956, 1.3554556938436502, Cppap, 0, 0, 0, 0, , 0, 0, 0, 0, 0, 
81, 1, 81, 81, 9352, 8.924162877364976, 5.947468698115603, 0.06919686155271687, 1.2429895051922986, ABprappap, 0, 0, 0, 0, , 0, 0, 0, 0, 0, 
3, 1, 3, 3, 9353, 1.2711458388768138, 4.434809591804175, 1.6274120856731735, 1.1792464536439757, MSppppp, 0, 0, 0, 0, , 0, 0, 0, 0, 0, 
63, 1, 63, 63, 9354, 3.7969129801437456, -4.388539806546338, -4.409390699807431, 1.2429895051922986, ABplpapap, 0, 0, 0, 0, , 0, 0, 0, 0, 0, 
3201, 1, 3201, 3201, 9355, 1.344482334014108, -1.837245283122217, -4.08083428157778, 1.1792464536439757, MSaappa, 0, 0, 0, 0, , 0, 0, 0, 0, 0, 
45, 1, 45, 45, 9356, 3.013518065359516, -2.8240731460508948, 0.3245912725601346, 1.5579950503950002, Ealp, 0, 0, 0, 0, , 0, 0, 0, 0, 0, 
27, 1, 27, 27, 9357, 12.227394227853251, -1.3181551953221855, -4.916470995993119, 1.3554556938436502, Caapp, 0, 0, 0, 0, , 0, 0, 0, 0, 0, 
23, 1, 23, 23, 9358, 5.880702305244424, 3.6150679957828276, 0.3080543821796319, 1.3554556938436502, Dppp, 0, 0, 0, 0, , 0, 0, 0, 0, 0, 
403, 1, 403, 403, 9359, -9.34395381854512, 0.9077449576094154, -3.9653972034820653, 1.3067325567406214, ABaraaapa, 0, 0, 0, 0, , 0, 0, 0, 0, 0, 
6838, 1, 6838, 6838, 9360, 2.7590590958003487, -3.5671938818055198, -1.3477230612795352, 1.3554556938436502, Daaa, 0, 0, 0, 0, , 0, 0, 0, 0, 0, 
47, 1, 47, 47, 9361, -1.4692478388373622, 1.3595852160866848, -1.029726267701935, 1.1792464536439757, MSpaapp, 0, 0, 0, 0, , 0, 0, 0, 0, 0, 
32, 1, 32, 32, 9362, 2.99505899403277, -0.40250146969330913, 4.17319200604393, 1.3067325567406214, ABarpaapp, 0, 0, 0, 0, , 0, 0, 0, 0, 0, 
52, 1, 52, 52, 9363, 15.105296942034885, -2.3585705865428848, 0.6132511355346328, 1.3554556938436502, Caaap, 0, 0, 0, 0, , 0, 0, 0, 0, 0, 
68, 1, 68, 68, 9364, 7.832542254539676, -2.593133147099161, -1.9432665109970078, 1.3554556938436502, Capap, 0, 0, 0, 0, , 0, 0, 0, 0, 0, 
17, 1, 17, 17, 9365, 3.5098764610725866, 1.6665540793874853, -4.330913174001153, 1.2429895051922986, ABprpappp, 0, 0, 0, 0, , 0, 0, 0, 0, 0, 
88, 1, 88, 88, 9366, 10.670189184705784, -0.07511769573061008, -2.0231269226635273, 1.7907989085000002, Z2, 0, 0, 0, 0, , 0, 0, 0, 0, 0, 
420, 1, 420, 420, 9367, -11.270323701823306, -3.3256740039711277, 1.8314746506707877, 1.3067325567406214, ABalapaaa, 0, 0, 0, 0, , 0, 0, 0, 0, 0, 
46, 1, 46, 46, 9368, 12.33355855103438, -0.08428937067647146, 0.43261576957656267, 1.5579950503950002, Eplp, 0, 0, 0, 0, , 0, 0, 0, 0, 0, 
36, 1, 36, 36, 9369, -3.9263051564717397, -4.586982585488193, 2.342106489715543, 1.3067325567406214, ABalapapp, 0, 0, 0, 0, , 0, 0, 0, 0, 0, 
2157, 1, 2157, 2157, 9370, 4.946286698984466, -2.8950887026546326, -2.004422066551933, 1.3554556938436502, Capaa, 0, 0, 0, 0, , 0, 0, 0, 0, 0, 
72, 1, 72, 72, 9371, -10.077050046357451, 2.0437350267269627, 2.950618980694798, 1.3067325567406214, ABalappap, 0, 0, 0, 0, , 0, 0, 0, 0, 0, 
7, 1, 7, 7, 9372, 9.892959607610468, 1.1561617039769112, 1.9594923578680048, 1.5579950503950002, Eprp, 0, 0, 0, 0, , 0, 0, 0, 0, 0, 
211, 1, 211, 211, 9373, -0.872672921642846, 2.1558339147773804, -4.293867700749325, 1.2429895051922986, ABprpappa, 0, 0, 0, 0, , 0, 0, 0, 0, 0, 
4, 1, 4, 4, 9374, 0.48294095775671536, -2.335174433318498, -1.258446071599443, 1.7907989085000002, Z3, 0, 0, 0, 0, , 0, 0, 0, 0, 0, 
60, 1, 60, 60, 9375, 2.146824583872287, 3.6395248367581874, -3.8807928042465862, 1.2429895051922986, ABprpapap, 0, 0, 0, 0, , 0, 0, 0, 0, 0, 
1496, 1, 1496, 1496, 9376, -9.199808120704795, -4.477664906305164, 0.35008065155965723, 1.3067325567406214, ABalppaaa, 0, 0, 0, 0, , 0, 0, 0, 0, 0, 
692, 1, 692, 692, 9377, -10.365680989390562, 4.051308736270314, 0.5600959255830866, 1.3067325567406214, ABalaappa, 0, 0, 0, 0, , 0, 0, 0, 0, 0, 
933, 1, 933, 933, 9378, 5.599402383540297, 7.163606969719854, -0.8593759779535158, 1.2429895051922986, ABprappaa, 0, 0, 0, 0, , 0, 0, 0, 0, 0, 
1816, 1, 1816, 1816, 9379, -9.743555483890937, -0.41986038087323385, 1.2081937047284574, 1.1792464536439757, MSaaaaa, 0, 0, 0, 0, , 0, 0, 0, 0, 0, 
542, 1, 542, 542, 9380, 0.8273456122962211, 4.626983503379815, 4.166243732714712, 1.3067325567406214, ABarpppaa, 0, 0, 0, 0, , 0, 0, 0, 0, 0, 
4307, 1, 4307, 4307, 9381, -0.1500887290245376, 5.004027698800236, -0.023287502804224886, 1.1792464536439757, MSppppa, 0, 0, 0, 0, , 0, 0, 0, 0, 0, 
76, 1, 76, 76, 9382, -2.4426285159802505, 5.861356057019447, 3.516589481997694, 1.2429895051922986, ABpraapap, 0, 0, 0, 0, , 0, 0, 0, 0, 0, 
108, 1, 108, 108, 9383, -3.5650831677198513, -3.83296739268605, -1.0026843521027684, 1.1792464536439757, MSapaap, 0, 0, 0, 0, , 0, 0, 0, 0, 0, 
1239, 1, 1239, 1239, 9384, -7.475599467207097, 5.722701783681672, 0.4597800437815521, 1.2429895051922986, ABpraaaaa, 0, 0, 0, 0, , 0, 0, 0, 0, 0, 
308, 1, 308, 308, 9385, -9.94126444471561, -2.1475034359142176, -2.970944342283913, 1.3067325567406214, ABalpaapa, 0, 0, 0, 0, , 0, 0, 0, 0, 0, 
214, 1, 214, 214, 9386, -7.63038995233389, 1.9431433775866986, 5.269677647420674, 1.3067325567406214, ABarpapaa, 0, 0, 0, 0, , 0, 0, 0, 0, 0, 
365, 1, 365, 365, 9387, 5.743547900856925, -6.001468472688625, -3.5357698796276216, 1.2429895051922986, ABplpppaa, 0, 0, 0, 0, , 0, 0, 0, 0, 0, 
3918, 1, 3918, 3918, 9388, -0.7120115100454454, -3.805654312020148, -0.9804832000479773, 1.1792464536439757, MSappaa, 0, 0, 0, 0, , 0, 0, 0, 0, 0, 
24, 1, 24, 24, 9389, -2.748769556894517, 1.6158254544227735, -0.7633138091936397, 1.3067325567406214, ABaraappp, 0, 0, 0, 0, , 0, 0, 0, 0, 0, 
2481, 1, 2481, 2481, 9390, 2.7440904766650442, 1.653748307005332, -4.011468520955048, 1.1792464536439757, MSpappa, 0, 0, 0, 0, , 0, 0, 0, 0, 0, 
2183, 1, 2183, 2183, 9391, -5.919322450872538, -1.153118283847343, 0.6054258110655533, 1.1792464536439757, MSaaapa, 0, 0, 0, 0, , 0, 0, 0, 0, 0, 
21, 1, 21, 21, 9392, 6.616214993842161, -1.0504205175310526, -4.965369202367231, 1.2429895051922986, ABplpappp, 0, 0, 0, 0, , 0, 0, 0, 0, 0, 
217, 1, 217, 217, 9393, 4.8590698959859715, 1.0181819963409182, 4.263079335054032, 1.3554556938436502, Cpaaa, 0, 0, 0, 0, , 0, 0, 0, 0, 0, 
87, 1, 87, 87, 9394, -11.758567362472993, 0.14710468795809178, -1.0055994623325712, 1.3067325567406214, ABalaaaar, 0, 0, 0, 0, , 0, 0, 0, 0, 0, 
378, 1, 378, 378, 9395, -9.540715640657378, 1.9191049247467957, 4.37817643886359, 1.3067325567406214, ABalapppa, 0, 0, 0, 0, , 0, 0, 0, 0, 0, 
330, 1, 330, 330, 9396, -3.7586808326562666, 4.583479532515146, 4.565169168811985, 1.3067325567406214, ABarpappa, 0, 0, 0, 0, , 0, 0, 0, 0, 0, 
348, 1, 348, 348, 9397, 2.994368616078153, -4.350488565788222, -3.7702353113532254, 1.2429895051922986, ABplppppa, 0, 0, 0, 0, , 0, 0, 0, 0, 0, 
313, 1, 313, 313, 9398, -5.3457604825331515, 6.959755005216277, -0.12029927463343457, 1.2429895051922986, ABprpaapa, 0, 0, 0, 0, , 0, 0, 0, 0, 0, 
1, 1, 1, 1, 9399, 6.900205595405431, 1.66148814575009, -4.698070456280845, 1.2429895051922986, ABprppppp, 0, 0, 0, 0, , 0, 0, 0, 0, 0, 
79, 1, 79, 79, 9400, -6.982115939637554, -6.137223754040078, -0.8854452743663042, 1.3067325567406214, ABalppaap, 0, 0, 0, 0, , 0, 0, 0, 0, 0, 
105, 1, 105, 105, 9401, 0.33105319070457645, -1.575110829447108, -1.6982316727362619, 1.1792464536439757, MSaapap, 0, 0, 0, 0, , 0, 0, 0, 0, 0, 
12, 1, 12, 12, 9402, -4.334954323785675, 3.7625977231004373, 3.2734953689046655, 1.3067325567406214, ABalapppp, 0, 0, 0, 0, , 0, 0, 0, 0, 0, 
1149, 1, 1149, 1149, 9403, -10.146514687577286, -3.860837698872975, -0.778159133114401, 1.3067325567406214, ABalaaaal, 0, 0, 0, 0, , 0, 0, 0, 0, 0, 
1426, 1, 1426, 1426, 9404, 8.389495645618128, 4.281762408408287, -0.47093423366382414, 1.3554556938436502, Cpppa, 0, 0, 0, 0, , 0, 0, 0, 0, 0, 
10, 1, 10, 10, 9405, -2.9563362317504596, 5.644100101631614, -3.502827575100162, 1.3067325567406214, ABarapppp, 0, 0, 0, 0, , 0, 0, 0, 0, 0, 
413, 1, 413, 413, 9406, 6.02725866814496, -7.384744997784802, 0.22501499517470558, 1.2429895051922986, ABplappaa, 0, 0, 0, 0, , 0, 0, 0, 0, 0, 
287, 1, 287, 287, 9407, -5.864252511143461, 5.434781826170438, -2.455389490811648, 1.2429895051922986, ABprpaaaa, 0, 0, 0, 0, , 0, 0, 0, 0, 0, 
650, 1, 650, 650, 9408, -8.703040641585288, 4.18935934815791, 1.7834998625165392, 1.2429895051922986, ABpraaapa, 0, 0, 0, 0, , 0, 0, 0, 0, 0, 
59, 1, 59, 59, 9409, -2.9397177722157215, -2.3408025520105245, 4.234641311898105, 1.2429895051922986, ABplaaaap, 0, 0, 0, 0, , 0, 0, 0, 0, 0, 
43, 1, 43, 43, 9410, 6.2806281802589, 5.568625892697911, -2.687522878060331, 1.2429895051922986, ABprppapp, 0, 0, 0, 0, , 0, 0, 0, 0, 0, 
33, 1, 33, 33, 9411, 1.2497018375936506, -4.376434931637713, 3.9067538968776807, 1.2429895051922986, ABplaaapp, 0, 0, 0, 0, , 0, 0, 0, 0, 0, 
29, 1, 29, 29, 9412, -6.713976378875156, -5.081943765132318, -3.6765616262345095, 1.3067325567406214, ABalpaapp, 0, 0, 0, 0, , 0, 0, 0, 0, 0, 
31, 1, 31, 31, 9413, -0.5004205648373254, 7.434579696571671, -0.5199766408885594, 1.2429895051922986, ABprpaapp, 0, 0, 0, 0, , 0, 0, 0, 0, 0, 
34, 1, 34, 34, 9414, -1.2847744925198232, -5.4346986451931185, -3.0413926998220755, 1.3067325567406214, ABalppapp, 0, 0, 0, 0, , 0, 0, 0, 0, 0, 
856, 1, 856, 856, 9415, -3.810201286429313, 2.02403903454163, -4.171567588464509, 1.3067325567406214, ABarappaa, 0, 0, 0, 0, , 0, 0, 0, 0, 0, 
42, 1, 42, 42, 9416, 11.686598152931461, -4.4444555853445005, 2.6148431551226015, 1.3067325567406214, ABarppapp, 0, 0, 0, 0, , 0, 0, 0, 0, 0, 
4034, 1, 4034, 4034, 9417, -0.4115436271689564, -4.968964450542232, 0.42352126530570056, 1.1792464536439757, MSapppa, 0, 0, 0, 0, , 0, 0, 0, 0, 0, 
20, 1, 20, 20, 9418, 3.8494988975100513, -8.565197754212596, 1.4148418462238581, 1.2429895051922986, ABplaappp, 0, 0, 0, 0, , 0, 0, 0, 0, 0, 
213, 1, 213, 213, 9419, 10.703269531111884, -6.708029131089946, 2.795420907975129, 1.2429895051922986, ABplapapa, 0, 0, 0, 0, , 0, 0, 0, 0, 0, 
242, 1, 242, 242, 9420, 0.9915108786163691, -2.332512081316634, -4.523339778498472, 1.2429895051922986, ABplpappa, 0, 0, 0, 0, , 0, 0, 0, 0, 0, 
2982, 1, 2982, 2982, 9421, -8.08493337348104, -3.2682464050316247, -0.22723414634146216, 1.1792464536439757, MSapaaa, 0, 0, 0, 0, , 0, 0, 0, 0, 0, 
1505, 1, 1505, 1505, 9422, -2.687306068554671, -1.7440626812989235, -0.547346487550505, 1.1792464536439757, MSaapaa, 0, 0, 0, 0, , 0, 0, 0, 0, 0, 
2064, 1, 2064, 2064, 9423, -4.539265380800884, -4.67024544304192, 0.2662132622003258, 1.1792464536439757, MSapapa, 0, 0, 0, 0, , 0, 0, 0, 0, 0, 
16, 1, 16, 16, 9424, 0.270726574750963, 4.763440026343486, 3.5563395391827854, 1.3067325567406214, ABarpappp, 0, 0, 0, 0, , 0, 0, 0, 0, 0, 
1260, 1, 1260, 1260, 9425, -11.538898606028278, 0.10877309257078444, 2.2401208325467614, 1.3067325567406214, ABalappaa, 0, 0, 0, 0, , 0, 0, 0, 0, 0, 
15, 1, 15, 15, 9426, 9.954799507539537, -1.4647735487144744, -2.582431645664191, 1.3554556938436502, Cappp, 0, 0, 0, 0, , 0, 0, 0, 0, 0, 
532, 1, 532, 532, 9427, -6.793604750268664, 4.085540430850258, -3.937282307610364, 1.3067325567406214, ABarapppa, 0, 0, 0, 0, , 0, 0, 0, 0, 0, 
622, 1, 622, 622, 9428, 3.3234994225672247, 5.443475800070575, -3.6994037896135272, 1.2429895051922986, ABprppppa, 0, 0, 0, 0, , 0, 0, 0, 0, 0, 
404, 1, 404, 404, 9429, 1.834943301747545, 6.274237614013575, 2.54666750258812, 1.2429895051922986, ABprapaaa, 0, 0, 0, 0, , 0, 0, 0, 0, 0, 
1137, 1, 1137, 1137, 9430, -0.411940579075036, -6.41791229343548, -1.9409640709371714, 1.2429895051922986, ABplppaaa, 0, 0, 0, 0, , 0, 0, 0, 0, 0, 
641, 1, 641, 641, 9431, 8.646917717993466, -5.972654608583318, -1.879903652875109, 1.2429895051922986, ABplapppa, 0, 0, 0, 0, , 0, 0, 0, 0, 0, 
117, 1, 117, 117, 9432, -3.7145555711569185, 1.1640601572626463, 2.657836058078182, 1.5579950503950002, Eara, 0, 0, 0, 0, , 0, 0, 0, 0, 0, 
741, 1, 741, 741, 9433, 1.6179700846267577, -3.1176441469709393, 4.464409356791412, 1.3067325567406214, ABarppaaa, 0, 0, 0, 0, , 0, 0, 0, 0, 0, 
375, 1, 375, 375, 9434, -0.4163848811482732, 4.987723396428118, -2.892331487373319, 1.2429895051922986, ABprpapaa, 0, 0, 0, 0, , 0, 0, 0, 0, 0, 
169, 1, 169, 169, 9435, 3.871037078375753, 3.869325380904429, -1.8524389155368788, 1.3554556938436502, Dpap, 0, 0, 0, 0, , 0, 0, 0, 0, 0, 
73, 1, 73, 73, 9436, 4.793521126699187, 3.572895849058168, 4.233288177159595, 1.3067325567406214, ABarpppap, 0, 0, 0, 0, , 0, 0, 0, 0, 0, 
387, 1, 387, 387, 9437, -3.6302086788288443, -0.38578921703707064, -4.523424553295803, 1.3067325567406214, ABarapapa, 0, 0, 0, 0, , 0, 0, 0, 0, 0, 
229, 1, 229, 229, 9438, -0.8523144769755273, -8.802028824171675, 2.8487959614507514, 1.2429895051922986, ABplaappa, 0, 0, 0, 0, , 0, 0, 0, 0, 0, 
1107, 1, 1107, 1107, 9439, 5.544168697326108, 5.8260531185200986, 3.2183601051085713, 1.3067325567406214, ABarppppa, 0, 0, 0, 0, , 0, 0, 0, 0, 0, 
2, 1, 2, 2, 9440, 9.95265840925864, 4.698001678191096, 2.7739424096360192, 1.3067325567406214, ABarppppp, 0, 0, 0, 0, , 0, 0, 0, 0, 0, 
338, 1, 338, 338, 9441, -7.457559680351283, 1.358994178702402, -0.8569434388236158, 1.3067325567406214, ABaraappa, 0, 0, 0, 0, , 0, 0, 0, 0, 0, 
44, 1, 44, 44, 9442, -3.9445961971399948, 5.990865520998773, 1.4132776402943206, 1.2429895051922986, ABpraaapp, 0, 0, 0, 0, , 0, 0, 0, 0, 0, 
80, 1, 80, 80, 9443, -4.2255308904818945, -2.403391417556598, -0.9339853551930402, 1.3067325567406214, ABaraapap, 0, 0, 0, 0, , 0, 0, 0, 0, 0, 
601, 1, 601, 601, 9444, 6.131563790791576, -5.299449412504687, 3.64932504812695, 1.3067325567406214, ABarppapa, 0, 0, 0, 0, , 0, 0, 0, 0, 0, 
113, 1, 113, 113, 9445, 0.9401613294606861, -3.3762287976170517, -2.0366190025172615, 1.1792464536439757, MSappap, 0, 0, 0, 0, , 0, 0, 0, 0, 0, 
228, 1, 228, 228, 9446, 9.305406407056502, -2.1754734672015905, 4.099583645822034, 1.3554556938436502, Caaaa, 0, 0, 0, 0, , 0, 0, 0, 0, 0, 
77, 1, 77, 77, 9447, -0.4611765950710155, 3.964248911083601, -4.2304153250903616, 1.3067325567406214, ABarappap, 0, 0, 0, 0, , 0, 0, 0, 0, 0, 
13, 1, 13, 13, 9448, 1.779760076534906, -4.022045932024128, 2.0011508949353414, 1.1792464536439757, MSapppp, 0, 0, 0, 0, , 0, 0, 0, 0, 0, 
112, 1, 112, 112, 9449, 1.942951594098351, 2.9324002957791686, -1.9678759577743536, 1.1792464536439757, MSpppap, 0, 0, 0, 0, , 0, 0, 0, 0, 0, 
78, 1, 78, 78, 9450, 3.3138001616658452, -5.8552271082513245, -3.575482589455409, 1.2429895051922986, ABplppaap, 0, 0, 0, 0, , 0, 0, 0, 0, 0, 
475, 1, 475, 475, 9451, -6.5379258652053025, -0.19666469217751123, -4.732091895071607, 1.3067325567406214, ABarapaaa, 0, 0, 0, 0, , 0, 0, 0, 0, 0, 
889, 1, 889, 889, 9452, 8.783045928959613, 5.879894369222392, -2.733083681572513, 1.2429895051922986, ABprapppa, 0, 0, 0, 0, , 0, 0, 0, 0, 0, 
352, 1, 352, 352, 9453, -10.049019971285674, -3.024639169850162, 3.295965131691464, 1.3067325567406214, ABalapapa, 0, 0, 0, 0, , 0, 0, 0, 0, 0, 
239, 1, 239, 239, 9454, -5.988549632650324, -5.3996326597863655, -4.501051607046363, 1.3067325567406214, ABalpapaa, 0, 0, 0, 0, , 0, 0, 0, 0, 0, 
6, 1, 6, 6, 9455, 7.206115118134958, -1.1310383600274958, -4.679515969789797, 1.2429895051922986, ABplppppp, 0, 0, 0, 0, , 0, 0, 0, 0, 0, 
61, 1, 61, 61, 9456, 9.594558668144256, -6.243515368155961, 1.0783841309772262, 1.2429895051922986, ABplappap, 0, 0, 0, 0, , 0, 0, 0, 0, 0, 
1552, 1, 1552, 1552, 9457, -10.546234740424367, 1.2373109133915965, -2.5392234342286715, 1.3067325567406214, ABaraaaaa, 0, 0, 0, 0, , 0, 0, 0, 0, 0, 
83, 1, 83, 83, 9458, 8.894308817229046, 3.1609193786000356, -4.380260802941478, 1.2429895051922986, ABprpppap, 0, 0, 0, 0, , 0, 0, 0, 0, 0, 
672, 1, 672, 672, 9459, -8.118058809031268, -6.000808399840838, 1.3741394677573089, 1.3067325567406214, ABalpppaa, 0, 0, 0, 0, , 0, 0, 0, 0, 0, 
1117, 1, 1117, 1117, 9460, -9.497891824204007, 3.3760566206718425, -2.219893351673681, 1.3067325567406214, ABalaapaa, 0, 0, 0, 0, , 0, 0, 0, 0, 0, 
8, 1, 8, 8, 9461, 10.15066848512669, 1.2097768117005239, -2.314761394157598, 1.3554556938436502, Cpppp, 0, 0, 0, 0, , 0, 0, 0, 0, 0, 
768, 1, 768, 768, 9462, 2.4391652172967904, 6.986537415329634, -2.4691586805296475, 1.2429895051922986, ABprppapa, 0, 0, 0, 0, , 0, 0, 0, 0, 0, 
82, 1, 82, 82, 9463, -7.326036885935052, 5.334897361413412, -1.4067686603154934, 1.3067325567406214, ABalaapap, 0, 0, 0, 0, , 0, 0, 0, 0, 0, 
290, 1, 290, 290, 9464, 0.6881228566874392, -6.3302163497575625, -3.352270329436947, 1.2429895051922986, ABplpapaa, 0, 0, 0, 0, , 0, 0, 0, 0, 0, 
99, 1, 99, 99, 9465, 1.2267277027632515, 0.4509881430966039, -1.9153299853700516, 1.1792464536439757, MSpapap, 0, 0, 0, 0, , 0, 0, 0, 0, 0, 
5345, 1, 5345, 5345, 9466, 4.673461564503808, 4.268442069856778, 0.0653654932907494, 1.3554556938436502, Dppa, 0, 0, 0, 0, , 0, 0, 0, 0, 0, 
55, 1, 55, 55, 9467, 12.087422776642331, 0.8953381691810763, 3.0624023803210623, 1.3554556938436502, Cpaap, 0, 0, 0, 0, , 0, 0, 0, 0, 0, 
18, 1, 18, 18, 9468, 0.24051340668243018, -0.7835116580487631, -2.588167380539404, 1.3067325567406214, ABalpappp, 0, 0, 0, 0, , 0, 0, 0, 0, 0, 
71, 1, 71, 71, 9469, 9.721838641597378, -3.810870324541306, -4.0042198796276915, 1.2429895051922986, ABplpppap, 0, 0, 0, 0, , 0, 0, 0, 0, 0, 
48, 1, 48, 48, 9470, 6.379788092994954, -3.3062116681385847, 0.26207877272873636, 1.3554556938436502, Dapp, 0, 0, 0, 0, , 0, 0, 0, 0, 0, 
2564, 1, 2564, 2564, 9471, -4.719342489042864, 1.9574185494201866, 0.28012352653672984, 1.1792464536439757, MSpaapa, 0, 0, 0, 0, , 0, 0, 0, 0, 0, 
5646, 1, 5646, 5646, 9472, 5.730472455135167, -3.255165577603271, -0.3577331614276489, 1.3554556938436502, Dapa, 0, 0, 0, 0, , 0, 0, 0, 0, 0, 
606, 1, 606, 606, 9473, -6.529366787585227, 5.612555233975208, 3.3632444202696234, 1.2429895051922986, ABpraapaa, 0, 0, 0, 0, , 0, 0, 0, 0, 0, 
11, 1, 11, 11, 9474, 10.986265064765345, 3.5559036284825623, -3.8321052865106195, 1.2429895051922986, ABprapppp, 0, 0, 0, 0, , 0, 0, 0, 0, 0, 
2043, 1, 2043, 2043, 9475, -4.404614024932744, 4.444098015713987, -0.00978048927710524, 1.1792464536439757, MSppapa, 0, 0, 0, 0, , 0, 0, 0, 0, 0, 
102, 1, 102, 102, 9476, -5.962251780186825, -0.8540529734657829, 3.5584751862100696, 1.1792464536439757, MSaaaap, 0, 0, 0, 0, , 0, 0, 0, 0, 0, 
173, 1, 173, 173, 9477, 3.392209095800288, -3.2998938818053873, -1.904073061279457, 1.3554556938436502, Daap, 0, 0, 0, 0, , 0, 0, 0, 0, 0, 
747, 1, 747, 747, 9478, -5.2294559740004996, -5.560528686344907, -3.404433440562596, 1.3067325567406214, ABalppapa, 0, 0, 0, 0, , 0, 0, 0, 0, 0, 
5, 1, 5, 5, 9479, -2.2415896850663457, -7.664002149729813, 2.408996178640645, 1.3067325567406214, ABalppppp, 0, 0, 0, 0, , 0, 0, 0, 0, 0, 
39, 1, 39, 39, 9480, -6.537811843235888, 3.0949503074029368, -4.030081154099703, 1.3067325567406214, ABaraaapp, 0, 0, 0, 0, , 0, 0, 0, 0, 0, 
100, 1, 100, 100, 9481, -3.6644016760916798, 3.8044087407240275, -1.3502195103069692, 1.1792464536439757, MSppaap, 0, 0, 0, 0, , 0, 0, 0, 0, 0, 
64, 1, 64, 64, 9482, -4.52940117384615, 1.1534999168763997, -3.1502935411611506, 1.3067325567406214, ABarapaap, 0, 0, 0, 0, , 0, 0, 0, 0, 0, 
41, 1, 41, 41, 9483, -1.0656934524921264, 0.8918982315225003, -2.965651302266655, 1.3067325567406214, ABarapapp, 0, 0, 0, 0, , 0, 0, 0, 0, 0, 
38, 1, 38, 38, 9484, -10.677300952173288, 2.1146922375578594, 1.026053407890736, 1.3067325567406214, ABalaaapp, 0, 0, 0, 0, , 0, 0, 0, 0, 0, 
51, 1, 51, 51, 9485, -2.7681119673197814, 4.367431349046818, 2.091927329653047, 1.1792464536439757, MSppapp, 0, 0, 0, 0, , 0, 0, 0, 0, 0, 
1020, 1, 1020, 1020, 9486, -0.9041618916256241, 5.632975387686287, -2.619258327770275, 1.2429895051922986, ABprppaaa, 0, 0, 0, 0, , 0, 0, 0, 0, 0, 
