1020, 1, 1020, 1020, 9487, -1.0155533900355358, 5.605249195474865, -2.628231427979912, 1.2429895051922986, ABprppaaa, 0, 0, 0, 0, , 0, 0, 0, 0, 0, 
1, 1, 1, 1, 9488, 6.839061312232982, 1.648023991589325, -4.722512554119766, 1.2429895051922986, ABprppppp, 0, 0, 0, 0, , 0, 0, 0, 0, 0, 
15, 1, 15, 15, 9489, 9.920237762513192, -1.4026722231079094, -2.6261847235403986, 1.3554556938436502, Cappp, 0, 0, 0, 0, , 0, 0, 0, 0, 0, 
2157, 1, 2157, 2157, 9490, 4.845294088436987, -2.8605949789576037, -1.9950209184672643, 1.3554556938436502, Capaa, 0, 0, 0, 0, , 0, 0, 0, 0, 0, 
214, 1, 214, 214, 9491, -7.680589125495595, 1.9036053782615, 5.309729819248967, 1.3067325567406214, ABarpapaa, 0, 0, 0, 0, , 0, 0, 0, 0, 0, 
64, 1, 64, 64, 9492, -4.492977157347575, 1.1148619772428985, -3.1335135626605655, 1.3067325567406214, ABarapaap, 0, 0, 0, 0, , 0, 0, 0, 0, 0, 
330, 1, 330, 330, 9493, -3.8195218431016515, 4.592769259484901, 4.575497449820827, 1.3067325567406214, ABarpappa, 0, 0, 0, 0, , 0, 0, 0, 0, 0, 
692, 1, 692, 692, 9494, -10.475020242730963, 4.040042740775944, 0.5404184008107831, 1.3067325567406214, ABalaappa, 0, 0, 0, 0, , 0, 0, 0, 0, 0, 
452, 1, 452, 452, 9495, -3.616624097328682, -6.4356214817702115, -1.3892447842820157, 1.2429895051922986, ABplpaaaa, 0, 0, 0, 0, , 0, 0, 0, 0, 0, 
1239, 1, 1239, 1239, 9496, -7.500355070384401, 5.717595321929612, 0.4635082980826651, 1.2429895051922986, ABpraaaaa, 0, 0, 0, 0, , 0, 0, 0, 0, 0, 
30, 1, 30, 30, 9497, 14.780605802883773, -6.223902162006118, -0.7448596429444267, 1.2429895051922986, ABplapapp, 0, 0, 0, 0, , 0, 0, 0, 0, 0, 
532, 1, 532, 532, 9498, -6.92894304441342, 4.056048709591397, -3.992873800814794, 1.3067325567406214, ABarapppa, 0, 0, 0, 0, , 0, 0, 0, 0, 0, 
46, 1, 46, 46, 9499, 12.463217088450145, -0.019851978186631425, 0.42730633104647375, 1.5579950503950002, Eplp, 0, 0, 0, 0, , 0, 0, 0, 0, 0, 
88, 1, 88, 88, 9500, 10.743670856488002, -0.019186915653906657, -1.9951949195974539, 1.7907989085000002, Z2, 0, 0, 0, 0, , 0, 0, 0, 0, 0, 
31, 1, 31, 31, 9501, -0.5583198589648113, 7.439111843447435, -0.5291394818527914, 1.2429895051922986, ABprpaapp, 0, 0, 0, 0, , 0, 0, 0, 0, 0, 
55, 1, 55, 55, 9502, 12.152603441115925, 0.878403164038814, 3.044739753406173, 1.3554556938436502, Cpaap, 0, 0, 0, 0, , 0, 0, 0, 0, 0, 
387, 1, 387, 387, 9503, -3.658691210093653, -0.4655568523294233, -4.5422744499280325, 1.3067325567406214, ABarapapa, 0, 0, 0, 0, , 0, 0, 0, 0, 0, 
641, 1, 641, 641, 9504, 8.654480459958085, -5.969493291656522, -1.9352104335543163, 1.2429895051922986, ABplapppa, 0, 0, 0, 0, , 0, 0, 0, 0, 0, 
50, 1, 50, 50, 9505, -2.49938347981711, -3.8183277931673727, 2.5241965049074837, 1.1792464536439757, MSapapp, 0, 0, 0, 0, , 0, 0, 0, 0, 0, 
164, 1, 164, 164, 9506, 5.206550421783824, 0.2591959670187806, 2.675310897256535, 1.5579950503950002, Epla, 0, 0, 0, 0, , 0, 0, 0, 0, 0, 
12, 1, 12, 12, 9507, -4.360633833752827, 3.8053831380443817, 3.2977971273712505, 1.3067325567406214, ABalapppp, 0, 0, 0, 0, , 0, 0, 0, 0, 0, 
72, 1, 72, 72, 9508, -10.106113298458505, 2.0550555864251008, 2.953967355563131, 1.3067325567406214, ABalappap, 0, 0, 0, 0, , 0, 0, 0, 0, 0, 
26, 1, 26, 26, 9509, 3.737882698686948, -3.192712485872711, -2.7514587777974944, 1.1792464536439757, MSaappp, 0, 0, 0, 0, , 0, 0, 0, 0, 0, 
1496, 1, 1496, 1496, 9510, -9.200140225104775, -4.473006648622003, 0.3895658508307371, 1.3067325567406214, ABalppaaa, 0, 0, 0, 0, , 0, 0, 0, 0, 0, 
63, 1, 63, 63, 9511, 3.9437933677035835, -4.3523561339041, -4.446308263994804, 1.2429895051922986, ABplpapap, 0, 0, 0, 0, , 0, 0, 0, 0, 0, 
83, 1, 83, 83, 9512, 8.86898890870998, 3.119604383667256, -4.4334056689424335, 1.2429895051922986, ABprpppap, 0, 0, 0, 0, , 0, 0, 0, 0, 0, 
889, 1, 889, 889, 9513, 8.72477950632312, 5.951219471012426, -2.8023029168994977, 1.2429895051922986, ABprapppa, 0, 0, 0, 0, , 0, 0, 0, 0, 0, 
5345, 1, 5345, 5345, 9514, 4.576306585851687, 4.328469419373583, 0.11458777303139853, 1.3554556938436502, Dppa, 0, 0, 0, 0, , 0, 0, 0, 0, 0, 
435, 1, 435, 435, 9515, -6.822814762004234, -5.0673385121268595, 2.7064056470095075, 1.3067325567406214, ABalppppa, 0, 0, 0, 0, , 0, 0, 0, 0, 0, 
38, 1, 38, 38, 9516, -10.712569419033967, 2.0968005736965214, 1.000544884943967, 1.3067325567406214, ABalaaapp, 0, 0, 0, 0, , 0, 0, 0, 0, 0, 
1260, 1, 1260, 1260, 9517, -11.600653216154024, 0.07682204733064218, 2.2275803185262077, 1.3067325567406214, ABalappaa, 0, 0, 0, 0, , 0, 0, 0, 0, 0, 
54, 1, 54, 54, 9518, -5.040094772500459, 0.020421824348499026, 4.474959237381977, 1.3067325567406214, ABarpaaap, 0, 0, 0, 0, , 0, 0, 0, 0, 0, 
1436, 1, 1436, 1436, 9519, -8.847979342095043, 1.9827567130686656, 0.802456928216397, 1.1792464536439757, MSpaaaa, 0, 0, 0, 0, , 0, 0, 0, 0, 0, 
45, 1, 45, 45, 9520, 3.056637840539945, -2.826666296509391, 0.3257928005353821, 1.5579950503950002, Ealp, 0, 0, 0, 0, , 0, 0, 0, 0, 0, 
413, 1, 413, 413, 9521, 6.087728192086466, -7.39253472972994, 0.1932752626010299, 1.2429895051922986, ABplappaa, 0, 0, 0, 0, , 0, 0, 0, 0, 0, 
65, 1, 65, 65, 9522, 6.133180955684175, 6.783760668870944, 0.7950790210223323, 1.2429895051922986, ABprapaap, 0, 0, 0, 0, , 0, 0, 0, 0, 0, 
542, 1, 542, 542, 9523, 0.7952855385956439, 4.663881306110291, 4.173423671322691, 1.3067325567406214, ABarpppaa, 0, 0, 0, 0, , 0, 0, 0, 0, 0, 
69, 1, 69, 69, 9524, -9.490725236398399, -5.833715924679745, 1.730968903918844, 1.3067325567406214, ABalapaap, 0, 0, 0, 0, , 0, 0, 0, 0, 0, 
51, 1, 51, 51, 9525, -2.830598751633739, 4.3686168802558605, 2.1362685621209243, 1.1792464536439757, MSppapp, 0, 0, 0, 0, , 0, 0, 0, 0, 0, 
252, 1, 252, 252, 9526, -2.6966767549611728, -4.982461115551375, 4.809047983038723, 1.2429895051922986, ABplaaapa, 0, 0, 0, 0, , 0, 0, 0, 0, 0, 
290, 1, 290, 290, 9527, 0.7767316393090101, -6.330427738843745, -3.369373078809482, 1.2429895051922986, ABplpapaa, 0, 0, 0, 0, , 0, 0, 0, 0, 0, 
228, 1, 228, 228, 9528, 9.36406743715149, -2.1762233624545244, 4.109805762848631, 1.3554556938436502, Caaaa, 0, 0, 0, 0, , 0, 0, 0, 0, 0, 
169, 1, 169, 169, 9529, 3.9257070688100124, 3.8209652489237707, -1.857965047656463, 1.3554556938436502, Dpap, 0, 0, 0, 0, , 0, 0, 0, 0, 0, 
3145, 1, 3145, 3145, 9530, -0.5704003805975603, 3.1496845272359595, -1.3697706461213202, 1.1792464536439757, MSpppaa, 0, 0, 0, 0, , 0, 0, 0, 0, 0, 
1107, 1, 1107, 1107, 9531, 5.510776275324518, 5.930957358203004, 3.2167229847747407, 1.3067325567406214, ABarppppa, 0, 0, 0, 0, , 0, 0, 0, 0, 0, 
217, 1, 217, 217, 9532, 4.795670313546022, 1.0034321763838354, 4.266774732830507, 1.3554556938436502, Cpaaa, 0, 0, 0, 0, , 0, 0, 0, 0, 0, 
108, 1, 108, 108, 9533, -3.4898492020468708, -3.8613465957373263, -1.0141842015457037, 1.1792464536439757, MSapaap, 0, 0, 0, 0, , 0, 0, 0, 0, 0, 
70, 1, 70, 70, 9534, 5.6986356788708585, -3.105563172254839, 4.185566899552526, 1.3067325567406214, ABarppaap, 0, 0, 0, 0, , 0, 0, 0, 0, 0, 
1426, 1, 1426, 1426, 9535, 8.305493843805012, 4.403319267060031, -0.46428633035231004, 1.3554556938436502, Cpppa, 0, 0, 0, 0, , 0, 0, 0, 0, 0, 
607, 1, 607, 607, 9536, 5.296316480727224, 5.838023313710091, -3.666320895279953, 1.2429895051922986, ABprpppaa, 0, 0, 0, 0, , 0, 0, 0, 0, 0, 
52, 1, 52, 52, 9537, 15.26915550299404, -2.3626414694501348, 0.5602386846600074, 1.3554556938436502, Caaap, 0, 0, 0, 0, , 0, 0, 0, 0, 0, 
6838, 1, 6838, 6838, 9538, 2.7664467820154988, -3.5977866902074433, -1.3018421772837871, 1.3554556938436502, Daaa, 0, 0, 0, 0, , 0, 0, 0, 0, 0, 
4034, 1, 4034, 4034, 9539, -0.5164627258380304, -4.9790447256939965, 0.45142659357657466, 1.1792464536439757, MSapppa, 0, 0, 0, 0, , 0, 0, 0, 0, 0, 
105, 1, 105, 105, 9540, 0.3687836868314574, -1.5624486750500095, -1.6614532030428515, 1.1792464536439757, MSaapap, 0, 0, 0, 0, , 0, 0, 0, 0, 0, 
420, 1, 420, 420, 9541, -11.307278734337201, -3.3883805337332964, 1.8125018257299461, 1.3067325567406214, ABalapaaa, 0, 0, 0, 0, , 0, 0, 0, 0, 0, 
39, 1, 39, 39, 9542, -6.530294528196263, 3.071433464525943, -4.073984327789875, 1.3067325567406214, ABaraaapp, 0, 0, 0, 0, , 0, 0, 0, 0, 0, 
81, 1, 81, 81, 9543, 8.948682009122022, 5.935175257118264, 0.04346751605316936, 1.2429895051922986, ABprappap, 0, 0, 0, 0, , 0, 0, 0, 0, 0, 
650, 1, 650, 650, 9544, -8.827104246477587, 4.146283977353071, 1.767676316930275, 1.2429895051922986, ABpraaapa, 0, 0, 0, 0, , 0, 0, 0, 0, 0, 
84, 1, 84, 84, 9545, -8.787109133067439, -0.3057780085220347, -1.014160870481033, 1.3067325567406214, ABaraaaap, 0, 0, 0, 0, , 0, 0, 0, 0, 0, 
4, 1, 4, 4, 9546, 0.4288694380496147, -2.3075415255822076, -1.2209396004482622, 1.7907989085000002, Z3, 0, 0, 0, 0, , 0, 0, 0, 0, 0, 
112, 1, 112, 112, 9547, 1.972104557674067, 2.9196125107753526, -1.9679578889199816, 1.1792464536439757, MSpppap, 0, 0, 0, 0, , 0, 0, 0, 0, 0, 
866, 1, 866, 866, 9548, -8.50458204782831, -1.89012973380049, -4.9040155681658595, 1.3067325567406214, ABalpaaaa, 0, 0, 0, 0, , 0, 0, 0, 0, 0, 
14, 1, 14, 14, 9549, 3.168243738340588, -0.4664562862060918, -0.5651920051170284, 1.5579950503950002, Earp, 0, 0, 0, 0, , 0, 0, 0, 0, 0, 
606, 1, 606, 606, 9550, -6.642691844876731, 5.5913533050915625, 3.3814942696766916, 1.2429895051922986, ABpraapaa, 0, 0, 0, 0, , 0, 0, 0, 0, 0, 
41, 1, 41, 41, 9551, -1.0456821565964565, 0.8362910900573098, -2.955044408775421, 1.3067325567406214, ABarapapp, 0, 0, 0, 0, , 0, 0, 0, 0, 0, 
242, 1, 242, 242, 9552, 0.994146062718438, -2.2666511865625365, -4.550233726588382, 1.2429895051922986, ABplpappa, 0, 0, 0, 0, , 0, 0, 0, 0, 0, 
47, 1, 47, 47, 9553, -1.4598263690554016, 1.3634129880703958, -1.019465092507811, 1.1792464536439757, MSpaapp, 0, 0, 0, 0, , 0, 0, 0, 0, 0, 
229, 1, 229, 229, 9554, -0.8269355238960738, -8.87224497913257, 2.854295124570289, 1.2429895051922986, ABplaappa, 0, 0, 0, 0, , 0, 0, 0, 0, 0, 
223, 1, 223, 223, 9555, -5.70169470650414, -6.2315007837741705, 3.1037993518549385, 1.2429895051922986, ABplaapaa, 0, 0, 0, 0, , 0, 0, 0, 0, 0, 
73, 1, 73, 73, 9556, 4.840337596208504, 3.58883068882565, 4.241801449100917, 1.3067325567406214, ABarpppap, 0, 0, 0, 0, , 0, 0, 0, 0, 0, 
2481, 1, 2481, 2481, 9557, 2.6973373494766095, 1.672066747464625, -4.020325151105701, 1.1792464536439757, MSpappa, 0, 0, 0, 0, , 0, 0, 0, 0, 0, 
35, 1, 35, 35, 9558, 1.7905747273262362, -8.200664832569961, -0.3442590960876673, 1.2429895051922986, ABplpaapp, 0, 0, 0, 0, , 0, 0, 0, 0, 0, 
85, 1, 85, 85, 9559, 3.196910807495481, 4.945319565844651, -4.047975049379667, 1.2429895051922986, ABprppaap, 0, 0, 0, 0, , 0, 0, 0, 0, 0, 
9, 1, 9, 9, 9560, 11.259184780945432, -4.2340556373361915, -3.2168215446654425, 1.2429895051922986, ABplapppp, 0, 0, 0, 0, , 0, 0, 0, 0, 0, 
239, 1, 239, 239, 9561, -5.9069651483699115, -5.477006488150308, -4.531426715630594, 1.3067325567406214, ABalpapaa, 0, 0, 0, 0, , 0, 0, 0, 0, 0, 
24, 1, 24, 24, 9562, -2.7251204793790307, 1.6292905602657382, -0.703791656524637, 1.3067325567406214, ABaraappp, 0, 0, 0, 0, , 0, 0, 0, 0, 0, 
102, 1, 102, 102, 9563, -5.891424380809087, -0.89756288501848, 3.6533924735766434, 1.1792464536439757, MSaaaap, 0, 0, 0, 0, , 0, 0, 0, 0, 0, 
2333, 1, 2333, 2333, 9564, -7.274231433328858, 3.2986628539091645, -0.9000266901201845, 1.1792464536439757, MSppaaa, 0, 0, 0, 0, , 0, 0, 0, 0, 0, 
78, 1, 78, 78, 9565, 3.404546871443379, -5.8187543371181265, -3.631077946643585, 1.2429895051922986, ABplppaap, 0, 0, 0, 0, , 0, 0, 0, 0, 0, 
3918, 1, 3918, 3918, 9566, -0.7333692673786945, -3.8145276018011165, -0.9347508739571135, 1.1792464536439757, MSappaa, 0, 0, 0, 0, , 0, 0, 0, 0, 0, 
49, 1, 49, 49, 9567, -2.4719821085746774, -0.6293033385800377, 1.1859285222027358, 1.1792464536439757, MSaaapp, 0, 0, 0, 0, , 0, 0, 0, 0, 0, 
17, 1, 17, 17, 9568, 3.467118020187762, 1.6211696375707427, -4.346760940743738, 1.2429895051922986, ABprpappp, 0, 0, 0, 0, , 0, 0, 0, 0, 0, 
11, 1, 11, 11, 9569, 10.975294938425218, 3.577339841383727, -3.9249171144301918, 1.2429895051922986, ABprapppp, 0, 0, 0, 0, , 0, 0, 0, 0, 0, 
56, 1, 56, 56, 9570, 6.8674178550401574, -6.44159499779616, 2.466262198919777, 1.2429895051922986, ABplapaap, 0, 0, 0, 0, , 0, 0, 0, 0, 0, 
672, 1, 672, 672, 9571, -8.122709579992254, -6.064512073955828, 1.3819772845911844, 1.3067325567406214, ABalpppaa, 0, 0, 0, 0, , 0, 0, 0, 0, 0, 
5646, 1, 5646, 5646, 9572, 5.693484570221751, -3.2767523154854485, -0.3291155223520612, 1.3554556938436502, Dapa, 0, 0, 0, 0, , 0, 0, 0, 0, 0, 
366, 1, 366, 366, 9573, -2.841707514429219, 7.857287186458993, 1.5070766014875314, 1.2429895051922986, ABpraappa, 0, 0, 0, 0, , 0, 0, 0, 0, 0, 
1149, 1, 1149, 1149, 9574, -10.134788677256259, -3.947643194859397, -0.7901499150199053, 1.3067325567406214, ABalaaaal, 0, 0, 0, 0, , 0, 0, 0, 0, 0, 
80, 1, 80, 80, 9575, -4.12758988935328, -2.4745247872273306, -0.8871456739906627, 1.3067325567406214, ABaraapap, 0, 0, 0, 0, , 0, 0, 0, 0, 0, 
87, 1, 87, 87, 9576, -11.782717895361811, 0.14949672283585574, -1.0226519726331371, 1.3067325567406214, ABalaaaar, 0, 0, 0, 0, , 0, 0, 0, 0, 0, 
48, 1, 48, 48, 9577, 6.377034775982758, -3.3304897640454714, 0.323375424150004, 1.3554556938436502, Dapp, 0, 0, 0, 0, , 0, 0, 0, 0, 0, 
32, 1, 32, 32, 9578, 3.1052759872544824, -0.4428960199935259, 4.175603008562788, 1.3067325567406214, ABarpaapp, 0, 0, 0, 0, , 0, 0, 0, 0, 0, 
77, 1, 77, 77, 9579, -0.4138291432204898, 3.9193534103047423, -4.259287230916857, 1.3067325567406214, ABarappap, 0, 0, 0, 0, , 0, 0, 0, 0, 0, 
53, 1, 53, 53, 9580, -1.0470935434302735, -5.225394142471657, -4.389634123038106, 1.3067325567406214, ABalpapap, 0, 0, 0, 0, , 0, 0, 0, 0, 0, 
747, 1, 747, 747, 9581, -5.200599841823271, -5.580189414531781, -3.4208165180499788, 1.3067325567406214, ABalppapa, 0, 0, 0, 0, , 0, 0, 0, 0, 0, 
99, 1, 99, 99, 9582, 1.242316692341646, 0.43070001006139164, -1.8776015712917142, 1.1792464536439757, MSpapap, 0, 0, 0, 0, , 0, 0, 0, 0, 0, 
2982, 1, 2982, 2982, 9583, -8.143687062129072, -3.2798848673421572, -0.2157463414634157, 1.1792464536439757, MSapaaa, 0, 0, 0, 0, , 0, 0, 0, 0, 0, 
1052, 1, 1052, 1052, 9584, -12.241595344956144, -1.7736006608712325, 0.8758802758909039, 1.3067325567406214, ABalaaapa, 0, 0, 0, 0, , 0, 0, 0, 0, 0, 
173, 1, 173, 173, 9585, 3.451707893126544, -3.3084866902073, -1.9039823007404926, 1.3554556938436502, Daap, 0, 0, 0, 0, , 0, 0, 0, 0, 0, 
8, 1, 8, 8, 9586, 10.107703720350667, 1.2597534234386711, -2.351076453809055, 1.3554556938436502, Cpppp, 0, 0, 0, 0, , 0, 0, 0, 0, 0, 
13, 1, 13, 13, 9587, 1.7542360395942342, -3.997817565200597, 2.0862167170333774, 1.1792464536439757, MSapppp, 0, 0, 0, 0, , 0, 0, 0, 0, 0, 
117, 1, 117, 117, 9588, -3.788396101841917, 1.1431099238395948, 2.6839225306516408, 1.5579950503950002, Eara, 0, 0, 0, 0, , 0, 0, 0, 0, 0, 
76, 1, 76, 76, 9589, -2.4740276473458254, 5.845141782456769, 3.5379134054788297, 1.2429895051922986, ABpraapap, 0, 0, 0, 0, , 0, 0, 0, 0, 0, 
1505, 1, 1505, 1505, 9590, -2.719933597119139, -1.7353387985067625, -0.4837408573632658, 1.1792464536439757, MSaapaa, 0, 0, 0, 0, , 0, 0, 0, 0, 0, 
59, 1, 59, 59, 9591, -2.834040237341015, -2.3362260959529166, 4.250746517146137, 1.2429895051922986, ABplaaaap, 0, 0, 0, 0, , 0, 0, 0, 0, 0, 
67, 1, 67, 67, 9592, -0.05701710144253125, -7.966544527037926, -1.9765637143234491, 1.2429895051922986, ABplpaaap, 0, 0, 0, 0, , 0, 0, 0, 0, 0, 
37, 1, 37, 37, 9593, 7.183174302302916, -6.60045444902109, -2.429355497243121, 1.2429895051922986, ABplppapp, 0, 0, 0, 0, , 0, 0, 0, 0, 0, 
21, 1, 21, 21, 9594, 6.719862523623218, -0.9615349314189159, -5.000201422062105, 1.2429895051922986, ABplpappp, 0, 0, 0, 0, , 0, 0, 0, 0, 0, 
10, 1, 10, 10, 9595, -3.0155634147841117, 5.645521960619656, -3.5498017843539715, 1.3067325567406214, ABarapppp, 0, 0, 0, 0, , 0, 0, 0, 0, 0, 
42, 1, 42, 42, 9596, 11.85436583025424, -4.503580024649428, 2.5976489371484135, 1.3067325567406214, ABarppapp, 0, 0, 0, 0, , 0, 0, 0, 0, 0, 
28, 1, 28, 28, 9597, 12.868788489779943, 1.179704174703664, -5.338055874436685, 1.3554556938436502, Cpapp, 0, 0, 0, 0, , 0, 0, 0, 0, 0, 
243, 1, 243, 243, 9598, 13.554086432165276, 3.2917813351976823, -1.8512211007741946, 1.3554556938436502, Cpapa, 0, 0, 0, 0, , 0, 0, 0, 0, 0, 
25, 1, 25, 25, 9599, 4.247280147830579, 2.056980121950244, -2.483010130529653, 1.1792464536439757, MSpappp, 0, 0, 0, 0, , 0, 0, 0, 0, 0, 
6431, 1, 6431, 6431, 9600, 3.1089899906208633, 4.386686442339306, -1.2936164879855814, 1.3554556938436502, Dpaa, 0, 0, 0, 0, , 0, 0, 0, 0, 0, 
5, 1, 5, 5, 9601, -2.2143376015108056, -7.751353944225651, 2.444155647009651, 1.3067325567406214, ABalppppp, 0, 0, 0, 0, , 0, 0, 0, 0, 0, 
313, 1, 313, 313, 9602, -5.493610393944618, 6.955472337277275, -0.12204236251124725, 1.2429895051922986, ABprpaapa, 0, 0, 0, 0, , 0, 0, 0, 0, 0, 
1137, 1, 1137, 1137, 9603, -0.40539140016170505, -6.3941555716849745, -1.9596211565204205, 1.2429895051922986, ABplppaaa, 0, 0, 0, 0, , 0, 0, 0, 0, 0, 
213, 1, 213, 213, 9604, 10.84105024733003, -6.752968828673181, 2.782962579277922, 1.2429895051922986, ABplapapa, 0, 0, 0, 0, , 0, 0, 0, 0, 0, 
403, 1, 403, 403, 9605, -9.391066133135137, 0.8416478678188488, -4.00804111791297, 1.3067325567406214, ABaraaapa, 0, 0, 0, 0, , 0, 0, 0, 0, 0, 
1816, 1, 1816, 1816, 9606, -9.765407096858873, -0.4527283171172892, 1.245506053823422, 1.1792464536439757, MSaaaaa, 0, 0, 0, 0, , 0, 0, 0, 0, 0, 
655, 1, 655, 655, 9607, -8.497064786471423, -1.9061478324947465, -1.8938263324265556, 1.3067325567406214, ABaraapaa, 0, 0, 0, 0, , 0, 0, 0, 0, 0, 
22, 1, 22, 22, 9608, 2.099881785981955, 7.603499532136342, 0.8845037619815592, 1.2429895051922986, ABpraappp, 0, 0, 0, 0, , 0, 0, 0, 0, 0, 
3, 1, 3, 3, 9609, 1.208713609560429, 4.421305283962923, 1.7073702481546351, 1.1792464536439757, MSppppp, 0, 0, 0, 0, , 0, 0, 0, 0, 0, 
34, 1, 34, 34, 9610, -1.1750294714537355, -5.451779126466422, -3.0503313328650186, 1.3067325567406214, ABalppapp, 0, 0, 0, 0, , 0, 0, 0, 0, 0, 
1143, 1, 1143, 1143, 9611, -8.093008970031496, -0.1965565707132142, 4.358861706518966, 1.3067325567406214, ABarpaaaa, 0, 0, 0, 0, , 0, 0, 0, 0, 0, 
132, 1, 132, 132, 9612, 2.2158707789255265, 3.2437129489172936, 3.1662277601251856, 1.5579950503950002, Epra, 0, 0, 0, 0, , 0, 0, 0, 0, 0, 
40, 1, 40, 40, 9613, 12.655201553579008, 3.9715496960532244, -1.0732006473892697, 1.2429895051922986, ABprapapp, 0, 0, 0, 0, , 0, 0, 0, 0, 0, 
622, 1, 622, 622, 9614, 3.1907255097651293, 5.505752386650541, -3.7038458874524243, 1.2429895051922986, ABprppppa, 0, 0, 0, 0, , 0, 0, 0, 0, 0, 
66, 1, 66, 66, 9615, -4.790597274168304, -2.9664322029363044, -3.748250547589836, 1.3067325567406214, ABalpaaap, 0, 0, 0, 0, , 0, 0, 0, 0, 0, 
2564, 1, 2564, 2564, 9616, -4.802340772347316, 1.9782463214039023, 0.32763161531109825, 1.1792464536439757, MSpaapa, 0, 0, 0, 0, , 0, 0, 0, 0, 0, 
378, 1, 378, 378, 9617, -9.666345767908442, 1.926495277962353, 4.423688073873364, 1.3067325567406214, ABalapppa, 0, 0, 0, 0, , 0, 0, 0, 0, 0, 
475, 1, 475, 475, 9618, -6.541538885743787, -0.2622162120579325, -4.7468427807685725, 1.3067325567406214, ABarapaaa, 0, 0, 0, 0, , 0, 0, 0, 0, 0, 
82, 1, 82, 82, 9619, -7.294176860865742, 5.36729238589981, -1.4305639702749602, 1.3067325567406214, ABalaapap, 0, 0, 0, 0, , 0, 0, 0, 0, 0, 
6, 1, 6, 6, 9620, 7.220002801082538, -1.0402105229106489, -4.71026521935681, 1.2429895051922986, ABplppppp, 0, 0, 0, 0, , 0, 0, 0, 0, 0, 
1039, 1, 1039, 1039, 9621, 7.519474799547153, -4.108539301297391, 0.1540979925089101, 1.3554556938436502, Cappa, 0, 0, 0, 0, , 0, 0, 0, 0, 0, 
61, 1, 61, 61, 9622, 9.724028192085708, -6.2292310260270405, 1.063150571243055, 1.2429895051922986, ABplappap, 0, 0, 0, 0, , 0, 0, 0, 0, 0, 
101, 1, 101, 101, 9623, -5.21642255197206, 1.5223204990762018, 2.5306989035250718, 1.1792464536439757, MSpaaap, 0, 0, 0, 0, , 0, 0, 0, 0, 0, 
75, 1, 75, 75, 9624, -4.781658756946197, -7.735957547207779, 1.163002593233049, 1.3067325567406214, ABalpppap, 0, 0, 0, 0, , 0, 0, 0, 0, 0, 
404, 1, 404, 404, 9625, 1.8206083219399474, 6.2928882408869775, 2.517653712380527, 1.2429895051922986, ABprapaaa, 0, 0, 0, 0, , 0, 0, 0, 0, 0, 
429, 1, 429, 429, 9626, 9.529571923947701, 5.906245992350802, 1.7590956489072855, 1.2429895051922986, ABprapapa, 0, 0, 0, 0, , 0, 0, 0, 0, 0, 
71, 1, 71, 71, 9627, 9.825114714462968, -3.744452170821836, -4.0571393497253725, 1.2429895051922986, ABplpppap, 0, 0, 0, 0, , 0, 0, 0, 0, 0, 
36, 1, 36, 36, 9628, -3.8815114948139904, -4.6713284201171446, 2.3142146853857026, 1.3067325567406214, ABalapapp, 0, 0, 0, 0, , 0, 0, 0, 0, 0, 
86, 1, 86, 86, 9629, -4.957869473677036, 6.566411782836856, 0.3621486273007191, 1.2429895051922986, ABpraaaap, 0, 0, 0, 0, , 0, 0, 0, 0, 0, 
68, 1, 68, 68, 9630, 7.8061298909058126, -2.550836954266332, -1.9322851159987682, 1.3554556938436502, Capap, 0, 0, 0, 0, , 0, 0, 0, 0, 0, 
16, 1, 16, 16, 9631, 0.2856263050463154, 4.776112469362645, 3.547704857228674, 1.3067325567406214, ABarpappp, 0, 0, 0, 0, , 0, 0, 0, 0, 0, 
2043, 1, 2043, 2043, 9632, -4.5097921672714065, 4.4472835469230425, -0.020266417303060356, 1.1792464536439757, MSppapa, 0, 0, 0, 0, , 0, 0, 0, 0, 0, 
2064, 1, 2064, 2064, 9633, -4.618527512738917, -4.680747546253154, 0.2836532950309404, 1.1792464536439757, MSapapa, 0, 0, 0, 0, , 0, 0, 0, 0, 0, 
365, 1, 365, 365, 9634, 5.770391874957088, -5.977136738722251, -3.57968934972527, 1.2429895051922986, ABplpppaa, 0, 0, 0, 0, , 0, 0, 0, 0, 0, 
1552, 1, 1552, 1552, 9635, -10.547726417019199, 1.2456623206961042, -2.5415271256258345, 1.3067325567406214, ABaraaaaa, 0, 0, 0, 0, , 0, 0, 0, 0, 0, 
43, 1, 43, 43, 9636, 6.2505724072977875, 5.58874477660247, -2.7248763097693796, 1.2429895051922986, ABprppapp, 0, 0, 0, 0, , 0, 0, 0, 0, 0, 
329, 1, 329, 329, 9637, -3.2356308282287745, -7.68708705479422, -0.12645909608767258, 1.2429895051922986, ABplpaapa, 0, 0, 0, 0, , 0, 0, 0, 0, 0, 
856, 1, 856, 856, 9638, -3.833113093838047, 1.9384398300590675, -4.199204926389761, 1.3067325567406214, ABarappaa, 0, 0, 0, 0, , 0, 0, 0, 0, 0, 
287, 1, 287, 287, 9639, -5.943852450390501, 5.400443044852922, -2.486526645305134, 1.2429895051922986, ABprpaaaa, 0, 0, 0, 0, , 0, 0, 0, 0, 0, 
4307, 1, 4307, 4307, 9640, -0.2658172546372181, 5.011869069971336, -0.005230574890666829, 1.1792464536439757, MSppppa, 0, 0, 0, 0, , 0, 0, 0, 0, 0, 
933, 1, 933, 933, 9641, 5.552267194309752, 7.17752340526571, -0.9051176691320783, 1.2429895051922986, ABprappaa, 0, 0, 0, 0, , 0, 0, 0, 0, 0, 
79, 1, 79, 79, 9642, -6.930793723049915, -6.171219817344531, -0.8747378528730008, 1.3067325567406214, ABalppaap, 0, 0, 0, 0, , 0, 0, 0, 0, 0, 
135, 1, 135, 135, 9643, -2.897827912884755, -0.6444052615011282, 3.085470121691883, 1.5579950503950002, Eala, 0, 0, 0, 0, , 0, 0, 0, 0, 0, 
27, 1, 27, 27, 9644, 12.229952266398717, -1.2733493570629224, -5.067864779415899, 1.3554556938436502, Caapp, 0, 0, 0, 0, , 0, 0, 0, 0, 0, 
394, 1, 394, 394, 9645, 10.99937201948969, -2.4117172582979403, 3.9462167020654992, 1.3554556938436502, Caapa, 0, 0, 0, 0, , 0, 0, 0, 0, 0, 
222, 1, 222, 222, 9646, -3.634341296695679, -1.0826482833681295, 3.8751239962181856, 1.3067325567406214, ABarpaapa, 0, 0, 0, 0, , 0, 0, 0, 0, 0, 
23, 1, 23, 23, 9647, 5.8436090549873585, 3.642589172460153, 0.3693507359943534, 1.3554556938436502, Dppp, 0, 0, 0, 0, , 0, 0, 0, 0, 0, 
60, 1, 60, 60, 9648, 2.1658682918566035, 3.5860275153657724, -3.8915566915343165, 1.2429895051922986, ABprpapap, 0, 0, 0, 0, , 0, 0, 0, 0, 0, 
283, 1, 283, 283, 9649, -6.811166163267776, -3.98541128113861, 3.7321391097382737, 1.2429895051922986, ABplaaaaa, 0, 0, 0, 0, , 0, 0, 0, 0, 0, 
3201, 1, 3201, 3201, 9650, 1.2829022460122346, -1.8368832677654185, -4.085933057633494, 1.1792464536439757, MSaappa, 0, 0, 0, 0, , 0, 0, 0, 0, 0, 
100, 1, 100, 100, 9651, -3.6458707337407037, 3.7842179979426467, -1.3670528218074107, 1.1792464536439757, MSppaap, 0, 0, 0, 0, , 0, 0, 0, 0, 0, 
375, 1, 375, 375, 9652, -0.44581030896643703, 4.959719902196204, -2.884404016636342, 1.2429895051922986, ABprpapaa, 0, 0, 0, 0, , 0, 0, 0, 0, 0, 
29, 1, 29, 29, 9653, -6.66175939499222, -5.141407848560099, -3.7498194712649817, 1.3067325567406214, ABalpaapp, 0, 0, 0, 0, , 0, 0, 0, 0, 0, 
348, 1, 348, 348, 9654, 2.9280834595195944, -4.3209446792886474, -3.7836759189449225, 1.2429895051922986, ABplppppa, 0, 0, 0, 0, , 0, 0, 0, 0, 0, 
338, 1, 338, 338, 9655, -7.523318010243203, 1.3675827413354849, -0.7991990639323893, 1.3067325567406214, ABaraappa, 0, 0, 0, 0, , 0, 0, 0, 0, 0, 
2, 1, 2, 2, 9656, 10.016870925528602, 4.777930609232049, 2.7624657831293646, 1.3067325567406214, ABarppppp, 0, 0, 0, 0, , 0, 0, 0, 0, 0, 
352, 1, 352, 352, 9657, -10.120004087405661, -3.0794417946025368, 3.2861103643986724, 1.3067325567406214, ABalapapa, 0, 0, 0, 0, , 0, 0, 0, 0, 0, 
211, 1, 211, 211, 9658, -0.9928387699350724, 2.1190914482692698, -4.309061146504225, 1.2429895051922986, ABprpappa, 0, 0, 0, 0, , 0, 0, 0, 0, 0, 
57, 1, 57, 57, 9659, -3.451190154301233, 0.9806720449282379, 4.793428378920977, 1.3067325567406214, ABarpapap, 0, 0, 0, 0, , 0, 0, 0, 0, 0, 
20, 1, 20, 20, 9660, 3.9599272333055517, -8.631129958556206, 1.3944027377384476, 1.2429895051922986, ABplaappp, 0, 0, 0, 0, , 0, 0, 0, 0, 0, 
18, 1, 18, 18, 9661, 0.3614706908492461, -0.7479969922495353, -2.567200369734242, 1.3067325567406214, ABalpappp, 0, 0, 0, 0, , 0, 0, 0, 0, 0, 
768, 1, 768, 768, 9662, 2.3276649998912324, 7.036718027629211, -2.5018824826090627, 1.2429895051922986, ABprppapa, 0, 0, 0, 0, , 0, 0, 0, 0, 0, 
74, 1, 74, 74, 9663, 8.16779877325774, 2.2774993245639794, -2.240488846393832, 1.3554556938436502, Cppap, 0, 0, 0, 0, , 0, 0, 0, 0, 0, 
384, 1, 384, 384, 9664, 2.0418326698546982, -6.313882034833774, 3.375971458178742, 1.2429895051922986, ABplapaaa, 0, 0, 0, 0, , 0, 0, 0, 0, 0, 
58, 1, 58, 58, 9665, -1.0193490274906023, -6.193023417520284, 4.016762314817843, 1.2429895051922986, ABplaapap, 0, 0, 0, 0, , 0, 0, 0, 0, 0, 
221, 1, 221, 221, 9666, -3.531937745364605, -1.1722832062414597, -4.3462374067707445, 1.3067325567406214, ABalpappa, 0, 0, 0, 0, , 0, 0, 0, 0, 0, 
552, 1, 552, 552, 9667, 2.734932738516593, -7.658136136263954, -1.798435332634019, 1.2429895051922986, ABplppapa, 0, 0, 0, 0, , 0, 0, 0, 0, 0, 
33, 1, 33, 33, 9668, 1.3503732450395598, -4.418125930366965, 3.904868353408987, 1.2429895051922986, ABplaaapp, 0, 0, 0, 0, , 0, 0, 0, 0, 0, 
741, 1, 741, 741, 9669, 1.660079300270282, -3.167243830691142, 4.47625990366892, 1.3067325567406214, ABarppaaa, 0, 0, 0, 0, , 0, 0, 0, 0, 0, 
7, 1, 7, 7, 9670, 9.927643039200678, 1.1457962822509005, 1.9970211391205919, 1.5579950503950002, Eprp, 0, 0, 0, 0, , 0, 0, 0, 0, 0, 
1117, 1, 1117, 1117, 9671, -9.514241675677876, 3.3649701636767406, -2.2617380443491957, 1.3067325567406214, ABalaapaa, 0, 0, 0, 0, , 0, 0, 0, 0, 0, 
1407, 1, 1407, 1407, 9672, -1.3413993570410092, 0.22279589483507212, -1.264860419028871, 1.1792464536439757, MSpapaa, 0, 0, 0, 0, , 0, 0, 0, 0, 0, 
601, 1, 601, 601, 9673, 6.186232702682235, -5.3759812592170295, 3.6531925585478287, 1.3067325567406214, ABarppapa, 0, 0, 0, 0, , 0, 0, 0, 0, 0, 
2522, 1, 2522, 2522, 9674, 5.449283958442949, 2.742061464481746, -2.3855497517435857, 1.3554556938436502, Cppaa, 0, 0, 0, 0, , 0, 0, 0, 0, 0, 
308, 1, 308, 308, 9675, -9.949183263301752, -2.152288506996307, -3.031054039166231, 1.3067325567406214, ABalpaapa, 0, 0, 0, 0, , 0, 0, 0, 0, 0, 
113, 1, 113, 113, 9676, 0.9773220906459525, -3.3698922108548173, -2.0282940838338104, 1.1792464536439757, MSappap, 0, 0, 0, 0, , 0, 0, 0, 0, 0, 
19, 1, 19, 19, 9677, -8.84231715631119, 4.122626074108498, 2.7334646971069234, 1.3067325567406214, ABalaappp, 0, 0, 0, 0, , 0, 0, 0, 0, 0, 
62, 1, 62, 62, 9678, -1.6152429853694286, 6.9345821395014475, -1.7180982502435431, 1.2429895051922986, ABprpaaap, 0, 0, 0, 0, , 0, 0, 0, 0, 0, 
2183, 1, 2183, 2183, 9679, -5.976852478945623, -1.1764792645060185, 0.6500396333138116, 1.1792464536439757, MSaaapa, 0, 0, 0, 0, , 0, 0, 0, 0, 0, 
44, 1, 44, 44, 9680, -3.9715486909211597, 5.984555582292727, 1.3898985391524912, 1.2429895051922986, ABpraaapp, 0, 0, 0, 0, , 0, 0, 0, 0, 0, 
