2, 1, 2, 2, -1, -3.3059999999999996, 3.6975, 2.52, 3.5669999999999997, ABa, 0, 0, 0, 0, , 0, 0, 0, 0, 0, 
3, 1, 3, 3, -1, 5.069854053195727, 7.727438839145055, 2.368563628856722, 3.219, EMS, 0, 0, 0, 0, , 0, 0, 0, 0, 0, 
4, 1, 4, 4, -1, 13.36423686703261, 5.303931506603567, 2.9032652504243304, 3.219, P2, 0, 0, 0, 0, , 0, 0, 0, 0, 0, 
1, 1, 1, 1, -1, 5.133, -0.8264999999999999, 2.016, 3.393, ABp, 0, 0, 0, 0, , 0, 0, 0, 0, 0, 
