3, 1, 3, 3, -1, 4.485328575351958, 6.836508876947615, 2.095481648106548, 3.219, EMS, 0, 0, 0, 0, , 0, 0, 0, 0, 0, 
6, 1, 6, 6, -1, 2.7734343631425737, -0.5038208584919023, -4.363192244270148, 2.95191, ABpl, 0, 0, 0, 0, , 0, 0, 0, 0, 0, 
1, 1, 1, 1, -1, 5.48263374632838, -1.8065467399923387, 5.096106401321283, 2.95191, ABpr, 0, 0, 0, 0, , 0, 0, 0, 0, 0, 
5, 1, 5, 5, -1, -4.731077558962314, 6.7773706405975185, -2.2766693612247906, 3.10329, ABal, 0, 0, 0, 0, , 0, 0, 0, 0, 0, 
4, 1, 4, 4, -1, 10.175432005744312, 4.03837457727977, 2.2105248840065537, 3.219, P2, 0, 0, 0, 0, , 0, 0, 0, 0, 0, 
2, 1, 2, 2, -1, -3.0366834479251383, 1.8093684907401602, 5.342797787785326, 3.10329, ABar, 0, 0, 0, 0, , 0, 0, 0, 0, 0, 
