3, 1, 3, 3, -1, -0.5717566379045181, 5.7127518165586135, 4.760981070527228, 2.8005299999999997, MS, 0, 0, 0, 0, , 0, 0, 0, 0, 0, 
9, 1, 9, 9, -1, -5.575536708645074, -1.1821901123845302, 6.836032145781182, 2.6998623, ABara, 0, 0, 0, 0, , 0, 0, 0, 0, 0, 
4, 1, 4, 4, -1, 9.010047341018797, 4.176209661381232, 2.977799242717463, 2.8005299999999997, P3, 0, 0, 0, 0, , 0, 0, 0, 0, 0, 
2, 1, 2, 2, -1, -3.463765308512385, -2.1566825006095685, 2.1146542107269455, 2.6998623, ABarp, 0, 0, 0, 0, , 0, 0, 0, 0, 0, 
8, 1, 8, 8, -1, 10.152097151986741, -3.0810949340568103, -0.3739526814609979, 2.8005299999999997, C, 0, 0, 0, 0, , 0, 0, 0, 0, 0, 
11, 1, 11, 11, -1, 1.905221588409037, -5.972280585122449, 4.6918723050409845, 2.5681616999999997, ABpra, 0, 0, 0, 0, , 0, 0, 0, 0, 0, 
12, 1, 12, 12, -1, -0.380254041925331, -4.464592012183579, -6.258347910528222, 2.5681616999999997, ABpla, 0, 0, 0, 0, , 0, 0, 0, 0, 0, 
1, 1, 1, 1, -1, 4.774417525222808, -0.612513597450269, 6.292398842612624, 2.5681616999999997, ABprp, 0, 0, 0, 0, , 0, 0, 0, 0, 0, 
5, 1, 5, 5, -1, -4.089821165947537, 6.8177640144423854, -1.735940295287826, 2.6998623, ABalp, 0, 0, 0, 0, , 0, 0, 0, 0, 0, 
6, 1, 6, 6, -1, 4.086827141907603, 0.06651189728801313, -4.67894189219146, 2.5681616999999997, ABplp, 0, 0, 0, 0, , 0, 0, 0, 0, 0, 
10, 1, 10, 10, -1, -5.948408311471572, 1.57501302248202, -6.645974480993441, 2.6998623, ABala, 0, 0, 0, 0, , 0, 0, 0, 0, 0, 
7, 1, 7, 7, -1, 4.530556116471227, 6.604945083898457, -2.1177600149378812, 2.8005299999999997, E, 0, 0, 0, 0, , 0, 0, 0, 0, 0, 
