5, 1, 5, 5, -1, -4.548568035974944, 6.413494167050769, -2.645372501647844, 2.6998623, ABalp, 0, 0, 0, 0, , 0, 0, 0, 0, 0, 
2, 1, 2, 2, -1, -3.487963210721568, -1.6972013577833913, 0.3025084183719591, 2.6998623, ABarp, 0, 0, 0, 0, , 0, 0, 0, 0, 0, 
1, 1, 1, 1, -1, 4.350605657895131, -1.1038514068752716, 6.887746870398521, 2.5681616999999997, ABprp, 0, 0, 0, 0, , 0, 0, 0, 0, 0, 
13, 1, 13, 13, -1, -2.1583532231114084, 6.027704642327208, 4.531224550550272, 2.4364611, MSa, 0, 0, 0, 0, , 0, 0, 0, 0, 0, 
7, 1, 7, 7, 14, 3.6670020272965114, 6.74158770057124, -2.294359024019656, 2.8005299999999997, E, 0, 0, 0, 0, , 0, 0, 0, 0, 0, 
9, 1, 9, 9, -1, -5.209980875824779, -0.6754394003912348, 7.031333745803793, 2.6998623, ABara, 0, 0, 0, 0, , 0, 0, 0, 0, 0, 
3, 1, 3, 3, -1, 2.0894556476808077, 4.209739441616712, 4.980196324179293, 2.4364611, MSp, 0, 0, 0, 0, , 0, 0, 0, 0, 0, 
11, 1, 11, 11, -1, 0.563706726221173, -6.729874577718733, 3.1970281302989867, 2.5681616999999997, ABpra, 0, 0, 0, 0, , 0, 0, 0, 0, 0, 
4, 1, 4, 4, -1, 9.434427515686068, 3.947959293424379, 2.822026315222942, 2.8005299999999997, P3, 0, 0, 0, 0, , 0, 0, 0, 0, 0, 
6, 1, 6, 6, -1, 5.133961927770213, -0.8543947369931137, -5.186659813487628, 2.5681616999999997, ABplp, 0, 0, 0, 0, , 0, 0, 0, 0, 0, 
10, 1, 10, 10, -1, -5.273060277771833, -0.35840336952708635, -6.741109628719578, 2.6998623, ABala, 0, 0, 0, 0, , 0, 0, 0, 0, 0, 
8, 1, 8, 8, -1, 10.547324803663514, -3.9209153815758486, 0.33637397311549194, 2.8005299999999997, C, 0, 0, 0, 0, , 0, 0, 0, 0, 0, 
12, 1, 12, 12, -1, -1.9307384502148157, -5.212374301335716, -5.5680333311714305, 2.5681616999999997, ABpla, 0, 0, 0, 0, , 0, 0, 0, 0, 0, 
