21, 1, 21, 21, -1, -2.3049643556762267, -6.237681698469868, -4.039427272504861, 2.2343006789999995, ABplaa, 0, 0, 0, 0, , 0, 0, 0, 0, 0, 
4, 1, 4, 4, -1, 9.50961154419533, 3.9997851500064097, 3.183157351806669, 2.4364611, P4, 0, 0, 0, 0, , 0, 0, 0, 0, 0, 
10, 1, 10, 10, 23, -4.63645363225561, -0.5805347873286029, -6.891725897305153, 2.6998623, ABala, 0, 0, 0, 0, , 0, 0, 0, 0, 0, 
1, 1, 1, 1, -1, 4.056720776224848, -1.569786079643599, 6.804325724414434, 2.2343006789999995, ABprpp, 0, 0, 0, 0, , 0, 0, 0, 0, 0, 
5, 1, 5, 5, -1, -5.900529949964442, 5.4277371810799515, -4.063943021289965, 2.348880201, ABalpp, 0, 0, 0, 0, , 0, 0, 0, 0, 0, 
15, 1, 15, 15, -1, 4.237441150073628, -2.3498140290909455, 0.14147027422337832, 2.4364611, Ca, 0, 0, 0, 0, , 0, 0, 0, 0, 0, 
16, 1, 16, 16, -1, -7.343442457958699, -1.9825461653705148, 1.4251117991440772, 2.348880201, ABarpa, 0, 0, 0, 0, , 0, 0, 0, 0, 0, 
6, 1, 6, 6, 24, 4.213657392828348, -1.58686166443742, -6.819742935956572, 2.5681616999999997, ABplp, 0, 0, 0, 0, , 0, 0, 0, 0, 0, 
14, 1, 14, 14, -1, 0.447817170324206, 7.292856969915124, -1.5086476817370353, 2.4364611, Ea, 0, 0, 0, 0, , 0, 0, 0, 0, 0, 
9, 1, 9, 9, -1, -1.8960297672417248, -1.5404686721390117, 6.556480240741612, 2.348880201, ABarap, 0, 0, 0, 0, , 0, 0, 0, 0, 0, 
8, 1, 8, 8, -1, 10.086114436925143, -4.326281768838986, 0.3987634650380579, 2.4364611, Cp, 0, 0, 0, 0, , 0, 0, 0, 0, 0, 
3, 1, 3, 3, -1, 2.7873008516574234, 5.354000480306745, 4.90346295594692, 2.4364611, MSp, 0, 0, 0, 0, , 0, 0, 0, 0, 0, 
22, 1, 22, 22, -1, 11.714308667809565, -0.8751815398027285, 1.841664693852759, 2.4364611, D, 0, 0, 0, 0, , 0, 0, 0, 0, 0, 
7, 1, 7, 7, -1, 7.095039261827317, 4.7213494954489335, -3.899624199667217, 2.4364611, Ep, 0, 0, 0, 0, , 0, 0, 0, 0, 0, 
19, 1, 19, 19, -1, -1.61943836742568, -6.853329772222402, 3.2349381082678574, 2.2343006789999995, ABpraa, 0, 0, 0, 0, , 0, 0, 0, 0, 0, 
18, 1, 18, 18, -1, 3.4303330766594593, -1.5664672984212054, 7.118101078933187, 2.2343006789999995, ABprpa, 0, 0, 0, 0, , 0, 0, 0, 0, 0, 
12, 1, 12, 12, -1, -0.4333124883687457, -6.085078901400531, -4.269800629817132, 2.2343006789999995, ABplap, 0, 0, 0, 0, , 0, 0, 0, 0, 0, 
11, 1, 11, 11, -1, 0.521836491530153, -6.663489013818642, 2.296620129370073, 2.2343006789999995, ABprap, 0, 0, 0, 0, , 0, 0, 0, 0, 0, 
20, 1, 20, 20, -1, -8.753030613531916, 4.8531274231643655, -0.9542254222828515, 2.348880201, ABalpa, 0, 0, 0, 0, , 0, 0, 0, 0, 0, 
17, 1, 17, 17, -1, -5.739770957616297, -0.19543389189215016, 6.834965784589839, 2.348880201, ABaraa, 0, 0, 0, 0, , 0, 0, 0, 0, 0, 
13, 1, 13, 13, -1, -4.505395580911609, 5.8255711779837265, 3.7824587662347167, 2.4364611, MSa, 0, 0, 0, 0, , 0, 0, 0, 0, 0, 
2, 1, 2, 2, -1, -1.1049291212600545, -0.21026243795437063, -0.8871469084935371, 2.348880201, ABarpp, 0, 0, 0, 0, , 0, 0, 0, 0, 0, 
