30, 1, 30, 30, -1, -0.0564281412993907, -6.629075370686832, 3.385176729873725, 1.9438415907299995, ABprapa, 0, 0, 0, 0, , 0, 0, 0, 0, 0, 
18, 1, 18, 18, -1, 3.9317231344906074, 0.8835787501904445, 7.006959010814986, 1.9438415907299995, ABprpap, 0, 0, 0, 0, , 0, 0, 0, 0, 0, 
39, 1, 39, 39, -1, -7.826301820592865, -0.027038657886440907, -0.18566833457446677, 2.04352577487, ABarppa, 0, 0, 0, 0, , 0, 0, 0, 0, 0, 
32, 1, 32, 32, -1, -9.470529009131322, -2.415222804801898, 4.171891359086805, 2.04352577487, ABaraaa, 0, 0, 0, 0, , 0, 0, 0, 0, 0, 
33, 1, 33, 33, -1, 0.5746545928412158, -0.6215614493963244, -7.414093769473991, 1.9438415907299995, ABplpaa, 0, 0, 0, 0, , 0, 0, 0, 0, 0, 
5, 1, 5, 5, -1, -2.1475507877546764, 6.647076010667145, -3.110889267713492, 2.04352577487, ABalppp, 0, 0, 0, 0, , 0, 0, 0, 0, 0, 
28, 1, 28, 28, -1, 4.937485972577821, -6.80585238613515, -0.613106441011679, 2.119721157, Cpa, 0, 0, 0, 0, , 0, 0, 0, 0, 0, 
35, 1, 35, 35, -1, -9.707706590165563, -4.918515748073008, -0.7547701808000763, 2.04352577487, ABarpaa, 0, 0, 0, 0, , 0, 0, 0, 0, 0, 
40, 1, 40, 40, -1, -1.1545851051721745, -6.479170856423777, -4.07168228800006, 1.9438415907299995, ABplapa, 0, 0, 0, 0, , 0, 0, 0, 0, 0, 
37, 1, 37, 37, -1, -4.527473742356224, 3.207289377215042, -6.149708133555583, 2.04352577487, ABalppa, 0, 0, 0, 0, , 0, 0, 0, 0, 0, 
16, 1, 16, 16, -1, -7.998214314673508, -3.520703470905382, 1.5602711973618368, 2.04352577487, ABarpap, 0, 0, 0, 0, , 0, 0, 0, 0, 0, 
2, 1, 2, 2, -1, -3.3246242067601113, 0.900629914172561, 1.4680287218516805, 2.04352577487, ABarppp, 0, 0, 0, 0, , 0, 0, 0, 0, 0, 
19, 1, 19, 19, -1, -2.684705012847861, -5.575765521399971, 1.969256730049584, 1.9438415907299995, ABpraap, 0, 0, 0, 0, , 0, 0, 0, 0, 0, 
10, 1, 10, 10, -1, -3.7101675904940703, 0.4468680163000783, -6.204270302639957, 2.04352577487, ABalapp, 0, 0, 0, 0, , 0, 0, 0, 0, 0, 
9, 1, 9, 9, -1, -2.693702384012415, -1.2444538673662342, 7.162672324961738, 2.04352577487, ABarapp, 0, 0, 0, 0, , 0, 0, 0, 0, 0, 
25, 1, 25, 25, -1, -0.22834266440138604, 4.088418555780448, 6.224246190985815, 2.119721157, MSpa, 0, 0, 0, 0, , 0, 0, 0, 0, 0, 
44, 1, 44, 44, -1, -5.712007433354288, -1.563668519884736, -6.6780889140866195, 2.04352577487, ABalapa, 0, 0, 0, 0, , 0, 0, 0, 0, 0, 
43, 1, 43, 43, -1, -10.231186361825817, -1.592637926082746, -4.298308716526534, 2.04352577487, ABalaaa, 0, 0, 0, 0, , 0, 0, 0, 0, 0, 
29, 1, 29, 29, -1, -4.936798116683214, -4.507747651704272, 5.135169295810495, 2.04352577487, ABarapa, 0, 0, 0, 0, , 0, 0, 0, 0, 0, 
13, 1, 13, 13, -1, -1.0091479548922835, 7.178017159382415, 1.8981487674416604, 2.119721157, MSap, 0, 0, 0, 0, , 0, 0, 0, 0, 0, 
34, 1, 34, 34, -1, -9.95798841560951, 3.496425448682004, -2.7792412244361206, 2.04352577487, ABalpaa, 0, 0, 0, 0, , 0, 0, 0, 0, 0, 
27, 1, 27, 27, -1, 0.6169289544424683, -1.8911224306489, 0.8079864948012602, 2.119721157, Caa, 0, 0, 0, 0, , 0, 0, 0, 0, 0, 
1, 1, 1, 1, -1, 8.245555049510326, 1.022612242540178, 5.471607499162553, 1.9438415907299995, ABprppp, 0, 0, 0, 0, , 0, 0, 0, 0, 0, 
36, 1, 36, 36, -1, 7.959548264064508, -3.4633584119104643, 4.549639697974443, 1.9438415907299995, ABprppa, 0, 0, 0, 0, , 0, 0, 0, 0, 0, 
17, 1, 17, 17, -1, -6.790552566868293, 1.0045732961705236, 6.161182931071473, 2.04352577487, ABaraap, 0, 0, 0, 0, , 0, 0, 0, 0, 0, 
22, 1, 22, 22, -1, 12.294832657017274, 0.5405374788129576, -0.9100227576462903, 2.4364611, D, 0, 0, 0, 0, , 0, 0, 0, 0, 0, 
42, 1, 42, 42, -1, 4.079274999923184, -3.6331662673769793, -6.26874483080472, 1.9438415907299995, ABplppa, 0, 0, 0, 0, , 0, 0, 0, 0, 0, 
14, 1, 14, 14, 45, 3.0867973273346805, 6.873196066507522, -2.211906733621889, 2.4364611, Ea, 0, 0, 0, 0, , 0, 0, 0, 0, 0, 
20, 1, 20, 20, -1, -7.07309467463429, 6.126673443459895, 0.08136218062557019, 2.04352577487, ABalpap, 0, 0, 0, 0, , 0, 0, 0, 0, 0, 
3, 1, 3, 3, -1, 4.924194871729808, 5.514831028047775, 4.048749546831808, 2.119721157, MSpp, 0, 0, 0, 0, , 0, 0, 0, 0, 0, 
15, 1, 15, 15, -1, 5.841516448358756, 0.01701344046541116, 0.8526197763097412, 2.119721157, Cap, 0, 0, 0, 0, , 0, 0, 0, 0, 0, 
41, 1, 41, 41, -1, 1.4575752991772264, -2.837115119953308, 6.837396098246093, 1.9438415907299995, ABprpaa, 0, 0, 0, 0, , 0, 0, 0, 0, 0, 
38, 1, 38, 38, -1, -4.632520826207214, -7.147585887527939, -0.03959404429510576, 1.9438415907299995, ABpraaa, 0, 0, 0, 0, , 0, 0, 0, 0, 0, 
4, 1, 4, 4, -1, 8.793956646521035, 5.262406825764969, -0.15445990123645556, 2.4364611, P4, 0, 0, 0, 0, , 0, 0, 0, 0, 0, 
31, 1, 31, 31, -1, -5.716614114477303, -5.57343331507715, -3.9393001980454914, 1.9438415907299995, ABplaaa, 0, 0, 0, 0, , 0, 0, 0, 0, 0, 
6, 1, 6, 6, -1, 7.970537411561364, -2.3500188531316772, -4.116937911509661, 1.9438415907299995, ABplppp, 0, 0, 0, 0, , 0, 0, 0, 0, 0, 
8, 1, 8, 8, -1, 9.643701963892402, -4.700280095611194, -0.011330564804418667, 2.119721157, Cpp, 0, 0, 0, 0, , 0, 0, 0, 0, 0, 
7, 1, 7, 7, -1, 7.4304939771330725, 2.9178352228733058, -5.205505639466053, 2.4364611, Ep, 0, 0, 0, 0, , 0, 0, 0, 0, 0, 
11, 1, 11, 11, -1, 3.9889671472564774, -5.521547296214849, 4.328928649787726, 1.9438415907299995, ABprapp, 0, 0, 0, 0, , 0, 0, 0, 0, 0, 
12, 1, 12, 12, -1, 1.6426087640960871, -4.008357164445605, -3.474962956032749, 1.9438415907299995, ABplapp, 0, 0, 0, 0, , 0, 0, 0, 0, 0, 
24, 1, 24, 24, -1, 2.682166294135253, 1.6447262297351481, -3.0971300259474126, 1.9438415907299995, ABplpap, 0, 0, 0, 0, , 0, 0, 0, 0, 0, 
23, 1, 23, 23, -1, -9.016290999637206, 0.8739125223442847, -3.457462841821944, 2.04352577487, ABalaap, 0, 0, 0, 0, , 0, 0, 0, 0, 0, 
26, 1, 26, 26, -1, -5.075963622571977, 5.1891221446075395, 4.401433761826605, 2.119721157, MSaa, 0, 0, 0, 0, , 0, 0, 0, 0, 0, 
21, 1, 21, 21, -1, -4.432345999228612, -2.7367608809395314, -2.0752330356518316, 1.9438415907299995, ABplaap, 0, 0, 0, 0, , 0, 0, 0, 0, 0, 
