50, 1, 50, 50, -1, 4.829816539810096, 3.1438182123506846, -0.2656660593779423, 1.6044169437333, MSppap, 0, 0, 0, 0, , 0, 0, 0, 0, 0, 
55, 1, 55, 55, -1, -4.129414312767941, -2.0707493108016397, -2.711763242326697, 1.6911421839350995, ABplaapa, 0, 0, 0, 0, , 0, 0, 0, 0, 0, 
124, 1, 124, 124, -1, 2.7289012126820613, 4.588424438409982, 2.344820051770275, 1.6044169437333, MSpppa, 0, 0, 0, 0, , 0, 0, 0, 0, 0, 
20, 1, 20, 20, -1, -5.816128621865973, 6.5801460728207015, -0.14711369504903554, 1.7778674241369, ABalpapp, 0, 0, 0, 0, , 0, 0, 0, 0, 0, 
49, 1, 49, 49, -1, -5.689486266851322, 3.112871157464347, 5.851981752919823, 1.6044169437333, MSaaap, 0, 0, 0, 0, , 0, 0, 0, 0, 0, 
46, 1, 46, 46, -1, 6.9921537500742055, 3.182725550452421, -5.283822253700533, 2.119721157, Epl, 0, 0, 0, 0, , 0, 0, 0, 0, 0, 
40, 1, 40, 40, -1, 4.3550971265238285, -6.334034189384692, -2.93787750424331, 1.6911421839350995, ABplapap, 0, 0, 0, 0, , 0, 0, 0, 0, 0, 
9, 1, 9, 9, -1, 1.225390080125414, -0.06460721927809134, 6.735569601290231, 1.7778674241369, ABarappp, 0, 0, 0, 0, , 0, 0, 0, 0, 0, 
91, 1, 91, 91, -1, 9.277233363359697, 1.5682312297689793, 3.880606814516437, 1.6911421839350995, ABprpppa, 0, 0, 0, 0, , 0, 0, 0, 0, 0, 
88, 1, 88, 88, -1, -5.59174235872097, 2.7025512555155156, -6.078599435629839, 1.7778674241369, ABalppaa, 0, 0, 0, 0, , 0, 0, 0, 0, 0, 
45, 1, 45, 45, -1, 2.693519785617932, 7.108757699832085, -1.5053760667048075, 2.119721157, Eal, 0, 0, 0, 0, , 0, 0, 0, 0, 0, 
22, 1, 22, 22, -1, 11.821899664395545, 2.035837394625206, 1.0773012123311272, 2.119721157, Dp, 0, 0, 0, 0, , 0, 0, 0, 0, 0, 
76, 1, 76, 76, -1, -7.702499067669123, 0.0091264262761873, 5.840785338998852, 1.7778674241369, ABaraapa, 0, 0, 0, 0, , 0, 0, 0, 0, 0, 
56, 1, 56, 56, -1, -6.58311150461972, -3.4236429438152896, 5.307894622082299, 1.7778674241369, ABarapaa, 0, 0, 0, 0, , 0, 0, 0, 0, 0, 
5, 1, 5, 5, -1, 4.470931489624679, 5.586243931142516, -4.140094065558599, 1.7778674241369, ABalpppp, 0, 0, 0, 0, , 0, 0, 0, 0, 0, 
47, 1, 47, 47, -1, 0.04666292965073273, 2.0238973516631136, 3.783737983189601, 1.6044169437333, MSpaap, 0, 0, 0, 0, , 0, 0, 0, 0, 0, 
61, 1, 61, 61, -1, -6.64881307386363, -5.7910326362152995, 2.4680299360539273, 1.7778674241369, ABarpaaa, 0, 0, 0, 0, , 0, 0, 0, 0, 0, 
75, 1, 75, 75, -1, 0.7036110729912406, -0.1638650684456171, -7.436494067465905, 1.6911421839350995, ABplpaaa, 0, 0, 0, 0, , 0, 0, 0, 0, 0, 
42, 1, 42, 42, -1, 4.5949276573675055, -2.033534839875739, -6.611085993052147, 1.6911421839350995, ABplppap, 0, 0, 0, 0, , 0, 0, 0, 0, 0, 
79, 1, 79, 79, -1, 5.742035949132758, 0.736841875889732, -2.862342951356193, 1.84415740659, Capa, 0, 0, 0, 0, , 0, 0, 0, 0, 0, 
71, 1, 71, 71, -1, -12.199216009965323, 0.8018777121166409, 1.1782269035060908, 1.7778674241369, ABarppaa, 0, 0, 0, 0, , 0, 0, 0, 0, 0, 
64, 1, 64, 64, -1, -8.82939866717783, 5.098865907293296, 1.2197068227697943, 1.7778674241369, ABalpapa, 0, 0, 0, 0, , 0, 0, 0, 0, 0, 
73, 1, 73, 73, -1, -3.3824966652017845, -7.045374627606783, 1.284825255895938, 1.6911421839350995, ABpraaaa, 0, 0, 0, 0, , 0, 0, 0, 0, 0, 
84, 1, 84, 84, -1, -10.484963895951465, 0.8102285093503941, -3.909948713068726, 1.7778674241369, ABalaapa, 0, 0, 0, 0, , 0, 0, 0, 0, 0, 
48, 1, 48, 48, -1, 10.487041310853101, 1.4926144384572686, -3.7142950130323356, 2.119721157, Da, 0, 0, 0, 0, , 0, 0, 0, 0, 0, 
123, 1, 123, 123, -1, 1.0199051090252291, 2.179069432304876, 0.33682620584870465, 1.6044169437333, MSppaa, 0, 0, 0, 0, , 0, 0, 0, 0, 0, 
111, 1, 111, 111, -1, -1.5117392458606371, 2.3540253999894225, 7.004765041216949, 1.6044169437333, MSpapa, 0, 0, 0, 0, , 0, 0, 0, 0, 0, 
18, 1, 18, 18, -1, 5.279025316925012, 4.446098274770277, 5.068502456501013, 1.6911421839350995, ABprpapp, 0, 0, 0, 0, , 0, 0, 0, 0, 0, 
30, 1, 30, 30, -1, 1.2299548165016805, -1.8293644831088767, 3.156787277405614, 1.6911421839350995, ABprapap, 0, 0, 0, 0, , 0, 0, 0, 0, 0, 
65, 1, 65, 65, -1, -5.862141822751246, -4.482958079664295, -4.808899228987936, 1.6911421839350995, ABplaaaa, 0, 0, 0, 0, , 0, 0, 0, 0, 0, 
4, 1, 4, 4, 138, 6.5626703768457375, 6.192920005802864, -1.2690822554700314, 2.119721157, Z3, 0, 0, 0, 0, , 0, 0, 0, 0, 0, 
17, 1, 17, 17, -1, -4.25716480997637, -0.05556622536151909, 7.001072167970668, 1.7778674241369, ABaraapp, 0, 0, 0, 0, , 0, 0, 0, 0, 0, 
7, 1, 7, 7, -1, 7.930557955885089, -0.4698223389106297, -5.71669193983101, 2.119721157, Epr, 0, 0, 0, 0, , 0, 0, 0, 0, 0, 
32, 1, 32, 32, -1, -9.786691871876304, -4.479836642212478, 1.0223064339849877, 1.7778674241369, ABaraaap, 0, 0, 0, 0, , 0, 0, 0, 0, 0, 
1, 1, 1, 1, -1, 8.298964850396688, 4.864613533239178, 2.645139698263291, 1.6911421839350995, ABprpppp, 0, 0, 0, 0, , 0, 0, 0, 0, 0, 
14, 1, 14, 14, 139, 2.643022773133066, 3.4053016075829015, -3.18586942703666, 1.84415740659, Earp, 0, 0, 0, 0, , 0, 0, 0, 0, 0, 
29, 1, 29, 29, -1, -3.3238421195125762, -5.052929364418446, 5.114019896387474, 1.7778674241369, ABarapap, 0, 0, 0, 0, , 0, 0, 0, 0, 0, 
12, 1, 12, 12, -1, 2.011085441838747, -3.882766645673997, 0.03494949233758998, 1.6911421839350995, ABplappp, 0, 0, 0, 0, , 0, 0, 0, 0, 0, 
53, 1, 53, 53, -1, 3.782134186255457, -7.044153122554656, 0.8317328498149136, 1.84415740659, Cpaa, 0, 0, 0, 0, , 0, 0, 0, 0, 0, 
31, 1, 31, 31, -1, -2.1548017462715694, -4.983713040856583, -5.388120536422954, 1.6911421839350995, ABplaaap, 0, 0, 0, 0, , 0, 0, 0, 0, 0, 
35, 1, 35, 35, -1, -6.288370695151383, -5.563295519176939, -1.2571864703713385, 1.7778674241369, ABarpaap, 0, 0, 0, 0, , 0, 0, 0, 0, 0, 
96, 1, 96, 96, -1, -3.0940961511751133, 1.0318867061662762, -4.32232236439386, 1.7778674241369, ABalappa, 0, 0, 0, 0, , 0, 0, 0, 0, 0, 
63, 1, 63, 63, -1, -6.068079999244909, 3.030578357305319, -0.7593488536381691, 1.7778674241369, ABarpppa, 0, 0, 0, 0, , 0, 0, 0, 0, 0, 
69, 1, 69, 69, -1, -6.081105913344894, -1.100865850485519, -6.40856553057863, 1.7778674241369, ABalapaa, 0, 0, 0, 0, , 0, 0, 0, 0, 0, 
59, 1, 59, 59, -1, 9.442180855010582, -4.62357023245672, 1.4142912978941788, 1.84415740659, Cppa, 0, 0, 0, 0, , 0, 0, 0, 0, 0, 
44, 1, 44, 44, -1, -2.5594835276988204, -1.7632412164107438, -7.069414513588503, 1.7778674241369, ABalapap, 0, 0, 0, 0, , 0, 0, 0, 0, 0, 
60, 1, 60, 60, 140, 9.883177199649571, 4.336832320342141, -1.2604857232338469, 2.119721157, Z2, 0, 0, 0, 0, , 0, 0, 0, 0, 0, 
41, 1, 41, 41, -1, 4.218097871332141, -2.2993339776187542, 6.015653520666147, 1.6911421839350995, ABprpaap, 0, 0, 0, 0, , 0, 0, 0, 0, 0, 
36, 1, 36, 36, -1, 10.514688547352016, -1.8372381910993936, 3.5186410100299015, 1.6911421839350995, ABprppap, 0, 0, 0, 0, , 0, 0, 0, 0, 0, 
128, 1, 128, 128, -1, -1.7365926657582973, 6.920001772506063, 2.2318072130171327, 1.6044169437333, MSappa, 0, 0, 0, 0, , 0, 0, 0, 0, 0, 
109, 1, 109, 109, -1, -8.938178465669765, 3.017302635644339, 4.207191123662069, 1.6044169437333, MSaaaa, 0, 0, 0, 0, , 0, 0, 0, 0, 0, 
33, 1, 33, 33, -1, 3.941995323227996, 1.6610109254794228, -6.871541997399139, 1.6911421839350995, ABplpaap, 0, 0, 0, 0, , 0, 0, 0, 0, 0, 
87, 1, 87, 87, -1, 6.873241403865203, -4.215319477185262, -4.555230229351793, 1.6911421839350995, ABplpppa, 0, 0, 0, 0, , 0, 0, 0, 0, 0, 
34, 1, 34, 34, -1, -7.572478479889164, 4.692740319064816, -3.578093676313374, 1.7778674241369, ABalpaap, 0, 0, 0, 0, , 0, 0, 0, 0, 0, 
6, 1, 6, 6, -1, 9.919260425203037, -3.853278956982842, -2.2896672816330566, 1.6911421839350995, ABplpppp, 0, 0, 0, 0, , 0, 0, 0, 0, 0, 
28, 1, 28, 28, -1, 6.2754358466542275, -4.580811158603847, -0.36781480164700797, 1.84415740659, Cpap, 0, 0, 0, 0, , 0, 0, 0, 0, 0, 
112, 1, 112, 112, -1, -3.5213409016228647, 1.335949302981988, 3.5178767922473955, 1.6044169437333, MSpaaa, 0, 0, 0, 0, , 0, 0, 0, 0, 0, 
21, 1, 21, 21, -1, -0.7725166824223464, -3.467488014221202, -2.3672366708510735, 1.6911421839350995, ABplaapp, 0, 0, 0, 0, , 0, 0, 0, 0, 0, 
51, 1, 51, 51, -1, -0.7957804530456017, 7.317252150047463, -1.316191588227524, 1.6044169437333, MSapap, 0, 0, 0, 0, , 0, 0, 0, 0, 0, 
67, 1, 67, 67, -1, -0.4628356028115063, -6.604980564709783, 3.4387315564596235, 1.6911421839350995, ABprapaa, 0, 0, 0, 0, , 0, 0, 0, 0, 0, 
25, 1, 25, 25, -1, 1.4757904535449728, 4.699867226011705, 5.7105203237097575, 1.6044169437333, MSpapp, 0, 0, 0, 0, , 0, 0, 0, 0, 0, 
27, 1, 27, 27, -1, 5.611338828053467, 1.207912064584027, 3.1596470301534696, 1.84415740659, Caap, 0, 0, 0, 0, , 0, 0, 0, 0, 0, 
10, 1, 10, 10, -1, -0.7341141683404078, 3.119996434952816, -6.745701709661808, 1.7778674241369, ABalappp, 0, 0, 0, 0, , 0, 0, 0, 0, 0, 
132, 1, 132, 132, 141, -0.17703199406541492, 2.3827831559206714, -3.041648142098519, 1.84415740659, Eara, 0, 0, 0, 0, , 0, 0, 0, 0, 0, 
15, 1, 15, 15, -1, 8.353397510671506, -0.183024545215225, 0.22787159210028807, 1.84415740659, Capp, 0, 0, 0, 0, , 0, 0, 0, 0, 0, 
78, 1, 78, 78, -1, 4.642156039008651, 1.2546176576560382, 6.795000206540048, 1.6911421839350995, ABprpapa, 0, 0, 0, 0, , 0, 0, 0, 0, 0, 
26, 1, 26, 26, -1, -2.2272318450540194, 5.266334126865182, 5.092314007787552, 1.6044169437333, MSaapp, 0, 0, 0, 0, , 0, 0, 0, 0, 0, 
83, 1, 83, 83, -1, -0.007878202576758992, -7.4420483034928875, -0.09543654935455805, 1.6911421839350995, ABplappa, 0, 0, 0, 0, , 0, 0, 0, 0, 0, 
62, 1, 62, 62, -1, 4.4157605195745075, -5.572948927049334, 4.164854096026588, 1.6911421839350995, ABprappa, 0, 0, 0, 0, , 0, 0, 0, 0, 0, 
16, 1, 16, 16, -1, -4.571284644866266, -0.13333632777182886, 0.35614636474554046, 1.7778674241369, ABarpapp, 0, 0, 0, 0, , 0, 0, 0, 0, 0, 
74, 1, 74, 74, -1, -10.496745333465952, -1.3938972168799018, 3.7397083807404186, 1.7778674241369, ABaraaaa, 0, 0, 0, 0, , 0, 0, 0, 0, 0, 
2, 1, 2, 2, -1, -2.481860377076455, 3.5111739575799894, -0.6488308691413789, 1.7778674241369, ABarpppp, 0, 0, 0, 0, , 0, 0, 0, 0, 0, 
130, 1, 130, 130, -1, -3.418700799937708, 6.85725167059192, -1.2522103864941956, 1.6044169437333, MSapaa, 0, 0, 0, 0, , 0, 0, 0, 0, 0, 
24, 1, 24, 24, -1, 4.222901345381895, -2.578625326248598, -2.635364389002374, 1.6911421839350995, ABplpapp, 0, 0, 0, 0, , 0, 0, 0, 0, 0, 
37, 1, 37, 37, -1, -4.121582135567773, 5.463028332754276, -4.429724873160608, 1.7778674241369, ABalppap, 0, 0, 0, 0, , 0, 0, 0, 0, 0, 
116, 1, 116, 116, -1, -5.42382757253806, 5.787235931276328, 3.386583599451515, 1.6044169437333, MSaapa, 0, 0, 0, 0, , 0, 0, 0, 0, 0, 
82, 1, 82, 82, -1, -10.75961669749947, 3.4528098242396696, -1.4046072801047949, 1.7778674241369, ABalpaaa, 0, 0, 0, 0, , 0, 0, 0, 0, 0, 
19, 1, 19, 19, -1, -0.9620087075966657, -0.86281261032106, 0.17324831083474568, 1.6911421839350995, ABpraapp, 0, 0, 0, 0, , 0, 0, 0, 0, 0, 
93, 1, 93, 93, -1, -11.7297335554082, -2.0990966472934574, -1.2842223403805921, 1.7778674241369, ABalaaaa, 0, 0, 0, 0, , 0, 0, 0, 0, 0, 
13, 1, 13, 13, -1, 1.263809566975472, 7.204802572889772, 1.7506995662161007, 1.6044169437333, MSappp, 0, 0, 0, 0, , 0, 0, 0, 0, 0, 
23, 1, 23, 23, -1, -6.921276626624844, 0.43478806731657704, -3.197137583120452, 1.7778674241369, ABalaapp, 0, 0, 0, 0, , 0, 0, 0, 0, 0, 
52, 1, 52, 52, -1, 3.6323528363297823, -0.5132457903091375, 0.456819767168993, 1.84415740659, Caaa, 0, 0, 0, 0, , 0, 0, 0, 0, 0, 
57, 1, 57, 57, -1, -2.752069351498539, -3.523390871326769, 1.869281811540771, 1.6911421839350995, ABpraapa, 0, 0, 0, 0, , 0, 0, 0, 0, 0, 
86, 1, 86, 86, -1, 1.3071837947404241, -4.517560072709849, 5.87574909871726, 1.6911421839350995, ABprpaaa, 0, 0, 0, 0, , 0, 0, 0, 0, 0, 
38, 1, 38, 38, -1, -2.863489347281105, -6.856083462900621, -2.3381976193373966, 1.6911421839350995, ABpraaap, 0, 0, 0, 0, , 0, 0, 0, 0, 0, 
3, 1, 3, 3, -1, 5.10052497057074, 6.4929245775201805, 2.023424910426312, 1.6044169437333, MSpppp, 0, 0, 0, 0, , 0, 0, 0, 0, 0, 
8, 1, 8, 8, -1, 12.136871953234833, -0.9374967149696498, -1.2850618493622823, 1.84415740659, Cppp, 0, 0, 0, 0, , 0, 0, 0, 0, 0, 
39, 1, 39, 39, -1, -8.603525686446872, 1.1966303118650683, 1.0463888467949727, 1.7778674241369, ABarppap, 0, 0, 0, 0, , 0, 0, 0, 0, 0, 
11, 1, 11, 11, -1, 6.0779404128996894, -2.595184224810745, 2.730581755992047, 1.6911421839350995, ABprappp, 0, 0, 0, 0, , 0, 0, 0, 0, 0, 
54, 1, 54, 54, -1, 0.7630818012880775, -6.531484158269098, -3.5565079976780978, 1.6911421839350995, ABplapaa, 0, 0, 0, 0, , 0, 0, 0, 0, 0, 
70, 1, 70, 70, -1, 0.13190596735496352, 5.901728890783232, -4.550308798438491, 1.7778674241369, ABalpppa, 0, 0, 0, 0, , 0, 0, 0, 0, 0, 
43, 1, 43, 43, -1, -9.228419914029004, -2.7925071303641897, -4.127778540172631, 1.7778674241369, ABalaaap, 0, 0, 0, 0, , 0, 0, 0, 0, 0, 
77, 1, 77, 77, -1, 7.6767459643436124, -1.1556666345894802, 5.745451689759795, 1.6911421839350995, ABprppaa, 0, 0, 0, 0, , 0, 0, 0, 0, 0, 
92, 1, 92, 92, -1, 1.2546495096924273, -3.735682971016559, -6.393188904641462, 1.6911421839350995, ABplppaa, 0, 0, 0, 0, , 0, 0, 0, 0, 0, 
58, 1, 58, 58, -1, 1.2582541407529728, -0.850660161360846, -3.9069852521932664, 1.6911421839350995, ABplpapa, 0, 0, 0, 0, , 0, 0, 0, 0, 0, 
80, 1, 80, 80, -1, -7.22454057312551, -2.047824400773111, 1.9768848279851488, 1.7778674241369, ABarpapa, 0, 0, 0, 0, , 0, 0, 0, 0, 0, 
66, 1, 66, 66, -1, -1.5211007185776038, -2.473886176222443, 6.96744277367584, 1.7778674241369, ABarappa, 0, 0, 0, 0, , 0, 0, 0, 0, 0, 
