79, 1, 79, 79, -1, 5.813040744318626, 0.553277041565991, -2.7978146076245283, 1.84415740659, Capa, 0, 0, 0, 0, , 0, 0, 0, 0, 0, 
1, 1, 1, 1, -1, 8.548838792010804, 4.803100565594565, 2.482323720484515, 1.6911421839350995, ABprpppp, 0, 0, 0, 0, , 0, 0, 0, 0, 0, 
9, 1, 9, 9, -1, 1.6721040181216111, -0.11972435994693795, 6.667325116275232, 1.7778674241369, ABarappp, 0, 0, 0, 0, , 0, 0, 0, 0, 0, 
24, 1, 24, 24, -1, 3.98303512684399, -2.641065930530789, -2.6833374382895236, 1.6911421839350995, ABplpapp, 0, 0, 0, 0, , 0, 0, 0, 0, 0, 
2, 1, 2, 2, -1, -2.732372960892279, 3.6223915149789594, 0.35095912397792023, 1.7778674241369, ABarpppp, 0, 0, 0, 0, , 0, 0, 0, 0, 0, 
36, 1, 36, 36, -1, 10.610706061167642, -1.8237746097928533, 3.4126534125979755, 1.6911421839350995, ABprppap, 0, 0, 0, 0, , 0, 0, 0, 0, 0, 
61, 1, 61, 61, -1, -6.421463103539055, -5.996735822265905, 2.1667201762339388, 1.7778674241369, ABarpaaa, 0, 0, 0, 0, , 0, 0, 0, 0, 0, 
93, 1, 93, 93, -1, -11.654469945864042, -2.2021387968134145, -1.3450978978786774, 1.7778674241369, ABalaaaa, 0, 0, 0, 0, , 0, 0, 0, 0, 0, 
83, 1, 83, 83, -1, 0.27507142285493796, -7.4479971832799485, -0.038812338060958365, 1.6911421839350995, ABplappa, 0, 0, 0, 0, , 0, 0, 0, 0, 0, 
76, 1, 76, 76, -1, -7.385299456660624, -0.4754056230061289, 5.968775105682218, 1.7778674241369, ABaraapa, 0, 0, 0, 0, , 0, 0, 0, 0, 0, 
70, 1, 70, 70, -1, 0.40519621605727346, 5.754784964794158, -4.721893099556573, 1.7778674241369, ABalpppa, 0, 0, 0, 0, , 0, 0, 0, 0, 0, 
49, 1, 49, 49, -1, -5.253020042784057, 2.870658530276088, 6.110912886473397, 1.6044169437333, MSaaap, 0, 0, 0, 0, , 0, 0, 0, 0, 0, 
56, 1, 56, 56, -1, -6.411678992170847, -3.841940549418016, 5.091983962297707, 1.7778674241369, ABarapaa, 0, 0, 0, 0, , 0, 0, 0, 0, 0, 
19, 1, 19, 19, -1, -1.1355505768560463, -1.1048932745021591, 0.16478485886873406, 1.6911421839350995, ABpraapp, 0, 0, 0, 0, , 0, 0, 0, 0, 0, 
109, 1, 109, 109, -1, -8.565420525298883, 2.6796652691207283, 4.679837485953355, 1.6044169437333, MSaaaa, 0, 0, 0, 0, , 0, 0, 0, 0, 0, 
86, 1, 86, 86, -1, 1.6543586987114223, -4.611305544451861, 5.762737334939759, 1.6911421839350995, ABprpaaa, 0, 0, 0, 0, , 0, 0, 0, 0, 0, 
32, 1, 32, 32, -1, -9.604637485303167, -4.685034429118582, 0.6903234467501211, 1.7778674241369, ABaraaap, 0, 0, 0, 0, , 0, 0, 0, 0, 0, 
18, 1, 18, 18, -1, 5.355249459625835, 4.332340521225375, 5.138198919996447, 1.6911421839350995, ABprpapp, 0, 0, 0, 0, , 0, 0, 0, 0, 0, 
75, 1, 75, 75, -1, 0.945461724873402, -0.07259437210166966, -7.429750119466282, 1.6911421839350995, ABplpaaa, 0, 0, 0, 0, , 0, 0, 0, 0, 0, 
33, 1, 33, 33, -1, 3.9772085809764315, 1.7772758512409284, -6.823438913035571, 1.6911421839350995, ABplpaap, 0, 0, 0, 0, , 0, 0, 0, 0, 0, 
38, 1, 38, 38, -1, -2.754609431207123, -6.852866187995414, -2.3944648122904013, 1.6911421839350995, ABpraaap, 0, 0, 0, 0, , 0, 0, 0, 0, 0, 
43, 1, 43, 43, -1, -9.111475962925052, -3.0660600603330446, -4.036219093643148, 1.7778674241369, ABalaaap, 0, 0, 0, 0, , 0, 0, 0, 0, 0, 
63, 1, 63, 63, -1, -6.314636629646044, 2.853022607634174, -0.7564343807988027, 1.7778674241369, ABarpppa, 0, 0, 0, 0, , 0, 0, 0, 0, 0, 
67, 1, 67, 67, -1, -0.2788587519844696, -6.602168521683489, 3.4435685188305696, 1.6911421839350995, ABprapaa, 0, 0, 0, 0, , 0, 0, 0, 0, 0, 
87, 1, 87, 87, -1, 7.014101207499134, -4.086541803861235, -4.601565906373869, 1.6911421839350995, ABplpppa, 0, 0, 0, 0, , 0, 0, 0, 0, 0, 
88, 1, 88, 88, -1, -5.77046031317358, 2.6213196254577147, -6.0486930006061375, 1.7778674241369, ABalppaa, 0, 0, 0, 0, , 0, 0, 0, 0, 0, 
44, 1, 44, 44, -1, -2.232547710676952, -1.7473072053343803, -7.110306141282456, 1.7778674241369, ABalapap, 0, 0, 0, 0, , 0, 0, 0, 0, 0, 
96, 1, 96, 96, -1, -3.4846697678355802, 0.338777552853382, -4.440515471145258, 1.7778674241369, ABalappa, 0, 0, 0, 0, , 0, 0, 0, 0, 0, 
52, 1, 52, 52, -1, 3.7959135008590525, -0.49726012918075746, 0.3583640519038763, 1.84415740659, Caaa, 0, 0, 0, 0, , 0, 0, 0, 0, 0, 
5, 1, 5, 5, -1, 4.499595384163778, 5.444103842998013, -4.308266870909385, 1.7778674241369, ABalpppp, 0, 0, 0, 0, , 0, 0, 0, 0, 0, 
20, 1, 20, 20, -1, -6.916419223865231, 6.162681354823014, 0.571548385543346, 1.7778674241369, ABalpapp, 0, 0, 0, 0, , 0, 0, 0, 0, 0, 
21, 1, 21, 21, -1, -0.6516738228915087, -3.5580901162181457, -2.455161816153464, 1.6911421839350995, ABplaapp, 0, 0, 0, 0, , 0, 0, 0, 0, 0, 
7, 1, 7, 7, -1, 7.554561784335927, -0.74207917628288, -5.865602076765194, 2.119721157, Epr, 0, 0, 0, 0, , 0, 0, 0, 0, 0, 
128, 1, 128, 128, -1, -2.3537443561964606, 6.999902751378064, 2.1089467005570905, 1.6044169437333, MSappa, 0, 0, 0, 0, , 0, 0, 0, 0, 0, 
150, 1, 150, 150, -1, 9.08248984802599, 1.5881149870705842, -3.5631178205922858, 1.84415740659, Daa, 0, 0, 0, 0, , 0, 0, 0, 0, 0, 
59, 1, 59, 59, -1, 9.387800950444012, -4.6594042182494855, 1.466616715833276, 1.84415740659, Cppa, 0, 0, 0, 0, , 0, 0, 0, 0, 0, 
42, 1, 42, 42, -1, 4.287407901691287, -2.0247060555855265, -6.69154909188929, 1.6911421839350995, ABplppap, 0, 0, 0, 0, , 0, 0, 0, 0, 0, 
17, 1, 17, 17, -1, -3.9394413487325677, -0.3761479693462293, 7.059197546749938, 1.7778674241369, ABaraapp, 0, 0, 0, 0, , 0, 0, 0, 0, 0, 
57, 1, 57, 57, -1, -3.1339119745462907, -3.555736961814583, 1.9029803925700701, 1.6911421839350995, ABpraapa, 0, 0, 0, 0, , 0, 0, 0, 0, 0, 
31, 1, 31, 31, -1, -2.163771833349943, -4.946568132022792, -5.429914825799118, 1.6911421839350995, ABplaaap, 0, 0, 0, 0, , 0, 0, 0, 0, 0, 
6, 1, 6, 6, -1, 9.820823086191355, -4.022278706090434, -2.167172646476074, 1.6911421839350995, ABplpppp, 0, 0, 0, 0, , 0, 0, 0, 0, 0, 
66, 1, 66, 66, -1, -1.0254261370198559, -2.498252882016354, 6.984398139006164, 1.7778674241369, ABarappa, 0, 0, 0, 0, , 0, 0, 0, 0, 0, 
37, 1, 37, 37, -1, -3.742096229525741, 5.3153889693512415, -4.711423579775613, 1.7778674241369, ABalppap, 0, 0, 0, 0, , 0, 0, 0, 0, 0, 
46, 1, 46, 46, -1, 6.962294062148707, 3.1118535322385372, -5.331842266379361, 2.119721157, Epl, 0, 0, 0, 0, , 0, 0, 0, 0, 0, 
84, 1, 84, 84, -1, -10.362954003850907, 0.520180063246448, -4.079247482331682, 1.7778674241369, ABalaapa, 0, 0, 0, 0, , 0, 0, 0, 0, 0, 
34, 1, 34, 34, -1, -7.323024438672088, 4.804496092935125, -3.616409264811768, 1.7778674241369, ABalpaap, 0, 0, 0, 0, , 0, 0, 0, 0, 0, 
51, 1, 51, 51, -1, -0.4770334295469647, 7.335538909756302, -1.2312372851814064, 1.6044169437333, MSapap, 0, 0, 0, 0, , 0, 0, 0, 0, 0, 
54, 1, 54, 54, -1, 1.078284221788036, -6.560925670715988, -3.464054718197805, 1.6911421839350995, ABplapaa, 0, 0, 0, 0, , 0, 0, 0, 0, 0, 
80, 1, 80, 80, -1, -7.0831347370678355, -2.354847949241719, 1.8501365767119495, 1.7778674241369, ABarpapa, 0, 0, 0, 0, , 0, 0, 0, 0, 0, 
71, 1, 71, 71, -1, -12.240232778936816, 0.6710833323370183, 1.0686039563394787, 1.7778674241369, ABarppaa, 0, 0, 0, 0, , 0, 0, 0, 0, 0, 
10, 1, 10, 10, -1, -1.3082795121134454, 2.9855322626916, -6.784526510818306, 1.7778674241369, ABalappp, 0, 0, 0, 0, , 0, 0, 0, 0, 0, 
123, 1, 123, 123, -1, 0.9302686396960473, 1.8623681750758452, 0.24934223531726973, 1.6044169437333, MSppaa, 0, 0, 0, 0, , 0, 0, 0, 0, 0, 
16, 1, 16, 16, -1, -4.617369825065635, -0.11704950747342482, 0.41701746201442624, 1.7778674241369, ABarpapp, 0, 0, 0, 0, , 0, 0, 0, 0, 0, 
47, 1, 47, 47, -1, 0.2606215456810644, 1.6423303351066707, 3.8425108883081376, 1.6044169437333, MSpaap, 0, 0, 0, 0, , 0, 0, 0, 0, 0, 
130, 1, 130, 130, -1, -4.009905892344746, 6.820694503900525, -1.4304147641234395, 1.6044169437333, MSapaa, 0, 0, 0, 0, , 0, 0, 0, 0, 0, 
12, 1, 12, 12, -1, 1.9641844330492793, -3.889990724040604, 0.18004565345581952, 1.6911421839350995, ABplappp, 0, 0, 0, 0, , 0, 0, 0, 0, 0, 
27, 1, 27, 27, -1, 5.767624003695774, 1.406411844254795, 2.9813293339666664, 1.84415740659, Caap, 0, 0, 0, 0, , 0, 0, 0, 0, 0, 
116, 1, 116, 116, -1, -5.265769811332192, 5.606698298596596, 3.7500192382397093, 1.6044169437333, MSaapa, 0, 0, 0, 0, , 0, 0, 0, 0, 0, 
64, 1, 64, 64, -1, -9.767708838203054, 4.286454833172418, 1.67714110375826, 1.7778674241369, ABalpapa, 0, 0, 0, 0, , 0, 0, 0, 0, 0, 
53, 1, 53, 53, -1, 3.8545950469833676, -7.037018255972121, 0.7821683936323578, 1.84415740659, Cpaa, 0, 0, 0, 0, , 0, 0, 0, 0, 0, 
25, 1, 25, 25, -1, 1.4552081803999533, 4.462867306016225, 5.892880904334466, 1.6044169437333, MSpapp, 0, 0, 0, 0, , 0, 0, 0, 0, 0, 
69, 1, 69, 69, -1, -6.014553516851079, -1.3256984982265543, -6.382108441692405, 1.7778674241369, ABalapaa, 0, 0, 0, 0, , 0, 0, 0, 0, 0, 
124, 1, 124, 124, -1, 2.811190879610649, 3.882060009585643, 2.59999508834504, 1.6044169437333, MSpppa, 0, 0, 0, 0, , 0, 0, 0, 0, 0, 
77, 1, 77, 77, -1, 7.885095328966976, -1.0197915310840322, 5.668644924794563, 1.6911421839350995, ABprppaa, 0, 0, 0, 0, , 0, 0, 0, 0, 0, 
92, 1, 92, 92, -1, 1.1468174247453229, -3.825431258924446, -6.356718984755962, 1.6911421839350995, ABplppaa, 0, 0, 0, 0, , 0, 0, 0, 0, 0, 
55, 1, 55, 55, -1, -4.123427142005361, -2.503341703155508, -2.2613327481913035, 1.6911421839350995, ABplaapa, 0, 0, 0, 0, , 0, 0, 0, 0, 0, 
28, 1, 28, 28, -1, 6.183192886241656, -4.325593813970746, -0.23148056075650228, 1.84415740659, Cpap, 0, 0, 0, 0, , 0, 0, 0, 0, 0, 
29, 1, 29, 29, -1, -2.983397367357808, -4.984871192535625, 5.230474677409236, 1.7778674241369, ABarapap, 0, 0, 0, 0, , 0, 0, 0, 0, 0, 
74, 1, 74, 74, -1, -10.432095267756086, -1.5507425788911606, 3.7458156692379334, 1.7778674241369, ABaraaaa, 0, 0, 0, 0, , 0, 0, 0, 0, 0, 
58, 1, 58, 58, -1, 1.1024868419904037, -0.5663572670086253, -3.761952832906206, 1.6911421839350995, ABplpapa, 0, 0, 0, 0, , 0, 0, 0, 0, 0, 
11, 1, 11, 11, -1, 6.083781802057861, -2.2228554328516656, 2.7426057922772547, 1.6911421839350995, ABprappp, 0, 0, 0, 0, , 0, 0, 0, 0, 0, 
82, 1, 82, 82, -1, -10.711217361753508, 3.342147670085068, -1.7382595305132085, 1.7778674241369, ABalpaaa, 0, 0, 0, 0, , 0, 0, 0, 0, 0, 
111, 1, 111, 111, -1, -1.210413671651849, 2.0208006635150886, 7.132596119037266, 1.6044169437333, MSpapa, 0, 0, 0, 0, , 0, 0, 0, 0, 0, 
78, 1, 78, 78, -1, 5.090647864844137, 1.0852758642282998, 6.705587919898207, 1.6911421839350995, ABprpapa, 0, 0, 0, 0, , 0, 0, 0, 0, 0, 
132, 1, 132, 132, 152, -0.9731607381807523, 2.350102528387626, -2.785761276832853, 1.84415740659, Eara, 0, 0, 0, 0, , 0, 0, 0, 0, 0, 
15, 1, 15, 15, -1, 8.461683016056929, -0.1476351143441431, 0.1938286875487772, 1.84415740659, Capp, 0, 0, 0, 0, , 0, 0, 0, 0, 0, 
91, 1, 91, 91, -1, 9.649008801560187, 1.6507026041874013, 3.9501647228258503, 1.6911421839350995, ABprpppa, 0, 0, 0, 0, , 0, 0, 0, 0, 0, 
3, 1, 3, 3, -1, 5.338934677512625, 6.41733740565081, 2.0154629887778546, 1.6044169437333, MSpppp, 0, 0, 0, 0, , 0, 0, 0, 0, 0, 
13, 1, 13, 13, -1, 1.2798134944922182, 7.1340472187062876, 2.02970785536994, 1.6044169437333, MSappp, 0, 0, 0, 0, , 0, 0, 0, 0, 0, 
35, 1, 35, 35, -1, -6.34663432107122, -5.75413843854759, -1.443235528200884, 1.7778674241369, ABarpaap, 0, 0, 0, 0, , 0, 0, 0, 0, 0, 
48, 1, 48, 48, -1, 10.771997061673224, 1.188986180608039, -3.9086291595173184, 1.84415740659, Dap, 0, 0, 0, 0, , 0, 0, 0, 0, 0, 
62, 1, 62, 62, -1, 4.802102381428577, -5.555269080745873, 4.047019132305732, 1.6911421839350995, ABprappa, 0, 0, 0, 0, , 0, 0, 0, 0, 0, 
45, 1, 45, 45, 153, 3.962364492071695, 7.154679032130173, -1.2613052573240258, 1.84415740659, Ealp, 0, 0, 0, 0, , 0, 0, 0, 0, 0, 
4, 1, 4, 4, 154, 7.274637916261824, 5.870395202744229, -1.4180658760220366, 2.119721157, Z3, 0, 0, 0, 0, , 0, 0, 0, 0, 0, 
60, 1, 60, 60, 155, 10.301081653679573, 3.9856634994700637, -1.20928918557702, 2.119721157, Z2, 0, 0, 0, 0, , 0, 0, 0, 0, 0, 
41, 1, 41, 41, -1, 4.557371296057988, -2.4388502116901574, 6.033813224177054, 1.6911421839350995, ABprpaap, 0, 0, 0, 0, , 0, 0, 0, 0, 0, 
65, 1, 65, 65, -1, -5.698990092688623, -4.562959041465141, -4.788955830776398, 1.6911421839350995, ABplaaaa, 0, 0, 0, 0, , 0, 0, 0, 0, 0, 
73, 1, 73, 73, -1, -3.116754239442425, -7.1096825642849195, 1.190725378010251, 1.6911421839350995, ABpraaaa, 0, 0, 0, 0, , 0, 0, 0, 0, 0, 
8, 1, 8, 8, -1, 12.066831139916887, -1.1668981860683534, -1.34737752216074, 1.84415740659, Cppp, 0, 0, 0, 0, , 0, 0, 0, 0, 0, 
40, 1, 40, 40, -1, 4.659585812219474, -6.265500077481136, -2.9087181754074805, 1.6911421839350995, ABplapap, 0, 0, 0, 0, , 0, 0, 0, 0, 0, 
23, 1, 23, 23, -1, -6.874371758130133, 0.02982795181741322, -3.0652857508915585, 1.7778674241369, ABalaapp, 0, 0, 0, 0, , 0, 0, 0, 0, 0, 
112, 1, 112, 112, -1, -3.323280139987813, 1.1646133293055794, 3.550835154770369, 1.6044169437333, MSpaaa, 0, 0, 0, 0, , 0, 0, 0, 0, 0, 
14, 1, 14, 14, 156, 2.635373656089311, 2.7380110598544167, -2.822806003878755, 1.84415740659, Earp, 0, 0, 0, 0, , 0, 0, 0, 0, 0, 
26, 1, 26, 26, -1, -2.058523513889461, 5.0476915844494465, 5.329179294905927, 1.6044169437333, MSaapp, 0, 0, 0, 0, , 0, 0, 0, 0, 0, 
30, 1, 30, 30, -1, 1.2001658080472817, -1.9146502801725893, 3.240136727742033, 1.6911421839350995, ABprapap, 0, 0, 0, 0, , 0, 0, 0, 0, 0, 
39, 1, 39, 39, -1, -8.60629208799801, 0.8771061387346719, 1.2677333227524383, 1.7778674241369, ABarppap, 0, 0, 0, 0, , 0, 0, 0, 0, 0, 
22, 1, 22, 22, -1, 11.980026047841195, 1.6313899550384978, 1.0866359434888193, 2.119721157, Dp, 0, 0, 0, 0, , 0, 0, 0, 0, 0, 
50, 1, 50, 50, -1, 5.201490827018259, 3.0979045213052214, -0.21299713990726873, 1.6044169437333, MSppap, 0, 0, 0, 0, , 0, 0, 0, 0, 0, 
148, 1, 148, 148, 157, 2.0579940160659733, 6.459763393007118, -1.4552204504616764, 1.84415740659, Eala, 0, 0, 0, 0, , 0, 0, 0, 0, 0, 
