38, 1, 38, 38, -1, -3.0816773129367716, -6.987163442190312, -1.8201463219938168, 1.6911421839350995, ABpraaap, 0, 0, 0, 0, , 0, 0, 0, 0, 0, 
109, 1, 109, 109, -1, -8.353060728097496, 2.9569719432630226, 4.656874579012979, 1.6044169437333, MSaaaa, 0, 0, 0, 0, , 0, 0, 0, 0, 0, 
88, 1, 88, 88, -1, -5.111518913435542, 2.1652793086054554, -6.434472358756643, 1.7778674241369, ABalppaa, 0, 0, 0, 0, , 0, 0, 0, 0, 0, 
64, 1, 64, 64, -1, -10.06682021251718, 4.033013362114057, 1.6761319410405358, 1.7778674241369, ABalpapa, 0, 0, 0, 0, , 0, 0, 0, 0, 0, 
63, 1, 63, 63, -1, -6.0740905182713805, 2.927542602114436, -1.0839378910170607, 1.7778674241369, ABarpppa, 0, 0, 0, 0, , 0, 0, 0, 0, 0, 
34, 1, 34, 34, -1, -7.436206874021632, 4.030553161534069, -4.396188372789929, 1.7778674241369, ABalpaap, 0, 0, 0, 0, , 0, 0, 0, 0, 0, 
30, 1, 30, 30, -1, 1.0245859229555863, -2.0649197701545328, 3.373136378768216, 1.6911421839350995, ABprapap, 0, 0, 0, 0, , 0, 0, 0, 0, 0, 
45, 1, 45, 45, 218, 3.5519675550889036, 7.122043943766648, -0.3891318857184866, 1.84415740659, Ealp, 0, 0, 0, 0, , 0, 0, 0, 0, 0, 
78, 1, 78, 78, -1, 4.318271478102647, 1.0946441842633092, 6.900696909724877, 1.6911421839350995, ABprpapa, 0, 0, 0, 0, , 0, 0, 0, 0, 0, 
83, 1, 83, 83, -1, -0.06010741777033051, -7.45147469452519, 0.03664636996982028, 1.6911421839350995, ABplappa, 0, 0, 0, 0, , 0, 0, 0, 0, 0, 
79, 1, 79, 79, -1, 4.061898659618493, -0.19631936340863276, -2.4447138003270545, 1.84415740659, Capa, 0, 0, 0, 0, , 0, 0, 0, 0, 0, 
77, 1, 77, 77, -1, 7.336468575019561, -0.626595150039751, 5.985517843115134, 1.6911421839350995, ABprppaa, 0, 0, 0, 0, , 0, 0, 0, 0, 0, 
112, 1, 112, 112, -1, -3.0860049343673053, 0.5246746970392319, 3.7352186328962, 1.6044169437333, MSpaaa, 0, 0, 0, 0, , 0, 0, 0, 0, 0, 
14, 1, 14, 14, 219, 1.4062399469521045, 2.2437270910035, -2.2798370600989686, 1.84415740659, Earp, 0, 0, 0, 0, , 0, 0, 0, 0, 0, 
71, 1, 71, 71, -1, -12.141373658078864, 0.9438562495829885, 1.2560009520046835, 1.7778674241369, ABarppaa, 0, 0, 0, 0, , 0, 0, 0, 0, 0, 
51, 1, 51, 51, -1, -2.423385517474395, 7.277845214513477, -0.6895950145721996, 1.6044169437333, MSapap, 0, 0, 0, 0, , 0, 0, 0, 0, 0, 
49, 1, 49, 49, -1, -5.08260386123168, 2.683747602172009, 6.251047120573209, 1.6044169437333, MSaaap, 0, 0, 0, 0, , 0, 0, 0, 0, 0, 
67, 1, 67, 67, -1, -0.43109850449754594, -6.575838040287987, 3.4957030092015318, 1.6911421839350995, ABprapaa, 0, 0, 0, 0, , 0, 0, 0, 0, 0, 
165, 1, 165, 165, 220, 5.940561814431137, -2.1568816207264017, -4.809479885437349, 1.84415740659, Epra, 0, 0, 0, 0, , 0, 0, 0, 0, 0, 
53, 1, 53, 53, -1, 3.1636583802586373, -7.032050685034144, 1.5711921256782586, 1.84415740659, Cpaa, 0, 0, 0, 0, , 0, 0, 0, 0, 0, 
93, 1, 93, 93, -1, -11.893896169228166, -2.006260285657543, -0.8101580042903546, 1.7778674241369, ABalaaaa, 0, 0, 0, 0, , 0, 0, 0, 0, 0, 
44, 1, 44, 44, -1, -4.4647315720659, -2.225549947456306, -6.588485488042167, 1.7778674241369, ABalapap, 0, 0, 0, 0, , 0, 0, 0, 0, 0, 
13, 1, 13, 13, -1, 0.8551966969157168, 7.161480482240571, 1.992633199233155, 1.6044169437333, MSappp, 0, 0, 0, 0, , 0, 0, 0, 0, 0, 
111, 1, 111, 111, -1, -1.800961386115618, 1.5052302890344273, 7.209913990918396, 1.6044169437333, MSpapa, 0, 0, 0, 0, , 0, 0, 0, 0, 0, 
27, 1, 27, 27, -1, 6.043175111798064, 1.7349376047823866, 2.6869861551922694, 1.84415740659, Caap, 0, 0, 0, 0, , 0, 0, 0, 0, 0, 
73, 1, 73, 73, -1, -3.541130450828938, -6.926615644684477, 1.7477829041946225, 1.6911421839350995, ABpraaaa, 0, 0, 0, 0, , 0, 0, 0, 0, 0, 
86, 1, 86, 86, -1, 1.4606517788617304, -4.593749380091287, 5.81533514222834, 1.6911421839350995, ABprpaaa, 0, 0, 0, 0, , 0, 0, 0, 0, 0, 
7, 1, 7, 7, 221, 8.407307392228292, 0.3435493146578098, -5.479628058988681, 1.84415740659, Eprp, 0, 0, 0, 0, , 0, 0, 0, 0, 0, 
59, 1, 59, 59, -1, 8.552191162719696, -5.280518071957264, 1.1508025738530572, 1.84415740659, Cppa, 0, 0, 0, 0, , 0, 0, 0, 0, 0, 
48, 1, 48, 48, -1, 11.176154639639561, 0.8226623976888389, -3.15416056606785, 1.84415740659, Dap, 0, 0, 0, 0, , 0, 0, 0, 0, 0, 
160, 1, 160, 160, -1, 10.416301662499954, -0.2520519054518283, 2.112127189611652, 1.84415740659, Dpa, 0, 0, 0, 0, , 0, 0, 0, 0, 0, 
62, 1, 62, 62, -1, 4.704425339004438, -5.363423040954621, 4.340077577888698, 1.6911421839350995, ABprappa, 0, 0, 0, 0, , 0, 0, 0, 0, 0, 
123, 1, 123, 123, -1, 0.15403817220156762, 1.9516803280900574, 1.0404261183687817, 1.6044169437333, MSppaa, 0, 0, 0, 0, , 0, 0, 0, 0, 0, 
33, 1, 33, 33, -1, 2.007096328494015, 0.6132080969502318, -7.324726547064672, 1.6911421839350995, ABplpaap, 0, 0, 0, 0, , 0, 0, 0, 0, 0, 
56, 1, 56, 56, -1, -6.731333237208365, -3.7468951612200803, 5.012758208734686, 1.7778674241369, ABarapaa, 0, 0, 0, 0, , 0, 0, 0, 0, 0, 
75, 1, 75, 75, -1, -1.1769322757253764, -1.0428257139369577, -7.3464744307095105, 1.6911421839350995, ABplpaaa, 0, 0, 0, 0, , 0, 0, 0, 0, 0, 
15, 1, 15, 15, -1, 7.515716383916067, -1.3542251955400528, 0.25729495501301314, 1.84415740659, Capp, 0, 0, 0, 0, , 0, 0, 0, 0, 0, 
19, 1, 19, 19, -1, -1.1832931343598339, -1.358464366971143, 0.600570627641425, 1.6911421839350995, ABpraapp, 0, 0, 0, 0, , 0, 0, 0, 0, 0, 
130, 1, 130, 130, -1, -5.39789186448221, 6.255935720622473, -2.413430619874811, 1.6044169437333, MSapaa, 0, 0, 0, 0, , 0, 0, 0, 0, 0, 
43, 1, 43, 43, -1, -9.88311302309901, -2.4395269764190997, -3.7917770073511976, 1.7778674241369, ABalaaap, 0, 0, 0, 0, , 0, 0, 0, 0, 0, 
32, 1, 32, 32, -1, -9.615903470389673, -4.7198933224170165, -0.09254615257143706, 1.7778674241369, ABaraaap, 0, 0, 0, 0, , 0, 0, 0, 0, 0, 
18, 1, 18, 18, -1, 5.339619676418437, 4.139844215887311, 5.302542130271557, 1.6911421839350995, ABprpapp, 0, 0, 0, 0, , 0, 0, 0, 0, 0, 
54, 1, 54, 54, -1, 0.13680687747997355, -6.603593245482891, -3.4391097214794377, 1.6911421839350995, ABplapaa, 0, 0, 0, 0, , 0, 0, 0, 0, 0, 
22, 1, 22, 22, -1, 11.674124362538747, 2.5535650335091167, 0.210380389257688, 1.84415740659, Dpp, 0, 0, 0, 0, , 0, 0, 0, 0, 0, 
3, 1, 3, 3, -1, 5.64702780553263, 6.193497003978241, 2.376146097012057, 1.6044169437333, MSpppp, 0, 0, 0, 0, , 0, 0, 0, 0, 0, 
2, 1, 2, 2, -1, -3.3563359179638583, 3.3725598135102177, 1.3866978129243785, 1.7778674241369, ABarpppp, 0, 0, 0, 0, , 0, 0, 0, 0, 0, 
50, 1, 50, 50, -1, 4.609734692300583, 3.2256100238894367, -0.5885525247484831, 1.6044169437333, MSppap, 0, 0, 0, 0, , 0, 0, 0, 0, 0, 
6, 1, 6, 6, -1, 9.577660539605168, -4.210140060279215, -2.196827528382483, 1.6911421839350995, ABplpppp, 0, 0, 0, 0, , 0, 0, 0, 0, 0, 
46, 1, 46, 46, 222, 7.13826057709993, 3.6361099537120247, -4.897232136788228, 1.84415740659, Eplp, 0, 0, 0, 0, , 0, 0, 0, 0, 0, 
65, 1, 65, 65, -1, -6.878185031960662, -4.210965666138937, -4.557547986181033, 1.6911421839350995, ABplaaaa, 0, 0, 0, 0, , 0, 0, 0, 0, 0, 
87, 1, 87, 87, -1, 6.356028162524995, -5.411768147262406, -3.4165027903795444, 1.6911421839350995, ABplpppa, 0, 0, 0, 0, , 0, 0, 0, 0, 0, 
28, 1, 28, 28, -1, 5.21753966445961, -4.2430951983023855, -0.09592528976995551, 1.84415740659, Cpap, 0, 0, 0, 0, , 0, 0, 0, 0, 0, 
24, 1, 24, 24, -1, 2.6201369829893606, -3.4805871765221434, -2.965935146842337, 1.6911421839350995, ABplpapp, 0, 0, 0, 0, , 0, 0, 0, 0, 0, 
210, 1, 210, 210, 223, 2.9283830543453795, -0.30962533216317656, 0.980355282636147, 1.6044169437333, Caaaa, 0, 0, 0, 0, , 0, 0, 0, 0, 0, 
11, 1, 11, 11, -1, 5.582466383612626, -2.0689394587968803, 3.220546912200443, 1.6911421839350995, ABprappp, 0, 0, 0, 0, , 0, 0, 0, 0, 0, 
8, 1, 8, 8, -1, 11.97614319843671, -1.8449000275206104, -0.7832606697204647, 1.84415740659, Cppp, 0, 0, 0, 0, , 0, 0, 0, 0, 0, 
66, 1, 66, 66, -1, -1.5456929595772069, -2.884057300535007, 6.810267467360048, 1.7778674241369, ABarappa, 0, 0, 0, 0, , 0, 0, 0, 0, 0, 
74, 1, 74, 74, -1, -10.585351605740536, -1.6203965000826757, 3.542310743726087, 1.7778674241369, ABaraaaa, 0, 0, 0, 0, , 0, 0, 0, 0, 0, 
82, 1, 82, 82, -1, -10.040646209020963, 3.954183254688102, -1.9056332228666881, 1.7778674241369, ABalpaaa, 0, 0, 0, 0, , 0, 0, 0, 0, 0, 
60, 1, 60, 60, 224, 9.662155563537793, 4.045979668077787, -2.3692406023415886, 2.119721157, Z2, 0, 0, 0, 0, , 0, 0, 0, 0, 0, 
80, 1, 80, 80, -1, -7.37131096483564, -2.2408026449493876, 1.793966291771051, 1.7778674241369, ABarpapa, 0, 0, 0, 0, , 0, 0, 0, 0, 0, 
61, 1, 61, 61, -1, -6.94253918004019, -5.815753110639366, 2.083720531995866, 1.7778674241369, ABarpaaa, 0, 0, 0, 0, , 0, 0, 0, 0, 0, 
9, 1, 9, 9, -1, 1.2695794741773878, -0.7271574154597863, 7.3684133546680135, 1.7778674241369, ABarappp, 0, 0, 0, 0, , 0, 0, 0, 0, 0, 
150, 1, 150, 150, -1, 7.32950693320843, 1.2982949349443065, -2.167428697550722, 1.84415740659, Daa, 0, 0, 0, 0, , 0, 0, 0, 0, 0, 
42, 1, 42, 42, -1, 2.96865934972705, -2.7674362573484563, -6.6911413299915194, 1.6911421839350995, ABplppap, 0, 0, 0, 0, , 0, 0, 0, 0, 0, 
39, 1, 39, 39, -1, -8.606981397484905, 0.9287446130805808, 0.5889383603441773, 1.7778674241369, ABarppap, 0, 0, 0, 0, , 0, 0, 0, 0, 0, 
23, 1, 23, 23, -1, -6.989398169499178, -0.3944034048151772, -2.339392522903892, 1.7778674241369, ABalaapp, 0, 0, 0, 0, , 0, 0, 0, 0, 0, 
47, 1, 47, 47, -1, 0.5292361762533194, 1.3033980282883504, 4.522043575320396, 1.6044169437333, MSpaap, 0, 0, 0, 0, , 0, 0, 0, 0, 0, 
37, 1, 37, 37, -1, -3.233490682089413, 5.1158141462875175, -5.061664208543984, 1.7778674241369, ABalppap, 0, 0, 0, 0, , 0, 0, 0, 0, 0, 
58, 1, 58, 58, -1, 0.6796939744060099, -0.7023654109917864, -4.239451497948972, 1.6911421839350995, ABplpapa, 0, 0, 0, 0, , 0, 0, 0, 0, 0, 
158, 1, 158, 158, 225, 3.7061663007573125, 2.6846831283823476, -4.966775188958754, 1.84415740659, Epla, 0, 0, 0, 0, , 0, 0, 0, 0, 0, 
148, 1, 148, 148, 226, 0.5854135089046898, 5.673169325243702, -1.7566190961774033, 1.84415740659, Eala, 0, 0, 0, 0, , 0, 0, 0, 0, 0, 
36, 1, 36, 36, -1, 9.149163279459033, -3.0562437048364046, 4.006997169423575, 1.6911421839350995, ABprppap, 0, 0, 0, 0, , 0, 0, 0, 0, 0, 
116, 1, 116, 116, -1, -5.764873014522327, 5.329199027362687, 3.8838290030095792, 1.6044169437333, MSaapa, 0, 0, 0, 0, , 0, 0, 0, 0, 0, 
76, 1, 76, 76, -1, -7.854412480180047, -0.41638012122633844, 5.7568006102923315, 1.7778674241369, ABaraapa, 0, 0, 0, 0, , 0, 0, 0, 0, 0, 
12, 1, 12, 12, -1, 1.3351636768879371, -4.113428032488107, 0.3783254848466182, 1.6911421839350995, ABplappp, 0, 0, 0, 0, , 0, 0, 0, 0, 0, 
124, 1, 124, 124, -1, 2.7900073083703956, 3.97164665187886, 2.51743617544213, 1.6044169437333, MSpppa, 0, 0, 0, 0, , 0, 0, 0, 0, 0, 
128, 1, 128, 128, -1, -2.6185571277122826, 6.7088840189581616, 2.8257148919816237, 1.6044169437333, MSappa, 0, 0, 0, 0, , 0, 0, 0, 0, 0, 
31, 1, 31, 31, -1, -3.4435503721572225, -5.207704410330155, -4.904070592314556, 1.6911421839350995, ABplaaap, 0, 0, 0, 0, , 0, 0, 0, 0, 0, 
70, 1, 70, 70, -1, 0.36116501690306546, 5.134053635506776, -5.391419253470304, 1.7778674241369, ABalpppa, 0, 0, 0, 0, , 0, 0, 0, 0, 0, 
21, 1, 21, 21, 227, -0.9506063949870929, -3.336383231269174, -2.4094532293915383, 1.6911421839350995, ABplaapp, 0, 0, 0, 0, , 0, 0, 0, 0, 0, 
35, 1, 35, 35, -1, -6.58109958165712, -6.14078028277881, -1.5135103764560354, 1.7778674241369, ABarpaap, 0, 0, 0, 0, , 0, 0, 0, 0, 0, 
16, 1, 16, 16, -1, -4.599652591106807, -0.047334450260307324, 0.39512063690526056, 1.7778674241369, ABarpapp, 0, 0, 0, 0, , 0, 0, 0, 0, 0, 
69, 1, 69, 69, -1, -7.512599144978998, -0.4687115090482887, -5.909183843486637, 1.7778674241369, ABalapaa, 0, 0, 0, 0, , 0, 0, 0, 0, 0, 
52, 1, 52, 52, 228, 3.4302082040515143, -0.13050581993452084, 1.129255355887911, 1.6044169437333, Caaap, 0, 0, 0, 0, , 0, 0, 0, 0, 0, 
26, 1, 26, 26, -1, -1.7131452861173142, 4.72665413568528, 5.6647539231638975, 1.6044169437333, MSaapp, 0, 0, 0, 0, , 0, 0, 0, 0, 0, 
4, 1, 4, 4, 229, 6.83744204255289, 6.0648438719069935, -1.3940093551070174, 2.119721157, Z3, 0, 0, 0, 0, , 0, 0, 0, 0, 0, 
25, 1, 25, 25, -1, 1.8215962663733345, 4.284511333302704, 5.994680429253595, 1.6044169437333, MSpapp, 0, 0, 0, 0, , 0, 0, 0, 0, 0, 
40, 1, 40, 40, -1, 3.4124599963056292, -6.873229105335246, -2.013276026969193, 1.6911421839350995, ABplapap, 0, 0, 0, 0, , 0, 0, 0, 0, 0, 
96, 1, 96, 96, -1, -3.3884709452829336, 0.08730308140297548, -3.8806161493355535, 1.7778674241369, ABalappa, 0, 0, 0, 0, , 0, 0, 0, 0, 0, 
1, 1, 1, 1, -1, 9.060973681103599, 4.803682434837615, 1.6881699031792259, 1.6911421839350995, ABprpppp, 0, 0, 0, 0, , 0, 0, 0, 0, 0, 
132, 1, 132, 132, 230, -2.1875033657437926, 3.11961299092696, -2.114444160438153, 1.84415740659, Eara, 0, 0, 0, 0, , 0, 0, 0, 0, 0, 
29, 1, 29, 29, -1, -3.4631132043930024, -5.211443507714045, 4.895073707397627, 1.7778674241369, ABarapap, 0, 0, 0, 0, , 0, 0, 0, 0, 0, 
41, 1, 41, 41, -1, 4.279553384689136, -2.4851827386775436, 6.533865684599172, 1.6911421839350995, ABprpaap, 0, 0, 0, 0, , 0, 0, 0, 0, 0, 
84, 1, 84, 84, -1, -10.189503745012335, 1.1248381710044044, -4.112405871199614, 1.7778674241369, ABalaapa, 0, 0, 0, 0, , 0, 0, 0, 0, 0, 
55, 1, 55, 55, -1, -4.5214958829822525, -3.0189334301031288, -2.0667542949365605, 1.6911421839350995, ABplaapa, 0, 0, 0, 0, , 0, 0, 0, 0, 0, 
57, 1, 57, 57, -1, -3.9401091173280878, -3.33747237473575, 1.8472074615378715, 1.6911421839350995, ABpraapa, 0, 0, 0, 0, , 0, 0, 0, 0, 0, 
17, 1, 17, 17, -1, -4.487503528480159, -0.8430167426046203, 6.8963783433416745, 1.7778674241369, ABaraapp, 0, 0, 0, 0, , 0, 0, 0, 0, 0, 
5, 1, 5, 5, -1, 3.4838284486322726, 6.053189402824206, -3.811210222600652, 1.7778674241369, ABalpppp, 0, 0, 0, 0, , 0, 0, 0, 0, 0, 
92, 1, 92, 92, -1, -0.21874973970136888, -4.261121875707422, -6.110443746329903, 1.6911421839350995, ABplppaa, 0, 0, 0, 0, , 0, 0, 0, 0, 0, 
91, 1, 91, 91, -1, 9.060853644978998, 2.26476527662299, 4.572673576576559, 1.6911421839350995, ABprpppa, 0, 0, 0, 0, , 0, 0, 0, 0, 0, 
20, 1, 20, 20, 231, -7.234901640990422, 6.0184976169255515, 0.6747006647020263, 1.7778674241369, ABalpapp, 0, 0, 0, 0, , 0, 0, 0, 0, 0, 
10, 1, 10, 10, -1, -1.5547536925479901, 2.5125393524122517, -6.945115310576134, 1.7778674241369, ABalappp, 0, 0, 0, 0, , 0, 0, 0, 0, 0, 
