8, 1, 8, 8, 697, 12.189094805752797, -1.3957915918010515, -0.2807293122704642, 1.84415740659, Cppp, 0, 0, 0, 0, , 0, 0, 0, 0, 0, 
17, 1, 17, 17, 698, -2.738899281452863, 0.03603585030519195, 7.191171386411316, 1.546744658999103, ABaraappp, 0, 0, 0, 0, , 0, 0, 0, 0, 0, 
461, 1, 461, 461, 699, -8.771330014755495, -1.9215679645385864, 1.764799478472601, 1.546744658999103, ABarpapaa, 0, 0, 0, 0, , 0, 0, 0, 0, 0, 
75, 1, 75, 75, 700, 0.9586045015718268, -0.945504659208322, -7.3680707877144505, 1.4712937000235367, ABplpaaap, 0, 0, 0, 0, , 0, 0, 0, 0, 0, 
600, 1, 600, 600, 701, -4.054942153630591, 4.998823587468109, -5.110250692881588, 1.546744658999103, ABalppapa, 0, 0, 0, 0, , 0, 0, 0, 0, 0, 
64, 1, 64, 64, 702, -9.51839856720212, 3.9806485894147934, 2.665491168446426, 1.546744658999103, ABalpapap, 0, 0, 0, 0, , 0, 0, 0, 0, 0, 
71, 1, 71, 71, 703, -12.186354318598935, -0.03597346533302563, 0.9643310861579123, 1.546744658999103, ABarppaap, 0, 0, 0, 0, , 0, 0, 0, 0, 0, 
69, 1, 69, 69, 704, -7.742101762056347, 0.49474601475464364, -5.995721122143815, 1.546744658999103, ABalapaap, 0, 0, 0, 0, , 0, 0, 0, 0, 0, 
484, 1, 484, 484, 705, 7.885136144908814, 0.5777326658154883, 4.718464837138977, 1.4712937000235367, ABprpppaa, 0, 0, 0, 0, , 0, 0, 0, 0, 0, 
79, 1, 79, 79, -1, 5.162872218851724, -0.014027927587341872, -2.608644177271036, 1.84415740659, Capa, 0, 0, 0, 0, , 0, 0, 0, 0, 0, 
34, 1, 34, 34, 706, -6.40144674197762, 5.2287705322598965, -3.6531993967794234, 1.546744658999103, ABalpaapp, 0, 0, 0, 0, , 0, 0, 0, 0, 0, 
325, 1, 325, 325, 707, -1.0512995888371537, -0.7999115557427551, -4.128949615234897, 1.4712937000235367, ABplpapaa, 0, 0, 0, 0, , 0, 0, 0, 0, 0, 
84, 1, 84, 84, -1, -10.483463813144917, 1.1693289721082751, -3.824366238453936, 1.7778674241369, ABalaapa, 0, 0, 0, 0, , 0, 0, 0, 0, 0, 
53, 1, 53, 53, 708, 5.515962706474009, -6.572730709848993, 1.2315883207202822, 1.6044169437333, Cpaap, 0, 0, 0, 0, , 0, 0, 0, 0, 0, 
46, 1, 46, 46, 709, 7.57153610197684, 3.6880330292704646, -4.616340416249153, 1.84415740659, Eplp, 0, 0, 0, 0, , 0, 0, 0, 0, 0, 
330, 1, 330, 330, 710, -8.327512247788187, -3.843757198039796, 3.9738310389568245, 1.546744658999103, ABarapaaa, 0, 0, 0, 0, , 0, 0, 0, 0, 0, 
240, 1, 240, 240, 711, 3.7312476891353796, -3.707959076154417, -1.2451888049954842, 1.6044169437333, Cpapa, 0, 0, 0, 0, , 0, 0, 0, 0, 0, 
38, 1, 38, 38, 712, -1.6383685575727867, -6.4334487351704785, -3.116977123918578, 1.4712937000235367, ABpraaapp, 0, 0, 0, 0, , 0, 0, 0, 0, 0, 
36, 1, 36, 36, 713, 9.637384386538798, -2.8640749734901645, 3.9483358116434957, 1.4712937000235367, ABprppapp, 0, 0, 0, 0, , 0, 0, 0, 0, 0, 
12, 1, 12, 12, -1, 2.220631119972256, -3.825194988403924, 1.6782215570800572, 1.6911421839350995, ABplappp, 0, 0, 0, 0, , 0, 0, 0, 0, 0, 
9, 1, 9, 9, 714, 1.937522376049646, -1.5039350634757451, 7.196695802722299, 1.546744658999103, ABarapppp, 0, 0, 0, 0, , 0, 0, 0, 0, 0, 
112, 1, 112, 112, -1, -3.1400205107266608, 0.3773517212411299, 3.8466177545865907, 1.6044169437333, MSpaaa, 0, 0, 0, 0, , 0, 0, 0, 0, 0, 
647, 1, 647, 647, 715, 4.241204613560393, -2.857783464241502, 6.264868439674737, 1.4712937000235367, ABprpaapa, 0, 0, 0, 0, , 0, 0, 0, 0, 0, 
128, 1, 128, 128, -1, -2.125162512402524, 6.912033106006216, 2.452522491878618, 1.6044169437333, MSappa, 0, 0, 0, 0, , 0, 0, 0, 0, 0, 
15, 1, 15, 15, -1, 8.871978330535354, -1.5227176483856981, 0.8815807152373304, 1.84415740659, Capp, 0, 0, 0, 0, , 0, 0, 0, 0, 0, 
116, 1, 116, 116, -1, -6.385807371165001, 5.337336074750733, 3.5033171629257187, 1.6044169437333, MSaapa, 0, 0, 0, 0, , 0, 0, 0, 0, 0, 
77, 1, 77, 77, 716, 6.6051389512393985, -0.9268289921357831, 6.245204739053117, 1.6911421839350995, ABprppaa, 0, 0, 0, 0, , 0, 0, 0, 0, 0, 
320, 1, 320, 320, 717, -4.056660927963015, -6.644326124185407, -2.319083779250634, 1.4712937000235367, ABpraaapa, 0, 0, 0, 0, , 0, 0, 0, 0, 0, 
124, 1, 124, 124, -1, 2.8579531438380985, 3.7823920209863044, 1.7445308455257529, 1.6044169437333, MSpppa, 0, 0, 0, 0, , 0, 0, 0, 0, 0, 
22, 1, 22, 22, -1, 11.830641578116934, 2.2545992112316093, 0.33524624466397324, 1.84415740659, Dpp, 0, 0, 0, 0, , 0, 0, 0, 0, 0, 
73, 1, 73, 73, 718, -3.2590567512919666, -6.924766553970164, 1.9294758356460369, 1.4712937000235367, ABpraaaap, 0, 0, 0, 0, , 0, 0, 0, 0, 0, 
397, 1, 397, 397, 719, -5.205980599074933, -1.14510954755777, 6.670072497204517, 1.546744658999103, ABaraappa, 0, 0, 0, 0, , 0, 0, 0, 0, 0, 
231, 1, 231, 231, 720, -7.850287662938972, 5.7467960790947865, 0.6066991809339315, 1.546744658999103, ABalpappa, 0, 0, 0, 0, , 0, 0, 0, 0, 0, 
498, 1, 498, 498, 721, -7.359221969434703, 3.180494296997527, -1.2099143581079104, 1.546744658999103, ABarpppaa, 0, 0, 0, 0, , 0, 0, 0, 0, 0, 
88, 1, 88, 88, -1, -5.357130123902314, 1.498658872020556, -6.549474365999262, 1.7778674241369, ABalppaa, 0, 0, 0, 0, , 0, 0, 0, 0, 0, 
57, 1, 57, 57, 722, -2.5613460447119656, -3.8962132997593373, 1.5266506557738064, 1.4712937000235367, ABpraapap, 0, 0, 0, 0, , 0, 0, 0, 0, 0, 
132, 1, 132, 132, 723, -2.0407258334244647, 2.7208410037328234, -2.4001864418200367, 1.84415740659, Eara, 0, 0, 0, 0, , 0, 0, 0, 0, 0, 
91, 1, 91, 91, 724, 9.375299741261367, 2.5425046933273547, 4.176987730346065, 1.4712937000235367, ABprpppap, 0, 0, 0, 0, , 0, 0, 0, 0, 0, 
336, 1, 336, 336, 725, -8.166979479753891, -2.2771041482444767, -1.2225037649222723, 1.4712937000235367, ABplaapaa, 0, 0, 0, 0, , 0, 0, 0, 0, 0, 
463, 1, 463, 463, 726, -1.097084988597602, 4.437774981631834, -5.35907301905231, 1.546744658999103, ABalpppaa, 0, 0, 0, 0, , 0, 0, 0, 0, 0, 
6, 1, 6, 6, 727, 10.427642573374518, -4.057213470727972, -1.711513671765093, 1.4712937000235367, ABplppppp, 0, 0, 0, 0, , 0, 0, 0, 0, 0, 
123, 1, 123, 123, -1, -0.701587753987141, 3.2210490242461702, 1.248296784073646, 1.6044169437333, MSppaa, 0, 0, 0, 0, , 0, 0, 0, 0, 0, 
67, 1, 67, 67, 728, 0.3167002249308642, -6.819252876570698, 2.896585171576196, 1.4712937000235367, ABprapaap, 0, 0, 0, 0, , 0, 0, 0, 0, 0, 
86, 1, 86, 86, 729, 2.41576921363926, -4.471056228682664, 5.780402277692239, 1.4712937000235367, ABprpaaap, 0, 0, 0, 0, , 0, 0, 0, 0, 0, 
352, 1, 352, 352, 730, -10.869312598166301, -3.577989182455228, -0.43121008823261603, 1.546744658999103, ABaraaapa, 0, 0, 0, 0, , 0, 0, 0, 0, 0, 
515, 1, 515, 515, 731, 6.212909741481002, 2.468441529136155, 1.2490313751548898, 1.6044169437333, Caapa, 0, 0, 0, 0, , 0, 0, 0, 0, 0, 
28, 1, 28, 28, 732, 6.00073100370446, -3.4786557135445895, 0.8994547572923313, 1.6044169437333, Cpapp, 0, 0, 0, 0, , 0, 0, 0, 0, 0, 
439, 1, 439, 439, 733, 8.35777063887142, 3.0068488978581303, 1.06246972356639, 1.4712937000235367, ABprppppa, 0, 0, 0, 0, , 0, 0, 0, 0, 0, 
598, 1, 598, 598, 734, 8.251789612218012, -3.5176754374387533, 3.9833342811894497, 1.4712937000235367, ABprppapa, 0, 0, 0, 0, , 0, 0, 0, 0, 0, 
158, 1, 158, 158, 735, 4.121764530895406, 2.8052541352231417, -4.187833460346446, 1.84415740659, Epla, 0, 0, 0, 0, , 0, 0, 0, 0, 0, 
14, 1, 14, 14, 736, 1.963886992482107, 1.9786677044513146, -1.5679466711593528, 1.84415740659, Earp, 0, 0, 0, 0, , 0, 0, 0, 0, 0, 
165, 1, 165, 165, 737, 7.262668454379727, -1.7919995461874512, -5.772988062241783, 1.84415740659, Epra, 0, 0, 0, 0, , 0, 0, 0, 0, 0, 
45, 1, 45, 45, 738, 3.0831056825724437, 7.220522090979247, 0.14530593770445177, 1.84415740659, Ealp, 0, 0, 0, 0, , 0, 0, 0, 0, 0, 
20, 1, 20, 20, 739, -4.863526630532526, 6.811081209060583, 0.7755605600625081, 1.546744658999103, ABalpappp, 0, 0, 0, 0, , 0, 0, 0, 0, 0, 
24, 1, 24, 24, 740, 4.981613604301918, -3.0866511109334613, -4.050519684512571, 1.4712937000235367, ABplpappp, 0, 0, 0, 0, , 0, 0, 0, 0, 0, 
18, 1, 18, 18, 741, 5.204097887252023, 4.869056051109648, 4.687796584086049, 1.4712937000235367, ABprpappp, 0, 0, 0, 0, , 0, 0, 0, 0, 0, 
2, 1, 2, 2, -1, -3.615638599647051, 4.172325445944209, 1.9338232169884275, 1.7778674241369, ABarpppp, 0, 0, 0, 0, , 0, 0, 0, 0, 0, 
326, 1, 326, 326, 742, -7.456896920019837, 3.110547925363123, -5.0864941620758755, 1.546744658999103, ABalpaapa, 0, 0, 0, 0, , 0, 0, 0, 0, 0, 
33, 1, 33, 33, 743, 4.073526261924989, 1.4510722719382423, -6.887792931736269, 1.4712937000235367, ABplpaapp, 0, 0, 0, 0, , 0, 0, 0, 0, 0, 
375, 1, 375, 375, 744, -4.337261476838893, -4.489328712094679, -5.342660734749511, 1.4712937000235367, ABplaaapa, 0, 0, 0, 0, , 0, 0, 0, 0, 0, 
42, 1, 42, 42, 745, 3.6715297849481594, -2.2659915911712165, -6.755265857563512, 1.4712937000235367, ABplppapp, 0, 0, 0, 0, , 0, 0, 0, 0, 0, 
241, 1, 241, 241, 746, -2.6839874066574914, -1.1505524837753214, 0.04025445153863129, 1.4712937000235367, ABpraappa, 0, 0, 0, 0, , 0, 0, 0, 0, 0, 
63, 1, 63, 63, 747, -4.625230469303186, 4.240056023833593, -1.0082328638901144, 1.546744658999103, ABarpppap, 0, 0, 0, 0, , 0, 0, 0, 0, 0, 
10, 1, 10, 10, 748, -1.0775477750297728, 2.216509570235898, -7.0836286404463085, 1.546744658999103, ABalapppp, 0, 0, 0, 0, , 0, 0, 0, 0, 0, 
293, 1, 293, 293, 749, -7.91129028828467, -5.6324851262466415, -1.141166975390805, 1.546744658999103, ABarpaapa, 0, 0, 0, 0, , 0, 0, 0, 0, 0, 
249, 1, 249, 249, 750, 1.6259031008376308, -6.957236111030369, -2.472658780696131, 1.4712937000235367, ABplapapa, 0, 0, 0, 0, , 0, 0, 0, 0, 0, 
360, 1, 360, 360, 751, 2.4335698479070578, 4.11731616943532, 5.361176842134087, 1.4712937000235367, ABprpappa, 0, 0, 0, 0, , 0, 0, 0, 0, 0, 
25, 1, 25, 25, -1, -0.42177023742723146, 4.726538448694089, 5.75438378057185, 1.6044169437333, MSpapp, 0, 0, 0, 0, , 0, 0, 0, 0, 0, 
111, 1, 111, 111, -1, -2.5549239155383203, 2.924919633889163, 6.676200537992567, 1.6044169437333, MSpapa, 0, 0, 0, 0, , 0, 0, 0, 0, 0, 
60, 1, 60, 60, 752, 9.922074061191635, 4.0082852681405985, -2.0205170382415254, 2.119721157, Z2, 0, 0, 0, 0, , 0, 0, 0, 0, 0, 
16, 1, 16, 16, 753, -4.368271235533565, 1.356970465245658, 0.8603798640657047, 1.546744658999103, ABarpappp, 0, 0, 0, 0, , 0, 0, 0, 0, 0, 
23, 1, 23, 23, 754, -7.154529346218238, 0.3538131261424271, -2.4684480293407614, 1.7778674241369, ABalaapp, 0, 0, 0, 0, , 0, 0, 0, 0, 0, 
622, 1, 622, 622, 755, -8.241121974594156, -0.496698742658097, -5.225560866321436, 1.546744658999103, ABalapaaa, 0, 0, 0, 0, , 0, 0, 0, 0, 0, 
58, 1, 58, 58, 756, 2.079230442598119, 0.2987736036606596, -4.332650391654612, 1.4712937000235367, ABplpapap, 0, 0, 0, 0, , 0, 0, 0, 0, 0, 
31, 1, 31, 31, 757, -2.0994961145120588, -4.609594312037832, -5.256874219909012, 1.4712937000235367, ABplaaapp, 0, 0, 0, 0, , 0, 0, 0, 0, 0, 
52, 1, 52, 52, 758, 5.091540306563866, -0.3627283490619196, 0.7693680630886248, 1.6044169437333, Caaap, 0, 0, 0, 0, , 0, 0, 0, 0, 0, 
5, 1, 5, 5, 759, 5.466077214398218, 5.708523777710742, -3.490783372529572, 1.546744658999103, ABalppppp, 0, 0, 0, 0, , 0, 0, 0, 0, 0, 
7, 1, 7, 7, 760, 8.81921404004909, 0.8559879556705624, -5.177032074384187, 1.84415740659, Eprp, 0, 0, 0, 0, , 0, 0, 0, 0, 0, 
82, 1, 82, 82, 761, -9.859081224793105, 3.8765415108782544, -2.3642648193606495, 1.7778674241369, ABalpaaa, 0, 0, 0, 0, , 0, 0, 0, 0, 0, 
55, 1, 55, 55, 762, -5.125024012543517, -1.9873702812147327, -1.7232261390024457, 1.4712937000235367, ABplaapap, 0, 0, 0, 0, , 0, 0, 0, 0, 0, 
531, 1, 531, 531, 763, -2.8369621874405975, 2.2210279097893815, -6.806486294314974, 1.546744658999103, ABalapppa, 0, 0, 0, 0, , 0, 0, 0, 0, 0, 
40, 1, 40, 40, 764, 4.693091189481088, -6.506636770288662, -2.2804640034510943, 1.4712937000235367, ABplapapp, 0, 0, 0, 0, , 0, 0, 0, 0, 0, 
344, 1, 344, 344, 765, -3.3793043977134936, -3.212040291915777, 6.401421065928119, 1.546744658999103, ABarappaa, 0, 0, 0, 0, , 0, 0, 0, 0, 0, 
19, 1, 19, 19, 766, -0.0810769810740705, 0.11089451125360415, 1.2321142905910376, 1.4712937000235367, ABpraappp, 0, 0, 0, 0, , 0, 0, 0, 0, 0, 
109, 1, 109, 109, -1, -8.137687787521203, 2.912830734095727, 4.824238050389549, 1.6044169437333, MSaaaa, 0, 0, 0, 0, , 0, 0, 0, 0, 0, 
298, 1, 298, 298, 767, 2.8558531529710107, 1.6176579532591981, 6.951751354730251, 1.4712937000235367, ABprpapaa, 0, 0, 0, 0, , 0, 0, 0, 0, 0, 
689, 1, 689, 689, 768, -3.308346100159655, -6.91015073738107, 1.9489220421155284, 1.4712937000235367, ABpraaaaa, 0, 0, 0, 0, , 0, 0, 0, 0, 0, 
4, 1, 4, 4, 769, 7.0946710169206275, 6.031485004027149, -0.9829518348453213, 2.119721157, Z3, 0, 0, 0, 0, , 0, 0, 0, 0, 0, 
260, 1, 260, 260, 770, -4.6873555271094265, -5.583198479588585, 4.062738562255265, 1.546744658999103, ABarapapa, 0, 0, 0, 0, , 0, 0, 0, 0, 0, 
74, 1, 74, 74, -1, -11.07626988378519, -1.605703838284815, 2.984718938728771, 1.7778674241369, ABaraaaa, 0, 0, 0, 0, , 0, 0, 0, 0, 0, 
148, 1, 148, 148, 771, 0.3291368466582144, 4.738834440220671, -1.2998246379245306, 1.84415740659, Eala, 0, 0, 0, 0, , 0, 0, 0, 0, 0, 
280, 1, 280, 280, 772, -9.086644224175531, -1.3406494041493435, 4.896826445067002, 1.546744658999103, ABaraapaa, 0, 0, 0, 0, , 0, 0, 0, 0, 0, 
392, 1, 392, 392, 773, -6.133802654472867, -1.7363949240109435, -6.234790007314626, 1.546744658999103, ABalapapa, 0, 0, 0, 0, , 0, 0, 0, 0, 0, 
56, 1, 56, 56, 774, -5.987472262326123, -3.5473667227930448, 5.474895693430333, 1.546744658999103, ABarapaap, 0, 0, 0, 0, , 0, 0, 0, 0, 0, 
615, 1, 615, 615, 775, 9.520588043154921, -3.6902809199621966, -1.6906804941163862, 1.4712937000235367, ABplppppa, 0, 0, 0, 0, , 0, 0, 0, 0, 0, 
39, 1, 39, 39, 776, -9.854647267575158, 0.8303269028500775, -0.1771815362727738, 1.7778674241369, ABarppap, 0, 0, 0, 0, , 0, 0, 0, 0, 0, 
93, 1, 93, 93, -1, -11.903875408941817, -1.0719232655008437, -1.8386705072752512, 1.7778674241369, ABalaaaa, 0, 0, 0, 0, , 0, 0, 0, 0, 0, 
27, 1, 27, 27, 777, 6.665387060409814, 2.7474379872050485, 3.396522893944719, 1.6044169437333, Caapp, 0, 0, 0, 0, , 0, 0, 0, 0, 0, 
227, 1, 227, 227, 778, -2.496152342862263, -3.441869027055513, -2.42363407686703, 1.4712937000235367, ABplaappa, 0, 0, 0, 0, , 0, 0, 0, 0, 0, 
37, 1, 37, 37, 779, -3.8119525040373077, 5.032870989436026, -4.9142665995062265, 1.546744658999103, ABalppapp, 0, 0, 0, 0, , 0, 0, 0, 0, 0, 
503, 1, 503, 503, 780, -8.19714333227453, -4.432505066758292, -3.410837946603082, 1.4712937000235367, ABplaaaaa, 0, 0, 0, 0, , 0, 0, 0, 0, 0, 
475, 1, 475, 475, 781, -11.38437375526854, 2.807373200747197, 1.0019835239314572, 1.546744658999103, ABalpapaa, 0, 0, 0, 0, , 0, 0, 0, 0, 0, 
21, 1, 21, 21, 782, -0.05428305017291227, -3.01556929445411, -0.5622156918777731, 1.4712937000235367, ABplaappp, 0, 0, 0, 0, , 0, 0, 0, 0, 0, 
660, 1, 660, 660, 783, 3.4319214055826386, -2.2788737453560994, -6.774972606238689, 1.4712937000235367, ABplppapa, 0, 0, 0, 0, , 0, 0, 0, 0, 0, 
96, 1, 96, 96, -1, -4.074877164191381, 0.46242299565663514, -3.6772331800924807, 1.7778674241369, ABalappa, 0, 0, 0, 0, , 0, 0, 0, 0, 0, 
30, 1, 30, 30, 784, 2.4357361405313136, -0.5676923541488346, 4.042117406118479, 1.4712937000235367, ABprapapp, 0, 0, 0, 0, , 0, 0, 0, 0, 0, 
500, 1, 500, 500, 785, 1.438568251324063, 1.6061915179622435, -7.216235528292832, 1.4712937000235367, ABplpaapa, 0, 0, 0, 0, , 0, 0, 0, 0, 0, 
210, 1, 210, 210, 786, 2.3223496509185106, -1.028915708446457, -0.4442304471969815, 1.6044169437333, Caaaa, 0, 0, 0, 0, , 0, 0, 0, 0, 0, 
51, 1, 51, 51, -1, -1.2001526532626232, 7.390337976561238, -0.5299858456118779, 1.6044169437333, MSapap, 0, 0, 0, 0, , 0, 0, 0, 0, 0, 
160, 1, 160, 160, -1, 11.44268286367004, -0.07615475717942943, 2.9081976740867814, 1.84415740659, Dpa, 0, 0, 0, 0, , 0, 0, 0, 0, 0, 
70, 1, 70, 70, 787, 1.6760352418654718, 5.053023659775586, -5.388028798048296, 1.546744658999103, ABalpppap, 0, 0, 0, 0, , 0, 0, 0, 0, 0, 
693, 1, 693, 693, 788, -2.02420985818602, -7.339115077434359, -0.6130600036741898, 1.4712937000235367, ABplappaa, 0, 0, 0, 0, , 0, 0, 0, 0, 0, 
1, 1, 1, 1, 789, 8.96264958320223, 5.128012182978924, 1.1627085593955653, 1.4712937000235367, ABprppppp, 0, 0, 0, 0, , 0, 0, 0, 0, 0, 
287, 1, 287, 287, 790, 1.5530456872488383, -2.7541426520556995, -3.4349232464942743, 1.4712937000235367, ABplpappa, 0, 0, 0, 0, , 0, 0, 0, 0, 0, 
80, 1, 80, 80, 791, -6.219311538927469, -1.384721570358353, 1.4084973721573646, 1.546744658999103, ABarpapap, 0, 0, 0, 0, , 0, 0, 0, 0, 0, 
50, 1, 50, 50, -1, 4.876845163707233, 3.3197003381937487, -1.3156526675636266, 1.6044169437333, MSppap, 0, 0, 0, 0, , 0, 0, 0, 0, 0, 
404, 1, 404, 404, 792, 2.598346607996676, 6.309297580356903, -2.8190033687925635, 1.546744658999103, ABalppppa, 0, 0, 0, 0, , 0, 0, 0, 0, 0, 
638, 1, 638, 638, 793, -0.20251701057248367, -5.584610606680704, -5.003376843418645, 1.4712937000235367, ABplapaaa, 0, 0, 0, 0, , 0, 0, 0, 0, 0, 
66, 1, 66, 66, 794, -0.9397693440187309, -2.0878168463040816, 7.131800301514687, 1.546744658999103, ABarappap, 0, 0, 0, 0, , 0, 0, 0, 0, 0, 
32, 1, 32, 32, 795, -8.651074131193614, -4.669301500421012, 1.352713375534324, 1.546744658999103, ABaraaapp, 0, 0, 0, 0, , 0, 0, 0, 0, 0, 
250, 1, 250, 250, 796, 2.484739257351767, -7.27394060642847, 0.625198284314745, 1.6044169437333, Cpaaa, 0, 0, 0, 0, , 0, 0, 0, 0, 0, 
130, 1, 130, 130, -1, -3.7285647826838746, 6.721013989375319, -2.3025847797977117, 1.6044169437333, MSapaa, 0, 0, 0, 0, , 0, 0, 0, 0, 0, 
150, 1, 150, 150, -1, 8.264862301655898, 0.8581159571087982, -1.5528712762295918, 1.84415740659, Daa, 0, 0, 0, 0, , 0, 0, 0, 0, 0, 
26, 1, 26, 26, -1, -3.4063015660653537, 5.290063097953282, 4.8219419259371925, 1.6044169437333, MSaapp, 0, 0, 0, 0, , 0, 0, 0, 0, 0, 
364, 1, 364, 364, 797, 3.4698839358780664, -6.184187913351686, 3.5919108615131856, 1.4712937000235367, ABprappaa, 0, 0, 0, 0, , 0, 0, 0, 0, 0, 
44, 1, 44, 44, 798, -3.6807128070187214, -1.6632308633752597, -6.918550298701817, 1.546744658999103, ABalapapp, 0, 0, 0, 0, , 0, 0, 0, 0, 0, 
256, 1, 256, 256, 799, -0.39234267728557026, -2.2464958661673995, 3.5235476312839134, 1.4712937000235367, ABprapapa, 0, 0, 0, 0, , 0, 0, 0, 0, 0, 
59, 1, 59, 59, -1, 8.459062786948055, -5.401984867744073, 0.8548203071369225, 1.84415740659, Cppa, 0, 0, 0, 0, , 0, 0, 0, 0, 0, 
3, 1, 3, 3, -1, 5.643445170900014, 6.366958383983537, 1.8761627672222752, 1.6044169437333, MSpppp, 0, 0, 0, 0, , 0, 0, 0, 0, 0, 
48, 1, 48, 48, -1, 11.368596236567338, 0.7557065009406232, -2.9176667400506737, 1.84415740659, Dap, 0, 0, 0, 0, , 0, 0, 0, 0, 0, 
83, 1, 83, 83, 800, -0.5090857451541069, -7.44319594568819, -0.3769912711715843, 1.4712937000235367, ABplappap, 0, 0, 0, 0, , 0, 0, 0, 0, 0, 
62, 1, 62, 62, 801, 5.918259909634992, -4.722098181690148, 4.435157625004667, 1.4712937000235367, ABprappap, 0, 0, 0, 0, , 0, 0, 0, 0, 0, 
41, 1, 41, 41, 802, 4.8631141133203375, -2.7279140707279077, 6.358992677478151, 1.4712937000235367, ABprpaapp, 0, 0, 0, 0, , 0, 0, 0, 0, 0, 
61, 1, 61, 61, -1, -6.173916271187501, -6.152563517693227, 1.9880188679275272, 1.7778674241369, ABarpaaa, 0, 0, 0, 0, , 0, 0, 0, 0, 0, 
499, 1, 499, 499, 803, -0.16343656970169299, -4.478221104401328, 5.947709520166174, 1.4712937000235367, ABprpaaaa, 0, 0, 0, 0, , 0, 0, 0, 0, 0, 
619, 1, 619, 619, 804, -12.575134868906684, -0.08450312727486979, 0.9597747359286263, 1.546744658999103, ABarppaaa, 0, 0, 0, 0, , 0, 0, 0, 0, 0, 
76, 1, 76, 76, 805, -7.2724732585381915, 0.5047569555660704, 5.869825024288652, 1.546744658999103, ABaraapap, 0, 0, 0, 0, , 0, 0, 0, 0, 0, 
292, 1, 292, 292, 806, -5.7198745200244465, -3.6546279221051434, 2.6233841963185927, 1.4712937000235367, ABpraapaa, 0, 0, 0, 0, , 0, 0, 0, 0, 0, 
49, 1, 49, 49, -1, -5.421000407015834, 3.0095442108484556, 5.986937414284235, 1.6044169437333, MSaaap, 0, 0, 0, 0, , 0, 0, 0, 0, 0, 
696, 1, 696, 696, 807, -0.24962690235205354, -6.962621467534267, 2.8902053522468085, 1.4712937000235367, ABprapaaa, 0, 0, 0, 0, , 0, 0, 0, 0, 0, 
13, 1, 13, 13, -1, 1.2253790841543861, 6.7996623034715515, 2.941857381885302, 1.6044169437333, MSappp, 0, 0, 0, 0, , 0, 0, 0, 0, 0, 
87, 1, 87, 87, 808, 7.266556718696222, -5.065532842014396, -3.304795560181602, 1.6911421839350995, ABplpppa, 0, 0, 0, 0, , 0, 0, 0, 0, 0, 
43, 1, 43, 43, -1, -9.971997448866297, -2.0956939466327102, -3.9179129251205738, 1.7778674241369, ABalaaap, 0, 0, 0, 0, , 0, 0, 0, 0, 0, 
35, 1, 35, 35, 809, -5.439643466911478, -5.569449376357088, -0.42805887016451694, 1.546744658999103, ABarpaapp, 0, 0, 0, 0, , 0, 0, 0, 0, 0, 
497, 1, 497, 497, 810, -7.235867814707886, 1.0571083148577607, 0.6699360955832868, 1.546744658999103, ABarpappa, 0, 0, 0, 0, , 0, 0, 0, 0, 0, 
29, 1, 29, 29, 811, -2.131656547225401, -5.129849150935299, 4.3696685431949795, 1.546744658999103, ABarapapp, 0, 0, 0, 0, , 0, 0, 0, 0, 0, 
269, 1, 269, 269, 812, 0.04530519717324164, 0.5828080368655068, 6.840892058665954, 1.546744658999103, ABarapppa, 0, 0, 0, 0, , 0, 0, 0, 0, 0, 
78, 1, 78, 78, 813, 5.7708898834253795, 2.153359705547206, 6.240392304730964, 1.4712937000235367, ABprpapap, 0, 0, 0, 0, , 0, 0, 0, 0, 0, 
65, 1, 65, 65, 814, -6.516595862424799, -3.8604374147598453, -4.899234555536155, 1.4712937000235367, ABplaaaap, 0, 0, 0, 0, , 0, 0, 0, 0, 0, 
323, 1, 323, 323, 815, -1.5366431059095804, -0.3335473378721855, -7.388081988023883, 1.4712937000235367, ABplpaaaa, 0, 0, 0, 0, , 0, 0, 0, 0, 0, 
92, 1, 92, 92, -1, -0.06036806100616989, -3.391640153278014, -6.633568291072013, 1.6911421839350995, ABplppaa, 0, 0, 0, 0, , 0, 0, 0, 0, 0, 
11, 1, 11, 11, 816, 5.485645785615993, -1.7988810352479365, 3.4798441243984244, 1.6911421839350995, ABprappp, 0, 0, 0, 0, , 0, 0, 0, 0, 0, 
47, 1, 47, 47, -1, 0.03428631875939021, 1.7344560219359109, 3.92385769646486, 1.6044169437333, MSpaap, 0, 0, 0, 0, , 0, 0, 0, 0, 0, 
54, 1, 54, 54, 817, 0.8517320298287553, -5.469188101789277, -5.003437696766851, 1.4712937000235367, ABplapaap, 0, 0, 0, 0, , 0, 0, 0, 0, 0, 
