12, 1, 12, 12, 3528, 3.4483058721280404, -3.722741992250535, 2.3094422298223245, 1.4712937000235367, ABplapppp, 0, 0, 0, 0, , 0, 0, 0, 0, 0, 
1047, 1, 1047, 1047, 3529, -7.394693238423925, 5.810762985785903, 1.4326301968018471, 1.395842741047971, MSaapaa, 0, 0, 0, 0, , 0, 0, 0, 0, 0, 
36, 1, 36, 36, 3530, 10.430812808409632, -0.3574420865735164, 4.037948924352898, 1.4712937000235367, ABprppapp, 0, 0, 0, 0, , 0, 0, 0, 0, 0, 
1279, 1, 1279, 1279, 3531, -10.568097443223015, 1.232347949923207, -3.7161484926800696, 1.546744658999103, ABalaapaa, 0, 0, 0, 0, , 0, 0, 0, 0, 0, 
88, 1, 88, 88, 3532, -2.869474296537308, 1.038370755053505, -6.848144842828496, 1.546744658999103, ABalppaap, 0, 0, 0, 0, , 0, 0, 0, 0, 0, 
2306, 1, 2306, 2306, 3533, 8.46296211930338, -5.395334393323315, 0.7719742007462844, 1.6044169437333, Cppaa, 0, 0, 0, 0, , 0, 0, 0, 0, 0, 
269, 1, 269, 269, 3534, 1.0047853375700782, 0.7943078453531295, 5.485397019555517, 1.546744658999103, ABarapppa, 0, 0, 0, 0, , 0, 0, 0, 0, 0, 
210, 1, 210, 210, 3535, 2.707472987686075, -1.5953710275238702, -1.1893761195545753, 1.6044169437333, Caaaa, 0, 0, 0, 0, , 0, 0, 0, 0, 0, 
111, 1, 111, 111, 3536, 1.470685003105582, 3.8985918860099584, 6.292432924043634, 1.395842741047971, MSpapap, 0, 0, 0, 0, , 0, 0, 0, 0, 0, 
63, 1, 63, 63, 3537, -3.4462304590871473, 3.993096541094603, -1.6891732498727907, 1.546744658999103, ABarpppap, 0, 0, 0, 0, , 0, 0, 0, 0, 0, 
1418, 1, 1418, 1418, 3538, -5.661399360807099, 1.2447877417733024, -6.515045911073874, 1.546744658999103, ABalppaaa, 0, 0, 0, 0, , 0, 0, 0, 0, 0, 
13, 1, 13, 13, -1, 2.075875495260724, 7.264676028618828, 1.0861289612632332, 1.6044169437333, MSappp, 0, 0, 0, 0, , 0, 0, 0, 0, 0, 
404, 1, 404, 404, 3539, 3.198922591613696, 6.069298043370463, -3.865252763811429, 1.546744658999103, ABalppppa, 0, 0, 0, 0, , 0, 0, 0, 0, 0, 
123, 1, 123, 123, 3540, 0.6866287879923755, 3.915166528534418, 0.31988606315427054, 1.395842741047971, MSppaap, 0, 0, 0, 0, , 0, 0, 0, 0, 0, 
124, 1, 124, 124, 3541, 3.916946725872213, 4.458654854712616, 1.8511031384753047, 1.395842741047971, MSpppap, 0, 0, 0, 0, , 0, 0, 0, 0, 0, 
241, 1, 241, 241, 3542, -1.9178203870732242, -0.8821076018668479, 0.3323894535418692, 1.4712937000235367, ABpraappa, 0, 0, 0, 0, , 0, 0, 0, 0, 0, 
57, 1, 57, 57, 3543, -1.7200112752088625, -3.680872846028585, 1.1285162115627645, 1.4712937000235367, ABpraapap, 0, 0, 0, 0, , 0, 0, 0, 0, 0, 
2, 1, 2, 2, 3544, -2.4361862138883694, 5.160222113484279, 3.0196328093211444, 1.546744658999103, ABarppppp, 0, 0, 0, 0, , 0, 0, 0, 0, 0, 
689, 1, 689, 689, 3545, -2.3817876811107674, -6.417108774521419, 3.4992524560417317, 1.4712937000235367, ABpraaaaa, 0, 0, 0, 0, , 0, 0, 0, 0, 0, 
75, 1, 75, 75, 3546, 2.6623888016241146, -0.09051317631365395, -7.271124463773571, 1.4712937000235367, ABplpaaap, 0, 0, 0, 0, , 0, 0, 0, 0, 0, 
60, 1, 60, 60, 3547, 9.739217855690454, 4.48467564209022, -1.13694186070104, 2.119721157, Z2, 0, 0, 0, 0, , 0, 0, 0, 0, 0, 
619, 1, 619, 619, 3548, -12.065711287812414, 1.0994129454646004, 1.3957105894650386, 1.546744658999103, ABarppaaa, 0, 0, 0, 0, , 0, 0, 0, 0, 0, 
84, 1, 84, 84, 3549, -8.898970437095102, -1.0419573803595803, -3.8959760327385937, 1.546744658999103, ABalaapap, 0, 0, 0, 0, , 0, 0, 0, 0, 0, 
158, 1, 158, 158, 3550, 4.961666254991517, 2.521244334676324, -3.811594848710472, 1.84415740659, Epla, 0, 0, 0, 0, , 0, 0, 0, 0, 0, 
6, 1, 6, 6, 3551, 9.168826971013937, -4.64722927513135, -1.9124701340230392, 1.4712937000235367, ABplppppp, 0, 0, 0, 0, , 0, 0, 0, 0, 0, 
397, 1, 397, 397, 3552, -3.6307213545642907, -0.41892328264053885, 7.108088508176914, 1.546744658999103, ABaraappa, 0, 0, 0, 0, , 0, 0, 0, 0, 0, 
600, 1, 600, 600, 3553, -3.673707866819297, 3.6347024310553264, -6.121137440140365, 1.546744658999103, ABalppapa, 0, 0, 0, 0, , 0, 0, 0, 0, 0, 
33, 1, 33, 33, 3554, 7.452409474193537, 2.0484998716714293, -5.593471575430111, 1.4712937000235367, ABplpaapp, 0, 0, 0, 0, , 0, 0, 0, 0, 0, 
27, 1, 27, 27, 3555, 6.518976366918661, 3.3628845941772063, 1.7107221011888576, 1.6044169437333, Caapp, 0, 0, 0, 0, , 0, 0, 0, 0, 0, 
816, 1, 816, 816, 3556, 6.430490509033301, -2.1966298718190176, 3.023297472162336, 1.4712937000235367, ABprapppa, 0, 0, 0, 0, , 0, 0, 0, 0, 0, 
14, 1, 14, 14, 3557, 1.208491378465202, 0.7622686787950195, -1.772468151460187, 1.84415740659, Earp, 0, 0, 0, 0, , 0, 0, 0, 0, 0, 
1, 1, 1, 1, 3558, 8.81995921781837, 5.003682253066193, 1.569967487271011, 1.4712937000235367, ABprppppp, 0, 0, 0, 0, , 0, 0, 0, 0, 0, 
227, 1, 227, 227, 3559, -3.0755155294003638, -1.9089286698031565, -2.0898095521894784, 1.4712937000235367, ABplaappa, 0, 0, 0, 0, , 0, 0, 0, 0, 0, 
360, 1, 360, 360, 3560, 3.3613756190242596, 2.6741574974914153, 4.06973636479925, 1.4712937000235367, ABprpappa, 0, 0, 0, 0, , 0, 0, 0, 0, 0, 
500, 1, 500, 500, 3561, 4.794187058237235, 1.6837281861157842, -6.660955489170609, 1.4712937000235367, ABplpaapa, 0, 0, 0, 0, , 0, 0, 0, 0, 0, 
29, 1, 29, 29, 3562, -2.528157734452643, -3.6189169162290216, 3.925607565963398, 1.546744658999103, ABarapapp, 0, 0, 0, 0, , 0, 0, 0, 0, 0, 
73, 1, 73, 73, 3563, -1.273003853328637, -7.334200517161128, 1.0602711135772174, 1.4712937000235367, ABpraaaap, 0, 0, 0, 0, , 0, 0, 0, 0, 0, 
79, 1, 79, 79, 3564, 7.039201491667337, 0.30018906407893775, -2.7433633873325207, 1.6044169437333, Capap, 0, 0, 0, 0, , 0, 0, 0, 0, 0, 
696, 1, 696, 696, 3565, 0.45954550095173974, -6.556471219000267, 3.5210736142010686, 1.4712937000235367, ABprapaaa, 0, 0, 0, 0, , 0, 0, 0, 0, 0, 
148, 1, 148, 148, 3566, 0.5351552975826152, 4.5171503462261215, -2.4324902660137973, 1.84415740659, Eala, 0, 0, 0, 0, , 0, 0, 0, 0, 0, 
463, 1, 463, 463, 3567, 0.7020891995508844, 5.447976722494136, -5.070572720939945, 1.546744658999103, ABalpppaa, 0, 0, 0, 0, , 0, 0, 0, 0, 0, 
65, 1, 65, 65, 3568, -5.191050543695273, -4.644941745457729, -4.920998286710317, 1.4712937000235367, ABplaaaap, 0, 0, 0, 0, , 0, 0, 0, 0, 0, 
1053, 1, 1053, 1053, 3569, -7.704961028309522, -5.589459622796632, 1.7178015772926807, 1.546744658999103, ABarpaaaa, 0, 0, 0, 0, , 0, 0, 0, 0, 0, 
45, 1, 45, 45, 3570, 4.366222542382004, 6.927043436060492, -0.8332812246763914, 1.84415740659, Ealp, 0, 0, 0, 0, , 0, 0, 0, 0, 0, 
2760, 1, 2760, 2760, 3571, 4.396536391060492, 0.7015814076087822, -1.6351976899114378, 1.6044169437333, Capaa, 0, 0, 0, 0, , 0, 0, 0, 0, 0, 
77, 1, 77, 77, 3572, 7.037354042007937, -0.8466281947169155, 6.080643402170936, 1.4712937000235367, ABprppaap, 0, 0, 0, 0, , 0, 0, 0, 0, 0, 
80, 1, 80, 80, 3573, -4.977060840300001, -1.2410739191124818, 0.008522699230004035, 1.546744658999103, ABarpapap, 0, 0, 0, 0, , 0, 0, 0, 0, 0, 
10, 1, 10, 10, 3574, 1.654691001370677, 2.536204267857249, -6.9302808509508385, 1.546744658999103, ABalapppp, 0, 0, 0, 0, , 0, 0, 0, 0, 0, 
32, 1, 32, 32, 3575, -9.748078601696147, -3.8205746267722995, 2.597071874005479, 1.546744658999103, ABaraaapp, 0, 0, 0, 0, , 0, 0, 0, 0, 0, 
1195, 1, 1195, 1195, 3576, -1.249648962612218, 1.8262437058983005, 7.176419501374979, 1.395842741047971, MSpapaa, 0, 0, 0, 0, , 0, 0, 0, 0, 0, 
638, 1, 638, 638, 3577, 1.8892282522422852, -5.200013743669826, -5.21530890232738, 1.4712937000235367, ABplapaaa, 0, 0, 0, 0, , 0, 0, 0, 0, 0, 
499, 1, 499, 499, 3578, -0.5920788586346746, -4.896682192232072, 5.606975027086591, 1.4712937000235367, ABprpaaaa, 0, 0, 0, 0, , 0, 0, 0, 0, 0, 
2598, 1, 2598, 2598, 3579, 0.18430755979540653, 5.375585045354273, 4.270901655161846, 1.395842741047971, MSpappa, 0, 0, 0, 0, , 0, 0, 0, 0, 0, 
660, 1, 660, 660, 3580, 5.054693691710577, -1.9997978712257594, -6.505068609305832, 1.4712937000235367, ABplppapa, 0, 0, 0, 0, , 0, 0, 0, 0, 0, 
7, 1, 7, 7, 3581, 9.78226599535279, 0.6930819453951546, -4.545742813885123, 1.84415740659, Eprp, 0, 0, 0, 0, , 0, 0, 0, 0, 0, 
693, 1, 693, 693, 3582, -1.9988291982102657, -7.157326022218758, -1.675081409417701, 1.4712937000235367, ABplappaa, 0, 0, 0, 0, , 0, 0, 0, 0, 0, 
132, 1, 132, 132, 3583, -1.2042763301376544, 2.2523362443115635, -1.9927972991383982, 1.84415740659, Eara, 0, 0, 0, 0, , 0, 0, 0, 0, 0, 
260, 1, 260, 260, 3584, -4.800381176213885, -5.243071899916111, 4.447361953971261, 1.546744658999103, ABarapapa, 0, 0, 0, 0, , 0, 0, 0, 0, 0, 
160, 1, 160, 160, -1, 10.493573113251337, 2.3793962104483515, 3.1916222826476934, 1.84415740659, Dpa, 0, 0, 0, 0, , 0, 0, 0, 0, 0, 
8, 1, 8, 8, 3585, 12.388434949713439, -0.4436147018039735, 0.34859091750628735, 1.6044169437333, Cpppp, 0, 0, 0, 0, , 0, 0, 0, 0, 0, 
55, 1, 55, 55, 3586, -5.748133301212135, -2.7458522259567517, -2.745382531186095, 1.4712937000235367, ABplaapap, 0, 0, 0, 0, , 0, 0, 0, 0, 0, 
62, 1, 62, 62, 3587, 7.508762481856774, -4.841667860294211, 3.4271754777986714, 1.4712937000235367, ABprappap, 0, 0, 0, 0, , 0, 0, 0, 0, 0, 
9, 1, 9, 9, 3588, 2.993504935987119, -0.8499734567006476, 7.181405898962997, 1.546744658999103, ABarapppp, 0, 0, 0, 0, , 0, 0, 0, 0, 0, 
5, 1, 5, 5, 3589, 5.938323938803813, 5.290210221886275, -3.8417973168891413, 1.546744658999103, ABalppppp, 0, 0, 0, 0, , 0, 0, 0, 0, 0, 
375, 1, 375, 375, 3590, -2.4362669954866956, -5.338313695448716, -4.981322589953304, 1.4712937000235367, ABplaaapa, 0, 0, 0, 0, , 0, 0, 0, 0, 0, 
48, 1, 48, 48, -1, 11.745072934967135, 0.10835917483346992, -2.4268303377081226, 1.84415740659, Dap, 0, 0, 0, 0, , 0, 0, 0, 0, 0, 
15, 1, 15, 15, 3591, 9.69924096665066, -0.9769752765245485, 1.292550024545174, 1.6044169437333, Cappp, 0, 0, 0, 0, , 0, 0, 0, 0, 0, 
165, 1, 165, 165, 3592, 9.473661984682964, -2.461159501828288, -4.14582136026591, 1.84415740659, Epra, 0, 0, 0, 0, , 0, 0, 0, 0, 0, 
615, 1, 615, 615, 3593, 7.3168456613099435, -2.446181293742281, -1.9078836569903195, 1.4712937000235367, ABplppppa, 0, 0, 0, 0, , 0, 0, 0, 0, 0, 
1567, 1, 1567, 1567, 3594, -6.701899982469476, 3.133125711192144, 5.43956939230009, 1.395842741047971, MSaaapa, 0, 0, 0, 0, , 0, 0, 0, 0, 0, 
256, 1, 256, 256, 3595, 0.4211307916647499, -1.8896605803416073, 4.2458102480735125, 1.4712937000235367, ABprapapa, 0, 0, 0, 0, , 0, 0, 0, 0, 0, 
70, 1, 70, 70, 3596, 3.661539123785643, 4.123120667445699, -5.808173472190031, 1.546744658999103, ABalpppap, 0, 0, 0, 0, , 0, 0, 0, 0, 0, 
44, 1, 44, 44, 3597, -1.914061840728642, -1.6874330547303662, -7.158141554525467, 1.546744658999103, ABalapapp, 0, 0, 0, 0, , 0, 0, 0, 0, 0, 
503, 1, 503, 503, 3598, -7.871451945136647, -5.256402810936892, -2.3496687878574827, 1.4712937000235367, ABplaaaaa, 0, 0, 0, 0, , 0, 0, 0, 0, 0, 
43, 1, 43, 43, 3599, -7.783788359299552, -3.5378858562219775, -4.60336939557482, 1.546744658999103, ABalaaapp, 0, 0, 0, 0, , 0, 0, 0, 0, 0, 
754, 1, 754, 754, 3600, -7.46424648030588, -0.8243517336181251, -1.4407000795669498, 1.546744658999103, ABalaappa, 0, 0, 0, 0, , 0, 0, 0, 0, 0, 
56, 1, 56, 56, 3601, -5.208275657746247, -2.9630639728093793, 6.081113008924095, 1.546744658999103, ABarapaap, 0, 0, 0, 0, , 0, 0, 0, 0, 0, 
22, 1, 22, 22, -1, 11.662478232944885, 2.560876247326823, 0.26040345209253934, 1.84415740659, Dpp, 0, 0, 0, 0, , 0, 0, 0, 0, 0, 
716, 1, 716, 716, 3602, 4.622786389273596, 0.20662363511370524, 4.973896371574227, 1.4712937000235367, ABprppaaa, 0, 0, 0, 0, , 0, 0, 0, 0, 0, 
109, 1, 109, 109, 3603, -6.867275770910784, 3.267345129335829, 2.593909318877398, 1.395842741047971, MSaaaap, 0, 0, 0, 0, , 0, 0, 0, 0, 0, 
484, 1, 484, 484, 3604, 8.336968715489881, 1.3808591923715092, 4.871955696126994, 1.4712937000235367, ABprpppaa, 0, 0, 0, 0, , 0, 0, 0, 0, 0, 
326, 1, 326, 326, 3605, -6.587367945575038, 3.565344171935153, -5.219087304202387, 1.546744658999103, ABalpaapa, 0, 0, 0, 0, , 0, 0, 0, 0, 0, 
51, 1, 51, 51, 3606, 1.776403512118429, 7.082137933705863, -1.8015351886610147, 1.395842741047971, MSapapp, 0, 0, 0, 0, , 0, 0, 0, 0, 0, 
66, 1, 66, 66, 3607, 1.213347308654278, -3.018829803380748, 6.766109587593333, 1.546744658999103, ABarappap, 0, 0, 0, 0, , 0, 0, 0, 0, 0, 
697, 1, 697, 697, 3608, 11.22325786143927, -2.6387269816006267, -1.7933370894933893, 1.6044169437333, Cpppa, 0, 0, 0, 0, , 0, 0, 0, 0, 0, 
25, 1, 25, 25, 3609, 2.808614188427118, 6.235154274495736, 3.717787628874436, 1.395842741047971, MSpappp, 0, 0, 0, 0, , 0, 0, 0, 0, 0, 
1273, 1, 1273, 1273, 3610, -4.739420699114959, -0.4921428925106275, -4.360132245595736, 1.546744658999103, ABalappaa, 0, 0, 0, 0, , 0, 0, 0, 0, 0, 
336, 1, 336, 336, 3611, -7.45494869501354, -3.2154718869324648, 0.14559755217548367, 1.4712937000235367, ABplaapaa, 0, 0, 0, 0, , 0, 0, 0, 0, 0, 
1415, 1, 1415, 1415, 3612, -4.779851816360343, -0.7633503956330313, 4.273923567147831, 1.395842741047971, MSpaaaa, 0, 0, 0, 0, , 0, 0, 0, 0, 0, 
35, 1, 35, 35, 3613, -3.777986818979259, -4.393789549750538, -0.811410036623294, 1.546744658999103, ABarpaapp, 0, 0, 0, 0, , 0, 0, 0, 0, 0, 
116, 1, 116, 116, 3614, -4.950585202160297, 6.293495618867623, 2.6492123645023473, 1.395842741047971, MSaapap, 0, 0, 0, 0, , 0, 0, 0, 0, 0, 
988, 1, 988, 988, 3615, 0.9359508449560913, -2.5744961544987346, 1.511683959141989, 1.4712937000235367, ABplapppa, 0, 0, 0, 0, , 0, 0, 0, 0, 0, 
497, 1, 497, 497, 3616, -5.427669902353675, 0.8598818391689242, 1.9668210012235592, 1.546744658999103, ABarpappa, 0, 0, 0, 0, , 0, 0, 0, 0, 0, 
1501, 1, 1501, 1501, 3617, -11.585748344809597, -1.0919257979521904, -2.4683277820001925, 1.546744658999103, ABalaaaal, 0, 0, 0, 0, , 0, 0, 0, 0, 0, 
3451, 1, 3451, 3451, 3618, 2.5414409632641752, 3.952549014479994, 1.3432588311741522, 1.395842741047971, MSpppaa, 0, 0, 0, 0, , 0, 0, 0, 0, 0, 
647, 1, 647, 647, 3619, 3.3123960204800618, -2.49180869609207, 4.8703545536788875, 1.4712937000235367, ABprpaapa, 0, 0, 0, 0, , 0, 0, 0, 0, 0, 
31, 1, 31, 31, 3620, -1.019523003113698, -3.3048874546153484, -3.533517290601389, 1.4712937000235367, ABplaaapp, 0, 0, 0, 0, , 0, 0, 0, 0, 0, 
39, 1, 39, 39, 3621, -7.3217859891909125, 2.237676255271179, -0.13215723789059866, 1.546744658999103, ABarppapp, 0, 0, 0, 0, , 0, 0, 0, 0, 0, 
1307, 1, 1307, 1307, 3622, -9.216434420001628, 2.810591494412876, 4.129842095146601, 1.395842741047971, MSaaaaa, 0, 0, 0, 0, , 0, 0, 0, 0, 0, 
320, 1, 320, 320, 3623, -4.485556144698561, -6.364207492410608, -2.796045852736045, 1.4712937000235367, ABpraaapa, 0, 0, 0, 0, , 0, 0, 0, 0, 0, 
17, 1, 17, 17, 3624, -0.6039243298034795, -0.9243522047620352, 7.383060988347009, 1.546744658999103, ABaraappp, 0, 0, 0, 0, , 0, 0, 0, 0, 0, 
82, 1, 82, 82, 3625, -8.770634834551963, 5.091198614924702, -1.3595883196891032, 1.546744658999103, ABalpaaap, 0, 0, 0, 0, , 0, 0, 0, 0, 0, 
21, 1, 21, 21, 3626, 0.3505491721401471, -3.7668040412992103, -1.0485250557575185, 1.4712937000235367, ABplaappp, 0, 0, 0, 0, , 0, 0, 0, 0, 0, 
3119, 1, 3119, 3119, 3627, -3.7706135232582354, 6.813735704624655, -1.9982659953930022, 1.395842741047971, MSapaaa, 0, 0, 0, 0, , 0, 0, 0, 0, 0, 
49, 1, 49, 49, 3628, -4.036165543433674, 2.3364189377852926, 6.439786083332912, 1.395842741047971, MSaaapp, 0, 0, 0, 0, , 0, 0, 0, 0, 0, 
293, 1, 293, 293, 3629, -6.124058994841417, -6.4672553493263925, -0.47799124387048664, 1.546744658999103, ABarpaapa, 0, 0, 0, 0, , 0, 0, 0, 0, 0, 
1122, 1, 1122, 1122, 3630, -9.982626678309714, -3.4230728714662377, -2.8232242689234073, 1.546744658999103, ABalaaapa, 0, 0, 0, 0, , 0, 0, 0, 0, 0, 
52, 1, 52, 52, 3631, 4.5211838959418875, -1.3166045314217423, 1.0545578796533128, 1.6044169437333, Caaap, 0, 0, 0, 0, , 0, 0, 0, 0, 0, 
776, 1, 776, 776, 3632, -9.915367036101179, 0.49248925632907953, -0.7084620104476582, 1.546744658999103, ABarppapa, 0, 0, 0, 0, , 0, 0, 0, 0, 0, 
3023, 1, 3023, 3023, 3633, -0.372144402083498, 7.429086010176136, -0.5544894785395881, 1.395842741047971, MSapapa, 0, 0, 0, 0, , 0, 0, 0, 0, 0, 
330, 1, 330, 330, 3634, -7.450907536354357, -4.233613700656734, 4.195687838603074, 1.546744658999103, ABarapaaa, 0, 0, 0, 0, , 0, 0, 0, 0, 0, 
93, 1, 93, 93, 3635, -11.867841178560372, -2.1925606477757236, 0.14543869247422814, 1.546744658999103, ABalaaaar, 0, 0, 0, 0, , 0, 0, 0, 0, 0, 
344, 1, 344, 344, 3636, -2.433706941423722, -2.968898378598862, 6.684826381472494, 1.546744658999103, ABarappaa, 0, 0, 0, 0, , 0, 0, 0, 0, 0, 
531, 1, 531, 531, 3637, -0.8970654782550663, 3.614966433375903, -6.491050240026114, 1.546744658999103, ABalapppa, 0, 0, 0, 0, , 0, 0, 0, 0, 0, 
352, 1, 352, 352, 3638, -10.066429796555049, -4.363929708368059, -0.16727954371655002, 1.546744658999103, ABaraaapa, 0, 0, 0, 0, , 0, 0, 0, 0, 0, 
61, 1, 61, 61, 3639, -4.429662882414989, -5.696039980135296, 1.6603746069501317, 1.546744658999103, ABarpaaap, 0, 0, 0, 0, , 0, 0, 0, 0, 0, 
4, 1, 4, 4, 3640, 6.949911201714799, 6.168267901989791, -0.2010322498766562, 2.119721157, Z3, 0, 0, 0, 0, , 0, 0, 0, 0, 0, 
50, 1, 50, 50, 3641, 5.5605219100979575, 3.9256714579732064, -1.3489131203708968, 1.395842741047971, MSppapp, 0, 0, 0, 0, , 0, 0, 0, 0, 0, 
87, 1, 87, 87, 3642, 7.309146858924593, -4.432854532375912, -4.086395802348772, 1.4712937000235367, ABplpppap, 0, 0, 0, 0, , 0, 0, 0, 0, 0, 
58, 1, 58, 58, 3643, 1.911743720838239, 0.9963737153569573, -4.53562934746069, 1.4712937000235367, ABplpapap, 0, 0, 0, 0, , 0, 0, 0, 0, 0, 
475, 1, 475, 475, 3644, -11.280463809595927, 3.025607774105699, -0.7505248627111741, 1.546744658999103, ABalpapaa, 0, 0, 0, 0, , 0, 0, 0, 0, 0, 
364, 1, 364, 364, 3645, 4.823123483525951, -5.549498205358847, 4.0446524732823, 1.4712937000235367, ABprappaa, 0, 0, 0, 0, , 0, 0, 0, 0, 0, 
86, 1, 86, 86, 3646, 2.2620578068093127, -5.144200248245203, 5.205440894164934, 1.4712937000235367, ABprpaaap, 0, 0, 0, 0, , 0, 0, 0, 0, 0, 
3, 1, 3, 3, -1, 5.063944618611789, 6.511915504502904, 1.9524765330814209, 1.6044169437333, MSpppp, 0, 0, 0, 0, , 0, 0, 0, 0, 0, 
761, 1, 761, 761, 3647, -8.973838442994019, 3.56356411387231, -3.7161102460032667, 1.546744658999103, ABalpaaaa, 0, 0, 0, 0, , 0, 0, 0, 0, 0, 
280, 1, 280, 280, 3648, -7.725954540356916, -1.7623665361457654, 5.566957421825689, 1.546744658999103, ABaraapaa, 0, 0, 0, 0, , 0, 0, 0, 0, 0, 
1178, 1, 1178, 1178, 3649, -11.257558010500587, -1.4278213261952872, 2.8091325948980326, 1.546744658999103, ABaraaaaa, 0, 0, 0, 0, , 0, 0, 0, 0, 0, 
128, 1, 128, 128, -1, -0.6203548754814858, 7.102557898328198, 2.202173060630054, 1.6044169437333, MSappa, 0, 0, 0, 0, , 0, 0, 0, 0, 0, 
37, 1, 37, 37, 3650, -1.827832242660092, 4.482131781370387, -3.987833707297872, 1.546744658999103, ABalppapp, 0, 0, 0, 0, , 0, 0, 0, 0, 0, 
53, 1, 53, 53, 3651, 5.8739470012723505, -6.38949732909609, 1.5187781804098717, 1.6044169437333, Cpaap, 0, 0, 0, 0, , 0, 0, 0, 0, 0, 
74, 1, 74, 74, 3652, -9.69488319423739, 0.05878430000350746, 4.651190617276861, 1.546744658999103, ABaraaaap, 0, 0, 0, 0, , 0, 0, 0, 0, 0, 
91, 1, 91, 91, 3653, 7.810035807657063, 4.081083432353066, 4.1163169024776955, 1.4712937000235367, ABprpppap, 0, 0, 0, 0, , 0, 0, 0, 0, 0, 
38, 1, 38, 38, 3654, -0.15633113176788593, -6.457979067823371, -3.703274350591556, 1.4712937000235367, ABpraaapp, 0, 0, 0, 0, , 0, 0, 0, 0, 0, 
231, 1, 231, 231, 3655, -6.300902998211549, 6.33804883976739, -1.0478796206121703, 1.546744658999103, ABalpappa, 0, 0, 0, 0, , 0, 0, 0, 0, 0, 
1504, 1, 1504, 1504, 3656, 7.111436064238939, -0.3834628506613416, 0.1286495376622349, 1.6044169437333, Cappa, 0, 0, 0, 0, , 0, 0, 0, 0, 0, 
515, 1, 515, 515, 3657, 4.229034351270213, 1.5824082403527426, 1.1350000692569007, 1.6044169437333, Caapa, 0, 0, 0, 0, , 0, 0, 0, 0, 0, 
78, 1, 78, 78, 3658, 6.016125233803557, 2.6026286706508475, 5.9741036742207285, 1.4712937000235367, ABprpapap, 0, 0, 0, 0, , 0, 0, 0, 0, 0, 
96, 1, 96, 96, 3659, -2.0973268400028124, 0.5735607329135326, -4.12791056697895, 1.546744658999103, ABalappap, 0, 0, 0, 0, , 0, 0, 0, 0, 0, 
18, 1, 18, 18, 3660, 5.154349256163178, 4.957124478460575, 4.625792783617623, 1.4712937000235367, ABprpappp, 0, 0, 0, 0, , 0, 0, 0, 0, 0, 
46, 1, 46, 46, 3661, 8.51053635270659, 3.9644569191646637, -3.706281481125158, 1.84415740659, Eplp, 0, 0, 0, 0, , 0, 0, 0, 0, 0, 
34, 1, 34, 34, 3662, -4.735751245926163, 5.431667071729651, -4.233110686092916, 1.546744658999103, ABalpaapp, 0, 0, 0, 0, , 0, 0, 0, 0, 0, 
2196, 1, 2196, 2196, 3663, -2.4218633144885673, 1.8721607096124209, 3.133382209693964, 1.395842741047971, MSpaapa, 0, 0, 0, 0, , 0, 0, 0, 0, 0, 
41, 1, 41, 41, 3664, 5.905232279504545, -3.4171059012562317, 5.593438357313228, 1.4712937000235367, ABprpaapp, 0, 0, 0, 0, , 0, 0, 0, 0, 0, 
842, 1, 842, 842, 3665, -4.787725677388256, 4.0720005758951805, 0.8241267785416228, 1.546744658999103, ABarppppa, 0, 0, 0, 0, , 0, 0, 0, 0, 0, 
598, 1, 598, 598, 3666, 9.715480652933234, -3.0625559688328607, 3.4822022616718735, 1.4712937000235367, ABprppapa, 0, 0, 0, 0, , 0, 0, 0, 0, 0, 
19, 1, 19, 19, 3667, 0.623171376228655, 0.272539499087109, 0.9942113652496427, 1.4712937000235367, ABpraappp, 0, 0, 0, 0, , 0, 0, 0, 0, 0, 
240, 1, 240, 240, 3668, 3.1049633187995824, -4.322767503886589, -0.45684910016104574, 1.6044169437333, Cpapa, 0, 0, 0, 0, , 0, 0, 0, 0, 0, 
325, 1, 325, 325, 3669, 0.0193037376807624, -1.1262940095490042, -5.068285770882959, 1.4712937000235367, ABplpapaa, 0, 0, 0, 0, , 0, 0, 0, 0, 0, 
150, 1, 150, 150, -1, 9.400827596893773, 1.6812249499837884, -1.8590009102464529, 1.84415740659, Daa, 0, 0, 0, 0, , 0, 0, 0, 0, 0, 
23, 1, 23, 23, 3670, -5.4540880699896865, 1.0848034806159914, -2.0989532846412926, 1.546744658999103, ABalaappp, 0, 0, 0, 0, , 0, 0, 0, 0, 0, 
439, 1, 439, 439, 3671, 8.80371974558257, 1.838339572209757, 0.9457928082023391, 1.4712937000235367, ABprppppa, 0, 0, 0, 0, , 0, 0, 0, 0, 0, 
287, 1, 287, 287, 3672, 1.887798257113224, -2.787319087046092, -3.669898584843521, 1.4712937000235367, ABplpappa, 0, 0, 0, 0, , 0, 0, 0, 0, 0, 
461, 1, 461, 461, 3673, -7.684769417006925, -1.7242301045495287, 2.646362457217728, 1.546744658999103, ABarpapaa, 0, 0, 0, 0, , 0, 0, 0, 0, 0, 
622, 1, 622, 622, 3674, -7.059614613476576, -1.1569386831452595, -6.022837131563876, 1.546744658999103, ABalapaaa, 0, 0, 0, 0, , 0, 0, 0, 0, 0, 
83, 1, 83, 83, 3675, 0.946634689228388, -7.3935218697576826, -0.708017359454984, 1.4712937000235367, ABplappap, 0, 0, 0, 0, , 0, 0, 0, 0, 0, 
69, 1, 69, 69, 3676, -8.291811531176062, 1.304529384279572, -5.394419007345639, 1.546744658999103, ABalapaap, 0, 0, 0, 0, , 0, 0, 0, 0, 0, 
20, 1, 20, 20, 3677, -3.052255565468052, 7.181460030400687, 0.7237203147030697, 1.546744658999103, ABalpappp, 0, 0, 0, 0, , 0, 0, 0, 0, 0, 
47, 1, 47, 47, 3678, 0.5301695506824867, 2.502234293399505, 3.0454758196322884, 1.395842741047971, MSpaapp, 0, 0, 0, 0, , 0, 0, 0, 0, 0, 
298, 1, 298, 298, 3679, 3.4082966172127507, 1.9368206547404638, 6.893864148119955, 1.4712937000235367, ABprpapaa, 0, 0, 0, 0, , 0, 0, 0, 0, 0, 
24, 1, 24, 24, 3680, 4.050096113436807, -0.85439055002445, -4.075299491783312, 1.4712937000235367, ABplpappp, 0, 0, 0, 0, , 0, 0, 0, 0, 0, 
40, 1, 40, 40, 3681, 5.440799582886325, -6.145103432058083, -2.6618921724023483, 1.4712937000235367, ABplapapp, 0, 0, 0, 0, , 0, 0, 0, 0, 0, 
249, 1, 249, 249, 3682, 2.5961690781763154, -6.67286751228929, -2.912816394237761, 1.4712937000235367, ABplapapa, 0, 0, 0, 0, , 0, 0, 0, 0, 0, 
28, 1, 28, 28, 3683, 5.907119305343407, -3.7572502113742856, 0.2679250191477778, 1.6044169437333, Cpapp, 0, 0, 0, 0, , 0, 0, 0, 0, 0, 
3078, 1, 3078, 3078, 3684, -1.723349852991683, 3.4808853020877613, 0.9287388090204701, 1.395842741047971, MSppaaa, 0, 0, 0, 0, , 0, 0, 0, 0, 0, 
54, 1, 54, 54, 3685, 4.672505776411368, -4.530162973523614, -5.207285825922015, 1.4712937000235367, ABplapaap, 0, 0, 0, 0, , 0, 0, 0, 0, 0, 
250, 1, 250, 250, 3686, 3.8596981552392564, -7.069980673706623, -0.3995118596028966, 1.6044169437333, Cpaaa, 0, 0, 0, 0, , 0, 0, 0, 0, 0, 
71, 1, 71, 71, 3687, -8.831223944835457, 0.8744034386152827, 1.9793995127195116, 1.546744658999103, ABarppaap, 0, 0, 0, 0, , 0, 0, 0, 0, 0, 
130, 1, 130, 130, 3688, -1.4848625718664525, 6.836605892978509, -2.518512773221197, 1.395842741047971, MSapaap, 0, 0, 0, 0, , 0, 0, 0, 0, 0, 
59, 1, 59, 59, 3689, 10.74295451853706, -3.6471126582714817, 0.8502899565834238, 1.6044169437333, Cppap, 0, 0, 0, 0, , 0, 0, 0, 0, 0, 
30, 1, 30, 30, 3690, 2.513425769952761, -0.29541347062150586, 3.0964814019815066, 1.4712937000235367, ABprapapp, 0, 0, 0, 0, , 0, 0, 0, 0, 0, 
67, 1, 67, 67, 3691, 3.015806341097599, -6.849545685842286, 2.2918783817442536, 1.4712937000235367, ABprapaap, 0, 0, 0, 0, , 0, 0, 0, 0, 0, 
323, 1, 323, 323, 3692, -0.19193760139369706, 0.4936128768145641, -7.43070749092871, 1.4712937000235367, ABplpaaaa, 0, 0, 0, 0, , 0, 0, 0, 0, 0, 
11, 1, 11, 11, 3693, 6.481049967251242, 0.6759359723197772, 2.7666334359069835, 1.4712937000235367, ABprapppp, 0, 0, 0, 0, , 0, 0, 0, 0, 0, 
2637, 1, 2637, 2637, 3694, 2.82689741271014, 3.1039301058170645, -1.4220093332027794, 1.395842741047971, MSppapa, 0, 0, 0, 0, , 0, 0, 0, 0, 0, 
808, 1, 808, 808, 3695, 4.657490814057561, -3.2604815836701704, -2.637691333682282, 1.4712937000235367, ABplpppaa, 0, 0, 0, 0, , 0, 0, 0, 0, 0, 
2479, 1, 2479, 2479, 3696, -4.441705043350441, 4.8145281622416505, 5.023692828787415, 1.395842741047971, MSaappa, 0, 0, 0, 0, , 0, 0, 0, 0, 0, 
392, 1, 392, 392, 3697, -4.574845692165506, -2.3800351580389227, -6.499958204666028, 1.546744658999103, ABalapapa, 0, 0, 0, 0, , 0, 0, 0, 0, 0, 
42, 1, 42, 42, 3698, 7.657640923304463, -0.8598297788130145, -5.797589417273066, 1.4712937000235367, ABplppapp, 0, 0, 0, 0, , 0, 0, 0, 0, 0, 
112, 1, 112, 112, 3699, -2.0668868166783216, -0.9214398955141978, 3.1961642869012024, 1.395842741047971, MSpaaap, 0, 0, 0, 0, , 0, 0, 0, 0, 0, 
26, 1, 26, 26, 3700, -1.8105831337830056, 4.3174221622332345, 5.9744034511461965, 1.395842741047971, MSaappp, 0, 0, 0, 0, , 0, 0, 0, 0, 0, 
16, 1, 16, 16, 3701, -3.4906185325882255, 1.480340584350293, -0.06959959406922012, 1.546744658999103, ABarpappp, 0, 0, 0, 0, , 0, 0, 0, 0, 0, 
292, 1, 292, 292, 3702, -5.053142572016625, -2.940329618019097, 2.365421089292269, 1.4712937000235367, ABpraapaa, 0, 0, 0, 0, , 0, 0, 0, 0, 0, 
76, 1, 76, 76, 3703, -6.244852990542049, 0.5071142038921003, 6.420797168155614, 1.546744658999103, ABaraapap, 0, 0, 0, 0, , 0, 0, 0, 0, 0, 
92, 1, 92, 92, 3704, 2.2843191037372894, -2.8481746426352923, -6.74246935361127, 1.4712937000235367, ABplppaap, 0, 0, 0, 0, , 0, 0, 0, 0, 0, 
1330, 1, 1330, 1330, 3705, -0.3803554343318351, -3.917086513858024, -6.334841738537829, 1.4712937000235367, ABplppaaa, 0, 0, 0, 0, , 0, 0, 0, 0, 0, 
64, 1, 64, 64, 3706, -9.847596938038691, 4.317621756951304, 1.3933865768112836, 1.546744658999103, ABalpapap, 0, 0, 0, 0, , 0, 0, 0, 0, 0, 
498, 1, 498, 498, 3707, -6.254884874512758, 3.8170696877091332, -2.390192079374863, 1.546744658999103, ABarpppaa, 0, 0, 0, 0, , 0, 0, 0, 0, 0, 
