64, 1, 64, 64, 4257, -10.34549220901726, 3.8326938196772757, 1.527932342806809, 1.546744658999103, ABalpapap, 0, 0, 0, 0, , 0, 0, 0, 0, 0, 
3969, 1, 3969, 3969, 4258, 0.796979707395486, 7.518216774928214, 0.7632665728453938, 1.395842741047971, MSapppa, 0, 0, 0, 0, , 0, 0, 0, 0, 0, 
17, 1, 17, 17, 4259, -0.583248633517434, -1.2110686294473265, 7.341860156593404, 1.546744658999103, ABaraappp, 0, 0, 0, 0, , 0, 0, 0, 0, 0, 
693, 1, 693, 693, 4260, -1.9962641027869692, -7.124582372033686, -1.8106510194211587, 1.4712937000235367, ABplappaa, 0, 0, 0, 0, , 0, 0, 0, 0, 0, 
158, 1, 158, 158, 4261, 5.4856891869585445, 2.8002164851488804, -4.125333218945654, 1.84415740659, Epla, 0, 0, 0, 0, , 0, 0, 0, 0, 0, 
280, 1, 280, 280, 4262, -8.071801495359, -2.1268294707334663, 5.249605887669018, 1.546744658999103, ABaraapaa, 0, 0, 0, 0, , 0, 0, 0, 0, 0, 
50, 1, 50, 50, 4263, 6.306793163605604, 3.3178655267193373, -1.3086564752208847, 1.395842741047971, MSppapp, 0, 0, 0, 0, , 0, 0, 0, 0, 0, 
87, 1, 87, 87, 4264, 7.263531537055239, -4.459582979271884, -4.071378087794177, 1.4712937000235367, ABplpppap, 0, 0, 0, 0, , 0, 0, 0, 0, 0, 
330, 1, 330, 330, 4265, -7.3137830446629275, -4.521331392295444, 3.969828303398095, 1.546744658999103, ABarapaaa, 0, 0, 0, 0, , 0, 0, 0, 0, 0, 
754, 1, 754, 754, 4266, -7.701032179779587, -0.5278693273974715, -1.0567028604436002, 1.546744658999103, ABalaappa, 0, 0, 0, 0, , 0, 0, 0, 0, 0, 
9, 1, 9, 9, 4267, 3.076699154568835, -1.1900278534404614, 7.129510202891908, 1.546744658999103, ABarapppp, 0, 0, 0, 0, , 0, 0, 0, 0, 0, 
352, 1, 352, 352, 4268, -9.931427524666026, -4.4757844032425105, -0.061474782899536264, 1.546744658999103, ABaraaapa, 0, 0, 0, 0, , 0, 0, 0, 0, 0, 
1053, 1, 1053, 1053, 4269, -7.789696372708023, -5.63099849381337, 1.402355131271034, 1.546744658999103, ABarpaaaa, 0, 0, 0, 0, , 0, 0, 0, 0, 0, 
14, 1, 14, 14, 4270, 1.5115030801746931, 1.276273113146227, -1.7267224779360872, 1.84415740659, Earp, 0, 0, 0, 0, , 0, 0, 0, 0, 0, 
74, 1, 74, 74, 4271, -9.697381768694084, 0.1383798966279185, 4.657612641866617, 1.546744658999103, ABaraaaap, 0, 0, 0, 0, , 0, 0, 0, 0, 0, 
249, 1, 249, 249, 4272, 2.6265727301864636, -6.686125193537162, -2.893807667731348, 1.4712937000235367, ABplapapa, 0, 0, 0, 0, , 0, 0, 0, 0, 0, 
497, 1, 497, 497, 4273, -5.503196266098882, 0.2378126093677917, 1.7928420319780254, 1.546744658999103, ABarpappa, 0, 0, 0, 0, , 0, 0, 0, 0, 0, 
660, 1, 660, 660, 4274, 4.765822183482295, -1.847106862778088, -6.63238792129258, 1.4712937000235367, ABplppapa, 0, 0, 0, 0, , 0, 0, 0, 0, 0, 
776, 1, 776, 776, 4275, -10.295522116619262, 0.4842189551357572, -0.39921347392557427, 1.546744658999103, ABarppapa, 0, 0, 0, 0, , 0, 0, 0, 0, 0, 
63, 1, 63, 63, 4276, -3.5712421664676013, 3.75382554699915, -1.4756025978501461, 1.546744658999103, ABarpppap, 0, 0, 0, 0, , 0, 0, 0, 0, 0, 
439, 1, 439, 439, 4277, 9.148756967258343, 1.3777049921881315, 0.5706713446337178, 1.4712937000235367, ABprppppa, 0, 0, 0, 0, , 0, 0, 0, 0, 0, 
32, 1, 32, 32, 4278, -9.77398370562836, -3.7075701660501457, 2.7093399230040474, 1.546744658999103, ABaraaapp, 0, 0, 0, 0, , 0, 0, 0, 0, 0, 
73, 1, 73, 73, 4279, -1.3811085458669996, -7.337401982734552, 0.9517794813731499, 1.4712937000235367, ABpraaaap, 0, 0, 0, 0, , 0, 0, 0, 0, 0, 
29, 1, 29, 29, 4280, -2.4879315247628253, -3.4306428060435477, 3.670930128055216, 1.546744658999103, ABarapapp, 0, 0, 0, 0, , 0, 0, 0, 0, 0, 
24, 1, 24, 24, 4281, 3.875821763430022, -1.0490707640123538, -4.052106570269857, 1.4712937000235367, ABplpappp, 0, 0, 0, 0, , 0, 0, 0, 0, 0, 
46, 1, 46, 46, 4282, 8.36064748256765, 4.009199715092911, -3.775671251560169, 1.84415740659, Eplp, 0, 0, 0, 0, , 0, 0, 0, 0, 0, 
47, 1, 47, 47, 4283, 0.06344450600761983, 2.3054683514793375, 3.1626711719521565, 1.395842741047971, MSpaapp, 0, 0, 0, 0, , 0, 0, 0, 0, 0, 
816, 1, 816, 816, 4284, 6.321201368945407, -2.3518109011167327, 3.2338134735761455, 1.4712937000235367, ABprapppa, 0, 0, 0, 0, , 0, 0, 0, 0, 0, 
298, 1, 298, 298, 4285, 3.5541733394439636, 1.5798607092180268, 6.971148976197195, 1.4712937000235367, ABprpapaa, 0, 0, 0, 0, , 0, 0, 0, 0, 0, 
37, 1, 37, 37, 4286, -2.110240799386657, 3.742581316895115, -3.9247126391062332, 1.546744658999103, ABalppapp, 0, 0, 0, 0, , 0, 0, 0, 0, 0, 
86, 1, 86, 86, 4287, 2.2646178874791247, -5.335942149754002, 5.0217004884503815, 1.4712937000235367, ABprpaaap, 0, 0, 0, 0, , 0, 0, 0, 0, 0, 
124, 1, 124, 124, 4288, 4.2589514742347045, 3.080210846544529, 2.217987050109053, 1.395842741047971, MSpppap, 0, 0, 0, 0, , 0, 0, 0, 0, 0, 
292, 1, 292, 292, 4289, -4.999177569055569, -2.495705735707588, 2.680857675511139, 1.4712937000235367, ABpraapaa, 0, 0, 0, 0, , 0, 0, 0, 0, 0, 
1047, 1, 1047, 1047, 4290, -7.997291792854327, 5.4501795405782145, 1.6567060033085796, 1.395842741047971, MSaapaa, 0, 0, 0, 0, , 0, 0, 0, 0, 0, 
57, 1, 57, 57, 4291, -1.6093336675643148, -4.1271187823218405, 1.0381973932383994, 1.4712937000235367, ABpraapap, 0, 0, 0, 0, , 0, 0, 0, 0, 0, 
36, 1, 36, 36, 4292, 10.540852594030627, -0.2691691370180035, 3.9363297327515236, 1.4712937000235367, ABprppapp, 0, 0, 0, 0, , 0, 0, 0, 0, 0, 
231, 1, 231, 231, 4293, -6.425845545712493, 6.328606089231127, -0.724323797364663, 1.546744658999103, ABalpappa, 0, 0, 0, 0, , 0, 0, 0, 0, 0, 
75, 1, 75, 75, 4294, 2.6407106411631003, -0.07550707793773412, -7.273050839865023, 1.4712937000235367, ABplpaaap, 0, 0, 0, 0, , 0, 0, 0, 0, 0, 
4, 1, 4, 4, 4295, 7.232073866475294, 6.033131187874477, -0.5517106958322205, 2.119721157, Z3, 0, 0, 0, 0, , 0, 0, 0, 0, 0, 
77, 1, 77, 77, 4296, 7.050403298136308, -0.6494599111564857, 6.097482052497038, 1.4712937000235367, ABprppaap, 0, 0, 0, 0, , 0, 0, 0, 0, 0, 
1, 1, 1, 1, 4297, 8.898759377336141, 4.9735593758621714, 1.5029849187415874, 1.4712937000235367, ABprppppp, 0, 0, 0, 0, , 0, 0, 0, 0, 0, 
689, 1, 689, 689, 4298, -2.5502527245900426, -6.446786520924698, 3.406434545830364, 1.4712937000235367, ABpraaaaa, 0, 0, 0, 0, , 0, 0, 0, 0, 0, 
260, 1, 260, 260, 4299, -4.624879319060861, -5.033098326357488, 4.7379743192170505, 1.546744658999103, ABarapapa, 0, 0, 0, 0, , 0, 0, 0, 0, 0, 
91, 1, 91, 91, 4300, 7.545199226735988, 4.2595689949192215, 4.1199858351121, 1.4712937000235367, ABprpppap, 0, 0, 0, 0, , 0, 0, 0, 0, 0, 
499, 1, 499, 499, 4301, -0.5359351777721081, -5.14522939136203, 5.377842223417602, 1.4712937000235367, ABprpaaaa, 0, 0, 0, 0, , 0, 0, 0, 0, 0, 
83, 1, 83, 83, 4302, 1.0477085914313105, -7.40291868197349, -0.5820397186626588, 1.4712937000235367, ABplappap, 0, 0, 0, 0, , 0, 0, 0, 0, 0, 
6, 1, 6, 6, 4303, 9.239198196629372, -4.58416337345576, -1.9500668360971491, 1.4712937000235367, ABplppppp, 0, 0, 0, 0, , 0, 0, 0, 0, 0, 
325, 1, 325, 325, 4304, 0.2944439532237347, -1.335811025247923, -5.031280845542957, 1.4712937000235367, ABplpapaa, 0, 0, 0, 0, , 0, 0, 0, 0, 0, 
1504, 1, 1504, 1504, 4305, 6.8192924195045626, -0.27911971402905567, 0.15785607665731693, 1.6044169437333, Cappa, 0, 0, 0, 0, , 0, 0, 0, 0, 0, 
323, 1, 323, 323, 4306, -0.2946165149577677, 0.1834649463795025, -7.440847505573143, 1.4712937000235367, ABplpaaaa, 0, 0, 0, 0, , 0, 0, 0, 0, 0, 
31, 1, 31, 31, 4307, -1.0199135415492229, -3.381634856619553, -3.477637982095671, 1.4712937000235367, ABplaaapp, 0, 0, 0, 0, , 0, 0, 0, 0, 0, 
531, 1, 531, 531, 4308, -1.3043254706008247, 3.321607138861971, -6.624863657972395, 1.546744658999103, ABalapppa, 0, 0, 0, 0, , 0, 0, 0, 0, 0, 
1415, 1, 1415, 1415, 4309, -4.265171086555505, -0.35828786628203474, 4.434134311047053, 1.395842741047971, MSpaaaa, 0, 0, 0, 0, , 0, 0, 0, 0, 0, 
58, 1, 58, 58, 4310, 1.9297233995106078, 0.9942995821955228, -4.56645700192197, 1.4712937000235367, ABplpapap, 0, 0, 0, 0, , 0, 0, 0, 0, 0, 
18, 1, 18, 18, 4311, 4.743783250354835, 4.973958410814146, 4.76417823669054, 1.4712937000235367, ABprpappp, 0, 0, 0, 0, , 0, 0, 0, 0, 0, 
2196, 1, 2196, 2196, 4312, -2.6599680161837846, 1.9740691811080324, 4.023027350039605, 1.395842741047971, MSpaapa, 0, 0, 0, 0, , 0, 0, 0, 0, 0, 
498, 1, 498, 498, 4313, -6.3570173070406994, 3.9566263668419563, -2.300219028604036, 1.546744658999103, ABarpppaa, 0, 0, 0, 0, , 0, 0, 0, 0, 0, 
132, 1, 132, 132, 4314, -1.3464893151603823, 1.729349654607099, -1.982962563400221, 1.84415740659, Eara, 0, 0, 0, 0, , 0, 0, 0, 0, 0, 
150, 1, 150, 150, -1, 9.275399843206193, 1.7553337862927954, -2.2566677805473985, 1.84415740659, Daa, 0, 0, 0, 0, , 0, 0, 0, 0, 0, 
392, 1, 392, 392, 4315, -4.859347352907143, -2.2297057756992773, -6.478475148414646, 1.546744658999103, ABalapapa, 0, 0, 0, 0, , 0, 0, 0, 0, 0, 
1567, 1, 1567, 1567, 4316, -6.965800216510927, 2.550719619237252, 5.627818275580103, 1.395842741047971, MSaaapa, 0, 0, 0, 0, , 0, 0, 0, 0, 0, 
112, 1, 112, 112, 4317, -1.879204632288358, -0.6086202332169932, 2.8036130219217434, 1.395842741047971, MSpaaap, 0, 0, 0, 0, , 0, 0, 0, 0, 0, 
13, 1, 13, 13, 4318, 2.4789337977797006, 7.109356547021299, 0.759699167933444, 1.395842741047971, MSapppp, 0, 0, 0, 0, , 0, 0, 0, 0, 0, 
7, 1, 7, 7, 4319, 9.818053340469968, 0.1379347872239385, -4.5591010936663325, 1.84415740659, Eprp, 0, 0, 0, 0, , 0, 0, 0, 0, 0, 
38, 1, 38, 38, 4320, -0.0661701905089155, -6.425793998955038, -3.7631267874285044, 1.4712937000235367, ABpraaapp, 0, 0, 0, 0, , 0, 0, 0, 0, 0, 
4244, 1, 4244, 4244, 4321, -1.0590192588810665, 6.890448712586109, 2.7782149667801375, 1.395842741047971, MSappaa, 0, 0, 0, 0, , 0, 0, 0, 0, 0, 
696, 1, 696, 696, 4322, 0.26374621558337197, -6.725668506258875, 3.1932106060718257, 1.4712937000235367, ABprapaaa, 0, 0, 0, 0, , 0, 0, 0, 0, 0, 
148, 1, 148, 148, 4323, 0.8613244689637437, 4.411774452758213, -2.6448892383222016, 1.84415740659, Eala, 0, 0, 0, 0, , 0, 0, 0, 0, 0, 
15, 1, 15, 15, 4324, 9.647966959053958, -1.2840079667826774, 1.3881508301417322, 1.6044169437333, Cappp, 0, 0, 0, 0, , 0, 0, 0, 0, 0, 
475, 1, 475, 475, 4325, -11.140426355848414, 3.1094611825417067, -1.1208510278387067, 1.546744658999103, ABalpapaa, 0, 0, 0, 0, , 0, 0, 0, 0, 0, 
600, 1, 600, 600, 4326, -4.091647205352187, 3.4687322899626163, -6.123522377991668, 1.546744658999103, ABalppapa, 0, 0, 0, 0, , 0, 0, 0, 0, 0, 
287, 1, 287, 287, 4327, 1.9020266296575983, -3.0107871918972138, -3.3148382429091567, 1.4712937000235367, ABplpappa, 0, 0, 0, 0, , 0, 0, 0, 0, 0, 
65, 1, 65, 65, 4328, -5.253702930815856, -4.581385095712714, -4.963159049476971, 1.4712937000235367, ABplaaaap, 0, 0, 0, 0, , 0, 0, 0, 0, 0, 
11, 1, 11, 11, 4329, 6.631866751326002, 0.4649470256104541, 3.020108786062853, 1.4712937000235367, ABprapppp, 0, 0, 0, 0, , 0, 0, 0, 0, 0, 
515, 1, 515, 515, 4330, 4.154823716653295, 0.7763069592260774, 0.6196109224025264, 1.6044169437333, Caapa, 0, 0, 0, 0, , 0, 0, 0, 0, 0, 
165, 1, 165, 165, 4331, 9.467819817343639, -2.644067674801576, -4.030926831883701, 1.84415740659, Epra, 0, 0, 0, 0, , 0, 0, 0, 0, 0, 
71, 1, 71, 71, 4332, -8.821040573516001, 0.9216467056903742, 2.0024364523351004, 1.546744658999103, ABarppaap, 0, 0, 0, 0, , 0, 0, 0, 0, 0, 
503, 1, 503, 503, 4333, -7.8348738518252805, -5.384972059682564, -2.1101443819798624, 1.4712937000235367, ABplaaaaa, 0, 0, 0, 0, , 0, 0, 0, 0, 0, 
55, 1, 55, 55, 4334, -5.757110535717233, -2.859771315297158, -2.6915008994223846, 1.4712937000235367, ABplaapap, 0, 0, 0, 0, , 0, 0, 0, 0, 0, 
12, 1, 12, 12, 4335, 3.253463636625373, -4.071929199107027, 2.28217660545316, 1.4712937000235367, ABplapppp, 0, 0, 0, 0, , 0, 0, 0, 0, 0, 
404, 1, 404, 404, 4336, 3.178421063938633, 5.917233880123254, -4.106658604209051, 1.546744658999103, ABalppppa, 0, 0, 0, 0, , 0, 0, 0, 0, 0, 
1122, 1, 1122, 1122, 4337, -10.065505158263932, -3.4211633562931545, -2.7077165628230953, 1.546744658999103, ABalaaapa, 0, 0, 0, 0, , 0, 0, 0, 0, 0, 
697, 1, 697, 697, 4338, 11.31041770062691, -2.483798896537325, -1.8333143642365834, 1.6044169437333, Cpppa, 0, 0, 0, 0, , 0, 0, 0, 0, 0, 
375, 1, 375, 375, 4339, -2.5572220985270286, -5.505128075926762, -4.782471899609268, 1.4712937000235367, ABplaaapa, 0, 0, 0, 0, , 0, 0, 0, 0, 0, 
82, 1, 82, 82, 4340, -9.017554738520253, 5.027695776423402, -0.9561685160220658, 1.546744658999103, ABalpaaap, 0, 0, 0, 0, , 0, 0, 0, 0, 0, 
84, 1, 84, 84, 4341, -9.041065897513864, -0.8856904964359686, -3.5528508993508208, 1.546744658999103, ABalaapap, 0, 0, 0, 0, , 0, 0, 0, 0, 0, 
56, 1, 56, 56, 4342, -5.193417799484339, -2.6826011379731063, 6.218201519173406, 1.546744658999103, ABarapaap, 0, 0, 0, 0, , 0, 0, 0, 0, 0, 
2637, 1, 2637, 2637, 4343, 3.3440359911950814, 3.5584037273806257, -1.2996648643740831, 1.395842741047971, MSppapa, 0, 0, 0, 0, , 0, 0, 0, 0, 0, 
43, 1, 43, 43, 4344, -7.880805052492747, -3.5682451885833646, -4.5250703968903805, 1.546744658999103, ABalaaapp, 0, 0, 0, 0, , 0, 0, 0, 0, 0, 
2, 1, 2, 2, 4345, -2.9382304560895216, 4.881133655189283, 3.2060128137609785, 1.546744658999103, ABarppppp, 0, 0, 0, 0, , 0, 0, 0, 0, 0, 
988, 1, 988, 988, 4346, 1.0412687074345086, -2.381740195959806, 1.4526695573229091, 1.4712937000235367, ABplapppa, 0, 0, 0, 0, , 0, 0, 0, 0, 0, 
1330, 1, 1330, 1330, 4347, -0.4748194271210608, -4.157052144754064, -6.169764091486246, 1.4712937000235367, ABplppaaa, 0, 0, 0, 0, , 0, 0, 0, 0, 0, 
26, 1, 26, 26, 4348, -2.511331713343221, 3.817255191044875, 6.225248322049148, 1.395842741047971, MSaappp, 0, 0, 0, 0, , 0, 0, 0, 0, 0, 
2760, 1, 2760, 2760, 4349, 4.653060600221426, 0.9189075821989725, -2.167052417562656, 1.6044169437333, Capaa, 0, 0, 0, 0, , 0, 0, 0, 0, 0, 
1418, 1, 1418, 1418, 4350, -5.810436950421451, 1.1946757756470892, -6.472223195935827, 1.546744658999103, ABalppaaa, 0, 0, 0, 0, , 0, 0, 0, 0, 0, 
615, 1, 615, 615, 4351, 7.552989661214173, -2.275340932987795, -1.7909224450069987, 1.4712937000235367, ABplppppa, 0, 0, 0, 0, , 0, 0, 0, 0, 0, 
80, 1, 80, 80, 4352, -4.839635589832496, -1.888114615755681, -0.12106661646190497, 1.546744658999103, ABarpapap, 0, 0, 0, 0, , 0, 0, 0, 0, 0, 
2479, 1, 2479, 2479, 4353, -4.993621012725167, 4.53717771313449, 5.098325190788196, 1.395842741047971, MSaappa, 0, 0, 0, 0, , 0, 0, 0, 0, 0, 
227, 1, 227, 227, 4354, -3.0492599998664485, -1.713040884737121, -2.3387474869378693, 1.4712937000235367, ABplaappa, 0, 0, 0, 0, , 0, 0, 0, 0, 0, 
3078, 1, 3078, 3078, 4355, -2.806722830993883, 2.78800301250203, 1.28365272502915, 1.395842741047971, MSppaaa, 0, 0, 0, 0, , 0, 0, 0, 0, 0, 
3876, 1, 3876, 3876, 4356, 3.456765054661207, 5.744001761982934, 1.8180208250179029, 1.395842741047971, MSppppa, 0, 0, 0, 0, , 0, 0, 0, 0, 0, 
1279, 1, 1279, 1279, 4357, -10.776755396955819, 1.4482734928436929, -3.4049774506323147, 1.546744658999103, ABalaapaa, 0, 0, 0, 0, , 0, 0, 0, 0, 0, 
364, 1, 364, 364, 4358, 4.9399186326446625, -5.433226751435784, 4.141976488524352, 1.4712937000235367, ABprappaa, 0, 0, 0, 0, , 0, 0, 0, 0, 0, 
21, 1, 21, 21, 4359, 0.3768568472732916, -3.797357941941392, -1.0064204713002494, 1.4712937000235367, ABplaappp, 0, 0, 0, 0, , 0, 0, 0, 0, 0, 
34, 1, 34, 34, 4360, -4.769489196760872, 5.449410458559349, -4.201592587145692, 1.546744658999103, ABalpaapp, 0, 0, 0, 0, , 0, 0, 0, 0, 0, 
66, 1, 66, 66, 4361, 1.2088790213807568, -3.2717112535675983, 6.646097135433319, 1.546744658999103, ABarappap, 0, 0, 0, 0, , 0, 0, 0, 0, 0, 
62, 1, 62, 62, 4362, 7.582594474960271, -4.901071885400827, 3.2779684486612255, 1.4712937000235367, ABprappap, 0, 0, 0, 0, , 0, 0, 0, 0, 0, 
1273, 1, 1273, 1273, 4363, -4.6421441080001165, -0.3732184624171408, -4.317988631980022, 1.546744658999103, ABalappaa, 0, 0, 0, 0, , 0, 0, 0, 0, 0, 
293, 1, 293, 293, 4364, -5.739941926672739, -6.596288050730353, -0.32029629410281835, 1.546744658999103, ABarpaapa, 0, 0, 0, 0, , 0, 0, 0, 0, 0, 
10, 1, 10, 10, 4365, 1.3651577788559888, 2.4298820160962897, -6.993403195993772, 1.546744658999103, ABalapppp, 0, 0, 0, 0, , 0, 0, 0, 0, 0, 
500, 1, 500, 500, 4366, 5.0546299075137195, 1.3741415705637832, -6.6630076660676885, 1.4712937000235367, ABplpaapa, 0, 0, 0, 0, , 0, 0, 0, 0, 0, 
41, 1, 41, 41, 4367, 5.549896321522749, -3.2144074212075315, 5.834300185938435, 1.4712937000235367, ABprpaapp, 0, 0, 0, 0, , 0, 0, 0, 0, 0, 
123, 1, 123, 123, 4368, -0.8257479715159385, 4.084778249557317, -0.34170339572722463, 1.395842741047971, MSppaap, 0, 0, 0, 0, , 0, 0, 0, 0, 0, 
54, 1, 54, 54, 4369, 4.709697929474799, -4.369870012061669, -5.336528504005387, 1.4712937000235367, ABplapaap, 0, 0, 0, 0, , 0, 0, 0, 0, 0, 
638, 1, 638, 638, 4370, 2.0026097209531564, -5.174257708788807, -5.219982306757277, 1.4712937000235367, ABplapaaa, 0, 0, 0, 0, , 0, 0, 0, 0, 0, 
116, 1, 116, 116, 4371, -5.435819184727394, 6.123840502655707, 2.7056506923168455, 1.395842741047971, MSaapap, 0, 0, 0, 0, , 0, 0, 0, 0, 0, 
360, 1, 360, 360, 4372, 2.64248083862476, 2.2992278289541033, 4.400894025585813, 1.4712937000235367, ABprpappa, 0, 0, 0, 0, , 0, 0, 0, 0, 0, 
3023, 1, 3023, 3023, 4373, -1.3002174805600273, 7.359861916606098, -0.8769965893863496, 1.395842741047971, MSapapa, 0, 0, 0, 0, , 0, 0, 0, 0, 0, 
33, 1, 33, 33, 4374, 7.697150210272518, 1.7772396361769827, -5.565099335981884, 1.4712937000235367, ABplpaapp, 0, 0, 0, 0, , 0, 0, 0, 0, 0, 
96, 1, 96, 96, 4375, -1.8940774221644527, 0.48619111227804646, -4.539409651417968, 1.546744658999103, ABalappap, 0, 0, 0, 0, , 0, 0, 0, 0, 0, 
61, 1, 61, 61, 4376, -4.3395119299060285, -5.070491024907689, 1.6555823596164678, 1.546744658999103, ABarpaaap, 0, 0, 0, 0, , 0, 0, 0, 0, 0, 
241, 1, 241, 241, 4377, -1.4684017615329352, -1.4245628409040487, 0.05032102474147291, 1.4712937000235367, ABpraappa, 0, 0, 0, 0, , 0, 0, 0, 0, 0, 
128, 1, 128, 128, 4378, -0.8515763973110057, 6.865615215774883, 2.8282698124174535, 1.395842741047971, MSappap, 0, 0, 0, 0, , 0, 0, 0, 0, 0, 
49, 1, 49, 49, 4379, -4.420070849440902, 1.8281829680887087, 6.719279987682073, 1.395842741047971, MSaaapp, 0, 0, 0, 0, , 0, 0, 0, 0, 0, 
647, 1, 647, 647, 4380, 3.0840342932352245, -2.49167359102642, 4.627447306185894, 1.4712937000235367, ABprpaapa, 0, 0, 0, 0, , 0, 0, 0, 0, 0, 
53, 1, 53, 53, 4381, 5.812909426161104, -6.383289909808535, 1.6046868762556392, 1.6044169437333, Cpaap, 0, 0, 0, 0, , 0, 0, 0, 0, 0, 
463, 1, 463, 463, 4382, 0.6776326332204043, 5.056293231814562, -5.451691100373518, 1.546744658999103, ABalpppaa, 0, 0, 0, 0, , 0, 0, 0, 0, 0, 
716, 1, 716, 716, 4383, 4.457144168245739, -0.0115077402157265, 4.7860195859314025, 1.4712937000235367, ABprppaaa, 0, 0, 0, 0, , 0, 0, 0, 0, 0, 
461, 1, 461, 461, 4384, -7.739769263703688, -1.6915934971780282, 2.442605512521787, 1.546744658999103, ABarpapaa, 0, 0, 0, 0, , 0, 0, 0, 0, 0, 
16, 1, 16, 16, 4385, -3.5174493684632004, 0.6103677310816527, -0.41415362122916294, 1.546744658999103, ABarpappp, 0, 0, 0, 0, , 0, 0, 0, 0, 0, 
256, 1, 256, 256, 4386, 0.248397176077896, -2.0054517220592065, 4.220699294397307, 1.4712937000235367, ABprapapa, 0, 0, 0, 0, , 0, 0, 0, 0, 0, 
92, 1, 92, 92, 4387, 2.0461970180807962, -2.808138539987644, -6.794933263351526, 1.4712937000235367, ABplppaap, 0, 0, 0, 0, , 0, 0, 0, 0, 0, 
67, 1, 67, 67, 4388, 2.919022180580711, -6.881100736072515, 2.246983687689326, 1.4712937000235367, ABprapaap, 0, 0, 0, 0, , 0, 0, 0, 0, 0, 
240, 1, 240, 240, 4389, 3.168937108214875, -4.283693675721043, -0.591143890434653, 1.6044169437333, Cpapa, 0, 0, 0, 0, , 0, 0, 0, 0, 0, 
69, 1, 69, 69, 4390, -8.567573138747825, 1.4042126505096748, -5.205073149080601, 1.546744658999103, ABalapaap, 0, 0, 0, 0, , 0, 0, 0, 0, 0, 
326, 1, 326, 326, 4391, -6.750279444663462, 3.6011794980692793, -5.111011556795048, 1.546744658999103, ABalpaapa, 0, 0, 0, 0, , 0, 0, 0, 0, 0, 
598, 1, 598, 598, 4392, 9.632746119690532, -2.9865306891922634, 3.639423402804949, 1.4712937000235367, ABprppapa, 0, 0, 0, 0, , 0, 0, 0, 0, 0, 
320, 1, 320, 320, 4393, -4.507934929146061, -6.328475904652101, -2.8550280962833705, 1.4712937000235367, ABpraaapa, 0, 0, 0, 0, , 0, 0, 0, 0, 0, 
23, 1, 23, 23, 4394, -5.705973022392539, 1.169299983864559, -2.1637589761550227, 1.546744658999103, ABalaappp, 0, 0, 0, 0, , 0, 0, 0, 0, 0, 
1178, 1, 1178, 1178, 4395, -11.32897887921695, -1.261063993993142, 2.779123229178991, 1.546744658999103, ABaraaaaa, 0, 0, 0, 0, , 0, 0, 0, 0, 0, 
3, 1, 3, 3, 4396, 5.288890150667409, 6.519734646046952, 1.7259155552080325, 1.395842741047971, MSppppp, 0, 0, 0, 0, , 0, 0, 0, 0, 0, 
45, 1, 45, 45, 4397, 4.548947414115003, 6.8292835006104715, -1.1745783750340455, 1.84415740659, Ealp, 0, 0, 0, 0, , 0, 0, 0, 0, 0, 
622, 1, 622, 622, 4398, -7.387570384186256, -1.1079912105559862, -5.881239392632455, 1.546744658999103, ABalapaaa, 0, 0, 0, 0, , 0, 0, 0, 0, 0, 
808, 1, 808, 808, 4399, 4.907729529290113, -3.325687004820228, -2.716793394381855, 1.4712937000235367, ABplpppaa, 0, 0, 0, 0, , 0, 0, 0, 0, 0, 
78, 1, 78, 78, 4400, 6.064995711959626, 2.586318282357084, 5.963173950017081, 1.4712937000235367, ABprpapap, 0, 0, 0, 0, , 0, 0, 0, 0, 0, 
761, 1, 761, 761, 4401, -9.073026095086423, 3.721686931676896, -3.4667982022731625, 1.546744658999103, ABalpaaaa, 0, 0, 0, 0, , 0, 0, 0, 0, 0, 
484, 1, 484, 484, 4402, 8.544911585018633, 1.617718248733269, 4.84467577270261, 1.4712937000235367, ABprpppaa, 0, 0, 0, 0, , 0, 0, 0, 0, 0, 
1195, 1, 1195, 1195, 4403, -1.1184854939185493, 1.587210427921337, 7.243689902060042, 1.395842741047971, MSpapaa, 0, 0, 0, 0, , 0, 0, 0, 0, 0, 
8, 1, 8, 8, 4404, 12.381251696297547, -0.2697807048281977, 0.5061931709268789, 1.6044169437333, Cpppp, 0, 0, 0, 0, , 0, 0, 0, 0, 0, 
19, 1, 19, 19, 4405, 0.375727036800558, 0.6436812229419244, 0.8351772960182792, 1.4712937000235367, ABpraappp, 0, 0, 0, 0, , 0, 0, 0, 0, 0, 
210, 1, 210, 210, 4406, 2.588069550807332, -1.3412514239963786, -1.002872150109349, 1.6044169437333, Caaaa, 0, 0, 0, 0, , 0, 0, 0, 0, 0, 
27, 1, 27, 27, 4407, 7.005330216450573, 2.895004902654583, 1.6190994459045616, 1.6044169437333, Caapp, 0, 0, 0, 0, , 0, 0, 0, 0, 0, 
2306, 1, 2306, 2306, 4408, 8.33585628290504, -5.490934203812159, 0.6159521390729237, 1.6044169437333, Cppaa, 0, 0, 0, 0, , 0, 0, 0, 0, 0, 
160, 1, 160, 160, -1, 10.528638819831995, 2.7170495426551913, 2.8801302451698056, 1.84415740659, Dpa, 0, 0, 0, 0, , 0, 0, 0, 0, 0, 
269, 1, 269, 269, 4409, 0.8871772267339949, 0.4564217223364631, 5.624918208060936, 1.546744658999103, ABarapppa, 0, 0, 0, 0, , 0, 0, 0, 0, 0, 
48, 1, 48, 48, 4410, 11.733372948687423, 0.296820152112003, -2.4299033351479262, 1.84415740659, Dap, 0, 0, 0, 0, , 0, 0, 0, 0, 0, 
619, 1, 619, 619, 4411, -11.801688929834565, 1.402746830209043, 1.84837311313572, 1.546744658999103, ABarppaaa, 0, 0, 0, 0, , 0, 0, 0, 0, 0, 
30, 1, 30, 30, 4412, 2.3575243951447646, -0.17004606965616123, 2.788377869087803, 1.4712937000235367, ABprapapp, 0, 0, 0, 0, , 0, 0, 0, 0, 0, 
70, 1, 70, 70, 4413, 3.6394574390920216, 3.8221462078483266, -6.011953338456301, 1.546744658999103, ABalpppap, 0, 0, 0, 0, , 0, 0, 0, 0, 0, 
397, 1, 397, 397, 4414, -3.3511810432033706, -0.746449983104874, 7.132428340960989, 1.546744658999103, ABaraappa, 0, 0, 0, 0, , 0, 0, 0, 0, 0, 
51, 1, 51, 51, 4415, 1.6369591098558491, 7.115268797616064, -1.989777100297193, 1.395842741047971, MSapapp, 0, 0, 0, 0, , 0, 0, 0, 0, 0, 
44, 1, 44, 44, 4416, -2.082659870339879, -1.9959897891847584, -7.062699641129802, 1.546744658999103, ABalapapp, 0, 0, 0, 0, , 0, 0, 0, 0, 0, 
22, 1, 22, 22, -1, 11.57159979158393, 2.7252436734989827, -0.009588777579083847, 1.84415740659, Dpp, 0, 0, 0, 0, , 0, 0, 0, 0, 0, 
35, 1, 35, 35, 4417, -3.6042822539011192, -4.316996857289798, -1.015680559280941, 1.546744658999103, ABarpaapp, 0, 0, 0, 0, , 0, 0, 0, 0, 0, 
1307, 1, 1307, 1307, 4418, -9.299078767215816, 2.8936733489694855, 4.01524794017653, 1.395842741047971, MSaaaaa, 0, 0, 0, 0, , 0, 0, 0, 0, 0, 
109, 1, 109, 109, 4419, -6.739423840493421, 2.7045241917335736, 2.7855154757755125, 1.395842741047971, MSaaaap, 0, 0, 0, 0, , 0, 0, 0, 0, 0, 
25, 1, 25, 25, 4420, 2.029176435153826, 6.032811679038858, 4.185797569488281, 1.395842741047971, MSpappp, 0, 0, 0, 0, , 0, 0, 0, 0, 0, 
336, 1, 336, 336, 4421, -7.396721252158393, -3.159510747118912, 0.014729082492855245, 1.4712937000235367, ABplaapaa, 0, 0, 0, 0, , 0, 0, 0, 0, 0, 
39, 1, 39, 39, 4422, -7.499031240829511, 2.3243396253344133, -0.16492573705943284, 1.546744658999103, ABarppapp, 0, 0, 0, 0, , 0, 0, 0, 0, 0, 
130, 1, 130, 130, 4423, -1.4092152833664344, 6.485677776658758, -3.5725246476199324, 1.395842741047971, MSapaap, 0, 0, 0, 0, , 0, 0, 0, 0, 0, 
1501, 1, 1501, 1501, 4424, -11.639936831207516, -1.0733599153027857, -2.3827650914954837, 1.546744658999103, ABalaaaal, 0, 0, 0, 0, , 0, 0, 0, 0, 0, 
42, 1, 42, 42, 4425, 7.4103744331149555, -1.0758429681892088, -5.875584136296875, 1.4712937000235367, ABplppapp, 0, 0, 0, 0, , 0, 0, 0, 0, 0, 
93, 1, 93, 93, 4426, -11.798782967203234, -2.3329620991178657, 0.18675523292735327, 1.546744658999103, ABalaaaar, 0, 0, 0, 0, , 0, 0, 0, 0, 0, 
88, 1, 88, 88, 4427, -3.0238690395833863, 1.0029353025174363, -7.157041215990971, 1.546744658999103, ABalppaap, 0, 0, 0, 0, , 0, 0, 0, 0, 0, 
28, 1, 28, 28, 4428, 6.003303889805059, -4.126731857504843, -0.2402612924699656, 1.6044169437333, Cpapp, 0, 0, 0, 0, , 0, 0, 0, 0, 0, 
3119, 1, 3119, 3119, 4429, -3.889495495281135, 6.823107057549672, -1.8742326474075877, 1.395842741047971, MSapaaa, 0, 0, 0, 0, , 0, 0, 0, 0, 0, 
60, 1, 60, 60, 4430, 9.660943380712538, 4.510286406984805, -1.25498804521798, 2.119721157, Z2, 0, 0, 0, 0, , 0, 0, 0, 0, 0, 
76, 1, 76, 76, 4431, -6.4198347109272555, -0.14129117145138478, 6.378307525268974, 1.546744658999103, ABaraapap, 0, 0, 0, 0, , 0, 0, 0, 0, 0, 
79, 1, 79, 79, 4432, 7.1587553900995635, 0.12281285491565966, -3.295641084306167, 1.6044169437333, Capap, 0, 0, 0, 0, , 0, 0, 0, 0, 0, 
250, 1, 250, 250, 4433, 3.918334765032968, -7.0545693901249855, -0.39694152171773023, 1.6044169437333, Cpaaa, 0, 0, 0, 0, , 0, 0, 0, 0, 0, 
52, 1, 52, 52, 4434, 4.629653318580225, -1.9761035564926286, 0.9799054493345364, 1.6044169437333, Caaap, 0, 0, 0, 0, , 0, 0, 0, 0, 0, 
3451, 1, 3451, 3451, 4435, 1.636276903773598, 3.616920899026756, 1.113850890922929, 1.395842741047971, MSpppaa, 0, 0, 0, 0, , 0, 0, 0, 0, 0, 
2598, 1, 2598, 2598, 4436, -0.4172847167798978, 4.751360068718732, 4.595821269209991, 1.395842741047971, MSpappa, 0, 0, 0, 0, , 0, 0, 0, 0, 0, 
842, 1, 842, 842, 4437, -5.373728573679275, 4.108315830662271, 0.7010852485332023, 1.546744658999103, ABarppppa, 0, 0, 0, 0, , 0, 0, 0, 0, 0, 
40, 1, 40, 40, 4438, 5.509608331117822, -6.15433316146911, -2.590009020071059, 1.4712937000235367, ABplapapp, 0, 0, 0, 0, , 0, 0, 0, 0, 0, 
5, 1, 5, 5, 4439, 5.944905875436821, 5.5362867785546594, -3.484796525981006, 1.546744658999103, ABalppppp, 0, 0, 0, 0, , 0, 0, 0, 0, 0, 
20, 1, 20, 20, 4440, -3.3376606114600187, 7.096090017510009, 1.0614701254739203, 1.546744658999103, ABalpappp, 0, 0, 0, 0, , 0, 0, 0, 0, 0, 
111, 1, 111, 111, 4441, 1.260649870580454, 3.5474085906914414, 6.513630966050857, 1.395842741047971, MSpapap, 0, 0, 0, 0, , 0, 0, 0, 0, 0, 
344, 1, 344, 344, 4442, -2.34917860724854, -3.3002306630128624, 6.522215999999537, 1.546744658999103, ABarappaa, 0, 0, 0, 0, , 0, 0, 0, 0, 0, 
59, 1, 59, 59, 4443, 10.632551404428808, -3.8192144257074996, 0.6063498522856949, 1.6044169437333, Cppap, 0, 0, 0, 0, , 0, 0, 0, 0, 0, 
