323, 1, 323, 323, 7139, -0.6760509776816064, -0.21650736300418755, -7.43488396181523, 1.4712937000235367, ABplpaaaa, 0, 0, 0, 0, , 0, 0, 0, 0, 0, 
6, 1, 6, 6, 7140, 8.921168054720269, -4.7122779639173515, -2.1540848857973662, 1.4712937000235367, ABplppppp, 0, 0, 0, 0, , 0, 0, 0, 0, 0, 
1567, 1, 1567, 1567, 7141, -6.85067342247703, 2.6064463058475282, 5.640933476783965, 1.395842741047971, MSaaapa, 0, 0, 0, 0, , 0, 0, 0, 0, 0, 
1279, 1, 1279, 1279, 7142, -11.00331352854906, 1.1172566775641743, -3.2715994766939893, 1.546744658999103, ABalaapaa, 0, 0, 0, 0, , 0, 0, 0, 0, 0, 
3078, 1, 3078, 3078, 7143, -2.4676577275279947, 1.8484090556746198, 0.8184638508955845, 1.395842741047971, MSppaaa, 0, 0, 0, 0, , 0, 0, 0, 0, 0, 
360, 1, 360, 360, 7144, 2.050128306625049, 2.3472098375166364, 4.363770133711949, 1.4712937000235367, ABprpappa, 0, 0, 0, 0, , 0, 0, 0, 0, 0, 
21, 1, 21, 21, 7145, 0.5236117245525023, -4.363882276465951, -0.7060377905985322, 1.4712937000235367, ABplaappp, 0, 0, 0, 0, , 0, 0, 0, 0, 0, 
5583, 1, 5583, 5583, 7146, 8.522083089089023, 1.1274894976967285, 1.7259693922107522, 1.6044169437333, Dpaa, 0, 0, 0, 0, , 0, 0, 0, 0, 0, 
461, 1, 461, 461, 7147, -8.304326141440445, -1.3911923810711877, 1.768244897113755, 1.546744658999103, ABarpapaa, 0, 0, 0, 0, , 0, 0, 0, 0, 0, 
336, 1, 336, 336, 7148, -7.556156662474253, -2.8514759818688717, -0.6093718256841333, 1.4712937000235367, ABplaapaa, 0, 0, 0, 0, , 0, 0, 0, 0, 0, 
59, 1, 59, 59, 7149, 10.20602181680655, -4.1591448708451075, 0.8810709917470779, 1.6044169437333, Cppap, 0, 0, 0, 0, , 0, 0, 0, 0, 0, 
269, 1, 269, 269, 7150, 0.6808290045596944, 0.021640037866199738, 5.354962451738788, 1.546744658999103, ABarapppa, 0, 0, 0, 0, , 0, 0, 0, 0, 0, 
3023, 1, 3023, 3023, 7151, -2.001004954269099, 7.1793631245224345, -1.5687724937542022, 1.395842741047971, MSapapa, 0, 0, 0, 0, , 0, 0, 0, 0, 0, 
4410, 1, 4410, 4410, 7152, 9.64116191793524, 2.2838452489698944, -4.11118830189618, 1.6044169437333, Dapa, 0, 0, 0, 0, , 0, 0, 0, 0, 0, 
17, 1, 17, 17, 7153, -0.7610039255275707, -1.5573683473035498, 7.264962164031838, 1.546744658999103, ABaraappp, 0, 0, 0, 0, , 0, 0, 0, 0, 0, 
392, 1, 392, 392, 7154, -5.216065938747291, -2.0006411111163467, -6.452733153140899, 1.546744658999103, ABalapapa, 0, 0, 0, 0, , 0, 0, 0, 0, 0, 
439, 1, 439, 439, 7155, 8.211469095537284, -1.7685281231979548, 1.5684858947757896, 1.4712937000235367, ABprppppa, 0, 0, 0, 0, , 0, 0, 0, 0, 0, 
62, 1, 62, 62, 7156, 7.827696984305614, -4.938794160835833, 3.013422941421627, 1.4712937000235367, ABprappap, 0, 0, 0, 0, , 0, 0, 0, 0, 0, 
20, 1, 20, 20, 7157, -3.7622103076057405, 7.066758581490779, 0.6981944327930466, 1.546744658999103, ABalpappp, 0, 0, 0, 0, , 0, 0, 0, 0, 0, 
45, 1, 45, 45, 7158, 3.7002771602864253, 7.070966928378625, -0.7991309292689067, 1.84415740659, Ealp, 0, 0, 0, 0, , 0, 0, 0, 0, 0, 
2479, 1, 2479, 2479, 7159, -4.814965448807838, 4.55729405507348, 5.144715329392121, 1.395842741047971, MSaappa, 0, 0, 0, 0, , 0, 0, 0, 0, 0, 
50, 1, 50, 50, 7160, 4.482995291296995, 4.286551383526043, -0.5507137222189259, 1.395842741047971, MSppapp, 0, 0, 0, 0, , 0, 0, 0, 0, 0, 
42, 1, 42, 42, 7161, 6.248470682096559, -1.603710005129633, -6.2317662234403866, 1.4712937000235367, ABplppapp, 0, 0, 0, 0, , 0, 0, 0, 0, 0, 
30, 1, 30, 30, 7162, 2.1743955377089956, -0.28429619799957423, 2.4858069036936463, 1.4712937000235367, ABprapapp, 0, 0, 0, 0, , 0, 0, 0, 0, 0, 
816, 1, 816, 816, 7163, 6.69450733873226, -2.5314880217184266, 4.1056937489811265, 1.4712937000235367, ABprapppa, 0, 0, 0, 0, , 0, 0, 0, 0, 0, 
71, 1, 71, 71, 7164, -8.635079546854557, 1.4710376831897518, 1.6842919870923099, 1.546744658999103, ABarppaap, 0, 0, 0, 0, , 0, 0, 0, 0, 0, 
63, 1, 63, 63, 7165, -3.3518225479354737, 3.9696464367204136, -1.7305765540451319, 1.546744658999103, ABarpppap, 0, 0, 0, 0, , 0, 0, 0, 0, 0, 
503, 1, 503, 503, 7166, -7.895642450195032, -5.521312997018891, -1.6189168045721833, 1.4712937000235367, ABplaaaaa, 0, 0, 0, 0, , 0, 0, 0, 0, 0, 
484, 1, 484, 484, 7167, 8.151607884443703, 1.4011767702235711, 5.442723057734401, 1.4712937000235367, ABprpppaa, 0, 0, 0, 0, , 0, 0, 0, 0, 0, 
132, 1, 132, 132, 7168, -1.6177523818585549, 1.6129889980355145, -1.9360491753807012, 1.84415740659, Eara, 0, 0, 0, 0, , 0, 0, 0, 0, 0, 
54, 1, 54, 54, 7169, 4.685035444168817, -4.761365322141076, -5.0001237790468265, 1.4712937000235367, ABplapaap, 0, 0, 0, 0, , 0, 0, 0, 0, 0, 
3969, 1, 3969, 3969, 7170, -0.9298509646067408, 7.341917657837386, 1.1090261741823166, 1.395842741047971, MSapppa, 0, 0, 0, 0, , 0, 0, 0, 0, 0, 
1273, 1, 1273, 1273, 7171, -4.8291911229672, 0.05665454741139069, -3.993421589676757, 1.546744658999103, ABalappaa, 0, 0, 0, 0, , 0, 0, 0, 0, 0, 
293, 1, 293, 293, 7172, -4.405260354488389, -6.972083451831551, 0.2542693814013227, 1.546744658999103, ABarpaapa, 0, 0, 0, 0, , 0, 0, 0, 0, 0, 
79, 1, 79, 79, 7173, 7.519932775743652, 0.29650650828460395, -2.773018876353211, 1.6044169437333, Capap, 0, 0, 0, 0, , 0, 0, 0, 0, 0, 
320, 1, 320, 320, 7174, -5.2551220746770895, -6.304478808511514, -2.413022828662211, 1.4712937000235367, ABpraaapa, 0, 0, 0, 0, , 0, 0, 0, 0, 0, 
1415, 1, 1415, 1415, 7175, -4.400456520807506, -0.22911446721309545, 4.285339293073006, 1.395842741047971, MSpaaaa, 0, 0, 0, 0, , 0, 0, 0, 0, 0, 
1047, 1, 1047, 1047, 7176, -8.153808506167083, 5.181930177233928, 2.1606803876753755, 1.395842741047971, MSaapaa, 0, 0, 0, 0, , 0, 0, 0, 0, 0, 
500, 1, 500, 500, 7177, 4.2582235017593355, 1.7090568450716404, -6.796778665691147, 1.4712937000235367, ABplpaapa, 0, 0, 0, 0, , 0, 0, 0, 0, 0, 
33, 1, 33, 33, 7178, 6.96746474855243, 1.9424695959840426, -5.849881431682499, 1.4712937000235367, ABplpaapp, 0, 0, 0, 0, , 0, 0, 0, 0, 0, 
124, 1, 124, 124, 7179, 4.265650092806772, 1.9696596787313794, 2.560875887185754, 1.395842741047971, MSpppap, 0, 0, 0, 0, , 0, 0, 0, 0, 0, 
23, 1, 23, 23, 7180, -6.998933600417755, 1.606740387826234, -2.935369232028325, 1.546744658999103, ABalaappp, 0, 0, 0, 0, , 0, 0, 0, 0, 0, 
463, 1, 463, 463, 7181, -0.04195664880197726, 4.696939592417403, -5.77765999127019, 1.546744658999103, ABalpppaa, 0, 0, 0, 0, , 0, 0, 0, 0, 0, 
10, 1, 10, 10, 7182, 1.4056052749261627, 2.5195312207169596, -6.963386220313169, 1.546744658999103, ABalapppp, 0, 0, 0, 0, , 0, 0, 0, 0, 0, 
52, 1, 52, 52, 7183, 4.935344829515667, -2.908502812970994, 1.7502470386046587, 1.6044169437333, Caaap, 0, 0, 0, 0, , 0, 0, 0, 0, 0, 
87, 1, 87, 87, 7184, 7.354129114784162, -3.7589841549946326, -4.683744870260835, 1.4712937000235367, ABplpppap, 0, 0, 0, 0, , 0, 0, 0, 0, 0, 
37, 1, 37, 37, 7185, -2.2634303138288328, 3.1685882085009838, -4.273626951082906, 1.546744658999103, ABalppapp, 0, 0, 0, 0, , 0, 0, 0, 0, 0, 
499, 1, 499, 499, 7186, -0.6629256416850835, -5.250649133475659, 5.274507174154237, 1.4712937000235367, ABprpaaaa, 0, 0, 0, 0, , 0, 0, 0, 0, 0, 
240, 1, 240, 240, 7187, 3.3985956858703203, -4.258687578639851, -0.5249012216652611, 1.6044169437333, Cpapa, 0, 0, 0, 0, , 0, 0, 0, 0, 0, 
86, 1, 86, 86, 7188, 2.5116294979530664, -5.445011823618357, 4.848593860837086, 1.4712937000235367, ABprpaaap, 0, 0, 0, 0, , 0, 0, 0, 0, 0, 
83, 1, 83, 83, 7189, 1.1411544260882076, -7.3419567586251215, -1.0443200306825868, 1.4712937000235367, ABplappap, 0, 0, 0, 0, , 0, 0, 0, 0, 0, 
64, 1, 64, 64, 7190, -10.519370058898058, 3.6613245404920725, 1.5148507257523454, 1.546744658999103, ABalpapap, 0, 0, 0, 0, , 0, 0, 0, 0, 0, 
92, 1, 92, 92, 7191, 0.7366579301767202, -2.675897996480188, -6.945768258062522, 1.4712937000235367, ABplppaap, 0, 0, 0, 0, , 0, 0, 0, 0, 0, 
75, 1, 75, 75, 7192, 2.195990004509643, -0.2352252202412574, -7.323413025683932, 1.4712937000235367, ABplpaaap, 0, 0, 0, 0, , 0, 0, 0, 0, 0, 
109, 1, 109, 109, 7193, -6.346820812131743, 2.8217262126898532, 2.8123724152082756, 1.395842741047971, MSaaaap, 0, 0, 0, 0, , 0, 0, 0, 0, 0, 
256, 1, 256, 256, 7194, -0.2721240806760965, -2.480593450013381, 4.299483967922095, 1.4712937000235367, ABprapapa, 0, 0, 0, 0, , 0, 0, 0, 0, 0, 
18, 1, 18, 18, 7195, 4.800258794998597, 5.122175988050058, 4.578622744136919, 1.4712937000235367, ABprpappp, 0, 0, 0, 0, , 0, 0, 0, 0, 0, 
158, 1, 158, 158, 7196, 3.972691772295243, 2.4393072709478996, -4.026678309332648, 1.84415740659, Epla, 0, 0, 0, 0, , 0, 0, 0, 0, 0, 
5, 1, 5, 5, 7197, 4.106447793470865, 6.1214752878720375, -3.463905877241038, 1.546744658999103, ABalppppp, 0, 0, 0, 0, , 0, 0, 0, 0, 0, 
210, 1, 210, 210, 7198, 2.130276950153479, -1.6872602535942853, -0.7316458528259568, 1.6044169437333, Caaaa, 0, 0, 0, 0, , 0, 0, 0, 0, 0, 
69, 1, 69, 69, 7199, -8.802698784781466, 1.1604356681716799, -5.129582062440952, 1.546744658999103, ABalapaap, 0, 0, 0, 0, , 0, 0, 0, 0, 0, 
93, 1, 93, 93, 7200, -11.594303255895229, -2.5936569468804263, 0.6518011133632727, 1.546744658999103, ABalaaaar, 0, 0, 0, 0, , 0, 0, 0, 0, 0, 
22, 1, 22, 22, 7201, 10.765967472297177, 3.6957584546161386, 0.47644884784836694, 1.6044169437333, Dppp, 0, 0, 0, 0, , 0, 0, 0, 0, 0, 
36, 1, 36, 36, 7202, 10.421226207215039, 0.27762470996163346, 4.050410224353578, 1.4712937000235367, ABprppapp, 0, 0, 0, 0, , 0, 0, 0, 0, 0, 
31, 1, 31, 31, 7203, -1.320766246699004, -3.978186859273684, -2.869087460288798, 1.4712937000235367, ABplaaapp, 0, 0, 0, 0, , 0, 0, 0, 0, 0, 
43, 1, 43, 43, 7204, -8.046664457555567, -3.987620140300245, -4.046817046982993, 1.546744658999103, ABalaaapp, 0, 0, 0, 0, , 0, 0, 0, 0, 0, 
808, 1, 808, 808, 7205, 5.176527473600036, -2.5113592050578415, -3.268692549138883, 1.4712937000235367, ABplpppaa, 0, 0, 0, 0, , 0, 0, 0, 0, 0, 
4621, 1, 4621, 4621, 7206, 10.306670670190757, -0.07828151028662098, -0.17118614319215975, 1.6044169437333, Dppa, 0, 0, 0, 0, , 0, 0, 0, 0, 0, 
148, 1, 148, 148, 7207, -0.5659164806747359, 4.598140461118752, -2.1681052222143045, 1.84415740659, Eala, 0, 0, 0, 0, , 0, 0, 0, 0, 0, 
46, 1, 46, 46, 7208, 6.070551041468754, 4.4443009338962085, -4.748157421688334, 1.84415740659, Eplp, 0, 0, 0, 0, , 0, 0, 0, 0, 0, 
622, 1, 622, 622, 7209, -7.90568218071422, -1.530585230382929, -5.539581352841364, 1.546744658999103, ABalapaaa, 0, 0, 0, 0, , 0, 0, 0, 0, 0, 
2598, 1, 2598, 2598, 7210, -0.43722886340803263, 3.729537657498085, 4.003260481691202, 1.395842741047971, MSpappa, 0, 0, 0, 0, , 0, 0, 0, 0, 0, 
287, 1, 287, 287, 7211, 1.9073935048499504, -3.3757493815473656, -3.0500272451274255, 1.4712937000235367, ABplpappa, 0, 0, 0, 0, , 0, 0, 0, 0, 0, 
51, 1, 51, 51, 7212, 0.8342141402977051, 7.34305870889904, -1.160404639366198, 1.395842741047971, MSapapp, 0, 0, 0, 0, , 0, 0, 0, 0, 0, 
352, 1, 352, 352, 7213, -9.572513718758454, -4.71560262054195, 0.577918073546787, 1.546744658999103, ABaraaapa, 0, 0, 0, 0, , 0, 0, 0, 0, 0, 
77, 1, 77, 77, 7214, 6.121618003876814, -0.3618626625019026, 6.474545347011393, 1.4712937000235367, ABprppaap, 0, 0, 0, 0, , 0, 0, 0, 0, 0, 
80, 1, 80, 80, 7215, -4.988036315907746, -1.5739086658432841, -0.3905244920382122, 1.546744658999103, ABarpapap, 0, 0, 0, 0, , 0, 0, 0, 0, 0, 
57, 1, 57, 57, 7216, -1.392399891567213, -4.577983857245397, 1.4186549448567254, 1.4712937000235367, ABpraapap, 0, 0, 0, 0, , 0, 0, 0, 0, 0, 
260, 1, 260, 260, 7217, -4.385756259531198, -5.120167207953643, 4.72075448686637, 1.546744658999103, ABarapapa, 0, 0, 0, 0, , 0, 0, 0, 0, 0, 
84, 1, 84, 84, 7218, -8.933050191299511, -1.0494328021414279, -2.820382755535396, 1.546744658999103, ABalaapap, 0, 0, 0, 0, , 0, 0, 0, 0, 0, 
1053, 1, 1053, 1053, 7219, -7.006632151852492, -6.055932139285717, 1.054514112553464, 1.546744658999103, ABarpaaaa, 0, 0, 0, 0, , 0, 0, 0, 0, 0, 
988, 1, 988, 988, 7220, 0.4662658934430308, -2.3865800662863417, 1.5237849827599277, 1.4712937000235367, ABplapppa, 0, 0, 0, 0, , 0, 0, 0, 0, 0, 
48, 1, 48, 48, 7221, 11.524220552960529, 0.3032983972468896, -2.7586411330315594, 1.6044169437333, Dapp, 0, 0, 0, 0, , 0, 0, 0, 0, 0, 
38, 1, 38, 38, 7222, -0.08150795078056902, -6.541929959293489, -3.570448792964331, 1.4712937000235367, ABpraaapp, 0, 0, 0, 0, , 0, 0, 0, 0, 0, 
165, 1, 165, 165, 7223, 9.809489851421832, -2.501017499377239, -3.844027662452089, 1.84415740659, Epra, 0, 0, 0, 0, , 0, 0, 0, 0, 0, 
241, 1, 241, 241, 7224, -2.2172727081686423, -2.190021140670351, 0.056396333433815074, 1.4712937000235367, ABpraappa, 0, 0, 0, 0, , 0, 0, 0, 0, 0, 
1418, 1, 1418, 1418, 7225, -6.235434670035151, 0.755906142058181, -6.398334897353232, 1.546744658999103, ABalppaaa, 0, 0, 0, 0, , 0, 0, 0, 0, 0, 
111, 1, 111, 111, 7226, 0.49264699201691675, 3.1511437007229874, 6.738293964269416, 1.395842741047971, MSpapap, 0, 0, 0, 0, , 0, 0, 0, 0, 0, 
130, 1, 130, 130, 7227, -2.0425197451854675, 6.0270748364641715, -4.193420022015305, 1.395842741047971, MSapaap, 0, 0, 0, 0, , 0, 0, 0, 0, 0, 
58, 1, 58, 58, 7228, 0.794563728139912, 0.8783625935509339, -4.681110795364898, 1.4712937000235367, ABplpapap, 0, 0, 0, 0, , 0, 0, 0, 0, 0, 
16, 1, 16, 16, 7229, -4.4681522005771654, 1.2540779485788731, -1.342470398552617, 1.546744658999103, ABarpappp, 0, 0, 0, 0, , 0, 0, 0, 0, 0, 
27, 1, 27, 27, 7230, 6.477423158884064, 3.0668256094635513, 1.1086042875892843, 1.6044169437333, Caapp, 0, 0, 0, 0, , 0, 0, 0, 0, 0, 
598, 1, 598, 598, 7231, 9.58521436682488, -2.485023258090035, 4.047364314711143, 1.4712937000235367, ABprppapa, 0, 0, 0, 0, , 0, 0, 0, 0, 0, 
250, 1, 250, 250, 7232, 4.547098880103608, -6.8774295426097725, -0.899334557949535, 1.6044169437333, Cpaaa, 0, 0, 0, 0, , 0, 0, 0, 0, 0, 
82, 1, 82, 82, 7233, -8.91282170412023, 5.1251195609877644, -0.8528237834111785, 1.546744658999103, ABalpaaap, 0, 0, 0, 0, , 0, 0, 0, 0, 0, 
693, 1, 693, 693, 7234, -2.2882559722980864, -7.11887925944566, -1.6958022737741518, 1.4712937000235367, ABplappaa, 0, 0, 0, 0, , 0, 0, 0, 0, 0, 
375, 1, 375, 375, 7235, -3.0277040976865512, -5.893297220487388, -4.170625652499105, 1.4712937000235367, ABplaaapa, 0, 0, 0, 0, , 0, 0, 0, 0, 0, 
231, 1, 231, 231, 7236, -6.492153262472484, 6.3530704587480376, 0.11449162060775049, 1.546744658999103, ABalpappa, 0, 0, 0, 0, , 0, 0, 0, 0, 0, 
842, 1, 842, 842, 7237, -4.816380486408202, 4.0949185377959125, 0.7305983995798531, 1.546744658999103, ABarppppa, 0, 0, 0, 0, , 0, 0, 0, 0, 0, 
638, 1, 638, 638, 7238, 1.841770160586192, -4.9737991021112435, -5.42588242209662, 1.4712937000235367, ABplapaaa, 0, 0, 0, 0, , 0, 0, 0, 0, 0, 
619, 1, 619, 619, 7239, -11.963784056304277, 1.175897196505332, 1.634508405041732, 1.546744658999103, ABarppaaa, 0, 0, 0, 0, , 0, 0, 0, 0, 0, 
160, 1, 160, 160, 7240, 9.900007898468047, 3.1988002210075566, 3.1714119315446427, 1.6044169437333, Dpap, 0, 0, 0, 0, , 0, 0, 0, 0, 0, 
325, 1, 325, 325, 7241, -0.14165884267689255, -1.8141395424078854, -4.3446937442799785, 1.4712937000235367, ABplpapaa, 0, 0, 0, 0, , 0, 0, 0, 0, 0, 
25, 1, 25, 25, 7242, 2.027695530052394, 5.099312316166514, 5.29857292268319, 1.395842741047971, MSpappp, 0, 0, 0, 0, , 0, 0, 0, 0, 0, 
531, 1, 531, 531, 7243, -1.481653624959933, 2.505894226707745, -6.9573545740063985, 1.546744658999103, ABalapppa, 0, 0, 0, 0, , 0, 0, 0, 0, 0, 
292, 1, 292, 292, 7244, -5.571225370877441, -2.0432326951027786, 2.3889817779670612, 1.4712937000235367, ABpraapaa, 0, 0, 0, 0, , 0, 0, 0, 0, 0, 
660, 1, 660, 660, 7245, 3.597154565716195, -2.647717413192968, -6.615072427886507, 1.4712937000235367, ABplppapa, 0, 0, 0, 0, , 0, 0, 0, 0, 0, 
49, 1, 49, 49, 7246, -4.295783766744022, 1.8848023851540776, 6.734467860269961, 1.395842741047971, MSaaapp, 0, 0, 0, 0, , 0, 0, 0, 0, 0, 
3119, 1, 3119, 3119, 7247, -4.722214245738589, 6.540472705778313, -2.149571680080957, 1.395842741047971, MSapaaa, 0, 0, 0, 0, , 0, 0, 0, 0, 0, 
78, 1, 78, 78, 7248, 5.605057433300043, 2.5828164574015657, 6.12725607978847, 1.4712937000235367, ABprpapap, 0, 0, 0, 0, , 0, 0, 0, 0, 0, 
3, 1, 3, 3, 7249, 4.701702452990612, 6.569369998553332, 2.0955752589201446, 1.395842741047971, MSppppp, 0, 0, 0, 0, , 0, 0, 0, 0, 0, 
55, 1, 55, 55, 7250, -5.841967815394869, -2.4520616722574604, -3.003218467546779, 1.4712937000235367, ABplaapap, 0, 0, 0, 0, , 0, 0, 0, 0, 0, 
600, 1, 600, 600, 7251, -4.270687169142139, 2.8615336985127526, -6.37758409304105, 1.546744658999103, ABalppapa, 0, 0, 0, 0, , 0, 0, 0, 0, 0, 
56, 1, 56, 56, 7252, -5.430572025561351, -2.822848744843722, 6.071581864400347, 1.546744658999103, ABarapaap, 0, 0, 0, 0, , 0, 0, 0, 0, 0, 
11, 1, 11, 11, 7253, 6.397889847416748, 0.26489657766855573, 3.459979741018699, 1.4712937000235367, ABprapppp, 0, 0, 0, 0, , 0, 0, 0, 0, 0, 
26, 1, 26, 26, 7254, -2.2608583764507206, 3.849124676734832, 6.235050522054444, 1.395842741047971, MSaappp, 0, 0, 0, 0, , 0, 0, 0, 0, 0, 
76, 1, 76, 76, 7255, -6.3530714983093635, -0.12805972692763112, 6.400317487445376, 1.546744658999103, ABaraapap, 0, 0, 0, 0, , 0, 0, 0, 0, 0, 
3876, 1, 3876, 3876, 7256, 2.7116752463211977, 4.508995175742724, 2.5496976373043965, 1.395842741047971, MSppppa, 0, 0, 0, 0, , 0, 0, 0, 0, 0, 
475, 1, 475, 475, 7257, -11.007674700464436, 3.210134727672825, -1.2876051477077273, 1.546744658999103, ABalpapaa, 0, 0, 0, 0, , 0, 0, 0, 0, 0, 
5253, 1, 5253, 5253, 7258, 6.271923735293593, 2.8762709699257663, -2.3230880395994737, 1.6044169437333, Daaa, 0, 0, 0, 0, , 0, 0, 0, 0, 0, 
60, 1, 60, 60, 7259, 8.819687489308295, 5.11436918250071, -1.1463312103649959, 2.119721157, Z2, 0, 0, 0, 0, , 0, 0, 0, 0, 0, 
696, 1, 696, 696, 7260, 0.581974786706859, -6.734271253962491, 3.1502714141146524, 1.4712937000235367, ABprapaaa, 0, 0, 0, 0, , 0, 0, 0, 0, 0, 
40, 1, 40, 40, 7261, 6.330548313410907, -5.739814335979641, -2.8569649851230783, 1.4712937000235367, ABplapapp, 0, 0, 0, 0, , 0, 0, 0, 0, 0, 
15, 1, 15, 15, 7262, 11.63499004033316, -1.7182154120050037, 1.968798430747061, 1.6044169437333, Cappp, 0, 0, 0, 0, , 0, 0, 0, 0, 0, 
61, 1, 61, 61, 7263, -4.2796844145624275, -4.55079936520163, 1.7916894918830732, 1.546744658999103, ABarpaaap, 0, 0, 0, 0, , 0, 0, 0, 0, 0, 
35, 1, 35, 35, 7264, -3.454604005079191, -4.550455054797502, -1.0130995828296332, 1.546744658999103, ABarpaapp, 0, 0, 0, 0, , 0, 0, 0, 0, 0, 
1195, 1, 1195, 1195, 7265, -1.5533304959791359, 1.1974587705916457, 7.294440184736249, 1.395842741047971, MSpapaa, 0, 0, 0, 0, , 0, 0, 0, 0, 0, 
39, 1, 39, 39, 7266, -7.180448170559696, 2.8806639276184147, -0.3606027268724415, 1.546744658999103, ABarppapp, 0, 0, 0, 0, , 0, 0, 0, 0, 0, 
776, 1, 776, 776, 7267, -10.20313235883889, 0.5511904718880173, -0.5519531032402966, 1.546744658999103, ABarppapa, 0, 0, 0, 0, , 0, 0, 0, 0, 0, 
689, 1, 689, 689, 7268, -2.376714975206536, -6.551057516755182, 3.256944503503974, 1.4712937000235367, ABpraaaaa, 0, 0, 0, 0, , 0, 0, 0, 0, 0, 
44, 1, 44, 44, 7269, -2.4149575108522585, -2.450347452362273, -6.8780074014328045, 1.546744658999103, ABalapapp, 0, 0, 0, 0, , 0, 0, 0, 0, 0, 
29, 1, 29, 29, 7270, -3.062906258230047, -2.6989433120819952, 3.629210143515929, 1.546744658999103, ABarapapp, 0, 0, 0, 0, , 0, 0, 0, 0, 0, 
65, 1, 65, 65, 7271, -5.3794760858957105, -4.4755842616547, -5.008319841635498, 1.4712937000235367, ABplaaaap, 0, 0, 0, 0, , 0, 0, 0, 0, 0, 
280, 1, 280, 280, 7272, -8.095719152209101, -2.1059374548007734, 5.2479133570514325, 1.546744658999103, ABaraapaa, 0, 0, 0, 0, , 0, 0, 0, 0, 0, 
9, 1, 9, 9, 7273, 2.6712207930325627, -1.0899108886661057, 7.189425429071531, 1.546744658999103, ABarapppp, 0, 0, 0, 0, , 0, 0, 0, 0, 0, 
88, 1, 88, 88, 7274, -3.50506704326721, 0.2080468464482439, -7.141330578797931, 1.546744658999103, ABalppaap, 0, 0, 0, 0, , 0, 0, 0, 0, 0, 
344, 1, 344, 344, 7275, -2.662174410277929, -3.5203279226399182, 6.365683876677631, 1.546744658999103, ABarappaa, 0, 0, 0, 0, , 0, 0, 0, 0, 0, 
2760, 1, 2760, 2760, 7276, 4.671404366761908, 0.18213474457150938, -2.390100895248176, 1.6044169437333, Capaa, 0, 0, 0, 0, , 0, 0, 0, 0, 0, 
7, 1, 7, 7, 7277, 8.663786057078953, -0.324453206836571, -5.327768972603191, 1.84415740659, Eprp, 0, 0, 0, 0, , 0, 0, 0, 0, 0, 
74, 1, 74, 74, 7278, -9.392047267919235, 0.4371680649984261, 4.857618782904453, 1.546744658999103, ABaraaaap, 0, 0, 0, 0, , 0, 0, 0, 0, 0, 
112, 1, 112, 112, 7279, -1.7185473162239062, -0.512330153527953, 2.3366487889237053, 1.395842741047971, MSpaaap, 0, 0, 0, 0, , 0, 0, 0, 0, 0, 
53, 1, 53, 53, 7280, 5.476402116194948, -6.397038370021373, 1.9284510181003574, 1.6044169437333, Cpaap, 0, 0, 0, 0, , 0, 0, 0, 0, 0, 
1, 1, 1, 1, 7281, 8.011038770419471, 5.344216709830159, 1.9522691649912427, 1.4712937000235367, ABprppppp, 0, 0, 0, 0, , 0, 0, 0, 0, 0, 
12, 1, 12, 12, 7282, 2.4181707988100416, -4.394627656694372, 2.167739253664071, 1.4712937000235367, ABplapppp, 0, 0, 0, 0, , 0, 0, 0, 0, 0, 
66, 1, 66, 66, 7283, 1.2327233309026557, -3.4956597165509122, 6.536982944582762, 1.546744658999103, ABarappap, 0, 0, 0, 0, , 0, 0, 0, 0, 0, 
41, 1, 41, 41, 7284, 4.741226313662787, -2.8854041485848922, 6.256972288874126, 1.4712937000235367, ABprpaapp, 0, 0, 0, 0, , 0, 0, 0, 0, 0, 
1122, 1, 1122, 1122, 7285, -10.136562961857106, -3.77530063150031, -2.075429932950263, 1.546744658999103, ABalaaapa, 0, 0, 0, 0, , 0, 0, 0, 0, 0, 
13, 1, 13, 13, 7286, 1.9606764546350945, 7.206114647185544, 1.4870291537307838, 1.395842741047971, MSapppp, 0, 0, 0, 0, , 0, 0, 0, 0, 0, 
497, 1, 497, 497, 7287, -5.0092767086838235, 0.6426403181878068, 1.4565731062461122, 1.546744658999103, ABarpappa, 0, 0, 0, 0, , 0, 0, 0, 0, 0, 
14, 1, 14, 14, 7288, 1.433041871595019, 1.3622205653898976, -1.9257840526328054, 1.84415740659, Earp, 0, 0, 0, 0, , 0, 0, 0, 0, 0, 
330, 1, 330, 330, 7289, -7.065945225151087, -4.897050204461513, 3.6900107308747008, 1.546744658999103, ABarapaaa, 0, 0, 0, 0, , 0, 0, 0, 0, 0, 
4, 1, 4, 4, 7290, 6.4235647236687425, 6.374817227214273, -0.2075323996962663, 2.119721157, Z3, 0, 0, 0, 0, , 0, 0, 0, 0, 0, 
2196, 1, 2196, 2196, 7291, -2.0413850229437247, 1.3857643270300286, 4.472442964646841, 1.395842741047971, MSpaapa, 0, 0, 0, 0, , 0, 0, 0, 0, 0, 
2, 1, 2, 2, 7292, -3.1353829283748125, 3.5947292224848706, 3.0123459762147697, 1.546744658999103, ABarppppp, 0, 0, 0, 0, , 0, 0, 0, 0, 0, 
73, 1, 73, 73, 7293, -1.0234608185083878, -7.37641027670153, 0.865912237860925, 1.4712937000235367, ABpraaaap, 0, 0, 0, 0, , 0, 0, 0, 0, 0, 
1307, 1, 1307, 1307, 7294, -9.109073376926588, 3.15972313609095, 3.965008060186285, 1.395842741047971, MSaaaaa, 0, 0, 0, 0, , 0, 0, 0, 0, 0, 
404, 1, 404, 404, 7295, 1.2717914768993228, 6.350306186445556, -3.8185883925302098, 1.546744658999103, ABalppppa, 0, 0, 0, 0, , 0, 0, 0, 0, 0, 
761, 1, 761, 761, 7296, -9.243532295306462, 3.5057809918246474, -3.526539191162316, 1.546744658999103, ABalpaaaa, 0, 0, 0, 0, , 0, 0, 0, 0, 0, 
397, 1, 397, 397, 7297, -3.552328311576662, -0.8802024689037611, 7.083740791223215, 1.546744658999103, ABaraappa, 0, 0, 0, 0, , 0, 0, 0, 0, 0, 
116, 1, 116, 116, 7298, -5.4946633515425125, 6.066976596050818, 2.789105169263244, 1.395842741047971, MSaapap, 0, 0, 0, 0, , 0, 0, 0, 0, 0, 
3451, 1, 3451, 3451, 7299, 1.116064853872513, 3.7147134420349057, 0.25614440042119047, 1.395842741047971, MSpppaa, 0, 0, 0, 0, , 0, 0, 0, 0, 0, 
697, 1, 697, 697, 7300, 11.442601372485285, -2.5628799938217757, -1.3611898105309377, 1.6044169437333, Cpppa, 0, 0, 0, 0, , 0, 0, 0, 0, 0, 
364, 1, 364, 364, 7301, 5.326722503408388, -5.0392054655848675, 4.454404066522627, 1.4712937000235367, ABprappaa, 0, 0, 0, 0, , 0, 0, 0, 0, 0, 
128, 1, 128, 128, 7302, 0.17027446809099211, 6.504844278453331, 3.6215900529035148, 1.395842741047971, MSappap, 0, 0, 0, 0, , 0, 0, 0, 0, 0, 
4244, 1, 4244, 4244, 7303, -2.6944591959104924, 6.45513015406566, 3.355005758515925, 1.395842741047971, MSappaa, 0, 0, 0, 0, , 0, 0, 0, 0, 0, 
91, 1, 91, 91, 7304, 7.441190202269042, 3.9937385683236872, 4.424316633299684, 1.4712937000235367, ABprpppap, 0, 0, 0, 0, , 0, 0, 0, 0, 0, 
227, 1, 227, 227, 7305, -2.8613378757163375, -1.5601891129688863, -2.665247289618739, 1.4712937000235367, ABplaappa, 0, 0, 0, 0, , 0, 0, 0, 0, 0, 
647, 1, 647, 647, 7306, 2.691159442691245, -2.4551952422295424, 4.277057759491818, 1.4712937000235367, ABprpaapa, 0, 0, 0, 0, , 0, 0, 0, 0, 0, 
326, 1, 326, 326, 7307, -6.89214490461355, 3.3081902101671923, -5.243744046539293, 1.546744658999103, ABalpaapa, 0, 0, 0, 0, , 0, 0, 0, 0, 0, 
34, 1, 34, 34, 7308, -4.727864455199797, 5.08842098533822, -4.638821294799372, 1.546744658999103, ABalpaapp, 0, 0, 0, 0, , 0, 0, 0, 0, 0, 
298, 1, 298, 298, 7309, 2.9851181922388474, 1.7540966902558113, 7.012255263360168, 1.4712937000235367, ABprpapaa, 0, 0, 0, 0, , 0, 0, 0, 0, 0, 
96, 1, 96, 96, 7310, -2.031581892224569, 0.323150356484864, -4.675999513760316, 1.546744658999103, ABalappap, 0, 0, 0, 0, , 0, 0, 0, 0, 0, 
70, 1, 70, 70, 7311, 2.8761547134663417, 4.612173899639632, -5.594795924605414, 1.546744658999103, ABalpppap, 0, 0, 0, 0, , 0, 0, 0, 0, 0, 
1178, 1, 1178, 1178, 7312, -11.105078478920845, -1.1144497651610752, 3.143077083800704, 1.546744658999103, ABaraaaaa, 0, 0, 0, 0, , 0, 0, 0, 0, 0, 
2637, 1, 2637, 2637, 7313, 2.260146813459603, 4.070514209564164, -2.372575264783628, 1.395842741047971, MSppapa, 0, 0, 0, 0, , 0, 0, 0, 0, 0, 
2306, 1, 2306, 2306, 7314, 7.762891054185903, -5.82263183221375, 0.270577453952277, 1.6044169437333, Cppaa, 0, 0, 0, 0, , 0, 0, 0, 0, 0, 
32, 1, 32, 32, 7315, -9.550324231348968, -3.5348158042816786, 3.196109306187054, 1.546744658999103, ABaraaapp, 0, 0, 0, 0, , 0, 0, 0, 0, 0, 
24, 1, 24, 24, 7316, 2.9393354888239878, -1.0160561153268854, -4.344807850720017, 1.4712937000235367, ABplpappp, 0, 0, 0, 0, , 0, 0, 0, 0, 0, 
716, 1, 716, 716, 7317, 3.838318233908862, 0.1319759480300378, 4.793573386398749, 1.4712937000235367, ABprppaaa, 0, 0, 0, 0, , 0, 0, 0, 0, 0, 
123, 1, 123, 123, 7318, -1.6299058646600817, 4.5886228927817365, 0.5275234706104126, 1.395842741047971, MSppaap, 0, 0, 0, 0, , 0, 0, 0, 0, 0, 
249, 1, 249, 249, 7319, 2.858167488932186, -6.504228791374154, -3.2078449259848147, 1.4712937000235367, ABplapapa, 0, 0, 0, 0, , 0, 0, 0, 0, 0, 
47, 1, 47, 47, 7320, 0.13072336524196385, 1.6805207014465282, 2.0692095880860766, 1.395842741047971, MSpaapp, 0, 0, 0, 0, , 0, 0, 0, 0, 0, 
28, 1, 28, 28, 7321, 6.198136764051423, -3.664025559045795, -0.829327767905296, 1.6044169437333, Cpapp, 0, 0, 0, 0, , 0, 0, 0, 0, 0, 
1504, 1, 1504, 1504, 7322, 5.94501037354032, -0.6375597853484193, 0.12539957501789054, 1.6044169437333, Cappa, 0, 0, 0, 0, , 0, 0, 0, 0, 0, 
498, 1, 498, 498, 7323, -6.732238997914051, 4.542791894220302, -2.6446279444941356, 1.546744658999103, ABarpppaa, 0, 0, 0, 0, , 0, 0, 0, 0, 0, 
615, 1, 615, 615, 7324, 8.499016564649931, -1.9917306370169814, -1.3318993730359316, 1.4712937000235367, ABplppppa, 0, 0, 0, 0, , 0, 0, 0, 0, 0, 
1330, 1, 1330, 1330, 7325, -0.9839515496647561, -4.677755601560893, -5.770879161007198, 1.4712937000235367, ABplppaaa, 0, 0, 0, 0, , 0, 0, 0, 0, 0, 
754, 1, 754, 754, 7326, -7.378730939751069, 0.015158316566282786, -0.5663443272700077, 1.546744658999103, ABalaappa, 0, 0, 0, 0, , 0, 0, 0, 0, 0, 
150, 1, 150, 150, 7327, 8.890021140344244, 2.240204503217349, -1.1557166269461927, 1.6044169437333, Daap, 0, 0, 0, 0, , 0, 0, 0, 0, 0, 
19, 1, 19, 19, 7328, -0.21785857298284936, -0.13153287904457223, -0.12488619143945917, 1.4712937000235367, ABpraappp, 0, 0, 0, 0, , 0, 0, 0, 0, 0, 
67, 1, 67, 67, 7329, 2.761794679986281, -7.138125884519881, 1.341253454221661, 1.4712937000235367, ABprapaap, 0, 0, 0, 0, , 0, 0, 0, 0, 0, 
1501, 1, 1501, 1501, 7330, -11.73781153031079, -1.385091491333965, -2.0197100380264144, 1.546744658999103, ABalaaaal, 0, 0, 0, 0, , 0, 0, 0, 0, 0, 
8, 1, 8, 8, 7331, 11.854846130557304, 1.3518001593514906, 1.7936756504294988, 1.6044169437333, Cpppp, 0, 0, 0, 0, , 0, 0, 0, 0, 0, 
515, 1, 515, 515, 7332, 3.3783114630944207, 0.7730954412387071, 0.09947229919639562, 1.6044169437333, Caapa, 0, 0, 0, 0, , 0, 0, 0, 0, 0, 
