2196, 1, 2196, 2196, 9079, -2.014874347472352, 1.3210430917094425, 4.46151802662566, 1.395842741047971, MSpaapa, 0, 0, 0, 0, , 0, 0, 0, 0, 0, 
326, 1, 326, 326, 9080, -6.755391482346905, 3.3794916377985333, -5.264260431860406, 1.546744658999103, ABalpaapa, 0, 0, 0, 0, , 0, 0, 0, 0, 0, 
48, 1, 48, 48, 9081, 10.808327965381874, 0.6465242328765416, -3.6186825383644363, 1.6044169437333, Dapp, 0, 0, 0, 0, , 0, 0, 0, 0, 0, 
4244, 1, 4244, 4244, 9082, -2.5830068975678846, 6.482399035001431, 3.331490380371305, 1.395842741047971, MSappaa, 0, 0, 0, 0, , 0, 0, 0, 0, 0, 
8, 1, 8, 8, 9083, 11.921156163245312, 1.0992191962600415, 1.775010595937449, 1.6044169437333, Cpppp, 0, 0, 0, 0, , 0, 0, 0, 0, 0, 
53, 1, 53, 53, 9084, 5.571075486853138, -6.353086003142997, 1.9792569778454352, 1.6044169437333, Cpaap, 0, 0, 0, 0, , 0, 0, 0, 0, 0, 
256, 1, 256, 256, 9085, -0.2594236866684685, -2.531967274207142, 4.293086546630996, 1.4712937000235367, ABprapapa, 0, 0, 0, 0, , 0, 0, 0, 0, 0, 
130, 1, 130, 130, 9086, -1.7737558772574904, 6.067490693965169, -4.1926898137802695, 1.395842741047971, MSapaap, 0, 0, 0, 0, , 0, 0, 0, 0, 0, 
58, 1, 58, 58, 9087, 0.9196124230530617, 1.0542155586112434, -4.507166019607262, 1.4712937000235367, ABplpapap, 0, 0, 0, 0, , 0, 0, 0, 0, 0, 
32, 1, 32, 32, 9088, -9.24214215122562, -3.722606481509297, 3.3026141932747777, 1.546744658999103, ABaraaapp, 0, 0, 0, 0, , 0, 0, 0, 0, 0, 
2, 1, 2, 2, 9089, -3.004367017595943, 3.615056411770244, 3.0142242529929364, 1.546744658999103, ABarppppp, 0, 0, 0, 0, , 0, 0, 0, 0, 0, 
1, 1, 1, 1, 9090, 8.331266534165744, 5.254057485975618, 1.7127398564466494, 1.4712937000235367, ABprppppp, 0, 0, 0, 0, , 0, 0, 0, 0, 0, 
344, 1, 344, 344, 9091, -2.544001274107916, -3.376173642558727, 6.458900877947866, 1.546744658999103, ABarappaa, 0, 0, 0, 0, , 0, 0, 0, 0, 0, 
397, 1, 397, 397, 9092, -3.4834451966174607, -0.7090789416557262, 7.115731089544513, 1.546744658999103, ABaraappa, 0, 0, 0, 0, , 0, 0, 0, 0, 0, 
148, 1, 148, 148, 9093, -0.4377283085976148, 4.404175480698655, -2.182570697145125, 1.84415740659, Eala, 0, 0, 0, 0, , 0, 0, 0, 0, 0, 
287, 1, 287, 287, 9094, 2.163981779929503, -3.362784367045136, -3.001383276751595, 1.4712937000235367, ABplpappa, 0, 0, 0, 0, , 0, 0, 0, 0, 0, 
227, 1, 227, 227, 9095, -2.8608011274361806, -1.733612463107438, -2.757659452739349, 1.4712937000235367, ABplaappa, 0, 0, 0, 0, , 0, 0, 0, 0, 0, 
364, 1, 364, 364, 9096, 5.532425131754803, -4.924225980308391, 4.5012892924923, 1.4712937000235367, ABprappaa, 0, 0, 0, 0, , 0, 0, 0, 0, 0, 
123, 1, 123, 123, 9097, -1.7859407724512852, 4.6681541308232894, 0.616561160647281, 1.395842741047971, MSppaap, 0, 0, 0, 0, , 0, 0, 0, 0, 0, 
716, 1, 716, 716, 9098, 4.193188928225022, 0.10046592931076657, 4.344859094603926, 1.4712937000235367, ABprppaaa, 0, 0, 0, 0, , 0, 0, 0, 0, 0, 
38, 1, 38, 38, 9099, 0.25382771411871846, -6.480529820391082, -3.677197600203307, 1.4712937000235367, ABpraaapp, 0, 0, 0, 0, , 0, 0, 0, 0, 0, 
622, 1, 622, 622, 9100, -7.693747059989915, -1.534274956914392, -5.647478080693097, 1.546744658999103, ABalapaaa, 0, 0, 0, 0, , 0, 0, 0, 0, 0, 
20, 1, 20, 20, 9101, -3.6618369845593253, 7.087680880230273, 0.7090272003412288, 1.546744658999103, ABalpappp, 0, 0, 0, 0, , 0, 0, 0, 0, 0, 
515, 1, 515, 515, 9102, 3.9464777123439183, 1.5036609894911266, 0.29203625332600036, 1.6044169437333, Caapa, 0, 0, 0, 0, , 0, 0, 0, 0, 0, 
1501, 1, 1501, 1501, 9103, -11.538217854732537, -1.5158601651087866, -2.3025580695557424, 1.546744658999103, ABalaaaal, 0, 0, 0, 0, , 0, 0, 0, 0, 0, 
293, 1, 293, 293, 9104, -3.7352236523691125, -7.087563793643136, 0.47712379355921175, 1.546744658999103, ABarpaapa, 0, 0, 0, 0, , 0, 0, 0, 0, 0, 
2479, 1, 2479, 2479, 9105, -4.708593930461268, 4.571333959782431, 5.153490342953651, 1.395842741047971, MSaappa, 0, 0, 0, 0, , 0, 0, 0, 0, 0, 
87, 1, 87, 87, 9106, 7.521420962324183, -3.6393995164503816, -4.684447397814918, 1.4712937000235367, ABplpppap, 0, 0, 0, 0, , 0, 0, 0, 0, 0, 
375, 1, 375, 375, 9107, -3.095173358497464, -5.86254153106842, -4.211630985225556, 1.4712937000235367, ABplaaapa, 0, 0, 0, 0, , 0, 0, 0, 0, 0, 
1418, 1, 1418, 1418, 9108, -6.045288654016641, 0.6908002068220299, -6.475188207632577, 1.546744658999103, ABalppaaa, 0, 0, 0, 0, , 0, 0, 0, 0, 0, 
320, 1, 320, 320, 9109, -4.951437205896854, -6.498981729734445, -2.087515463683512, 1.4712937000235367, ABpraaapa, 0, 0, 0, 0, , 0, 0, 0, 0, 0, 
47, 1, 47, 47, 9110, 0.35871013040048316, 1.7126130575542355, 1.8253270831538582, 1.395842741047971, MSpaapp, 0, 0, 0, 0, , 0, 0, 0, 0, 0, 
808, 1, 808, 808, 9111, 5.2914026910221095, -2.4727771738088453, -3.2475233088348436, 1.4712937000235367, ABplpppaa, 0, 0, 0, 0, , 0, 0, 0, 0, 0, 
404, 1, 404, 404, 9112, 1.4700349205002254, 6.358383383065659, -3.784492835017931, 1.546744658999103, ABalppppa, 0, 0, 0, 0, , 0, 0, 0, 0, 0, 
336, 1, 336, 336, 9113, -7.625339675821253, -2.895453677940978, -0.6487312631401532, 1.4712937000235367, ABplaapaa, 0, 0, 0, 0, , 0, 0, 0, 0, 0, 
160, 1, 160, 160, 9114, 10.141911112089272, 2.970449691434765, 3.108588403659614, 1.6044169437333, Dpap, 0, 0, 0, 0, , 0, 0, 0, 0, 0, 
96, 1, 96, 96, 9115, -1.8878231841902458, 0.327535693655202, -4.620327757873311, 1.546744658999103, ABalappap, 0, 0, 0, 0, , 0, 0, 0, 0, 0, 
3969, 1, 3969, 3969, 9116, -0.7781428777881115, 7.337959104339995, 1.1659426515090954, 1.395842741047971, MSapppa, 0, 0, 0, 0, , 0, 0, 0, 0, 0, 
45, 1, 45, 45, 9117, 3.917548502737036, 7.021496473257794, -0.7951270676883226, 1.84415740659, Ealp, 0, 0, 0, 0, , 0, 0, 0, 0, 0, 
37, 1, 37, 37, 9118, -2.150722442027827, 3.191565474104011, -4.284229713497497, 1.546744658999103, ABalppapp, 0, 0, 0, 0, , 0, 0, 0, 0, 0, 
240, 1, 240, 240, 9119, 3.6698525705154545, -4.141665404014431, -0.6558899143611158, 1.6044169437333, Cpapa, 0, 0, 0, 0, , 0, 0, 0, 0, 0, 
116, 1, 116, 116, 9120, -5.406831030326436, 6.0961722596568615, 2.7842412703865898, 1.395842741047971, MSaapap, 0, 0, 0, 0, , 0, 0, 0, 0, 0, 
696, 1, 696, 696, 9121, 0.6505372583847446, -6.732156489387591, 3.172682247013737, 1.4712937000235367, ABprapaaa, 0, 0, 0, 0, , 0, 0, 0, 0, 0, 
3078, 1, 3078, 3078, 9122, -2.585581150022293, 1.60358822475233, 0.8954164500828754, 1.395842741047971, MSppaaa, 0, 0, 0, 0, , 0, 0, 0, 0, 0, 
29, 1, 29, 29, 9123, -3.1030155414184657, -2.6084203194173683, 3.7152506583974896, 1.546744658999103, ABarapapp, 0, 0, 0, 0, , 0, 0, 0, 0, 0, 
62, 1, 62, 62, 9124, 7.987627439617722, -4.876540959629177, 2.956737448930743, 1.4712937000235367, ABprappap, 0, 0, 0, 0, , 0, 0, 0, 0, 0, 
280, 1, 280, 280, 9125, -8.049438213402505, -1.9993722739377915, 5.308968979840733, 1.546744658999103, ABaraapaa, 0, 0, 0, 0, , 0, 0, 0, 0, 0, 
2306, 1, 2306, 2306, 9126, 7.797952080720476, -5.7916366332349485, 0.1990384170795938, 1.6044169437333, Cppaa, 0, 0, 0, 0, , 0, 0, 0, 0, 0, 
292, 1, 292, 292, 9127, -5.674956878470818, -2.154272044620803, 2.409330255321191, 1.4712937000235367, ABpraapaa, 0, 0, 0, 0, , 0, 0, 0, 0, 0, 
598, 1, 598, 598, 9128, 9.59822254984362, -2.641556868545277, 3.934870545925662, 1.4712937000235367, ABprppapa, 0, 0, 0, 0, , 0, 0, 0, 0, 0, 
50, 1, 50, 50, 9129, 4.573713639407597, 4.328817152930033, 0.05104302225322959, 1.395842741047971, MSppapp, 0, 0, 0, 0, , 0, 0, 0, 0, 0, 
9, 1, 9, 9, 9130, 2.515158478925357, -1.048502380622126, 7.213635313947319, 1.546744658999103, ABarapppp, 0, 0, 0, 0, , 0, 0, 0, 0, 0, 
39, 1, 39, 39, 9131, -7.165827505038771, 2.8654131519429975, -0.308158321635978, 1.546744658999103, ABarppapp, 0, 0, 0, 0, , 0, 0, 0, 0, 0, 
461, 1, 461, 461, 9132, -8.405022333473573, -1.4359243100813157, 1.7357297890634793, 1.546744658999103, ABarpapaa, 0, 0, 0, 0, , 0, 0, 0, 0, 0, 
497, 1, 497, 497, 9133, -5.3590571705848555, 0.5882183857756581, 1.407158647400385, 1.546744658999103, ABarpappa, 0, 0, 0, 0, , 0, 0, 0, 0, 0, 
463, 1, 463, 463, 9134, 0.1978550178247826, 4.686774144026002, -5.794442794848183, 1.546744658999103, ABalpppaa, 0, 0, 0, 0, , 0, 0, 0, 0, 0, 
52, 1, 52, 52, 9135, 5.295944532254978, -2.9819591122179703, 1.9838703120657482, 1.6044169437333, Caaap, 0, 0, 0, 0, , 0, 0, 0, 0, 0, 
615, 1, 615, 615, 9136, 8.712909592182246, -1.6003840009543384, -1.2425065786210203, 1.4712937000235367, ABplppppa, 0, 0, 0, 0, , 0, 0, 0, 0, 0, 
776, 1, 776, 776, 9137, -10.278749923981714, 0.4841648123521523, -0.6178860420157637, 1.546744658999103, ABarppapa, 0, 0, 0, 0, , 0, 0, 0, 0, 0, 
3, 1, 3, 3, 9138, 4.96832086837798, 6.570915957757596, 1.8667712262048182, 1.395842741047971, MSppppp, 0, 0, 0, 0, , 0, 0, 0, 0, 0, 
1330, 1, 1330, 1330, 9139, -0.8646992639187638, -4.755598816181598, -5.711656764697239, 1.4712937000235367, ABplppaaa, 0, 0, 0, 0, , 0, 0, 0, 0, 0, 
17, 1, 17, 17, 9140, -0.49716932759688975, -1.498696737692142, 7.294943721601136, 1.546744658999103, ABaraappp, 0, 0, 0, 0, , 0, 0, 0, 0, 0, 
80, 1, 80, 80, 9141, -5.013605823776251, -1.653438641217509, -0.38843551050623637, 1.546744658999103, ABarpapap, 0, 0, 0, 0, , 0, 0, 0, 0, 0, 
112, 1, 112, 112, 9142, -1.3117030269506815, -0.5952202270073094, 2.4048460233771864, 1.395842741047971, MSpaaap, 0, 0, 0, 0, , 0, 0, 0, 0, 0, 
619, 1, 619, 619, 9143, -11.907351142923346, 1.1488004019243585, 1.79256882520719, 1.546744658999103, ABarppaaa, 0, 0, 0, 0, , 0, 0, 0, 0, 0, 
1047, 1, 1047, 1047, 9144, -8.1121353858137, 5.2305004631442085, 2.1234047991994927, 1.395842741047971, MSaapaa, 0, 0, 0, 0, , 0, 0, 0, 0, 0, 
59, 1, 59, 59, 9145, 10.113255586146856, -4.18545685739746, 1.0988081995492947, 1.6044169437333, Cppap, 0, 0, 0, 0, , 0, 0, 0, 0, 0, 
24, 1, 24, 24, 9146, 2.9968877610144173, -0.9666249377253123, -4.4022258995405, 1.4712937000235367, ABplpappp, 0, 0, 0, 0, , 0, 0, 0, 0, 0, 
41, 1, 41, 41, 9147, 4.571885294954333, -2.868364770481829, 6.298040859313897, 1.4712937000235367, ABprpaapp, 0, 0, 0, 0, , 0, 0, 0, 0, 0, 
124, 1, 124, 124, 9148, 4.976626689680678, 2.488855222114451, 2.8726331400745297, 1.395842741047971, MSpppap, 0, 0, 0, 0, , 0, 0, 0, 0, 0, 
82, 1, 82, 82, 9149, -8.831129523548926, 5.159790762095138, -0.9227027701540794, 1.546744658999103, ABalpaaap, 0, 0, 0, 0, , 0, 0, 0, 0, 0, 
109, 1, 109, 109, 9150, -6.470827794089289, 2.902625380046099, 2.7702856574258123, 1.395842741047971, MSaaaap, 0, 0, 0, 0, , 0, 0, 0, 0, 0, 
7, 1, 7, 7, 9151, 8.668342837578455, -0.3508818986422018, -5.328471004561996, 1.84415740659, Eprp, 0, 0, 0, 0, , 0, 0, 0, 0, 0, 
600, 1, 600, 600, 9152, -4.132298291233029, 2.866435436260493, -6.419357288712019, 1.546744658999103, ABalppapa, 0, 0, 0, 0, , 0, 0, 0, 0, 0, 
693, 1, 693, 693, 9153, -1.9349448108639526, -7.11590217928723, -1.8688229995204746, 1.4712937000235367, ABplappaa, 0, 0, 0, 0, , 0, 0, 0, 0, 0, 
66, 1, 66, 66, 9154, 1.3367143070861132, -3.586534547791761, 6.481644739410509, 1.546744658999103, ABarappap, 0, 0, 0, 0, , 0, 0, 0, 0, 0, 
499, 1, 499, 499, 9155, -0.6980290763325844, -5.256121035022469, 5.267293159403148, 1.4712937000235367, ABprpaaaa, 0, 0, 0, 0, , 0, 0, 0, 0, 0, 
73, 1, 73, 73, 9156, -0.8640674977228846, -7.385004779999091, 0.8001804203806429, 1.4712937000235367, ABpraaaap, 0, 0, 0, 0, , 0, 0, 0, 0, 0, 
35, 1, 35, 35, 9157, -3.085631859368637, -4.615425848979545, -0.9158194308925224, 1.546744658999103, ABarpaapp, 0, 0, 0, 0, , 0, 0, 0, 0, 0, 
84, 1, 84, 84, 9158, -8.693047410695176, -1.2228689617366721, -2.9144889812157584, 1.546744658999103, ABalaapap, 0, 0, 0, 0, , 0, 0, 0, 0, 0, 
132, 1, 132, 132, 9159, -1.7419265805477917, 1.5497622948082037, -1.9301822089725078, 1.84415740659, Eara, 0, 0, 0, 0, , 0, 0, 0, 0, 0, 
1178, 1, 1178, 1178, 9160, -11.098817125235259, -1.4494748249889784, 3.0189358869962204, 1.546744658999103, ABaraaaaa, 0, 0, 0, 0, , 0, 0, 0, 0, 0, 
475, 1, 475, 475, 9161, -10.975910119589308, 3.1954057967232465, -1.3925407825845593, 1.546744658999103, ABalpapaa, 0, 0, 0, 0, , 0, 0, 0, 0, 0, 
56, 1, 56, 56, 9162, -5.372534888548802, -2.8045573369884584, 6.097740797579312, 1.546744658999103, ABarapaap, 0, 0, 0, 0, , 0, 0, 0, 0, 0, 
330, 1, 330, 330, 9163, -6.742855263426122, -5.194263639108663, 3.4827220440841806, 1.546744658999103, ABarapaaa, 0, 0, 0, 0, , 0, 0, 0, 0, 0, 
57, 1, 57, 57, 9164, -1.297042186989195, -4.55787559065445, 1.3750300010126295, 1.4712937000235367, ABpraapap, 0, 0, 0, 0, , 0, 0, 0, 0, 0, 
34, 1, 34, 34, 9165, -4.4762790694236285, 5.14989454246039, -4.662711081118518, 1.546744658999103, ABalpaapp, 0, 0, 0, 0, , 0, 0, 0, 0, 0, 
1279, 1, 1279, 1279, 9166, -10.907333338724072, 1.0975211319319316, -3.4026423652064017, 1.546744658999103, ABalaapaa, 0, 0, 0, 0, , 0, 0, 0, 0, 0, 
21, 1, 21, 21, 9167, 0.7981526486714042, -4.48907875007893, -0.6974205244312404, 1.4712937000235367, ABplaappp, 0, 0, 0, 0, , 0, 0, 0, 0, 0, 
503, 1, 503, 503, 9168, -7.680600724947805, -5.587186443998055, -1.7428025356091543, 1.4712937000235367, ABplaaaaa, 0, 0, 0, 0, , 0, 0, 0, 0, 0, 
531, 1, 531, 531, 9169, -1.3098665979070032, 2.505345007362183, -6.9695684164926455, 1.546744658999103, ABalapppa, 0, 0, 0, 0, , 0, 0, 0, 0, 0, 
5253, 1, 5253, 5253, 9170, 6.293380838161034, 2.968305534403676, -1.898587988092307, 1.6044169437333, Daaa, 0, 0, 0, 0, , 0, 0, 0, 0, 0, 
1195, 1, 1195, 1195, 9171, -1.379976447192841, 1.2680076240859623, 7.289365921764316, 1.395842741047971, MSpapaa, 0, 0, 0, 0, , 0, 0, 0, 0, 0, 
352, 1, 352, 352, 9172, -9.108362602367631, -5.0150078065831085, 0.7212619708479454, 1.546744658999103, ABaraaapa, 0, 0, 0, 0, , 0, 0, 0, 0, 0, 
75, 1, 75, 75, 9173, 2.4982555111881526, -0.2919867284462488, -7.288609863993368, 1.4712937000235367, ABplpaaap, 0, 0, 0, 0, , 0, 0, 0, 0, 0, 
5583, 1, 5583, 5583, 9174, 9.110513935853488, 0.5705452260859437, 1.286288478213943, 1.6044169437333, Dpaa, 0, 0, 0, 0, , 0, 0, 0, 0, 0, 
30, 1, 30, 30, 9175, 2.468844218484154, -0.26244431240707394, 2.0450262586557035, 1.4712937000235367, ABprapapp, 0, 0, 0, 0, , 0, 0, 0, 0, 0, 
3876, 1, 3876, 3876, 9176, 2.963773047495944, 4.519289866041429, 2.487288525886575, 1.395842741047971, MSppppa, 0, 0, 0, 0, , 0, 0, 0, 0, 0, 
2760, 1, 2760, 2760, 9177, 4.5156102153390325, 0.09159771534503286, -2.1730288633371555, 1.6044169437333, Capaa, 0, 0, 0, 0, , 0, 0, 0, 0, 0, 
14, 1, 14, 14, 9178, 1.9475572639710308, 1.3896397033085708, -1.8282762744626877, 1.84415740659, Earp, 0, 0, 0, 0, , 0, 0, 0, 0, 0, 
3023, 1, 3023, 3023, 9179, -1.805343495697657, 7.213273299656698, -1.5253778005764904, 1.395842741047971, MSapapa, 0, 0, 0, 0, , 0, 0, 0, 0, 0, 
23, 1, 23, 23, 9180, -6.946448741620219, 1.6670178590853446, -2.936778638884514, 1.546744658999103, ABalaappp, 0, 0, 0, 0, , 0, 0, 0, 0, 0, 
241, 1, 241, 241, 9181, -2.1749051223557125, -2.042880730790178, 0.04918438657370172, 1.4712937000235367, ABpraappa, 0, 0, 0, 0, , 0, 0, 0, 0, 0, 
816, 1, 816, 816, 9182, 6.755986492560103, -2.292124893453247, 4.407350084949375, 1.4712937000235367, ABprapppa, 0, 0, 0, 0, , 0, 0, 0, 0, 0, 
754, 1, 754, 754, 9183, -7.411767469825669, -0.012578250331338393, -0.6019139707530538, 1.546744658999103, ABalaappa, 0, 0, 0, 0, , 0, 0, 0, 0, 0, 
2637, 1, 2637, 2637, 9184, 2.5306833362940266, 4.200067604576314, -2.1496019764571894, 1.395842741047971, MSppapa, 0, 0, 0, 0, , 0, 0, 0, 0, 0, 
3119, 1, 3119, 3119, 9185, -4.562378527283303, 6.580836624708444, -2.1518486900095106, 1.395842741047971, MSapaaa, 0, 0, 0, 0, , 0, 0, 0, 0, 0, 
79, 1, 79, 79, 9186, 7.312229604760965, 0.3574278958762531, -2.8592876400416825, 1.6044169437333, Capap, 0, 0, 0, 0, , 0, 0, 0, 0, 0, 
6, 1, 6, 6, 9187, 9.234814855834127, -4.563753887061955, -2.0037979474032186, 1.4712937000235367, ABplppppp, 0, 0, 0, 0, , 0, 0, 0, 0, 0, 
12, 1, 12, 12, 9188, 2.7244046756599274, -4.317737255514416, 2.080004497204568, 1.4712937000235367, ABplapppp, 0, 0, 0, 0, , 0, 0, 0, 0, 0, 
44, 1, 44, 44, 9189, -2.1456163421447743, -2.453332708291183, -6.914319008896356, 1.546744658999103, ABalapapp, 0, 0, 0, 0, , 0, 0, 0, 0, 0, 
1273, 1, 1273, 1273, 9190, -4.709815694595315, 0.14551540083987974, -3.952071167668311, 1.546744658999103, ABalappaa, 0, 0, 0, 0, , 0, 0, 0, 0, 0, 
93, 1, 93, 93, 9191, -11.527365183625257, -2.7427144464071214, 0.40598595867587567, 1.546744658999103, ABalaaaar, 0, 0, 0, 0, , 0, 0, 0, 0, 0, 
22, 1, 22, 22, 9192, 10.545662931520832, 3.917921515831038, 0.3834954916011262, 1.6044169437333, Dppp, 0, 0, 0, 0, , 0, 0, 0, 0, 0, 
988, 1, 988, 988, 9193, 0.6633780496146764, -2.417182335308946, 1.3274627361153035, 1.4712937000235367, ABplapppa, 0, 0, 0, 0, , 0, 0, 0, 0, 0, 
231, 1, 231, 231, 9194, -6.405555347210541, 6.382452952649271, 0.08166795363218038, 1.546744658999103, ABalpappa, 0, 0, 0, 0, , 0, 0, 0, 0, 0, 
1567, 1, 1567, 1567, 9195, -6.823020527582335, 2.664850269469434, 5.62929385549945, 1.395842741047971, MSaaapa, 0, 0, 0, 0, , 0, 0, 0, 0, 0, 
210, 1, 210, 210, 9196, 2.592288085235386, -1.4399355411622687, -0.6148705191580323, 1.6044169437333, Caaaa, 0, 0, 0, 0, , 0, 0, 0, 0, 0, 
33, 1, 33, 33, 9197, 7.118813895776235, 2.059745993238666, -5.746338934755938, 1.4712937000235367, ABplpaapp, 0, 0, 0, 0, , 0, 0, 0, 0, 0, 
88, 1, 88, 88, 9198, -3.2621835761804125, 0.21656234586610212, -7.180978506370356, 1.546744658999103, ABalppaap, 0, 0, 0, 0, , 0, 0, 0, 0, 0, 
16, 1, 16, 16, 9199, -4.569684595341778, 1.430509201733648, -1.267732179002769, 1.546744658999103, ABarpappp, 0, 0, 0, 0, , 0, 0, 0, 0, 0, 
69, 1, 69, 69, 9200, -8.637687169441742, 1.1746820676433969, -5.230803077209897, 1.546744658999103, ABalapaap, 0, 0, 0, 0, , 0, 0, 0, 0, 0, 
78, 1, 78, 78, 9201, 5.710734549690571, 2.8128848616685858, 5.989869014682449, 1.4712937000235367, ABprpapap, 0, 0, 0, 0, , 0, 0, 0, 0, 0, 
64, 1, 64, 64, 9202, -10.492501016608902, 3.741855517477352, 1.4075447982587261, 1.546744658999103, ABalpapap, 0, 0, 0, 0, , 0, 0, 0, 0, 0, 
260, 1, 260, 260, 9203, -4.166272698059374, -5.102478691157319, 4.812738557629115, 1.546744658999103, ABarapapa, 0, 0, 0, 0, , 0, 0, 0, 0, 0, 
70, 1, 70, 70, 9204, 3.123633150210827, 4.495323213720077, -5.64033947226648, 1.546744658999103, ABalpppap, 0, 0, 0, 0, , 0, 0, 0, 0, 0, 
1504, 1, 1504, 1504, 9205, 5.844107411947766, -0.6851367346636311, 0.27849382629259506, 1.6044169437333, Cappa, 0, 0, 0, 0, , 0, 0, 0, 0, 0, 
269, 1, 269, 269, 9206, 0.6189659792657436, 0.12269236333825226, 5.133979479150142, 1.546744658999103, ABarapppa, 0, 0, 0, 0, , 0, 0, 0, 0, 0, 
4410, 1, 4410, 4410, 9207, 9.189627770699197, 3.038874624774716, -3.9795935376447873, 1.6044169437333, Dapa, 0, 0, 0, 0, , 0, 0, 0, 0, 0, 
74, 1, 74, 74, 9208, -9.592070608301723, 0.4299010076084446, 4.720393139544383, 1.546744658999103, ABaraaaap, 0, 0, 0, 0, , 0, 0, 0, 0, 0, 
1307, 1, 1307, 1307, 9209, -9.091855404965857, 3.209561161865305, 3.93755141588787, 1.395842741047971, MSaaaaa, 0, 0, 0, 0, , 0, 0, 0, 0, 0, 
63, 1, 63, 63, 9210, -3.308973094529188, 4.005893531533376, -1.7555639995278631, 1.546744658999103, ABarpppap, 0, 0, 0, 0, , 0, 0, 0, 0, 0, 
76, 1, 76, 76, 9211, -6.232493510298321, -0.05143056449127349, 6.441663628457679, 1.546744658999103, ABaraapap, 0, 0, 0, 0, , 0, 0, 0, 0, 0, 
25, 1, 25, 25, 9212, 2.2972850167957755, 5.090547955035719, 5.264530129046877, 1.395842741047971, MSpappp, 0, 0, 0, 0, , 0, 0, 0, 0, 0, 
165, 1, 165, 165, 9213, 10.02550654939895, -2.351531390315387, -3.723170829822551, 1.84415740659, Epra, 0, 0, 0, 0, , 0, 0, 0, 0, 0, 
19, 1, 19, 19, 9214, -0.00858820793587039, -0.16139792273812478, -0.3547953419002059, 1.4712937000235367, ABpraappp, 0, 0, 0, 0, , 0, 0, 0, 0, 0, 
60, 1, 60, 60, 9215, 8.877052874459913, 4.900279985698913, -1.784205644169856, 2.119721157, Z2, 0, 0, 0, 0, , 0, 0, 0, 0, 0, 
27, 1, 27, 27, 9216, 7.097168608099773, 2.74764254945154, 0.8960782929185989, 1.6044169437333, Caapp, 0, 0, 0, 0, , 0, 0, 0, 0, 0, 
128, 1, 128, 128, 9217, 0.277333030292273, 6.466559262334649, 3.7027904093679975, 1.395842741047971, MSappap, 0, 0, 0, 0, , 0, 0, 0, 0, 0, 
697, 1, 697, 697, 9218, 11.364058680131388, -2.8075188111459815, -1.1242559613802352, 1.6044169437333, Cpppa, 0, 0, 0, 0, , 0, 0, 0, 0, 0, 
4, 1, 4, 4, 9219, 6.684063935605237, 6.26555040768385, -0.459001312764188, 2.119721157, Z3, 0, 0, 0, 0, , 0, 0, 0, 0, 0, 
1053, 1, 1053, 1053, 9220, -6.487384056344222, -6.2956269448015565, 0.8169241445325898, 1.546744658999103, ABarpaaaa, 0, 0, 0, 0, , 0, 0, 0, 0, 0, 
500, 1, 500, 500, 9221, 4.405920338966912, 1.804532108615431, -6.722063091812682, 1.4712937000235367, ABplpaapa, 0, 0, 0, 0, , 0, 0, 0, 0, 0, 
761, 1, 761, 761, 9222, -9.10956329737737, 3.5634062720794026, -3.5962725311527457, 1.546744658999103, ABalpaaaa, 0, 0, 0, 0, , 0, 0, 0, 0, 0, 
46, 1, 46, 46, 9223, 6.689881583235688, 4.551860918739017, -4.314705476484396, 1.84415740659, Eplp, 0, 0, 0, 0, , 0, 0, 0, 0, 0, 
1415, 1, 1415, 1415, 9224, -4.517638056508848, -0.10351182091489401, 4.099796060452957, 1.395842741047971, MSpaaaa, 0, 0, 0, 0, , 0, 0, 0, 0, 0, 
54, 1, 54, 54, 9225, 4.871027562937444, -4.858393742366299, -4.835775826252014, 1.4712937000235367, ABplapaap, 0, 0, 0, 0, , 0, 0, 0, 0, 0, 
67, 1, 67, 67, 9226, 2.853141340910487, -7.126497745019135, 1.3427038690533746, 1.4712937000235367, ABprapaap, 0, 0, 0, 0, , 0, 0, 0, 0, 0, 
86, 1, 86, 86, 9227, 2.7049095058498853, -5.469653546646795, 4.783551074188431, 1.4712937000235367, ABprpaaap, 0, 0, 0, 0, , 0, 0, 0, 0, 0, 
2598, 1, 2598, 2598, 9228, -0.2450572153524469, 3.6197427647983536, 3.933309595825679, 1.395842741047971, MSpappa, 0, 0, 0, 0, , 0, 0, 0, 0, 0, 
5, 1, 5, 5, 9229, 4.341297239968342, 6.0445898343591, -3.4943341294327066, 1.546744658999103, ABalppppp, 0, 0, 0, 0, , 0, 0, 0, 0, 0, 
26, 1, 26, 26, 9230, -2.0546672386574847, 3.9727064915659356, 6.178083302660522, 1.395842741047971, MSaappp, 0, 0, 0, 0, , 0, 0, 0, 0, 0, 
31, 1, 31, 31, 9231, -1.0531545216845994, -4.002873274212124, -2.8911087140299156, 1.4712937000235367, ABplaaapp, 0, 0, 0, 0, , 0, 0, 0, 0, 0, 
150, 1, 150, 150, 9232, 8.99107173456414, 2.0460576274989974, -1.2103531927428788, 1.6044169437333, Daap, 0, 0, 0, 0, , 0, 0, 0, 0, 0, 
484, 1, 484, 484, 9233, 8.154610862720292, 1.336945406355566, 5.455705935100073, 1.4712937000235367, ABprpppaa, 0, 0, 0, 0, , 0, 0, 0, 0, 0, 
647, 1, 647, 647, 9234, 2.642779196223984, -2.337374852481215, 4.201998439034069, 1.4712937000235367, ABprpaapa, 0, 0, 0, 0, , 0, 0, 0, 0, 0, 
323, 1, 323, 323, 9235, -0.3996708805871385, -0.19312349703135234, -7.441601466855991, 1.4712937000235367, ABplpaaaa, 0, 0, 0, 0, , 0, 0, 0, 0, 0, 
15, 1, 15, 15, 9236, 11.601109777034134, -1.8148616574056087, 1.9545236869322493, 1.6044169437333, Cappp, 0, 0, 0, 0, , 0, 0, 0, 0, 0, 
360, 1, 360, 360, 9237, 2.3297579871635077, 2.3177391628826007, 4.269147967905631, 1.4712937000235367, ABprpappa, 0, 0, 0, 0, , 0, 0, 0, 0, 0, 
43, 1, 43, 43, 9238, -8.193088768926076, -3.8915903511837433, -4.029876164963084, 1.546744658999103, ABalaaapp, 0, 0, 0, 0, , 0, 0, 0, 0, 0, 
325, 1, 325, 325, 9239, 0.12245292582779446, -1.7407566434104478, -4.277729948790661, 1.4712937000235367, ABplpapaa, 0, 0, 0, 0, , 0, 0, 0, 0, 0, 
298, 1, 298, 298, 9240, 3.1956765787409247, 1.7532557808961349, 6.983854979434396, 1.4712937000235367, ABprpapaa, 0, 0, 0, 0, , 0, 0, 0, 0, 0, 
71, 1, 71, 71, 9241, -8.740448716499664, 1.4396436438924, 1.6647462576562604, 1.546744658999103, ABarppaap, 0, 0, 0, 0, , 0, 0, 0, 0, 0, 
250, 1, 250, 250, 9242, 4.762368866590729, -6.834272612809132, -0.8173472661065423, 1.6044169437333, Cpaaa, 0, 0, 0, 0, , 0, 0, 0, 0, 0, 
40, 1, 40, 40, 9243, 6.659467131036819, -5.688242130133297, -2.6938338520355543, 1.4712937000235367, ABplapapp, 0, 0, 0, 0, , 0, 0, 0, 0, 0, 
11, 1, 11, 11, 9244, 6.8446308113869785, 0.2827647266550767, 3.088986994766323, 1.4712937000235367, ABprapppp, 0, 0, 0, 0, , 0, 0, 0, 0, 0, 
158, 1, 158, 158, 9245, 4.219452799385614, 2.4365840214026173, -3.888621337051681, 1.84415740659, Epla, 0, 0, 0, 0, , 0, 0, 0, 0, 0, 
36, 1, 36, 36, 9246, 10.414707672258864, 0.14150554632878756, 4.057402348575456, 1.4712937000235367, ABprppapp, 0, 0, 0, 0, , 0, 0, 0, 0, 0, 
638, 1, 638, 638, 9247, 2.0076641633757357, -4.9610702776408475, -5.4202722562184, 1.4712937000235367, ABplapaaa, 0, 0, 0, 0, , 0, 0, 0, 0, 0, 
77, 1, 77, 77, 9248, 6.059619910639888, -0.3847901603666004, 6.490124278377045, 1.4712937000235367, ABprppaap, 0, 0, 0, 0, , 0, 0, 0, 0, 0, 
13, 1, 13, 13, 9249, 2.1373788106591265, 7.159208060717807, 1.5918535605358672, 1.395842741047971, MSapppp, 0, 0, 0, 0, , 0, 0, 0, 0, 0, 
4621, 1, 4621, 4621, 9250, 11.075831057315394, 0.062104505152590805, -0.7974434963578428, 1.6044169437333, Dppa, 0, 0, 0, 0, , 0, 0, 0, 0, 0, 
3451, 1, 3451, 3451, 9251, 1.0402687434217979, 4.113790787237074, 0.340330762411045, 1.395842741047971, MSpppaa, 0, 0, 0, 0, , 0, 0, 0, 0, 0, 
498, 1, 498, 498, 9252, -6.557827978506136, 4.528059297220974, -2.6103020965625636, 1.546744658999103, ABarpppaa, 0, 0, 0, 0, , 0, 0, 0, 0, 0, 
91, 1, 91, 91, 9253, 7.699202547887445, 4.009415423303379, 4.258935435622579, 1.4712937000235367, ABprpppap, 0, 0, 0, 0, , 0, 0, 0, 0, 0, 
842, 1, 842, 842, 9254, -4.755223906636986, 4.100276635317038, 0.7546080306752991, 1.546744658999103, ABarppppa, 0, 0, 0, 0, , 0, 0, 0, 0, 0, 
49, 1, 49, 49, 9255, -4.188103655844968, 2.0710669499903274, 6.703251037030207, 1.395842741047971, MSaaapp, 0, 0, 0, 0, , 0, 0, 0, 0, 0, 
61, 1, 61, 61, 9256, -4.215485006565594, -4.615001971569375, 1.9314947853293252, 1.546744658999103, ABarpaaap, 0, 0, 0, 0, , 0, 0, 0, 0, 0, 
10, 1, 10, 10, 9257, 1.5849762414091262, 2.4378635378190054, -6.969972130033824, 1.546744658999103, ABalapppp, 0, 0, 0, 0, , 0, 0, 0, 0, 0, 
65, 1, 65, 65, 9258, -5.489875711919341, -4.439092405803243, -4.987329017898012, 1.4712937000235367, ABplaaaap, 0, 0, 0, 0, , 0, 0, 0, 0, 0, 
1122, 1, 1122, 1122, 9259, -10.05752445407964, -3.970932417539523, -1.8162811537913106, 1.546744658999103, ABalaaapa, 0, 0, 0, 0, , 0, 0, 0, 0, 0, 
439, 1, 439, 439, 9260, 8.0390618023048, -2.125924237660933, 1.531095162583781, 1.4712937000235367, ABprppppa, 0, 0, 0, 0, , 0, 0, 0, 0, 0, 
689, 1, 689, 689, 9261, -2.2463962871062777, -6.582809160705956, 3.2119609350370446, 1.4712937000235367, ABpraaaaa, 0, 0, 0, 0, , 0, 0, 0, 0, 0, 
249, 1, 249, 249, 9262, 3.116699015166617, -6.466053291089178, -3.184630295261831, 1.4712937000235367, ABplapapa, 0, 0, 0, 0, , 0, 0, 0, 0, 0, 
51, 1, 51, 51, 9263, 1.0643161176232898, 7.342272544455948, -1.0875603985481936, 1.395842741047971, MSapapp, 0, 0, 0, 0, , 0, 0, 0, 0, 0, 
55, 1, 55, 55, 9264, -5.959773242188668, -2.3236297216226425, -3.063459600408742, 1.4712937000235367, ABplaapap, 0, 0, 0, 0, , 0, 0, 0, 0, 0, 
660, 1, 660, 660, 9265, 3.733910143593378, -2.80014326558765, -6.5274814885366705, 1.4712937000235367, ABplppapa, 0, 0, 0, 0, , 0, 0, 0, 0, 0, 
28, 1, 28, 28, 9266, 6.484580192560132, -3.4028240694070426, -0.763663236462067, 1.6044169437333, Cpapp, 0, 0, 0, 0, , 0, 0, 0, 0, 0, 
392, 1, 392, 392, 9267, -4.9794826113092086, -2.0272144547740454, -6.5111938857044205, 1.546744658999103, ABalapapa, 0, 0, 0, 0, , 0, 0, 0, 0, 0, 
92, 1, 92, 92, 9268, 0.8581389838350506, -2.755977154119146, -6.897956065240405, 1.4712937000235367, ABplppaap, 0, 0, 0, 0, , 0, 0, 0, 0, 0, 
42, 1, 42, 42, 9269, 6.091521045157145, -1.148039008557907, -6.384383408714365, 1.4712937000235367, ABplppapp, 0, 0, 0, 0, , 0, 0, 0, 0, 0, 
111, 1, 111, 111, 9270, 0.698278905639462, 3.193998334528128, 6.718247724778107, 1.395842741047971, MSpapap, 0, 0, 0, 0, , 0, 0, 0, 0, 0, 
83, 1, 83, 83, 9271, 1.3187167337653256, -7.319902532537314, -1.1041574660494873, 1.4712937000235367, ABplappap, 0, 0, 0, 0, , 0, 0, 0, 0, 0, 
18, 1, 18, 18, 9272, 5.055095541568629, 5.1779049535393815, 4.410854266577096, 1.4712937000235367, ABprpappp, 0, 0, 0, 0, , 0, 0, 0, 0, 0, 
