65, 1, 65, 65, 9661, -5.48613792791023, -4.444071589722944, -4.9992175552115095, 1.4712937000235367, ABplaaaap, 0, 0, 0, 0, , 0, 0, 0, 0, 0, 
150, 1, 150, 150, 9662, 9.057176703530972, 2.081102843535631, -1.2216105991474029, 1.6044169437333, Daap, 0, 0, 0, 0, , 0, 0, 0, 0, 0, 
499, 1, 499, 499, 9663, -0.7585068775445282, -5.2660166901922, 5.2487331767128245, 1.4712937000235367, ABprpaaaa, 0, 0, 0, 0, , 0, 0, 0, 0, 0, 
3119, 1, 3119, 3119, 9664, -4.622669469000505, 6.573809703536261, -2.13065868971683, 1.395842741047971, MSapaaa, 0, 0, 0, 0, , 0, 0, 0, 0, 0, 
76, 1, 76, 76, 9665, -6.262903750499532, -0.036194848265305654, 6.431311496573839, 1.546744658999103, ABaraapap, 0, 0, 0, 0, , 0, 0, 0, 0, 0, 
498, 1, 498, 498, 9666, -6.671414960319483, 4.56051875260971, -2.5750532277459675, 1.546744658999103, ABarpppaa, 0, 0, 0, 0, , 0, 0, 0, 0, 0, 
63, 1, 63, 63, 9667, -3.3855578095978416, 3.972607693452162, -1.7804983404558676, 1.546744658999103, ABarpppap, 0, 0, 0, 0, , 0, 0, 0, 0, 0, 
2598, 1, 2598, 2598, 9668, -0.19478739426464564, 3.5965519679071027, 3.905375789481092, 1.395842741047971, MSpappa, 0, 0, 0, 0, , 0, 0, 0, 0, 0, 
91, 1, 91, 91, 9669, 7.739331664910835, 3.993023329668332, 4.240462525858179, 1.4712937000235367, ABprpppap, 0, 0, 0, 0, , 0, 0, 0, 0, 0, 
5253, 1, 5253, 5253, 9670, 6.295038099379746, 2.928775113787675, -1.85859639847387, 1.6044169437333, Daaa, 0, 0, 0, 0, , 0, 0, 0, 0, 0, 
241, 1, 241, 241, 9671, -2.1793694691211574, -2.0304091314128696, 0.05251764910440887, 1.4712937000235367, ABpraappa, 0, 0, 0, 0, , 0, 0, 0, 0, 0, 
2637, 1, 2637, 2637, 9672, 2.572605462269275, 4.279229743309584, -2.115645533793469, 1.395842741047971, MSppapa, 0, 0, 0, 0, , 0, 0, 0, 0, 0, 
41, 1, 41, 41, 9673, 4.534129604810742, -2.8974377072692237, 6.298372073376069, 1.4712937000235367, ABprpaapp, 0, 0, 0, 0, , 0, 0, 0, 0, 0, 
53, 1, 53, 53, 9674, 5.6063794720068545, -6.351722645260216, 1.962002513282155, 1.6044169437333, Cpaap, 0, 0, 0, 0, , 0, 0, 0, 0, 0, 
2, 1, 2, 2, 9675, -2.9514554660264314, 3.6227626000064443, 2.9886027883667934, 1.546744658999103, ABarppppp, 0, 0, 0, 0, , 0, 0, 0, 0, 0, 
96, 1, 96, 96, 9676, -1.8652068727530646, 0.28054366266213426, -4.613375847438256, 1.546744658999103, ABalappap, 0, 0, 0, 0, , 0, 0, 0, 0, 0, 
44, 1, 44, 44, 9677, -2.127877614207654, -2.4718659165729413, -6.907460161279894, 1.546744658999103, ABalapapp, 0, 0, 0, 0, , 0, 0, 0, 0, 0, 
5, 1, 5, 5, 9678, 4.416239951156044, 5.999571540446231, -3.5352406140192696, 1.546744658999103, ABalppppp, 0, 0, 0, 0, , 0, 0, 0, 0, 0, 
689, 1, 689, 689, 9679, -2.314270821690366, -6.600353064043889, 3.1637080348634883, 1.4712937000235367, ABpraaaaa, 0, 0, 0, 0, , 0, 0, 0, 0, 0, 
9, 1, 9, 9, 9680, 2.459898279864438, -1.085394025967457, 7.2185434881983, 1.546744658999103, ABarapppp, 0, 0, 0, 0, , 0, 0, 0, 0, 0, 
57, 1, 57, 57, 9681, -1.2816470978892578, -4.589377699715889, 1.3614830643404616, 1.4712937000235367, ABpraapap, 0, 0, 0, 0, , 0, 0, 0, 0, 0, 
70, 1, 70, 70, 9682, 3.104864016367365, 4.488151918105639, -5.645968306366519, 1.546744658999103, ABalpppap, 0, 0, 0, 0, , 0, 0, 0, 0, 0, 
364, 1, 364, 364, 9683, 5.546033503049453, -4.925545683900507, 4.493907005327563, 1.4712937000235367, ABprappaa, 0, 0, 0, 0, , 0, 0, 0, 0, 0, 
842, 1, 842, 842, 9684, -4.7611727168202975, 4.106412703244434, 0.7669351275834649, 1.546744658999103, ABarppppa, 0, 0, 0, 0, , 0, 0, 0, 0, 0, 
1307, 1, 1307, 1307, 9685, -9.114766754397492, 3.144894685196086, 3.9730098468501316, 1.395842741047971, MSaaaaa, 0, 0, 0, 0, , 0, 0, 0, 0, 0, 
325, 1, 325, 325, 9686, 0.2240537318763447, -1.7162654000836588, -4.274648058073949, 1.4712937000235367, ABplpapaa, 0, 0, 0, 0, , 0, 0, 0, 0, 0, 
660, 1, 660, 660, 9687, 3.822643924389555, -2.7982067159626673, -6.510704878079015, 1.4712937000235367, ABplppapa, 0, 0, 0, 0, , 0, 0, 0, 0, 0, 
46, 1, 46, 46, 9688, 6.869090242192069, 4.589126912755935, -4.1782924199523475, 1.84415740659, Eplp, 0, 0, 0, 0, , 0, 0, 0, 0, 0, 
531, 1, 531, 531, 9689, -1.3017838809575841, 2.4949462649298955, -6.969634905673438, 1.546744658999103, ABalapppa, 0, 0, 0, 0, , 0, 0, 0, 0, 0, 
816, 1, 816, 816, 9690, 6.673335644836745, -2.2461058979959376, 4.423712327380329, 1.4712937000235367, ABprapppa, 0, 0, 0, 0, , 0, 0, 0, 0, 0, 
1279, 1, 1279, 1279, 9691, -10.863625287276967, 1.145086934423166, -3.4320623022809578, 1.546744658999103, ABalaapaa, 0, 0, 0, 0, , 0, 0, 0, 0, 0, 
38, 1, 38, 38, 9692, 0.30504340774495475, -6.495636868145808, -3.6419425636626954, 1.4712937000235367, ABpraaapp, 0, 0, 0, 0, , 0, 0, 0, 0, 0, 
2479, 1, 2479, 2479, 9693, -4.623723928766398, 4.592424341076064, 5.1613930060383035, 1.395842741047971, MSaappa, 0, 0, 0, 0, , 0, 0, 0, 0, 0, 
73, 1, 73, 73, 9694, -0.862004944170976, -7.388210546645664, 0.7511286187428072, 1.4712937000235367, ABpraaaap, 0, 0, 0, 0, , 0, 0, 0, 0, 0, 
330, 1, 330, 330, 9695, -6.677751275015317, -5.209378270705409, 3.5186366719075344, 1.546744658999103, ABarapaaa, 0, 0, 0, 0, , 0, 0, 0, 0, 0, 
1122, 1, 1122, 1122, 9696, -10.07017920901295, -3.9557435101699534, -1.8370634871417089, 1.546744658999103, ABalaaapa, 0, 0, 0, 0, , 0, 0, 0, 0, 0, 
60, 1, 60, 60, 9697, 8.836420818204328, 4.909677519206273, -1.8532307466146194, 2.119721157, Z2, 0, 0, 0, 0, , 0, 0, 0, 0, 0, 
48, 1, 48, 48, 9698, 10.761708724122817, 0.4850577753540634, -3.6961717730371895, 1.6044169437333, Dapp, 0, 0, 0, 0, , 0, 0, 0, 0, 0, 
111, 1, 111, 111, 9699, 0.7469615471326191, 3.1574135613353524, 6.730169507639701, 1.395842741047971, MSpapap, 0, 0, 0, 0, , 0, 0, 0, 0, 0, 
82, 1, 82, 82, 9700, -8.922745136690677, 5.124990176326758, -0.8131831245911267, 1.546744658999103, ABalpaaap, 0, 0, 0, 0, , 0, 0, 0, 0, 0, 
54, 1, 54, 54, 9701, 4.9668871436305455, -4.843236294555183, -4.807105900278651, 1.4712937000235367, ABplapaap, 0, 0, 0, 0, , 0, 0, 0, 0, 0, 
61, 1, 61, 61, 9702, -4.259711903390847, -4.670515589266332, 1.9665678758650496, 1.546744658999103, ABarpaaap, 0, 0, 0, 0, , 0, 0, 0, 0, 0, 
260, 1, 260, 260, 9703, -4.111106572367605, -5.085015636356855, 4.852082943997035, 1.546744658999103, ABarapapa, 0, 0, 0, 0, , 0, 0, 0, 0, 0, 
697, 1, 697, 697, 9704, 11.395056279283677, -2.760238677272087, -1.1054392151671961, 1.6044169437333, Cpppa, 0, 0, 0, 0, , 0, 0, 0, 0, 0, 
29, 1, 29, 29, 9705, -3.1125468275654113, -2.61584529937148, 3.6786692322686028, 1.546744658999103, ABarapapp, 0, 0, 0, 0, , 0, 0, 0, 0, 0, 
109, 1, 109, 109, 9706, -6.492409512967792, 2.8960524643795273, 2.753190292795946, 1.395842741047971, MSaaaap, 0, 0, 0, 0, , 0, 0, 0, 0, 0, 
600, 1, 600, 600, 9707, -4.117445426277241, 2.882927128764495, -6.41192326501623, 1.546744658999103, ABalppapa, 0, 0, 0, 0, , 0, 0, 0, 0, 0, 
1415, 1, 1415, 1415, 9708, -4.528296478375538, -0.12575968267282436, 4.119988326403703, 1.395842741047971, MSpaaaa, 0, 0, 0, 0, , 0, 0, 0, 0, 0, 
66, 1, 66, 66, 9709, 1.311970041134433, -3.6367771972690406, 6.448384728771049, 1.546744658999103, ABarappap, 0, 0, 0, 0, , 0, 0, 0, 0, 0, 
716, 1, 716, 716, 9710, 4.247506140970639, 0.12935280471201432, 4.230303232590993, 1.4712937000235367, ABprppaaa, 0, 0, 0, 0, , 0, 0, 0, 0, 0, 
19, 1, 19, 19, 9711, 0.035191604400978065, -0.18288170256257952, -0.41152747835557685, 1.4712937000235367, ABpraappp, 0, 0, 0, 0, , 0, 0, 0, 0, 0, 
28, 1, 28, 28, 9712, 6.537118304600791, -3.310967666949415, -0.696224193217672, 1.6044169437333, Cpapp, 0, 0, 0, 0, , 0, 0, 0, 0, 0, 
25, 1, 25, 25, 9713, 2.3379378579387504, 5.0983306318561254, 5.2540810004399585, 1.395842741047971, MSpappp, 0, 0, 0, 0, , 0, 0, 0, 0, 0, 
128, 1, 128, 128, 9714, 0.27064377761836844, 6.451666274877243, 3.7265817613114716, 1.395842741047971, MSappap, 0, 0, 0, 0, , 0, 0, 0, 0, 0, 
293, 1, 293, 293, 9715, -3.726438806269588, -7.089052361945535, 0.4506528958149227, 1.546744658999103, ABarpaapa, 0, 0, 0, 0, , 0, 0, 0, 0, 0, 
497, 1, 497, 497, 9716, -5.350264854108566, 0.5838986660632743, 1.4286460073459912, 1.546744658999103, ABarpappa, 0, 0, 0, 0, , 0, 0, 0, 0, 0, 
269, 1, 269, 269, 9717, 0.6161981723649891, 0.1279946225368088, 5.034583306348619, 1.546744658999103, ABarapppa, 0, 0, 0, 0, , 0, 0, 0, 0, 0, 
59, 1, 59, 59, 9718, 10.06599019086791, -4.2485891039535675, 1.0039974315754052, 1.6044169437333, Cppap, 0, 0, 0, 0, , 0, 0, 0, 0, 0, 
4621, 1, 4621, 4621, 9719, 11.17700363352055, 0.13521201718055845, -0.8452569572396753, 1.6044169437333, Dppa, 0, 0, 0, 0, , 0, 0, 0, 0, 0, 
52, 1, 52, 52, 9720, 5.268780379329283, -2.8544680544975343, 1.9418871960183908, 1.6044169437333, Caaap, 0, 0, 0, 0, , 0, 0, 0, 0, 0, 
622, 1, 622, 622, 9721, -7.69243077116895, -1.5284492735558952, -5.647473565807924, 1.546744658999103, ABalapaaa, 0, 0, 0, 0, , 0, 0, 0, 0, 0, 
124, 1, 124, 124, 9722, 5.113253657037582, 2.599456527338285, 2.9503434590915605, 1.395842741047971, MSpppap, 0, 0, 0, 0, , 0, 0, 0, 0, 0, 
503, 1, 503, 503, 9723, -7.6010542082096935, -5.62012088778641, -1.7746507311595243, 1.4712937000235367, ABplaaaaa, 0, 0, 0, 0, , 0, 0, 0, 0, 0, 
42, 1, 42, 42, 9724, 5.903709969099939, -0.7688179997208944, -6.507944671107393, 1.4712937000235367, ABplppapp, 0, 0, 0, 0, , 0, 0, 0, 0, 0, 
78, 1, 78, 78, 9725, 5.716354561123869, 2.863701759882936, 5.962927228130671, 1.4712937000235367, ABprpapap, 0, 0, 0, 0, , 0, 0, 0, 0, 0, 
500, 1, 500, 500, 9726, 4.408117978115784, 1.7967466436488533, -6.722427929130777, 1.4712937000235367, ABplpaapa, 0, 0, 0, 0, , 0, 0, 0, 0, 0, 
256, 1, 256, 256, 9727, -0.26632436630152406, -2.568240448600763, 4.259080399534633, 1.4712937000235367, ABprapapa, 0, 0, 0, 0, , 0, 0, 0, 0, 0, 
287, 1, 287, 287, 9728, 2.3075426967041746, -3.3210627550176373, -3.0182422729293283, 1.4712937000235367, ABplpappa, 0, 0, 0, 0, , 0, 0, 0, 0, 0, 
49, 1, 49, 49, 9729, -4.1334334543487525, 2.134163647000518, 6.691342382276592, 1.395842741047971, MSaaapp, 0, 0, 0, 0, , 0, 0, 0, 0, 0, 
292, 1, 292, 292, 9730, -5.665146486947123, -2.157710492942254, 2.3655159402848023, 1.4712937000235367, ABpraapaa, 0, 0, 0, 0, , 0, 0, 0, 0, 0, 
11, 1, 11, 11, 9731, 6.894302017462146, 0.2970635097335052, 3.0469297638154904, 1.4712937000235367, ABprapppp, 0, 0, 0, 0, , 0, 0, 0, 0, 0, 
3969, 1, 3969, 3969, 9732, -0.8047919677238172, 7.342540102967985, 1.1902424361836292, 1.395842741047971, MSapppa, 0, 0, 0, 0, , 0, 0, 0, 0, 0, 
754, 1, 754, 754, 9733, -7.408859595221069, -0.006766506133879303, -0.5982966106966626, 1.546744658999103, ABalaappa, 0, 0, 0, 0, , 0, 0, 0, 0, 0, 
80, 1, 80, 80, 9734, -5.0139277197273895, -1.6379150853791646, -0.4224624686606011, 1.546744658999103, ABarpapap, 0, 0, 0, 0, , 0, 0, 0, 0, 0, 
647, 1, 647, 647, 9735, 2.6262921595698456, -2.281541918609981, 4.19881962871203, 1.4712937000235367, ABprpaapa, 0, 0, 0, 0, , 0, 0, 0, 0, 0, 
475, 1, 475, 475, 9736, -11.003096399039713, 3.1837193991942483, -1.3597775050497085, 1.546744658999103, ABalpapaa, 0, 0, 0, 0, , 0, 0, 0, 0, 0, 
3023, 1, 3023, 3023, 9737, -1.8620522960566086, 7.208800947422892, -1.5047288057345032, 1.395842741047971, MSapapa, 0, 0, 0, 0, , 0, 0, 0, 0, 0, 
27, 1, 27, 27, 9738, 7.184581653443399, 2.7144811001051194, 0.9125508492848224, 1.6044169437333, Caapp, 0, 0, 0, 0, , 0, 0, 0, 0, 0, 
30, 1, 30, 30, 9739, 2.412653518226409, -0.24084479055094105, 2.0217561114677256, 1.4712937000235367, ABprapapp, 0, 0, 0, 0, , 0, 0, 0, 0, 0, 
116, 1, 116, 116, 9740, -5.449840705783157, 6.075676044176572, 2.8152102366280056, 1.395842741047971, MSaapap, 0, 0, 0, 0, , 0, 0, 0, 0, 0, 
231, 1, 231, 231, 9741, -6.452406140354885, 6.369424066913377, 0.10787692752745906, 1.546744658999103, ABalpappa, 0, 0, 0, 0, , 0, 0, 0, 0, 0, 
20, 1, 20, 20, 9742, -3.716720085629092, 7.073145953185044, 0.7237549507922386, 1.546744658999103, ABalpappp, 0, 0, 0, 0, , 0, 0, 0, 0, 0, 
36, 1, 36, 36, 9743, 10.359819691932977, 0.08382886755137713, 4.111248751954538, 1.4712937000235367, ABprppapp, 0, 0, 0, 0, , 0, 0, 0, 0, 0, 
87, 1, 87, 87, 9744, 7.5728945881672125, -3.558741963529376, -4.718004113899847, 1.4712937000235367, ABplpppap, 0, 0, 0, 0, , 0, 0, 0, 0, 0, 
2196, 1, 2196, 2196, 9745, -2.028951929196055, 1.3027856698936262, 4.461655974406577, 1.395842741047971, MSpaapa, 0, 0, 0, 0, , 0, 0, 0, 0, 0, 
16, 1, 16, 16, 9746, -4.5924705581783, 1.3732873810795783, -1.2627655169150596, 1.546744658999103, ABarpappp, 0, 0, 0, 0, , 0, 0, 0, 0, 0, 
1053, 1, 1053, 1053, 9747, -6.4902020177239, -6.298885592579316, 0.8255587374288997, 1.546744658999103, ABarpaaaa, 0, 0, 0, 0, , 0, 0, 0, 0, 0, 
33, 1, 33, 33, 9748, 7.110049210328194, 2.1321197045590523, -5.728725222535278, 1.4712937000235367, ABplpaapp, 0, 0, 0, 0, , 0, 0, 0, 0, 0, 
696, 1, 696, 696, 9749, 0.5920746997705665, -6.737075814886008, 3.164744376622788, 1.4712937000235367, ABprapaaa, 0, 0, 0, 0, , 0, 0, 0, 0, 0, 
88, 1, 88, 88, 9750, -3.2526549993443346, 0.22246770768455662, -7.181115937084086, 1.546744658999103, ABalppaap, 0, 0, 0, 0, , 0, 0, 0, 0, 0, 
2760, 1, 2760, 2760, 9751, 4.550884256611562, 0.13695756345400215, -2.1797174362143434, 1.6044169437333, Capaa, 0, 0, 0, 0, , 0, 0, 0, 0, 0, 
17, 1, 17, 17, 9752, -0.419184436042465, -1.4616432559593642, 7.299239435245202, 1.546744658999103, ABaraappp, 0, 0, 0, 0, , 0, 0, 0, 0, 0, 
160, 1, 160, 160, 9753, 10.181722376646965, 2.916613602270774, 3.116656339349631, 1.6044169437333, Dpap, 0, 0, 0, 0, , 0, 0, 0, 0, 0, 
761, 1, 761, 761, 9754, -9.181942117947726, 3.504539292913677, -3.601814901039396, 1.546744658999103, ABalpaaaa, 0, 0, 0, 0, , 0, 0, 0, 0, 0, 
22, 1, 22, 22, 9755, 10.470244168622592, 3.996558109976023, 0.43369340684895547, 1.6044169437333, Dppp, 0, 0, 0, 0, , 0, 0, 0, 0, 0, 
10, 1, 10, 10, 9756, 1.5803063839034504, 2.407573150979346, -6.979246010457808, 1.546744658999103, ABalapppp, 0, 0, 0, 0, , 0, 0, 0, 0, 0, 
1418, 1, 1418, 1418, 9757, -6.020223875329236, 0.692456676732104, -6.477356634131984, 1.546744658999103, ABalppaaa, 0, 0, 0, 0, , 0, 0, 0, 0, 0, 
84, 1, 84, 84, 9758, -8.669280175499068, -1.2004206098632417, -2.920097911894643, 1.546744658999103, ABalaapap, 0, 0, 0, 0, , 0, 0, 0, 0, 0, 
112, 1, 112, 112, 9759, -1.2493000679926767, -0.5692723763092837, 2.3902131101755777, 1.395842741047971, MSpaaap, 0, 0, 0, 0, , 0, 0, 0, 0, 0, 
439, 1, 439, 439, 9760, 8.070340802948381, -2.181678719925011, 1.492846365146698, 1.4712937000235367, ABprppppa, 0, 0, 0, 0, , 0, 0, 0, 0, 0, 
86, 1, 86, 86, 9761, 2.7170424302625507, -5.514576365378016, 4.732983389167507, 1.4712937000235367, ABprpaaap, 0, 0, 0, 0, , 0, 0, 0, 0, 0, 
58, 1, 58, 58, 9762, 0.9198962343230888, 1.1001448013413935, -4.473978462761924, 1.4712937000235367, ABplpapap, 0, 0, 0, 0, , 0, 0, 0, 0, 0, 
1504, 1, 1504, 1504, 9763, 5.984936770672553, -0.599444261942512, 0.22286281133526734, 1.6044169437333, Cappa, 0, 0, 0, 0, , 0, 0, 0, 0, 0, 
1195, 1, 1195, 1195, 9764, -1.388182534111228, 1.2738357052621476, 7.287542877363505, 1.395842741047971, MSpapaa, 0, 0, 0, 0, , 0, 0, 0, 0, 0, 
123, 1, 123, 123, 9765, -1.804156573983435, 4.693379550406555, 0.5465525517239945, 1.395842741047971, MSppaap, 0, 0, 0, 0, , 0, 0, 0, 0, 0, 
1178, 1, 1178, 1178, 9766, -11.076761726080008, -1.5516091693129157, 2.9868793663562867, 1.546744658999103, ABaraaaaa, 0, 0, 0, 0, , 0, 0, 0, 0, 0, 
158, 1, 158, 158, 9767, 4.268049038592095, 2.4712509483567273, -3.8892422773861917, 1.84415740659, Epla, 0, 0, 0, 0, , 0, 0, 0, 0, 0, 
12, 1, 12, 12, 9768, 2.7608824063835415, -4.29652573688434, 2.1044904230217525, 1.4712937000235367, ABplapppp, 0, 0, 0, 0, , 0, 0, 0, 0, 0, 
463, 1, 463, 463, 9769, 0.2076795047841772, 4.681970786497472, -5.791587882320941, 1.546744658999103, ABalpppaa, 0, 0, 0, 0, , 0, 0, 0, 0, 0, 
4410, 1, 4410, 4410, 9770, 9.277318576700157, 2.968154267220789, -3.9717417900817296, 1.6044169437333, Dapa, 0, 0, 0, 0, , 0, 0, 0, 0, 0, 
75, 1, 75, 75, 9771, 2.514078835532746, -0.3201705830249015, -7.286447171972251, 1.4712937000235367, ABplpaaap, 0, 0, 0, 0, , 0, 0, 0, 0, 0, 
34, 1, 34, 34, 9772, -4.493127155818117, 5.162734051814718, -4.64962130136095, 1.546744658999103, ABalpaapp, 0, 0, 0, 0, , 0, 0, 0, 0, 0, 
43, 1, 43, 43, 9773, -8.17641143472825, -3.8942366461480953, -4.038060389955986, 1.546744658999103, ABalaaapp, 0, 0, 0, 0, , 0, 0, 0, 0, 0, 
83, 1, 83, 83, 9774, 1.3872602476098304, -7.318306895539937, -1.0755620537297101, 1.4712937000235367, ABplappap, 0, 0, 0, 0, , 0, 0, 0, 0, 0, 
240, 1, 240, 240, 9775, 3.748204908693645, -4.124340051756448, -0.6237183371701702, 1.6044169437333, Cpapa, 0, 0, 0, 0, , 0, 0, 0, 0, 0, 
344, 1, 344, 344, 9776, -2.5057941543960505, -3.3213163315089322, 6.496474282019809, 1.546744658999103, ABarappaa, 0, 0, 0, 0, , 0, 0, 0, 0, 0, 
92, 1, 92, 92, 9777, 0.958234062305272, -2.7260666208201996, -6.90862737141213, 1.4712937000235367, ABplppaap, 0, 0, 0, 0, , 0, 0, 0, 0, 0, 
776, 1, 776, 776, 9778, -10.302068056329095, 0.45729834894358967, -0.5978507145297808, 1.546744658999103, ABarppapa, 0, 0, 0, 0, , 0, 0, 0, 0, 0, 
392, 1, 392, 392, 9779, -4.970454415155037, -2.0192778379890854, -6.521113351262011, 1.546744658999103, ABalapapa, 0, 0, 0, 0, , 0, 0, 0, 0, 0, 
598, 1, 598, 598, 9780, 9.506041810542435, -2.6971950438994456, 3.9690648933719497, 1.4712937000235367, ABprppapa, 0, 0, 0, 0, , 0, 0, 0, 0, 0, 
250, 1, 250, 250, 9781, 4.755315858574662, -6.833871333103592, -0.7734756593859573, 1.6044169437333, Cpaaa, 0, 0, 0, 0, , 0, 0, 0, 0, 0, 
132, 1, 132, 132, 9782, -1.7593543254083954, 1.5681006600782605, -1.8887143949406289, 1.84415740659, Eara, 0, 0, 0, 0, , 0, 0, 0, 0, 0, 
23, 1, 23, 23, 9783, -6.958694030940898, 1.6810202350023906, -2.907982926938769, 1.546744658999103, ABalaappp, 0, 0, 0, 0, , 0, 0, 0, 0, 0, 
74, 1, 74, 74, 9784, -9.637152415589624, 0.3587641842513697, 4.68444776177193, 1.546744658999103, ABaraaaap, 0, 0, 0, 0, , 0, 0, 0, 0, 0, 
32, 1, 32, 32, 9785, -9.203318646557223, -3.7864515011791267, 3.2746395701117788, 1.546744658999103, ABaraaapp, 0, 0, 0, 0, , 0, 0, 0, 0, 0, 
18, 1, 18, 18, 9786, 5.085997997785729, 5.208229367296532, 4.357360687602863, 1.4712937000235367, ABprpappp, 0, 0, 0, 0, , 0, 0, 0, 0, 0, 
298, 1, 298, 298, 9787, 3.2547164099632164, 1.6979838176521016, 6.979339033831066, 1.4712937000235367, ABprpapaa, 0, 0, 0, 0, , 0, 0, 0, 0, 0, 
24, 1, 24, 24, 9788, 3.0391613178180275, -0.8943602407481469, -4.445905460824759, 1.4712937000235367, ABplpappp, 0, 0, 0, 0, , 0, 0, 0, 0, 0, 
323, 1, 323, 323, 9789, -0.38628367241703465, -0.20827858962904774, -7.445885347262723, 1.4712937000235367, ABplpaaaa, 0, 0, 0, 0, , 0, 0, 0, 0, 0, 
1501, 1, 1501, 1501, 9790, -11.51059579608143, -1.4886712648013432, -2.3847498138613323, 1.546744658999103, ABalaaaal, 0, 0, 0, 0, , 0, 0, 0, 0, 0, 
360, 1, 360, 360, 9791, 2.3881367619402094, 2.3566279413394895, 4.2833425009513935, 1.4712937000235367, ABprpappa, 0, 0, 0, 0, , 0, 0, 0, 0, 0, 
4244, 1, 4244, 4244, 9792, -2.6078615201680835, 6.471879298360894, 3.3437869480649116, 1.395842741047971, MSappaa, 0, 0, 0, 0, , 0, 0, 0, 0, 0, 
5583, 1, 5583, 5583, 9793, 9.136056018061634, 0.5004808282021314, 1.2144863340843972, 1.6044169437333, Dpaa, 0, 0, 0, 0, , 0, 0, 0, 0, 0, 
13, 1, 13, 13, 9794, 2.105593061709708, 7.175879436704053, 1.592902917941234, 1.395842741047971, MSapppp, 0, 0, 0, 0, , 0, 0, 0, 0, 0, 
14, 1, 14, 14, 9795, 1.9919494763716594, 1.453661606920977, -1.8015525771154968, 1.84415740659, Earp, 0, 0, 0, 0, , 0, 0, 0, 0, 0, 
515, 1, 515, 515, 9796, 3.9876304831762375, 1.5098778026135684, 0.3217722428502815, 1.6044169437333, Caapa, 0, 0, 0, 0, , 0, 0, 0, 0, 0, 
3078, 1, 3078, 3078, 9797, -2.6208205386059693, 1.562143252843128, 0.9144255633840783, 1.395842741047971, MSppaaa, 0, 0, 0, 0, , 0, 0, 0, 0, 0, 
130, 1, 130, 130, 9798, -1.7681725356664753, 6.071178154308804, -4.17876781261859, 1.395842741047971, MSapaap, 0, 0, 0, 0, , 0, 0, 0, 0, 0, 
37, 1, 37, 37, 9799, -2.123915813938616, 3.1864594718753407, -4.265405847351675, 1.546744658999103, ABalppapp, 0, 0, 0, 0, , 0, 0, 0, 0, 0, 
397, 1, 397, 397, 9800, -3.523271494008628, -0.6767648211933235, 7.115298565844375, 1.546744658999103, ABaraappa, 0, 0, 0, 0, , 0, 0, 0, 0, 0, 
2306, 1, 2306, 2306, 9801, 7.769511825878665, -5.805630002388523, 0.11440541971076038, 1.6044169437333, Cppaa, 0, 0, 0, 0, , 0, 0, 0, 0, 0, 
62, 1, 62, 62, 9802, 7.971373593716081, -4.921529858707801, 2.8957488839167316, 1.4712937000235367, ABprappap, 0, 0, 0, 0, , 0, 0, 0, 0, 0, 
64, 1, 64, 64, 9803, -10.516644729373615, 3.6959709299670025, 1.4540259339640433, 1.546744658999103, ABalpapap, 0, 0, 0, 0, , 0, 0, 0, 0, 0, 
3876, 1, 3876, 3876, 9804, 3.0024502867729725, 4.54833665426304, 2.475249830509546, 1.395842741047971, MSppppa, 0, 0, 0, 0, , 0, 0, 0, 0, 0, 
1273, 1, 1273, 1273, 9805, -4.6859086940904175, 0.1907797977371171, -3.942813260333724, 1.546744658999103, ABalappaa, 0, 0, 0, 0, , 0, 0, 0, 0, 0, 
326, 1, 326, 326, 9806, -6.73919459888084, 3.415804091926889, -5.246573269296359, 1.546744658999103, ABalpaapa, 0, 0, 0, 0, , 0, 0, 0, 0, 0, 
375, 1, 375, 375, 9807, -3.025748335502563, -5.8082241771840275, -4.292889991212029, 1.4712937000235367, ABplaaapa, 0, 0, 0, 0, , 0, 0, 0, 0, 0, 
77, 1, 77, 77, 9808, 5.948829308414091, -0.36268530474680605, 6.534278591373213, 1.4712937000235367, ABprppaap, 0, 0, 0, 0, , 0, 0, 0, 0, 0, 
808, 1, 808, 808, 9809, 5.353823543735186, -2.4549914229715726, -3.2127602650155866, 1.4712937000235367, ABplpppaa, 0, 0, 0, 0, , 0, 0, 0, 0, 0, 
693, 1, 693, 693, 9810, -1.9567367662346593, -7.1029534219915575, -1.9264990863732514, 1.4712937000235367, ABplappaa, 0, 0, 0, 0, , 0, 0, 0, 0, 0, 
404, 1, 404, 404, 9811, 1.443826228107943, 6.359881170037764, -3.7845941487286865, 1.546744658999103, ABalppppa, 0, 0, 0, 0, , 0, 0, 0, 0, 0, 
39, 1, 39, 39, 9812, -7.179359906582287, 2.876119233387779, -0.2596997185350017, 1.546744658999103, ABarppapp, 0, 0, 0, 0, , 0, 0, 0, 0, 0, 
47, 1, 47, 47, 9813, 0.3445520796285756, 1.7690373604559577, 1.7210712961472276, 1.395842741047971, MSpaapp, 0, 0, 0, 0, , 0, 0, 0, 0, 0, 
619, 1, 619, 619, 9814, -11.901357283805908, 1.0833728914692056, 1.8434529552323542, 1.546744658999103, ABarppaaa, 0, 0, 0, 0, , 0, 0, 0, 0, 0, 
8, 1, 8, 8, 9815, 11.938293809850055, 0.9783375540634127, 1.8310832251775726, 1.6044169437333, Cpppp, 0, 0, 0, 0, , 0, 0, 0, 0, 0, 
67, 1, 67, 67, 9816, 2.86812262430575, -7.1114458616758816, 1.405852192443214, 1.4712937000235367, ABprapaap, 0, 0, 0, 0, , 0, 0, 0, 0, 0, 
1567, 1, 1567, 1567, 9817, -6.773750997331244, 2.699162608197859, 5.6262238530392645, 1.395842741047971, MSaaapa, 0, 0, 0, 0, , 0, 0, 0, 0, 0, 
484, 1, 484, 484, 9818, 8.108393574818766, 1.2971177414345259, 5.491912557642737, 1.4712937000235367, ABprpppaa, 0, 0, 0, 0, , 0, 0, 0, 0, 0, 
638, 1, 638, 638, 9819, 2.1254891028908163, -4.937013916058357, -5.434780151317678, 1.4712937000235367, ABplapaaa, 0, 0, 0, 0, , 0, 0, 0, 0, 0, 
31, 1, 31, 31, 9820, -1.0230790485479866, -3.9703765991943922, -2.9255555577245826, 1.4712937000235367, ABplaaapp, 0, 0, 0, 0, , 0, 0, 0, 0, 0, 
6, 1, 6, 6, 9821, 9.281617728556963, -4.52518868499515, -2.0258370173084232, 1.4712937000235367, ABplppppp, 0, 0, 0, 0, , 0, 0, 0, 0, 0, 
93, 1, 93, 93, 9822, -11.596941461881482, -2.6493596179972356, 0.30589281846213046, 1.546744658999103, ABalaaaar, 0, 0, 0, 0, , 0, 0, 0, 0, 0, 
461, 1, 461, 461, 9823, -8.412775836304572, -1.4906421540055677, 1.6919832291605321, 1.546744658999103, ABarpapaa, 0, 0, 0, 0, , 0, 0, 0, 0, 0, 
336, 1, 336, 336, 9824, -7.610268598319484, -2.9286856678299933, -0.7091091282796105, 1.4712937000235367, ABplaapaa, 0, 0, 0, 0, , 0, 0, 0, 0, 0, 
165, 1, 165, 165, 9825, 10.010718745451898, -2.3062956197178806, -3.757868978565332, 1.84415740659, Epra, 0, 0, 0, 0, , 0, 0, 0, 0, 0, 
79, 1, 79, 79, 9826, 7.347195506377067, 0.4010248436845064, -2.8690904967623085, 1.6044169437333, Capap, 0, 0, 0, 0, , 0, 0, 0, 0, 0, 
56, 1, 56, 56, 9827, -5.347680495098448, -2.773311368137747, 6.122823171459025, 1.546744658999103, ABarapaap, 0, 0, 0, 0, , 0, 0, 0, 0, 0, 
148, 1, 148, 148, 9828, -0.3681728176164804, 4.368655279957311, -2.2182996728039766, 1.84415740659, Eala, 0, 0, 0, 0, , 0, 0, 0, 0, 0, 
7, 1, 7, 7, 9829, 8.556439318783967, -0.37575666629749854, -5.398915033013426, 1.84415740659, Eprp, 0, 0, 0, 0, , 0, 0, 0, 0, 0, 
1047, 1, 1047, 1047, 9830, -8.139791168668753, 5.2008475849098375, 2.1662705555976816, 1.395842741047971, MSaapaa, 0, 0, 0, 0, , 0, 0, 0, 0, 0, 
352, 1, 352, 352, 9831, -9.095683761806873, -5.032558018800125, 0.6603391971556205, 1.546744658999103, ABaraaapa, 0, 0, 0, 0, , 0, 0, 0, 0, 0, 
280, 1, 280, 280, 9832, -8.055289965318432, -2.0279456417587554, 5.293600283525461, 1.546744658999103, ABaraapaa, 0, 0, 0, 0, , 0, 0, 0, 0, 0, 
4, 1, 4, 4, 9833, 6.635853708774317, 6.270113474815537, -0.5280717155833868, 2.119721157, Z3, 0, 0, 0, 0, , 0, 0, 0, 0, 0, 
615, 1, 615, 615, 9834, 8.765079317096252, -1.5340837978516446, -1.251703483701603, 1.4712937000235367, ABplppppa, 0, 0, 0, 0, , 0, 0, 0, 0, 0, 
50, 1, 50, 50, 9835, 4.550175678074926, 4.328940462216337, 0.016418055563730917, 1.395842741047971, MSppapp, 0, 0, 0, 0, , 0, 0, 0, 0, 0, 
249, 1, 249, 249, 9836, 3.1830417287008874, -6.454739041983451, -3.1980522928436605, 1.4712937000235367, ABplapapa, 0, 0, 0, 0, , 0, 0, 0, 0, 0, 
55, 1, 55, 55, 9837, -5.952994007908602, -2.27990553035523, -3.0871500717702958, 1.4712937000235367, ABplaapap, 0, 0, 0, 0, , 0, 0, 0, 0, 0, 
69, 1, 69, 69, 9838, -8.60082926915592, 1.1897326964696118, -5.252952248492583, 1.546744658999103, ABalapaap, 0, 0, 0, 0, , 0, 0, 0, 0, 0, 
320, 1, 320, 320, 9839, -4.857327538667781, -6.507282646939796, -2.1550364337069734, 1.4712937000235367, ABpraaapa, 0, 0, 0, 0, , 0, 0, 0, 0, 0, 
3, 1, 3, 3, 9840, 4.939853474004706, 6.586903249544441, 1.8055293909137844, 1.395842741047971, MSppppp, 0, 0, 0, 0, , 0, 0, 0, 0, 0, 
988, 1, 988, 988, 9841, 0.6732915119262151, -2.4438279273580323, 1.2847187356662044, 1.4712937000235367, ABplapppa, 0, 0, 0, 0, , 0, 0, 0, 0, 0, 
1330, 1, 1330, 1330, 9842, -0.7400217494603821, -4.739398173090639, -5.727264139436419, 1.4712937000235367, ABplppaaa, 0, 0, 0, 0, , 0, 0, 0, 0, 0, 
227, 1, 227, 227, 9843, -2.9261100827419906, -1.777385748269426, -2.751330159326036, 1.4712937000235367, ABplaappa, 0, 0, 0, 0, , 0, 0, 0, 0, 0, 
51, 1, 51, 51, 9844, 1.0101599591881611, 7.34597358232124, -1.0815408324742102, 1.395842741047971, MSapapp, 0, 0, 0, 0, , 0, 0, 0, 0, 0, 
210, 1, 210, 210, 9845, 2.660020382437357, -1.4344785833933793, -0.6252859200989117, 1.6044169437333, Caaaa, 0, 0, 0, 0, , 0, 0, 0, 0, 0, 
40, 1, 40, 40, 9846, 6.692286070986012, -5.701678779489785, -2.6273296033569, 1.4712937000235367, ABplapapp, 0, 0, 0, 0, , 0, 0, 0, 0, 0, 
3451, 1, 3451, 3451, 9847, 1.0433258360778033, 4.219801129935926, 0.35626833397661983, 1.395842741047971, MSpppaa, 0, 0, 0, 0, , 0, 0, 0, 0, 0, 
15, 1, 15, 15, 9848, 11.54252769946111, -1.9114352499064486, 1.995646521666276, 1.6044169437333, Cappp, 0, 0, 0, 0, , 0, 0, 0, 0, 0, 
45, 1, 45, 45, 9849, 3.867415756965605, 7.025010794559924, -0.858782155783991, 1.84415740659, Ealp, 0, 0, 0, 0, , 0, 0, 0, 0, 0, 
1, 1, 1, 1, 9850, 8.226595283226299, 5.321610061522734, 1.698304408353425, 1.4712937000235367, ABprppppp, 0, 0, 0, 0, , 0, 0, 0, 0, 0, 
71, 1, 71, 71, 9851, -8.75223318895444, 1.3937775346097112, 1.6923272613602485, 1.546744658999103, ABarppaap, 0, 0, 0, 0, , 0, 0, 0, 0, 0, 
21, 1, 21, 21, 9852, 0.8419779996819089, -4.489057717386168, -0.7654686926170682, 1.4712937000235367, ABplaappp, 0, 0, 0, 0, , 0, 0, 0, 0, 0, 
35, 1, 35, 35, 9853, -3.0547282885975964, -4.603575199554682, -0.9466213060971985, 1.546744658999103, ABarpaapp, 0, 0, 0, 0, , 0, 0, 0, 0, 0, 
26, 1, 26, 26, 9854, -1.9711373524060325, 3.994933956143261, 6.168448289249226, 1.395842741047971, MSaappp, 0, 0, 0, 0, , 0, 0, 0, 0, 0, 
