1 4 2 -1 -82 7 -17 66 "ABpla"
4 7 5 -1 -16 -111 -12 62 "ABarp"
5 8 4 -1 24 97 -9 62 "ABplp"
6 9 6 -1 248 15 -3 62 "P3"
7 1 9 -1 158 77 3 66 "E"
8 10 8 -1 -202 -41 4 62 "ABala"
9 12 7 -1 -124 51 11 62 "ABalp"
10 13 12 -1 90 -145 15 58 "ABpra"
11 11 13 -1 -76 -105 16 62 "ABara"
12 2 10 11 10 35 16 62 "MS"
13 14 14 -1 148 -33 17 58 "ABprp"
16 6 1 -1 146 -39 -11 66 "C"
